;BlockID;BasinID;CentreX;CentreY;Neighbours;Active;pLU_RES;pLU_COM;pLU_ORC;pLU_LI;pLU_HI;pLU_CIV;pLU_SVU;pLU_RD;pLU_TR;pLU_PG;pLU_REF;pLU_UND;pLU_NA;pLU_WAT;pLU_FOR;pLU_AGR;Population;AvgElev;MaxElev;MinElev;Slope_PCT;Slope_DEG;Aspect_DEG;HasRiver;RiverNames;HasLake;LakeNames;MiscAtot;MiscAimp;MiscThresh;UND_Type;UND_av;OpenSpace;AGreenOS;ASquare;PG_av;REF_av;ANonW_Util;SVU_avWS;SVU_avWW;SVU_avSW;SVU_avOTH;RoadTIA;ParkBuffer;RD_av;HouseOccup;ResParcels;ResFrontT;avSt_RES;WResNstrip;ResAllots;ResDWpLot;ResHouses;ResLotArea;ResRoof;avLt_RES;ResHFloors;ResLotTIA;ResLotEIA;ResGarden;ResRoofCon;ResLotALS;ResLotARS;HDRFlats;HDRRoofA;HDROccup;HDR_TIA;HDR_EIA;HDRFloors;av_HDRes;HDRGarden;HDRCarPark;LIjobs;LIestates;avSt_LI;LIAfront;LIAfrEIA;LIAestate;LIAeBldg;LIFloors;LIAeLoad;LIAeCPark;avLt_LI;LIAeLgrey;LIAeEIA;LIAeTIA;HIjobs;HIestates;avSt_HI;HIAfront;HIAfrEIA;HIAestate;HIAeBldg;HIFloors;HIAeLoad;HIAeCPark;avLt_HI;HIAeLgrey;HIAeEIA;HIAeTIA;COMjobs;COMestates;avSt_COM;COMAfront;COMAfrEIA;COMAestate;COMAeBldg;COMFloors;COMAeLoad;COMAeCPark;avLt_COM;COMAeLgrey;COMAeEIA;COMAeTIA;ORCjobs;ORCestates;avSt_ORC;ORCAfront;ORCAfrEIA;ORCAestate;ORCAeBldg;ORCFloors;ORCAeLoad;ORCAeCPark;avLt_ORC;ORCAeLgrey;ORCAeEIA;ORCAeTIA;Total_jobs;Blk_TIA;Blk_EIA;Blk_EIF;Blk_TIF;Blk_RoofsA;WD_HHIn;WD_HHHot;WD_HHNonPo;HH_GreyW;HH_BlackW;WD_In;WD_Out;WD_Hot;WW_ResG;WW_ResB;WD_COM;WD_HotCOM;WD_Office;WD_HotOff;WD_LI;WD_HotLI;WD_HI;WD_HotHI;WD_NRes;WD_HotNRes;WD_NResIrr;WW_ComG;WW_ComB;WW_IndG;WW_IndB;WD_POSIrr;Blk_WD;Blk_WDIrr;Blk_WDHot;Blk_WW;Blk_WWG;Blk_WWB;Blk_Loss;HasSWW;HasWWTP;HasCarved;SwwID_down;ModAvgElev;DEM_sink;SwwType;DesgFlow;dem_sink;blk_elev;edge;carved;has_ww;has_infra;has_pipe;has_wwtp;id_up;id_down;has_outlet;pipe_loc;type_sewer;basin_id;horiz_dist;elev_drop;terr_slope;near_wwtp;near_river;ww_inflow;peak_flow;PE;desg_flow;up_ids;down_ids;built_year;PE_blk;PE_proj;PE_ha;PE_total;pop_D;ww_D;infra_D;wwtp_D;outlet_D;pk_flow_D;PE_D;PE_Tot_D;des_flow_D
5;471;;3900.0;2300.0;[470, 472, 511, 512, 513];1.0;0.75;0.0;0.0;0.0;0.0;0.0;0.0;0.0;0.0;0.0;0.0;0.0;0.0;0.0;0.0;0.25;960.0;446.453125;450.0;442.0;;;;0;;0;;0.0;0.0;999.9;NA;0.0;0.0;0.0;0.0;0.0;0.0;0.0;0.0;0.0;0.0;0.0;0.0;0;0.0;2.733307549928795;1.0;6070.360000000001;;2.1;18.0;1.0;18.0;1329.4244444444444;252.55761761342072;957.8776647415078;1.0;289.13761761342073;260.22385585207866;1040.2868268310235;Direct;691.3007111111111;47.85927999999999;;;;;;;;;;;;;;;;;;;;;;;;;;;;;;;;;;;;;;;;;;;;;;;;;;;;;;;;;;;;;;;;;;0.0;9661.197117041575;8695.077405337415;0.217376935133435;0.241529927926039;4546.037117041573;546.661509985759;163.99845299572772;327.99690599145544;273.3307549928795;273.3307549928795;9.839907179743662;0.0;2.951972153923099;4.919953589871831;4.919953589871831;0.0;0.0;0.0;0.0;0.0;0.0;0.0;0.0;0.0;0.0;0.0;0.0;0.0;0.0;0.0;0.0;3.591566120606436;0.0;1.077469836181931;71.83132241212873;1.795783060303218;1.795783060303218;0.359156612060644;1.0;0.0;-1.0;470.0;446.453125;0;2;0.000987479547916;0.0;446.453125;0.0;0.0;1.0;1.0;2.0;0.0;471.0;550.0;1.0;external;trunk;3.0;721.1102550927978;4.90625;0.006803744594325076;671.0;0.0;0.0;0.0027333075499287943;0.0;0.0027333075499287943;[];[550, 671];2018.0;960.0;1231.1347152165445;307.7836788041361;1231.1347152165445;0.45454545454545453;0.0;0.0;0.0;0.0;0.38123156007098136;0.4545454545454545;0.4545454545454545;0.38123156007098136
13;510;;3500.0;2500.0;[468, 469, 470, 509, 511, 550, 551, 552];1.0;0.5;0.0;0.0;0.0;0.0;0.0;0.0;0.0;0.0;0.0;0.0;0.0;0.0;0.0;0.0;0.5;840.0;443.4375;445.0;442.0;;;;0;;0;;0.0;0.0;999.9;NA;0.0;0.0;0.0;0.0;0.0;0.0;0.0;0.0;0.0;0.0;0.0;0.0;0;0.0;2.750353385341129;1.0;4811.0;;2.5;16.0;1.0;16.0;949.3125;254.1326528055203;577.769076487986;1.0;293.3126528055203;263.9813875249683;655.9998471944797;Direct;455.66999999999996;39.871125;;;;;;;;;;;;;;;;;;;;;;;;;;;;;;;;;;;;;;;;;;;;;;;;;;;;;;;;;;;;;;;;;;0.0;8089.002444888325;7280.102200399492;0.182002555009987;0.202225061122208;4066.122444888325;550.0706770682258;165.02120312046773;330.04240624093546;275.0353385341129;275.0353385341129;8.801130833091612;0.0;2.640339249927484;4.400565416545806;4.400565416545806;0.0;0.0;0.0;0.0;0.0;0.0;0.0;0.0;0.0;0.0;0.0;0.0;0.0;0.0;0.0;0.0;3.212412754078438;0.0;0.963723826223531;64.24825508156876;1.606206377039219;1.606206377039219;0.321241275407844;1.0;0.0;-1.0;509.0;443.4375;0;2;0.031732749673818;0.0;443.4375;0.0;0.0;1.0;1.0;1.0;0.0;510.0;550.0;0.0;internal;collection;2.0;282.842712474619;1.890625;0.006684368790904082;671.0;0.0;0.5499419402509564;0.0024447585647476696;0.0;0.5523866988157041;[511, 552, 512, 553, 594, 513, 554, 595, 514, 555, 596, 637, 515, 556, 597, 638, 677, 678, 679, 598, 639, 680, 676, 717, 718, 719, 720, 721, 760, 761, 762, 800, 801, 802, 803, 840, 841, 842, 844, 843];[550, 671];2018.0;840.0;1077.2428758144765;269.31071895361913;253808.68099785078;0.3125;0.0;0.0;0.0;0.0;0.21641543155767554;0.3125000000000001;0.09465086128699696;0.0905347130611001
14;511;;3700.0;2500.0;[469, 470, 471, 510, 512, 551, 552, 553];1.0;1.0;0.0;0.0;0.0;0.0;0.0;0.0;0.0;0.0;0.0;0.0;0.0;0.0;0.0;0.0;0.0;5140.0;446.859375;450.0;444.0;;;;0;;0;;0.0;0.0;999.9;NA;0.0;0.0;0.0;0.0;0.0;0.0;0.0;0.0;0.0;0.0;0.0;0.0;0;0.0;;;;;;;;;;;;;;;;;;;172.0;23746.8;1.5;36791.592000000004;33112.4328;1.0;0.0;3208.4079999999994;13044.792000000001;;;;;;;;;;;;;;;;;;;;;;;;;;;;;;;;;;;;;;;;;;;;;;;;;;;;;;;;;0.0;36791.592000000004;33112.4328;0.82781082;0.9197898;23746.8;300.0;90.0;180.0;150.0;150.0;51.6;0.0;15.48;25.8;25.8;0.0;0.0;0.0;0.0;0.0;0.0;0.0;0.0;0.0;0.0;0.0;0.0;0.0;0.0;0.0;0.0;18.834;0.0;5.6502;376.68;9.417;9.417;1.8834;1.0;0.0;-1.0;551.0;446.859375;0;1;0.000716666666667;0.0;446.859375;0.0;0.0;1.0;1.0;1.0;0.0;511.0;510.0;0.0;internal;collection;2.0;200.0;3.421875;0.017109375;671.0;0.0;0.507714262439951;0.014333333333333332;0.0;0.5220475957732843;[512, 553, 513, 554, 595, 514, 555, 596, 637, 515, 556, 597, 638, 677, 678, 679, 598, 639, 680, 676, 717, 718, 719, 720, 721, 760, 761, 762, 800, 801, 802, 803, 840, 841, 842, 844, 843];[510, 550, 671];2018.0;5140.0;6591.700454388581;1647.9251135971454;239984.06409156497;0.13215859030837004;0.0;0.0;0.0;0.0;0.13311403062267174;0.13215859030837004;0.1013310231504804;0.09875921255066855
15;512;;3900.0;2500.0;[470, 471, 472, 511, 513, 552, 553, 554];1.0;1.0;0.0;0.0;0.0;0.0;0.0;0.0;0.0;0.0;0.0;0.0;0.0;0.0;0.0;0.0;0.0;2420.0;449.828125;450.0;447.0;;;;0;;0;;0.0;0.0;999.9;NA;0.0;0.0;0.0;0.0;0.0;0.0;0.0;0.0;0.0;0.0;0.0;0.0;0;0.0;2.663855657779988;2.0;7790.08;;1.9;46.0;1.0;46.0;700.215652173913;246.14026277887092;344.7690007563285;1.0;280.38026277887093;252.34223650098383;419.83538939504206;Direct;315.09704347826084;36.411213913043476;;;;;;;;;;;;;;;;;;;;;;;;;;;;;;;;;;;;;;;;;;;;;;;;;;;;;;;;;;;;;;;;;;0.0;18510.932087828063;16659.838879045255;0.416495971976131;0.462773302195702;11322.452087828062;532.7711315559976;159.83133946679928;319.66267893359856;266.3855657779988;266.3855657779988;24.50747205157589;0.0;7.352241615472767;12.253736025787944;12.253736025787944;0.0;0.0;0.0;0.0;0.0;0.0;0.0;0.0;0.0;0.0;0.0;0.0;0.0;0.0;0.0;0.0;8.945227298825198;0.0;2.68356818964756;178.90454597650398;4.472613649412599;4.472613649412599;0.89452272988252;1.0;0.0;-1.0;552.0;449.828125;0;1;0.000340381556272;0.0;449.828125;0.0;0.0;1.0;1.0;1.0;0.0;512.0;511.0;0.0;external;collection;2.0;200.0;2.96875;0.01484375;671.0;0.0;0.0;0.006807631125437746;0.0;0.006807631125437746;[];[511, 510, 550, 671];2018.0;2420.0;3103.485427941706;775.8713569854265;3103.485427941706;0.32967032967032966;0.0;0.0;0.0;0.0;0.29008509945525585;0.3296703296703296;0.3296703296703296;0.29008509945525585
16;513;;4100.0;2500.0;[471, 472, 473, 512, 514, 553, 554, 555];1.0;1.0;0.0;0.0;0.0;0.0;0.0;0.0;0.0;0.0;0.0;0.0;0.0;0.0;0.0;0.0;0.0;7640.0;450.015625;451.0;449.0;;;;0;;0;;0.0;0.0;999.9;NA;0.0;0.0;0.0;0.0;0.0;0.0;0.0;0.0;0.0;0.0;0.0;0.0;0;0.0;;;;;;;;;;;;;;;;;;;255.0;35296.8;1.5;36278.17;32650.353;1.0;0.0;3721.8300000000004;981.3699999999967;;;;;;;;;;;;;;;;;;;;;;;;;;;;;;;;;;;;;;;;;;;;;;;;;;;;;;;;;0.0;36278.17;32650.353;0.816258825;0.90695425;35296.8;300.0;90.0;180.0;150.0;150.0;76.5;0.0;22.95;38.25;38.25;0.0;0.0;0.0;0.0;0.0;0.0;0.0;0.0;0.0;0.0;0.0;0.0;0.0;0.0;0.0;0.0;27.9225;0.0;8.37675;558.45;13.96125;13.96125;2.79225;1.0;0.0;-1.0;553.0;450.015625;0;1;0.0010625;0.0;450.015625;0.0;0.0;1.0;1.0;1.0;0.0;513.0;553.0;0.0;external;collection;2.0;282.842712474619;1.515625;0.005358543576179305;671.0;0.0;0.0;0.021249999999999998;0.0;0.021249999999999998;[];[553, 511, 510, 550, 671];2018.0;7640.0;9797.780441931667;2449.445110482917;9797.780441931667;0.055248618784530384;0.0;0.0;0.0;0.0;0.05371900826446274;0.05524861878453051;0.05524861878453051;0.05371900826446274
17;514;;4300.0;2500.0;[472, 473, 474, 513, 515, 554, 555, 556];1.0;1.0;0.0;0.0;0.0;0.0;0.0;0.0;0.0;0.0;0.0;0.0;0.0;0.0;0.0;0.0;0.0;2680.0;450.859375;453.0;449.0;;;;0;;0;;0.0;0.0;999.9;NA;0.0;0.0;0.0;0.0;0.0;0.0;0.0;0.0;0.0;0.0;0.0;0.0;0;0.0;2.997538270630847;2.0;7899.120000000001;;1.4;46.0;1.0;46.0;697.8452173913043;276.9725362062903;276.66124037336044;1.0;316.67253620629026;285.00528258566123;381.1726811850141;Direct;307.0518956521739;36.28795130434782;;;;;;;;;;;;;;;;;;;;;;;;;;;;;;;;;;;;;;;;;;;;;;;;;;;;;;;;;;;;;;;;;;0.0;20863.336665489354;18777.002998940417;0.46942507497351;0.521583416637234;12740.736665489352;599.5076541261693;179.8522962378508;359.7045924757016;299.75382706308466;299.75382706308466;27.57735208980379;0.0;8.273205626941136;13.788676044901894;13.788676044901894;0.0;0.0;0.0;0.0;0.0;0.0;0.0;0.0;0.0;0.0;0.0;0.0;0.0;0.0;0.0;0.0;10.065733512778383;0.0;3.019720053833515;201.31467025556765;5.032866756389192;5.032866756389192;1.006573351277838;1.0;0.0;-1.0;554.0;450.859375;0;1;0.000383018779025;0.0;450.859375;0.0;0.0;1.0;1.0;1.0;0.0;514.0;554.0;0.0;internal;collection;2.0;282.842712474619;0.953125;0.0033698057540921403;671.0;0.0;0.015321434744330197;0.0076603755805010505;0.0;0.022981810324831247;[515, 556];[554, 553, 511, 510, 550, 671];2018.0;2680.0;3436.9177466461865;859.2294366615466;10362.050519739249;0.1452991452991453;0.0;0.0;0.0;0.0;0.16293174655271628;0.14529914529914534;0.18128654970760247;0.1934947703855394
18;515;;4500.0;2500.0;[473, 474, 475, 514, 516, 555, 556, 557];1.0;0.75;0.0;0.0;0.0;0.0;0.0;0.0;0.0;0.0;0.0;0.0;0.0;0.25;0.0;0.0;0.0;2100.0;454.078125;462.0;450.0;;;;0;;0;;0.0;0.0;999.9;GF;0.0;0.0;0.0;0.0;0.0;0.0;0.0;0.0;0.0;0.0;0.0;0.0;0;0.0;3.068761087290727;1.0;5478.36;;1.6;36.0;1.0;36.0;681.1566666666666;283.5535244656632;261.0152370615625;1.0;327.1535244656632;294.4381720190969;354.0031422010034;Direct;292.89736666666664;37.46361666666667;;;;;;;;;;;;;;;;;;;;;;;;;;;;;;;;;;;;;;;;;;;;;;;;;;;;;;;;;;;;;;;;;;0.0;16021.326880763876;14419.194192687488;0.360479854817187;0.400533172019097;10207.926880763875;613.7522174581454;184.1256652374436;368.2513304748872;306.8761087290727;306.8761087290727;22.095079828493237;0.0;6.628523948547969;11.047539914246618;11.047539914246618;0.0;0.0;0.0;0.0;0.0;0.0;0.0;0.0;0.0;0.0;0.0;0.0;0.0;0.0;0.0;0.0;8.064704137400032;0.0;2.419411241220009;161.29408274800062;4.032352068700016;4.032352068700016;0.806470413740003;1.0;0.0;-1.0;555.0;454.078125;0;1;0.000306876108729;0.0;454.078125;0.0;0.0;1.0;1.0;1.0;0.0;515.0;514.0;0.0;external;collection;2.0;200.0;3.21875;0.01609375;671.0;0.0;0.0;0.006137522174581454;0.0;0.006137522174581454;[];[514, 554, 553, 511, 510, 550, 671];2018.0;2100.0;2693.107189536191;673.2767973840478;2693.107189536191;0.16666666666666666;0.0;0.0;0.0;0.0;0.19843632208653775;0.16666666666666663;0.16666666666666663;0.19843632208653775
22;550;;3300.0;2700.0;[508, 509, 510, 549, 551, 590, 591, 592];1.0;0.75;0.0;0.0;0.0;0.0;0.0;0.0;0.0;0.0;0.0;0.0;0.0;0.0;0.0;0.0;0.25;620.0;441.546875;443.0;440.0;;;;0;;0;;0.0;0.0;999.9;NA;0.0;0.0;0.0;0.0;0.0;0.0;0.0;0.0;0.0;0.0;0.0;0.0;0;0.0;2.597019885554195;1.0;6364.4400000000005;;1.8;12.0;1.0;12.0;1969.6299999999999;239.96463742520766;1615.7972650943318;1.0;278.88463742520764;250.99617368268687;1690.7453625747921;Direct;1142.3854;55.14964;;;;;;;;;;;;;;;;;;;;;;;;;;;;;;;;;;;;;;;;;;;;;;;;;;;;;;;;;;;;;;;;;;0.0;8330.815649102491;7497.734084192243;0.187443352104806;0.208270391227562;2879.5756491024918;519.403977110839;155.8211931332517;311.6423862665034;259.7019885554195;259.7019885554195;6.232847725330068;0.0;1.869854317599021;3.116423862665034;3.116423862665034;0.0;0.0;0.0;0.0;0.0;0.0;0.0;0.0;0.0;0.0;0.0;0.0;0.0;0.0;0.0;0.0;2.274989419745475;0.0;0.682496825923642;45.4997883949095;1.137494709872737;1.137494709872737;0.227498941974548;1.0;0.0;-1.0;630.0;441.546875;0;2;0.03187485994822;0.0;441.546875;0.0;0.0;1.0;1.0;2.0;0.0;550.0;671.0;1.0;internal;trunk;3.0;721.1102550927978;5.8125;0.00806048722639786;671.0;0.0;0.6168389157315897;0.0017313465903694635;0.0;0.6185702623219591;[471, 510, 591, 511, 552, 551, 592, 633, 512, 553, 594, 593, 634, 513, 554, 595, 514, 555, 596, 637, 515, 556, 597, 638, 677, 678, 679, 598, 639, 680, 676, 717, 718, 719, 720, 721, 760, 761, 762, 800, 801, 802, 803, 840, 841, 842, 844, 843];[671];2018.0;620.0;795.1078369106849;198.77695922767123;283971.4815206561;-0.46551724137931033;0.0;0.0;0.0;0.0;-0.5336247641836165;-0.4706284153005465;0.09363825659545374;0.0879831249541009
23;551;;3500.0;2700.0;[509, 510, 511, 550, 552, 591, 592, 593];1.0;1.0;0.0;0.0;0.0;0.0;0.0;0.0;0.0;0.0;0.0;0.0;0.0;0.0;0.0;0.0;0.0;4280.0;444.5625;451.0;443.0;;;;1;Aa (Uster);0;;0.0;0.0;999.9;NA;0.0;0.0;0.0;0.0;0.0;0.0;0.0;0.0;0.0;0.0;0.0;0.0;0;0.0;2.476762015505834;2.0;7571.52;;1.4;44.0;2.0;88.0;737.0109090909091;228.8528102327391;388.31188541527877;2.0;266.7328102327391;240.05952920946518;470.27809885817;Direct;294.80436363636363;47.90570909090909;;;;;;;;;;;;;;;;;;;;;;;;;;;;;;;;;;;;;;;;;;;;;;;;;;;;;;;;;;;;;;;;;;0.0;17701.68365024052;15931.515285216468;0.398287882130412;0.442542091256013;10069.52365024052;495.3524031011669;148.60572093035006;297.2114418607001;247.67620155058344;247.67620155058344;43.591011472902686;0.0;13.077303441870805;21.795505736451343;21.795505736451343;0.0;0.0;0.0;0.0;0.0;0.0;0.0;0.0;0.0;0.0;0.0;0.0;0.0;0.0;0.0;0.0;15.910719187609482;0.0;4.773215756282844;318.21438375218963;7.955359593804741;7.955359593804741;1.591071918760948;1.0;0.0;-1.0;591.0;444.5625;0;2;0.040677349267204;0.0;444.5625;0.0;0.0;1.0;1.0;1.0;0.0;551.0;591.0;0.0;internal;collection;2.0;282.842712474619;2.15625;0.007623494984667465;671.0;0.0;0.009572655560309796;0.012108614298028524;0.0;0.02168126985833832;[593];[591, 550, 671];2018.0;4280.0;5488.808938673761;1372.2022346684403;9849.077721732356;0.10309278350515463;0.0;0.0;0.0;0.0;0.10727784105378076;0.10309278350515469;0.026408638939377723;0.015095764432918433
24;552;;3700.0;2700.0;[510, 511, 512, 551, 553, 592, 593, 594];1.0;1.0;0.0;0.0;0.0;0.0;0.0;0.0;0.0;0.0;0.0;0.0;0.0;0.0;0.0;0.0;0.0;9020.0;447.296875;452.0;445.0;;;;1;,Aa (Uster);0;;0.0;0.0;999.9;NA;0.0;0.0;0.0;0.0;0.0;0.0;0.0;0.0;0.0;0.0;0.0;0.0;0;0.0;;;;;;;;;;;;;;;;;;;301.0;20836.2;1.5;35942.471;32348.223899999997;2.0;0.0;4057.5290000000005;15106.270999999999;;;;;;;;;;;;;;;;;;;;;;;;;;;;;;;;;;;;;;;;;;;;;;;;;;;;;;;;;0.0;35942.471;32348.223899999997;0.8087055975;0.898561775;20836.2;300.0;90.0;180.0;150.0;150.0;90.3;0.0;27.09;45.15;45.15;0.0;0.0;0.0;0.0;0.0;0.0;0.0;0.0;0.0;0.0;0.0;0.0;0.0;0.0;0.0;0.0;32.9595;0.0;9.88785;659.1899999999999;16.47975;16.47975;3.29595;1.0;0.0;-1.0;551.0;447.296875;0;2;0.03887661910762;0.0;447.296875;0.0;0.0;1.0;1.0;1.0;0.0;552.0;510.0;0.0;internal;collection;2.0;282.842712474619;3.859375;0.013644951168209159;671.0;0.0;0.0028110111443388317;0.02508333333333333;0.0;0.02789434447767216;[594];[510, 550, 671];2018.0;9020.0;11567.53659505545;2891.8841487638624;12747.374030471305;0.05868544600938967;0.0;0.0;0.0;0.0;0.05614035087719264;0.05868544600938976;-0.029751678900515315;-0.051013934576602825
25;553;;3900.0;2700.0;[511, 512, 513, 552, 554, 593, 594, 595];1.0;1.0;0.0;0.0;0.0;0.0;0.0;0.0;0.0;0.0;0.0;0.0;0.0;0.0;0.0;0.0;0.0;6920.0;448.5;450.0;446.0;;;;1;,Aa (Uster);0;;0.0;0.0;999.9;NA;0.0;0.0;0.0;0.0;0.0;0.0;0.0;0.0;0.0;0.0;0.0;0.0;0;0.0;;;;;;;;;;;;;;;;;;;231.0;31970.4;1.5;36376.7776;32739.099840000003;1.0;0.0;3623.2224000000006;4406.377599999998;;;;;;;;;;;;;;;;;;;;;;;;;;;;;;;;;;;;;;;;;;;;;;;;;;;;;;;;;0.0;36376.7776;32739.099840000003;0.818477496;0.90941944;31970.4;300.0;90.0;180.0;150.0;150.0;69.3;0.0;20.79;34.65;34.65;0.0;0.0;0.0;0.0;0.0;0.0;0.0;0.0;0.0;0.0;0.0;0.0;0.0;0.0;0.0;0.0;25.2945;0.0;7.58835;505.89;12.64725;12.64725;2.52945;1.0;0.0;-1.0;552.0;448.5;0;2;0.037141520327465;0.0;448.5;0.0;0.0;1.0;1.0;1.0;0.0;553.0;511.0;0.0;internal;collection;2.0;282.842712474619;1.640625;0.0058004853144208975;671.0;0.0;0.48165663131451325;0.01925;0.0;0.5009066313145133;[513, 554, 595, 514, 555, 596, 637, 515, 556, 597, 638, 677, 678, 679, 598, 639, 680, 676, 717, 718, 719, 720, 721, 760, 761, 762, 800, 801, 802, 803, 840, 841, 842, 844, 843];[511, 510, 550, 671];2018.0;6920.0;8874.429405519259;2218.6073513798146;230288.87820923468;0.0949367088607595;0.0;0.0;0.0;0.0;0.09478672985781993;0.0949367088607596;0.09793438757991191;0.09560045984982704
26;554;;4100.0;2700.0;[512, 513, 514, 553, 555, 594, 595, 596];1.0;1.0;0.0;0.0;0.0;0.0;0.0;0.0;0.0;0.0;0.0;0.0;0.0;0.0;0.0;0.0;0.0;8420.0;449.90625;451.0;448.0;;;;1;Aa (Uster);0;;0.0;0.0;999.9;NA;0.0;0.0;0.0;0.0;0.0;0.0;0.0;0.0;0.0;0.0;0.0;0.0;0;0.0;;;;;;;;;;;;;;;;;;;281.0;38900.4;1.5;39202.0;35281.8;1.0;0.0;798.0;301.59999999999854;;;;;;;;;;;;;;;;;;;;;;;;;;;;;;;;;;;;;;;;;;;;;;;;;;;;;;;;;0.0;39202.0;35281.8;0.882045;0.98005;38900.4;300.0;90.0;180.0;150.0;150.0;84.3;0.0;25.29;42.15;42.15;0.0;0.0;0.0;0.0;0.0;0.0;0.0;0.0;0.0;0.0;0.0;0.0;0.0;0.0;0.0;0.0;30.7695;0.0;9.23085;615.39;15.38475;15.38475;3.07695;1.0;0.0;-1.0;553.0;449.90625;0;2;0.035002253466393;0.0;449.90625;0.0;0.0;1.0;1.0;1.0;0.0;554.0;553.0;0.0;internal;collection;2.0;200.0;1.40625;0.00703125;671.0;0.0;0.14546496106950726;0.023416666666666662;0.0;0.16888162773617393;[514, 555, 596, 515, 556, 597, 638, 598, 639, 680];[553, 511, 510, 550, 671];2018.0;8420.0;10798.077398045109;2699.519349511277;77484.54113894126;0.09067357512953368;0.0;0.0;0.0;0.0;0.08914728682170513;0.09067357512953375;0.11476014760147608;0.11504489183257902
27;555;;4300.0;2700.0;[513, 514, 515, 554, 556, 595, 596, 597];1.0;1.0;0.0;0.0;0.0;0.0;0.0;0.0;0.0;0.0;0.0;0.0;0.0;0.0;0.0;0.0;0.0;10100.0;452.625;455.0;449.0;;;;1;Aa (Uster);0;;0.0;0.0;999.9;NA;0.0;0.0;0.0;0.0;0.0;0.0;0.0;0.0;0.0;0.0;0.0;0.0;0;0.0;;;;;;;;;;;;;;;;;;;337.0;33330.0;1.5;35638.4946;32074.64514;1.0;0.0;4361.5054;2308.4946;;;;;;;;;;;;;;;;;;;;;;;;;;;;;;;;;;;;;;;;;;;;;;;;;;;;;;;;;0.0;35638.4946;32074.64514;0.8018661285;0.890962365;33330.0;300.0;90.0;180.0;150.0;150.0;101.1;0.0;30.33;50.55;50.55;0.0;0.0;0.0;0.0;0.0;0.0;0.0;0.0;0.0;0.0;0.0;0.0;0.0;0.0;0.0;0.0;36.9015;0.0;11.07045;738.03;18.45075;18.45075;3.69015;1.0;0.0;-1.0;554.0;452.625;0;2;0.001711042775396;0.0;452.625;0.0;0.0;1.0;1.0;1.0;0.0;555.0;554.0;0.0;external;collection;2.0;200.0;2.71875;0.01359375;671.0;0.0;0.0;0.02808333333333333;0.0;0.02808333333333333;[];[554, 553, 511, 510, 550, 671];2018.0;10100.0;12952.56314967406;3238.140787418515;12952.56314967406;0.07446808510638298;0.0;0.0;0.0;0.0;0.07324840764331199;0.07446808510638288;0.07446808510638288;0.07324840764331199
28;556;;4500.0;2700.0;[514, 515, 516, 555, 557, 596, 597, 598];1.0;1.0;0.0;0.0;0.0;0.0;0.0;0.0;0.0;0.0;0.0;0.0;0.0;0.0;0.0;0.0;0.0;3300.0;461.75;466.0;454.0;;;;0;;0;;0.0;0.0;999.9;NA;0.0;0.0;0.0;0.0;0.0;0.0;0.0;0.0;0.0;0.0;0.0;0.0;0;0.0;2.951971897419238;2.0;9728.320000000002;;2.2;56.0;1.0;56.0;540.5657142857143;272.76220332153764;122.46967365475577;1.0;310.12220332153765;279.1099829893839;230.44351096417665;Direct;221.63194285714286;33.515074285714284;;;;;;;;;;;;;;;;;;;;;;;;;;;;;;;;;;;;;;;;;;;;;;;;;;;;;;;;;;;;;;;;;;0.0;24606.52338600611;22145.8710474055;0.553646776185137;0.615163084650153;15274.683386006109;590.3943794838477;177.11831384515435;354.2366276903087;295.19718974192386;295.19718974192386;33.062085251095475;0.0;9.918625575328644;16.531042625547737;16.531042625547737;0.0;0.0;0.0;0.0;0.0;0.0;0.0;0.0;0.0;0.0;0.0;0.0;0.0;0.0;0.0;0.0;12.067661116649848;0.0;3.620298334994955;241.35322233299695;6.033830558324924;6.033830558324924;1.206766111664985;1.0;0.0;-1.0;596.0;461.75;0;1;0.000459195628487;0.0;461.75;0.0;0.0;1.0;1.0;1.0;0.0;556.0;514.0;0.0;external;collection;2.0;282.842712474619;10.890625;0.03850417394429872;671.0;0.0;0.0;0.009183912569748742;0.0;0.009183912569748742;[];[514, 554, 553, 511, 510, 550, 671];2018.0;3300.0;4232.025583556871;1058.0063958892179;4232.025583556871;0.2222222222222222;0.0;0.0;0.0;0.0;0.2168157999324149;0.22222222222222218;0.22222222222222218;0.2168157999324149
32;591;;3300.0;2900.0;[549, 550, 551, 590, 592, 631, 632, 633];1.0;1.0;0.0;0.0;0.0;0.0;0.0;0.0;0.0;0.0;0.0;0.0;0.0;0.0;0.0;0.0;0.0;2060.0;442.40625;452.0;440.0;;;;1;Aa (Uster);0;;0.0;0.0;999.9;NA;0.0;0.0;0.0;0.0;0.0;0.0;0.0;0.0;0.0;0.0;0.0;0.0;0;0.0;2.656495997827508;2.0;11303.920000000002;;2.7;40.0;1.0;40.0;717.4019999999999;245.4602301992618;358.053140011678;1.0;278.92023019926177;251.0282071793356;438.48176980073816;Direct;322.8309;35.152698;;;;;;;;;;;;;;;;;;;;;;;;;;;;;;;;;;;;;;;;;;;;;;;;;;;;;;;;;;;;;;;;;;0.0;19438.889207970475;17495.000287173425;0.437375007179336;0.485972230199262;9818.409207970471;531.2991995655017;159.3897598696505;318.779519739301;265.64959978275084;265.64959978275084;21.251967982620066;0.0;6.375590394786021;10.625983991310033;10.625983991310033;0.0;0.0;0.0;0.0;0.0;0.0;0.0;0.0;0.0;0.0;0.0;0.0;0.0;0.0;0.0;0.0;7.756968313656324;0.0;2.327090494096897;155.13936627312648;3.878484156828162;3.878484156828162;0.775696831365632;1.0;0.0;-1.0;631.0;442.40625;0;2;0.042679231242585;0.0;442.40625;0.0;0.0;1.0;1.0;1.0;0.0;591.0;550.0;0.0;internal;collection;2.0;200.0;0.859375;0.004296875;671.0;0.0;0.05581558492634001;0.005903324439616684;0.0;0.0617189093659567;[551, 592, 633, 593, 634];[550, 671];2018.0;2060.0;2641.8099097355016;660.4524774338754;28136.55797067811;0.32051282051282054;0.0;0.0;0.0;0.0;0.2708718774916541;0.32051282051282054;0.1057130185864614;0.0957033464392576
33;592;;3500.0;2900.0;[550, 551, 552, 591, 593, 632, 633, 634];1.0;1.0;0.0;0.0;0.0;0.0;0.0;0.0;0.0;0.0;0.0;0.0;0.0;0.0;0.0;0.0;0.0;3300.0;451.625;457.0;443.0;;;;1;Aa (Uster);0;;0.0;0.0;999.9;NA;0.0;0.0;0.0;0.0;0.0;0.0;0.0;0.0;0.0;0.0;0.0;0.0;0;0.0;2.707925404559186;2.0;9195.119999999999;;1.2;62.0;1.0;62.0;496.8529032258065;250.21230738126877;114.20391615433853;1.0;288.35230738126876;259.5170766431419;208.5005958445377;Direct;203.70969032258063;30.80488;;;;;;;;;;;;;;;;;;;;;;;;;;;;;;;;;;;;;;;;;;;;;;;;;;;;;;;;;;;;;;;;;;0.0;25710.723057638665;23139.650751874797;0.57849126879687;0.642768076440967;15513.163057638663;541.5850809118372;162.47552427355114;324.9510485471023;270.7925404559186;270.7925404559186;33.5782750165339;0.0;10.073482504960172;16.78913750826695;16.78913750826695;0.0;0.0;0.0;0.0;0.0;0.0;0.0;0.0;0.0;0.0;0.0;0.0;0.0;0.0;0.0;0.0;12.256070381034874;0.0;3.676821114310463;245.12140762069748;6.128035190517437;6.128035190517437;1.225607038103487;1.0;0.0;-1.0;591.0;451.625;0;2;0.0008692157534;0.0;451.625;0.0;0.0;1.0;1.0;1.0;0.0;592.0;591.0;0.0;internal;collection;2.0;200.0;9.21875;0.04609375;671.0;0.0;0.008057016452297833;0.00932729861570386;0.0;0.017384315068001692;[634];[591, 550, 671];2018.0;3300.0;4232.025583556871;1058.0063958892179;7951.07836910685;0.13793103448275862;0.0;0.0;0.0;0.0;0.15367442651364477;0.13793103448275856;0.14814814814814822;0.1406397218071533
34;593;;3700.0;2900.0;[551, 552, 553, 592, 594, 633, 634, 635];1.0;1.0;0.0;0.0;0.0;0.0;0.0;0.0;0.0;0.0;0.0;0.0;0.0;0.0;0.0;0.0;0.0;3400.0;454.8125;459.0;451.0;;;;0;;0;;0.0;0.0;999.9;NA;0.0;0.0;0.0;0.0;0.0;0.0;0.0;0.0;0.0;0.0;0.0;0.0;0;0.0;2.69230937633713;2.0;8333.68;;1.3;64.0;1.0;64.0;494.78625;124.38469318677542;253.63156425797888;2.0;170.84469318677543;153.76022386809788;323.94155681322457;Direct;202.8623625;30.6767475;;;;;;;;;;;;;;;;;;;;;;;;;;;;;;;;;;;;;;;;;;;;;;;;;;;;;;;;;;;;;;;;;;0.0;17783.660363953626;16005.294327558266;0.400132358188957;0.444591509098841;7960.620363953627;538.4618752674261;161.53856258022782;323.07712516045564;269.23093763371304;269.23093763371304;34.46156001711527;0.0;10.33846800513458;17.230780008557634;17.230780008557634;0.0;0.0;0.0;0.0;0.0;0.0;0.0;0.0;0.0;0.0;0.0;0.0;0.0;0.0;0.0;0.0;12.578469406247073;0.0;3.773540821874122;251.56938812494147;6.289234703123537;6.289234703123537;1.257846940624707;1.0;0.0;-1.0;551.0;454.8125;0;1;0.000478632778015;0.0;454.8125;0.0;0.0;1.0;1.0;1.0;0.0;593.0;551.0;0.0;external;collection;2.0;282.842712474619;10.25;0.03623922253581056;671.0;0.0;0.0;0.009572655560309796;0.0;0.009572655560309796;[];[551, 591, 550, 671];2018.0;3400.0;4360.268783058595;1090.0671957646487;4360.268783058595;-0.05027932960893855;0.0;0.0;0.0;0.0;-0.08161537417996538;-0.056184765711747804;-0.056184765711747804;-0.08161537417996538
35;594;;3900.0;2900.0;[552, 553, 554, 593, 595, 634, 635, 636];1.0;1.0;0.0;0.0;0.0;0.0;0.0;0.0;0.0;0.0;0.0;0.0;0.0;0.0;0.0;0.0;0.0;920.0;453.015625;457.0;449.0;;;;1;;0;;0.0;0.0;999.9;NA;0.0;0.0;0.0;0.0;0.0;0.0;0.0;0.0;0.0;0.0;0.0;0.0;0;0.0;2.299918209004499;2.0;7242.480000000001;;1.5;22.0;1.0;22.0;1488.9781818181816;212.51244251201578;1165.4206578245867;1.0;252.2124425120158;226.99119826081423;1236.7657393061659;Direct;789.1584363636363;44.66934545454545;;;;;;;;;;;;;;;;;;;;;;;;;;;;;;;;;;;;;;;;;;;;;;;;;;;;;;;;;;;;;;;;;;0.0;11066.753735264349;9960.078361737913;0.249001959043448;0.276668843381609;4675.273735264347;459.9836418008999;137.99509254026995;275.9901850805399;229.99182090044994;229.99182090044994;10.119640119619797;0.0;3.035892035885939;5.059820059809899;5.059820059809899;0.0;0.0;0.0;0.0;0.0;0.0;0.0;0.0;0.0;0.0;0.0;0.0;0.0;0.0;0.0;0.0;3.693668643661226;0.0;1.108100593098368;73.87337287322451;1.846834321830613;1.846834321830613;0.369366864366123;1.0;0.0;-1.0;552.0;453.015625;0;1;0.000140550557217;0.0;453.015625;0.0;0.0;1.0;1.0;1.0;0.0;594.0;552.0;0.0;external;collection;2.0;282.842712474619;5.71875;0.020218834524552844;671.0;0.0;0.0;0.0028110111443388317;0.0;0.0028110111443388317;[];[552, 510, 550, 671];2018.0;920.0;1179.837435415855;294.95935885396375;1179.837435415855;-0.4523809523809524;0.0;0.0;0.0;0.0;-0.5019328697445408;-0.4666048237476809;-0.4666048237476809;-0.5019328697445408
36;595;;4100.0;2900.0;[553, 554, 555, 594, 596, 635, 636, 637];1.0;0.75;0.0;0.0;0.0;0.0;0.0;0.0;0.0;0.0;0.0;0.0;0.0;0.0;0.25;0.0;0.0;720.0;451.875;454.0;450.0;;;;0;;0;;0.0;0.0;999.9;NA;0.0;0.0;0.0;0.0;0.0;0.0;0.0;0.0;0.0;0.0;0.0;0.0;0;0.0;2.938290713276662;1.0;4806.24;;1.1;14.0;1.0;14.0;1799.554285714286;271.4980619067636;1413.5493081186648;1.0;316.65806190676363;284.9922557160873;1482.8962238075223;Direct;953.7637714285715;53.986628571428575;;;;;;;;;;;;;;;;;;;;;;;;;;;;;;;;;;;;;;;;;;;;;;;;;;;;;;;;;;;;;;;;;;0.0;8386.73286669469;7548.059580025221;0.188701489500631;0.209668321667367;3800.9728666946903;587.6581426553324;176.2974427965997;352.5948855931994;293.8290713276662;293.8290713276662;8.227213997174655;0.0;2.468164199152396;4.113606998587327;4.113606998587327;0.0;0.0;0.0;0.0;0.0;0.0;0.0;0.0;0.0;0.0;0.0;0.0;0.0;0.0;0.0;0.0;3.002933108968749;0.0;0.900879932690625;60.058662179374984;1.501466554484374;1.501466554484374;0.300293310896875;1.0;0.0;-1.0;553.0;451.875;0;1;0.000114266861072;0.0;451.875;0.0;0.0;1.0;1.0;1.0;0.0;595.0;553.0;0.0;internal;collection;2.0;282.842712474619;3.375;0.011932426932522989;671.0;0.0;0.2892396663569019;0.002285337221437404;0.0;0.2915250035783393;[637, 677, 678, 679, 676, 717, 718, 719, 720, 721, 760, 761, 762, 800, 801, 802, 803, 840, 841, 842, 844, 843];[553, 511, 510, 550, 671];2018.0;720.0;923.3510364124083;230.8377591031021;134132.1272228425;0.7142857142857143;0.0;0.0;0.0;0.0;0.7750181529248353;0.7142857142857141;0.09183835380773825;0.08781630822198153
37;596;;4300.0;2900.0;[554, 555, 556, 595, 597, 636, 637, 638];1.0;1.0;0.0;0.0;0.0;0.0;0.0;0.0;0.0;0.0;0.0;0.0;0.0;0.0;0.0;0.0;0.0;7040.0;452.3125;454.0;449.0;;;;1;Aa (Uster);0;;0.0;0.0;999.9;NA;0.0;0.0;0.0;0.0;0.0;0.0;0.0;0.0;0.0;0.0;0.0;0.0;0;0.0;;;;;;;;;;;;;;;;;;;235.0;32524.8;1.5;36327.856;32695.0704;1.0;0.0;3672.1440000000007;3803.056;;;;;;;;;;;;;;;;;;;;;;;;;;;;;;;;;;;;;;;;;;;;;;;;;;;;;;;;;0.0;36327.856;32695.0704;0.81737676;0.9081964;32524.8;300.0;90.0;180.0;150.0;150.0;70.5;0.0;21.15;35.25;35.25;0.0;0.0;0.0;0.0;0.0;0.0;0.0;0.0;0.0;0.0;0.0;0.0;0.0;0.0;0.0;0.0;25.732499999999998;0.0;7.719749999999999;514.65;12.866249999999999;12.866249999999999;2.57325;1.0;0.0;-1.0;554.0;452.3125;0;2;0.031737358578639;0.0;452.3125;0.0;0.0;1.0;1.0;1.0;0.0;596.0;554.0;0.0;internal;collection;2.0;282.842712474619;2.40625;0.00850737846115065;671.0;0.0;0.07481648407800935;0.01958333333333333;0.0;0.09439981741134268;[597, 638, 598, 639, 680];[554, 553, 511, 510, 550, 671];2018.0;7040.0;9028.321244921326;2257.0803112303315;43371.85007148285;0.0764525993883792;0.0;0.0;0.0;0.0;0.07305936073059355;0.07645259938837909;0.11838624338624333;0.11669924866019493
38;597;;4500.0;2900.0;[555, 556, 557, 596, 598, 637, 638, 639];1.0;1.0;0.0;0.0;0.0;0.0;0.0;0.0;0.0;0.0;0.0;0.0;0.0;0.0;0.0;0.0;0.0;8380.0;456.328125;462.0;454.0;;;;1;Aa (Uster);0;;0.0;0.0;999.9;NA;0.0;0.0;0.0;0.0;0.0;0.0;0.0;0.0;0.0;0.0;0.0;0.0;0;0.0;;;;;;;;;;;;;;;;;;;280.0;38715.6;1.5;39202.0;35281.8;1.0;0.0;798.0;486.40000000000146;;;;;;;;;;;;;;;;;;;;;;;;;;;;;;;;;;;;;;;;;;;;;;;;;;;;;;;;;0.0;39202.0;35281.8;0.882045;0.98005;38715.6;300.0;90.0;180.0;150.0;150.0;84.0;0.0;25.2;42.0;42.0;0.0;0.0;0.0;0.0;0.0;0.0;0.0;0.0;0.0;0.0;0.0;0.0;0.0;0.0;0.0;0.0;30.66;0.0;9.198;613.2;15.33;15.33;3.066;1.0;0.0;-1.0;596.0;456.328125;0;2;0.001466737042381;0.0;456.328125;0.0;0.0;1.0;1.0;1.0;0.0;597.0;596.0;0.0;external;collection;2.0;200.0;4.015625;0.020078125;671.0;0.0;0.0;0.023333333333333334;0.0;0.023333333333333334;[];[596, 554, 553, 511, 510, 550, 671];2018.0;8380.0;10746.78011824442;2686.695029561105;10746.78011824442;0.10554089709762533;0.0;0.0;0.0;0.0;0.10671936758893272;0.10554089709762537;0.10554089709762537;0.10671936758893272
39;598;;4700.0;2900.0;[556, 557, 597, 638, 639];1.0;1.0;0.0;0.0;0.0;0.0;0.0;0.0;0.0;0.0;0.0;0.0;0.0;0.0;0.0;0.0;0.0;8460.0;459.96875;464.0;457.0;;;;0;;0;;0.0;0.0;999.9;NA;0.0;0.0;0.0;0.0;0.0;0.0;0.0;0.0;0.0;0.0;0.0;0.0;0;0.0;;;;;;;;;;;;;;;;;;;283.0;39085.2;1.5;39202.0;35281.8;1.0;0.0;798.0;116.80000000000291;;;;;;;;;;;;;;;;;;;;;;;;;;;;;;;;;;;;;;;;;;;;;;;;;;;;;;;;;0.0;39202.0;35281.8;0.882045;0.98005;39085.2;300.0;90.0;180.0;150.0;150.0;84.9;0.0;25.47;42.45;42.45;0.0;0.0;0.0;0.0;0.0;0.0;0.0;0.0;0.0;0.0;0.0;0.0;0.0;0.0;0.0;0.0;30.988500000000002;0.0;9.29655;619.77;15.494250000000001;15.494250000000001;3.098850000000001;1.0;0.0;-1.0;638.0;459.96875;0;1;0.001179166666667;0.0;459.96875;0.0;0.0;1.0;1.0;1.0;0.0;598.0;638.0;0.0;external;collection;2.0;282.842712474619;4.109375;0.014528834644692344;671.0;0.0;0.0;0.02358333333333333;0.0;0.02358333333333333;[];[638, 596, 554, 553, 511, 510, 550, 671];2018.0;8460.0;10849.374677845799;2712.3436694614497;10849.374677845799;0.10443864229765012;0.0;0.0;0.0;0.0;0.10546875000000011;0.10443864229765017;0.10443864229765017;0.10546875000000011
42;632;;3300.0;3100.0;[590, 591, 592, 631, 633, 672, 673, 674];1.0;1.0;0.0;0.0;0.0;0.0;0.0;0.0;0.0;0.0;0.0;0.0;0.0;0.0;0.0;0.0;0.0;2300.0;445.015625;453.0;440.0;;;;1;Aa (Uster);0;;0.0;0.0;999.9;NA;0.0;0.0;0.0;0.0;0.0;0.0;0.0;0.0;0.0;0.0;0.0;0.0;0;0.0;2.607028283128844;2.0;9622.0;;2.6;46.0;1.0;46.0;660.3913043478261;240.8894133611052;259.8989664116498;1.0;285.2694133611052;256.7424720249947;375.1218909867209;Direct;297.1760869565218;34.340347826086955;;;;;;;;;;;;;;;;;;;;;;;;;;;;;;;;;;;;;;;;;;;;;;;;;;;;;;;;;;;;;;;;;;0.0;19801.19301461084;17821.073713149755;0.445526842828744;0.495029825365271;11080.91301461084;521.4056566257688;156.42169698773063;312.84339397546125;260.7028283128844;260.7028283128844;23.984660204785364;0.0;7.195398061435609;11.992330102392682;11.992330102392682;0.0;0.0;0.0;0.0;0.0;0.0;0.0;0.0;0.0;0.0;0.0;0.0;0.0;0.0;0.0;0.0;8.754400974746657;0.0;2.626320292423997;175.08801949493315;4.377200487373329;4.377200487373329;0.875440097474666;1.0;0.0;-1.0;631.0;445.015625;0;2;0.002291453613955;0.0;445.015625;0.0;0.0;1.0;1.0;1.0;0.0;632.0;672.0;0.0;internal;collection;3.0;282.842712474619;4.84375;0.0171252423568617;671.0;0.0;0.05308333333333333;0.0066624056124403785;0.0;0.05974573894577371;[674, 675, 716];[672, 671];2018.0;2300.0;2949.593588539638;737.3983971349095;27392.747413568115;0.36904761904761907;0.0;0.0;0.0;0.0;0.37120018920479275;0.36904761904761896;0.12777191129883855;0.12673641179015505
43;633;;3500.0;3100.0;[591, 592, 593, 632, 634, 673, 674, 675];1.0;1.0;0.0;0.0;0.0;0.0;0.0;0.0;0.0;0.0;0.0;0.0;0.0;0.0;0.0;0.0;0.0;6000.0;456.859375;460.0;453.0;;;;0;;0;;0.0;0.0;999.9;NA;0.0;0.0;0.0;0.0;0.0;0.0;0.0;0.0;0.0;0.0;0.0;0.0;0;0.0;;;;;;;;;;;;;;;;;;;201.0;27720.0;1.5;36641.26;32977.134000000005;1.0;0.0;3358.74;8921.26;;;;;;;;;;;;;;;;;;;;;;;;;;;;;;;;;;;;;;;;;;;;;;;;;;;;;;;;;0.0;36641.26;32977.134000000005;0.82442835;0.9160315;27720.0;300.0;90.0;180.0;150.0;150.0;60.3;0.0;18.09;30.15;30.15;0.0;0.0;0.0;0.0;0.0;0.0;0.0;0.0;0.0;0.0;0.0;0.0;0.0;0.0;0.0;0.0;22.0095;0.0;6.602849999999999;440.19;11.00475;11.00475;2.20095;1.0;0.0;-1.0;591.0;456.859375;0;1;0.0008375;0.0;456.859375;0.0;0.0;1.0;1.0;1.0;0.0;633.0;591.0;0.0;external;collection;2.0;282.842712474619;14.453125;0.051099513484184095;671.0;0.0;0.0;0.016749999999999998;0.0;0.016749999999999998;[];[591, 550, 671];2018.0;6000.0;7694.591970103403;1923.6479925258507;7694.591970103403;0.1111111111111111;0.0;0.0;0.0;0.0;0.11049723756906069;0.11111111111111109;0.11111111111111109;0.11049723756906069
44;634;;3700.0;3100.0;[592, 593, 594, 633, 635, 674, 675, 676];1.0;0.75;0.0;0.0;0.0;0.0;0.0;0.0;0.0;0.0;0.0;0.0;0.0;0.25;0.0;0.0;0.0;2900.0;461.328125;466.0;456.0;;;;0;;0;;0.0;0.0;999.9;GF;0.0;0.0;0.0;0.0;0.0;0.0;0.0;0.0;0.0;0.0;0.0;0.0;0;0.0;2.788967233487712;1.0;5775.0;;1.4;52.0;1.0;52.0;465.86538461538464;128.8502861871323;206.98001936205893;2.0;166.9902861871323;150.2912575684191;298.87509842825233;Direct;186.34615384615387;28.883653846153848;;;;;;;;;;;;;;;;;;;;;;;;;;;;;;;;;;;;;;;;;;;;;;;;;;;;;;;;;;;;;;;;;;0.0;13380.49488173088;12042.445393557793;0.301061134838945;0.334512372043272;6700.21488173088;557.7934466975423;167.3380340092627;334.6760680185254;278.89672334877116;278.89672334877116;29.005259228272198;0.0;8.70157776848166;14.502629614136099;14.502629614136099;0.0;0.0;0.0;0.0;0.0;0.0;0.0;0.0;0.0;0.0;0.0;0.0;0.0;0.0;0.0;0.0;10.586919618319353;0.0;3.176075885495806;211.73839236638707;5.293459809159677;5.293459809159677;1.058691961831935;1.0;0.0;-1.0;592.0;461.328125;0;1;0.000402850822615;0.0;461.328125;0.0;0.0;1.0;1.0;1.0;0.0;634.0;592.0;0.0;external;collection;2.0;282.842712474619;9.703125;0.034305727431003595;671.0;0.0;0.0;0.008057016452297833;0.0;0.008057016452297833;[];[592, 591, 550, 671];2018.0;2900.0;3719.052785549978;929.7631963874945;3719.052785549978;0.16;0.0;0.0;0.0;0.0;0.1259130564855451;0.1600000000000001;0.1600000000000001;0.1259130564855451
47;637;;4300.0;3100.0;[595, 596, 597, 636, 638, 677, 678, 679];1.0;0.5;0.0;0.0;0.0;0.0;0.0;0.0;0.0;0.0;0.0;0.0;0.0;0.5;0.0;0.0;0.0;3300.0;454.359375;455.0;453.0;;;;0;;0;;20000.0;10000.0;999.9;NA;0.0;0.0;0.0;0.0;0.0;0.0;0.0;0.0;0.0;0.0;0.0;0.0;0;0.0;;;;;;;;;;;;;;;;;;;111.0;15246.0;1.5;18036.315975050762;16232.684377545685;1.0;0.0;1963.6840249492388;2790.315975050761;;;;;;;;;;;;;;;;;;;;;;;;;;;;;;;;;;;;;;;;;;;;;;;;;;;;;;;;;0.0;28036.315975050762;26232.684377545687;0.655817109438642;0.700907899376269;15246.0;300.0;90.0;180.0;150.0;150.0;33.3;0.0;9.99;16.65;16.65;0.0;0.0;0.0;0.0;0.0;0.0;0.0;0.0;0.0;0.0;0.0;0.0;0.0;0.0;0.0;0.0;12.154499999999999;0.0;3.64635;243.08999999999997;6.077249999999999;6.077249999999999;1.21545;1.0;0.0;-1.0;596.0;454.359375;0;2;0.005602777777778;0.0;454.359375;0.0;0.0;1.0;1.0;1.0;0.0;637.0;595.0;0.0;internal;collection;2.0;282.842712474619;2.484375;0.008783592047551645;671.0;0.0;0.2799896663569019;0.009249999999999998;0.0;0.2892396663569019;[677, 678, 679, 676, 717, 718, 719, 720, 721, 760, 761, 762, 800, 801, 802, 803, 840, 841, 842, 844, 843];[595, 553, 511, 510, 550, 671];2018.0;3300.0;4232.025583556871;1058.0063958892179;133208.77618643013;0.06451612903225806;0.0;0.0;0.0;0.0;0.06730769230769211;0.06451612903225798;0.08909728396718611;0.08449886833486145
48;638;;4500.0;3100.0;[596, 597, 598, 637, 639, 678, 679, 680];1.0;1.0;0.0;0.0;0.0;0.0;0.0;0.0;0.0;0.0;0.0;0.0;0.0;0.0;0.0;0.0;0.0;5660.0;455.859375;457.0;454.0;;;;1;Aa (Uster);0;;0.0;0.0;999.9;NA;0.0;0.0;0.0;0.0;0.0;0.0;0.0;0.0;0.0;0.0;0.0;0.0;0;0.0;;;;;;;;;;;;;;;;;;;189.0;26149.2;1.5;36794.14;33114.726;1.0;0.0;3205.8600000000006;10644.939999999999;;;;;;;;;;;;;;;;;;;;;;;;;;;;;;;;;;;;;;;;;;;;;;;;;;;;;;;;;0.0;36794.14;33114.726;0.82786815;0.9198535;26149.2;300.0;90.0;180.0;150.0;150.0;56.7;0.0;17.01;28.35;28.35;0.0;0.0;0.0;0.0;0.0;0.0;0.0;0.0;0.0;0.0;0.0;0.0;0.0;0.0;0.0;0.0;20.6955;0.0;6.20865;413.90999999999997;10.34775;10.34775;2.06955;1.0;0.0;-1.0;596.0;455.859375;0;2;0.023229481463326;0.0;455.859375;0.0;0.0;1.0;1.0;1.0;0.0;638.0;596.0;0.0;internal;collection;2.0;282.842712474619;3.546875;0.012540096822605179;671.0;0.0;0.03573315074467602;0.015749999999999997;0.0;0.05148315074467602;[598, 639, 680];[596, 554, 553, 511, 510, 550, 671];2018.0;5660.0;7258.565091797544;1814.641272949386;23596.748708317104;0.09689922480620156;0.0;0.0;0.0;0.0;0.09248554913294792;0.09689922480620156;0.14143920595533488;0.1389737407500233
49;639;;4700.0;3100.0;[597, 598, 638, 679, 680];1.0;0.75;0.0;0.0;0.0;0.0;0.0;0.0;0.0;0.0;0.0;0.0;0.0;0.25;0.0;0.0;0.0;2360.0;458.21875;460.0;457.0;;;;1;Aa (Uster);0;;0.0;0.0;999.9;GF;0.0;0.0;0.0;0.0;0.0;0.0;0.0;0.0;0.0;0.0;0.0;0.0;0;0.0;2.210480395659163;1.0;4656.0;;1.9;54.0;1.0;54.0;469.3333333333333;204.24838855890664;126.51015286976529;1.0;250.70838855890665;225.637549703016;218.62494477442667;Direct;197.11999999999998;26.282666666666668;;;;;;;;;;;;;;;;;;;;;;;;;;;;;;;;;;;;;;;;;;;;;;;;;;;;;;;;;;;;;;;;;;0.0;16719.852982180957;15047.867683962864;0.376196692099072;0.417996324554524;11029.412982180958;442.09607913183254;132.62882373954977;265.25764747909955;221.04803956591627;221.04803956591627;23.87318827311896;0.0;7.161956481935688;11.93659413655948;11.93659413655948;0.0;0.0;0.0;0.0;0.0;0.0;0.0;0.0;0.0;0.0;0.0;0.0;0.0;0.0;0.0;0.0;8.71371371968842;0.0;2.614114115906526;174.2742743937684;4.35685685984421;4.35685685984421;0.871371371968842;1.0;0.0;-1.0;638.0;458.21875;0;2;0.017095323972053;0.0;458.21875;0.0;0.0;1.0;1.0;1.0;0.0;639.0;638.0;0.0;external;collection;2.0;200.0;2.359375;0.011796875;671.0;0.0;0.0;0.006631441186977488;0.0;0.006631441186977488;[];[638, 596, 554, 553, 511, 510, 550, 671];2018.0;2360.0;3026.5395082406717;756.6348770601679;3026.5395082406717;0.20408163265306123;0.0;0.0;0.0;0.0;0.20908004641099395;0.20408163265306112;0.20408163265306112;0.20908004641099395
51;672;;3100.0;3300.0;[630, 631, 632, 671, 673, 712, 713, 714];1.0;0.5;0.25;0.0;0.0;0.0;0.0;0.0;0.0;0.0;0.0;0.0;0.0;0.0;0.0;0.25;0.0;400.0;440.171875;450.0;437.0;;;;1;,Aa (Uster);0;;0.0;0.0;999.9;NA;0.0;0.0;0.0;0.0;0.0;0.0;0.0;0.0;0.0;0.0;0.0;0.0;0;0.0;2.718529312835462;1.0;4757.76;;2.7;8.0;1.0;8.0;1905.28;251.19210850599669;1534.3172491489318;1.0;291.6721085059967;262.50489765539703;1613.6078914940033;Direct;1047.904;55.25312;;;;;;;;;;;;;;;;;;;;;;;;;;;;;;;;;;;;;;100.0;1.0;421.74000000000007;1591.1100000000001;1169.3700000000001;10000.0;7333.333333333333;3.0;1075.5566666666664;0.0;0.0;0.0;7568.000999999999;8408.89;;;;;;;;;;;;;;;100.0;15140.116868047975;13626.105181243176;0.340652629531079;0.378502921701199;9342.870201381307;543.7058625670924;163.11175877012772;326.22351754025544;271.8529312835462;271.8529312835462;4.349646900536739;0.0;1.304894070161022;2.17482345026837;2.17482345026837;0.8;0.16;0.0;0.0;0.0;0.0;0.0;0.0;0.8;0.16;0.0;0.4;0.4;0.0;0.0;0.0;1.87962111869591;0.0;0.534686335608773;37.5924223739182;0.939810559347955;0.939810559347955;0.187962111869591;1.0;1.0;-1.0;-1.0;440.171875;0;-1;0.127966706945744;0.0;440.171875;0.0;0.0;1.0;1.0;1.0;0.0;672.0;671.0;0.0;internal;collection;3.0;200.0;4.4375;0.0221875;671.0;0.0;0.07069474523698885;0.0014304574723713163;0.0;0.07212520270936017;[632, 673, 674, 675, 716];[671];2018.0;411.2;527.3360363510865;131.83400908777162;32895.91959058606;-0.8076923076923077;0.0;0.0;0.0;0.0;1.1456862085569746;-0.805450416351249;0.04983301682928408;0.13900648861475168
52;673;;3300.0;3300.0;[631, 632, 633, 672, 674, 713, 714, 715];1.0;1.0;0.0;0.0;0.0;0.0;0.0;0.0;0.0;0.0;0.0;0.0;0.0;0.0;0.0;0.0;0.0;3880.0;447.09375;454.0;440.0;;;;0;;0;;0.0;0.0;999.9;NA;0.0;0.0;0.0;0.0;0.0;0.0;0.0;0.0;0.0;0.0;0.0;0.0;0;0.0;2.142196883063833;2.0;9728.320000000002;;2.6;46.0;2.0;92.0;658.08;197.93899199509818;326.4179642838575;2.0;242.83899199509818;218.55509279558837;415.24100800490186;Direct;263.232;42.775200000000005;;;;;;;;;;;;;;;;;;;;;;;;;;;;;;;;;;;;;;;;;;;;;;;;;;;;;;;;;;;;;;;;;;0.0;17957.79363177452;16162.014268597066;0.404050356714927;0.448944840794363;9105.193631774517;428.4393766127666;128.53181298382998;257.06362596765996;214.2196883063833;214.2196883063833;39.41642264837452;0.0;11.824926794512358;19.70821132418726;19.70821132418726;0.0;0.0;0.0;0.0;0.0;0.0;0.0;0.0;0.0;0.0;0.0;0.0;0.0;0.0;0.0;0.0;14.3869942666567;0.0;4.316098279997011;287.739885333134;7.19349713332835;7.19349713332835;1.43869942666567;1.0;0.0;-1.0;631.0;447.09375;0;1;0.000547450314561;0.0;447.09375;0.0;0.0;1.0;1.0;1.0;0.0;673.0;672.0;0.0;external;collection;3.0;200.0;6.921875;0.034609375;671.0;0.0;0.0;0.010949006291215143;0.0;0.010949006291215143;[];[672, 671];2018.0;3880.0;4975.836140666867;1243.9590351667168;4975.836140666867;0.14792899408284024;0.0;0.0;0.0;0.0;0.1368786088821418;0.14792899408284024;0.14792899408284024;0.1368786088821418
53;674;;3500.0;3300.0;[632, 633, 634, 673, 675, 714, 715, 716];1.0;1.0;0.0;0.0;0.0;0.0;0.0;0.0;0.0;0.0;0.0;0.0;0.0;0.0;0.0;0.0;0.0;7960.0;454.625;459.0;450.0;;;;0;;0;;0.0;0.0;999.9;NA;0.0;0.0;0.0;0.0;0.0;0.0;0.0;0.0;0.0;0.0;0.0;0.0;0;0.0;;;;;;;;;;;;;;;;;;;266.0;36775.2;1.5;39202.0;35281.8;1.0;0.0;798.0;2426.800000000003;;;;;;;;;;;;;;;;;;;;;;;;;;;;;;;;;;;;;;;;;;;;;;;;;;;;;;;;;0.0;39202.0;35281.8;0.882045;0.98005;36775.2;300.0;90.0;180.0;150.0;150.0;79.8;0.0;23.94;39.9;39.9;0.0;0.0;0.0;0.0;0.0;0.0;0.0;0.0;0.0;0.0;0.0;0.0;0.0;0.0;0.0;0.0;29.127;0.0;8.738100000000001;582.54;14.5635;14.5635;2.912700000000001;1.0;0.0;-1.0;632.0;454.625;0;2;0.001958333333333;0.0;454.625;0.0;0.0;1.0;1.0;1.0;0.0;674.0;632.0;0.0;internal;collection;3.0;282.842712474619;9.609375;0.033974271127322396;671.0;0.0;0.030916666666666662;0.022166666666666664;0.0;0.05308333333333333;[675, 716];[632, 672, 671];2018.0;7960.0;10208.158680337181;2552.0396700842953;24443.153825028476;0.08152173913043478;0.0;0.0;0.0;0.0;0.08130081300813011;0.08152173913043488;0.10428736964078798;0.10207612456747404
54;675;;3700.0;3300.0;[633, 634, 635, 674, 676, 715, 716, 717];1.0;1.0;0.0;0.0;0.0;0.0;0.0;0.0;0.0;0.0;0.0;0.0;0.0;0.0;0.0;0.0;0.0;6100.0;460.46875;463.0;458.0;;;;0;;0;;0.0;0.0;999.9;NA;0.0;0.0;0.0;0.0;0.0;0.0;0.0;0.0;0.0;0.0;0.0;0.0;0;0.0;;;;;;;;;;;;;;;;;;;204.0;28182.0;1.5;36603.04;32942.736000000004;1.0;0.0;3396.959999999999;8421.04;;;;;;;;;;;;;;;;;;;;;;;;;;;;;;;;;;;;;;;;;;;;;;;;;;;;;;;;;0.0;36603.04;32942.736000000004;0.8235684;0.915076;28182.0;300.0;90.0;180.0;150.0;150.0;61.2;0.0;18.36;30.6;30.6;0.0;0.0;0.0;0.0;0.0;0.0;0.0;0.0;0.0;0.0;0.0;0.0;0.0;0.0;0.0;0.0;22.338;0.0;6.7014;446.76;11.169;11.169;2.2338;1.0;0.0;-1.0;674.0;460.46875;0;1;0.00085;0.0;460.46875;0.0;0.0;1.0;1.0;1.0;0.0;675.0;674.0;0.0;external;collection;3.0;200.0;5.84375;0.02921875;671.0;0.0;0.0;0.016999999999999998;0.0;0.016999999999999998;[];[674, 632, 672, 671];2018.0;6100.0;7822.835169605126;1955.7087924012815;7822.835169605126;0.12962962962962962;0.0;0.0;0.0;0.0;0.12707182320441981;0.1296296296296296;0.1296296296296296;0.12707182320441981
55;676;;3900.0;3300.0;[634, 635, 636, 675, 677, 716, 717, 718];1.0;0.25;0.0;0.0;0.0;0.0;0.0;0.0;0.0;0.0;0.0;0.0;0.0;0.75;0.0;0.0;0.0;2400.0;456.359375;461.0;454.0;;;;0;;0;;30000.0;15000.0;999.9;NA;0.0;0.0;0.0;0.0;0.0;0.0;0.0;0.0;0.0;0.0;0.0;0.0;0;0.0;;;;;;;;;;;;;;;;;;;81.0;5544.0;1.5;8745.4898;7870.94082;2.0;0.0;1254.5101999999997;3201.4898000000003;;;;;;;;;;;;;;;;;;;;;;;;;;;;;;;;;;;;;;;;;;;;;;;;;;;;;;;;;0.0;23745.4898;22870.94082;0.5717735205;0.593637245;5544.0;300.0;90.0;180.0;150.0;150.0;24.3;0.0;7.29;12.15;12.15;0.0;0.0;0.0;0.0;0.0;0.0;0.0;0.0;0.0;0.0;0.0;0.0;0.0;0.0;0.0;0.0;8.8695;0.0;2.66085;177.39000000000001;4.43475;4.43475;0.88695;1.0;0.0;-1.0;677.0;456.359375;0;1;0.0003375;0.0;456.359375;0.0;0.0;1.0;1.0;1.0;0.0;676.0;677.0;0.0;external;collection;2.0;200.0;1.15625;0.00578125;671.0;0.0;0.0;0.00675;0.0;0.00675;[];[677, 637, 595, 553, 511, 510, 550, 671];2018.0;2400.0;3077.836788041361;769.4591970103403;3077.836788041361;0.09090909090909091;0.0;0.0;0.0;0.0;0.09459459459459459;0.09090909090909095;0.09090909090909095;0.09459459459459459
56;677;;4100.0;3300.0;[635, 636, 637, 676, 678, 717, 718, 719];1.0;0.75;0.0;0.0;0.0;0.0;0.0;0.0;0.0;0.0;0.0;0.0;0.0;0.25;0.0;0.0;0.0;4540.0;455.203125;457.0;454.0;;;;0;;0;;0.0;0.0;999.9;GF;0.0;0.0;0.0;0.0;0.0;0.0;0.0;0.0;0.0;0.0;0.0;0.0;0;0.0;;;;;;;;;;;;;;;;;;;152.0;20974.8;1.5;27372.69967697245;24635.429709275206;1.0;0.0;2627.30032302755;6397.899676972451;;;;;;;;;;;;;;;;;;;;;;;;;;;;;;;;;;;;;;;;;;;;;;;;;;;;;;;;;0.0;27372.69967697245;24635.429709275206;0.61588574273188;0.684317491924311;20974.8;300.0;90.0;180.0;150.0;150.0;45.6;0.0;13.68;22.8;22.8;0.0;0.0;0.0;0.0;0.0;0.0;0.0;0.0;0.0;0.0;0.0;0.0;0.0;0.0;0.0;0.0;16.644000000000002;0.0;4.9932;332.88000000000005;8.322000000000001;8.322000000000001;1.6644;1.0;0.0;-1.0;637.0;455.203125;0;2;0.005140277777778;0.0;455.203125;0.0;0.0;1.0;1.0;1.0;0.0;677.0;637.0;0.0;internal;collection;2.0;282.842712474619;0.84375;0.002983106733130747;671.0;0.0;0.20943463154897501;0.012666666666666666;0.0;0.22210129821564167;[676, 717, 718, 719, 760, 761, 800, 801, 802, 803, 840, 841, 842, 844, 843];[637, 595, 553, 511, 510, 550, 671];2018.0;4540.0;5822.241257378241;1455.5603143445603;102569.93690707439;0.07075471698113207;0.0;0.0;0.0;0.0;0.07042253521126762;0.07075471698113198;0.08517404943068956;0.08065516391134052
57;678;;4300.0;3300.0;[636, 637, 638, 677, 679, 718, 719, 720];1.0;1.0;0.0;0.0;0.0;0.0;0.0;0.0;0.0;0.0;0.0;0.0;0.0;0.0;0.0;0.0;0.0;6700.0;455.203125;456.0;454.0;;;;0;;0;;0.0;0.0;999.9;NA;0.0;0.0;0.0;0.0;0.0;0.0;0.0;0.0;0.0;0.0;0.0;0.0;0;0.0;;;;;;;;;;;;;;;;;;;224.0;30954.0;1.5;36462.390400000004;32816.15136;1.0;0.0;3537.6096;5508.3904;;;;;;;;;;;;;;;;;;;;;;;;;;;;;;;;;;;;;;;;;;;;;;;;;;;;;;;;;0.0;36462.390400000004;32816.15136;0.820403784;0.91155976;30954.0;300.0;90.0;180.0;150.0;150.0;67.2;0.0;20.16;33.6;33.6;0.0;0.0;0.0;0.0;0.0;0.0;0.0;0.0;0.0;0.0;0.0;0.0;0.0;0.0;0.0;0.0;24.528000000000002;0.0;7.3584;490.56000000000006;12.264000000000001;12.264000000000001;2.4528;1.0;0.0;-1.0;718.0;455.203125;0;2;0.002767302847469;0.0;455.203125;0.0;0.0;1.0;1.0;1.0;0.0;678.0;637.0;0.0;internal;collection;2.0;200.0;0.84375;0.00421875;671.0;0.0;0.022029871520039865;0.018666666666666668;0.0;0.04069653818670653;[720, 762];[637, 595, 553, 511, 510, 550, 671];2018.0;6700.0;8592.294366615466;2148.0735916538665;18558.329886293395;0.06349206349206349;0.0;0.0;0.0;0.0;0.06161137440758306;0.0634920634920634;0.09206713354262262;0.09003020520756665
58;679;;4500.0;3300.0;[637, 638, 639, 678, 680, 719, 720, 721];1.0;1.0;0.0;0.0;0.0;0.0;0.0;0.0;0.0;0.0;0.0;0.0;0.0;0.0;0.0;0.0;0.0;3000.0;456.96875;458.0;456.0;;;;0;;0;;0.0;0.0;999.9;NA;0.0;0.0;0.0;0.0;0.0;0.0;0.0;0.0;0.0;0.0;0.0;0.0;0;0.0;2.73026974517909;2.0;8116.719999999999;;1.7;56.0;1.0;56.0;569.3442857142857;252.27692445454798;152.09893360457357;1.0;291.456924454548;262.3112320090932;277.88736125973765;Direct;239.12459999999996;31.88328;;;;;;;;;;;;;;;;;;;;;;;;;;;;;;;;;;;;;;;;;;;;;;;;;;;;;;;;;;;;;;;;;;0.0;22494.86776945469;20245.38099250922;0.50613452481273;0.562371694236367;14127.507769454687;546.053949035818;163.81618471074543;327.63236942149086;273.026974517909;273.026974517909;30.57902114600581;0.0;9.173706343801745;15.289510573002906;15.289510573002906;0.0;0.0;0.0;0.0;0.0;0.0;0.0;0.0;0.0;0.0;0.0;0.0;0.0;0.0;0.0;0.0;11.16134271829212;0.0;3.348402815487637;223.2268543658424;5.58067135914606;5.58067135914606;1.116134271829212;1.0;0.0;-1.0;638.0;456.96875;0;2;0.00215303768431;0.0;456.96875;0.0;0.0;1.0;1.0;1.0;0.0;679.0;637.0;0.0;internal;collection;2.0;282.842712474619;2.609375;0.009225533785793237;671.0;0.0;0.00869765741399654;0.008494172540557168;0.0;0.017191829954553706;[721];[637, 595, 553, 511, 510, 550, 671];2018.0;3000.0;3847.2959850517013;961.8239962629253;7848.483809505471;0.15384615384615385;0.0;0.0;0.0;0.0;0.1579582275269627;0.15384615384615377;0.15037593984962414;0.13275974023652545
59;680;;4700.0;3300.0;[638, 639, 679, 720, 721];1.0;1.0;0.0;0.0;0.0;0.0;0.0;0.0;0.0;0.0;0.0;0.0;0.0;0.0;0.0;0.0;0.0;1920.0;458.828125;460.0;458.0;;;;0;;0;;0.0;0.0;999.9;NA;0.0;0.0;0.0;0.0;0.0;0.0;0.0;0.0;0.0;0.0;0.0;0.0;0;0.0;2.613967685225623;2.0;10468.080000000002;;2.5;38.0;1.0;38.0;777.1557894736842;241.5306141148476;421.32449552271055;1.0;282.0106141148476;253.80955270336287;495.1451753588366;Direct;357.4916631578947;35.74916631578947;;;;;;;;;;;;;;;;;;;;;;;;;;;;;;;;;;;;;;;;;;;;;;;;;;;;;;;;;;;;;;;;;;0.0;18370.48333636421;16533.43500272779;0.413335875068195;0.459262083409105;9178.163336364209;522.7935370451246;156.83806111353738;313.67612222707476;261.3967685225623;261.3967685225623;19.866154407714735;0.0;5.959846322314421;9.933077203857367;9.933077203857367;0.0;0.0;0.0;0.0;0.0;0.0;0.0;0.0;0.0;0.0;0.0;0.0;0.0;0.0;0.0;0.0;7.251146358815878;0.0;2.175343907644764;145.02292717631755;3.625573179407939;3.625573179407939;0.725114635881588;1.0;0.0;-1.0;638.0;458.828125;0;2;0.002014453140296;0.0;458.828125;0.0;0.0;1.0;1.0;1.0;0.0;680.0;638.0;0.0;external;collection;2.0;282.842712474619;2.96875;0.010496116283237815;671.0;0.0;0.0;0.005518376224365204;0.0;0.005518376224365204;[];[638, 596, 554, 553, 511, 510, 550, 671];2018.0;1920.0;2462.269430433089;615.5673576082722;2462.269430433089;0.43283582089552236;0.0;0.0;0.0;0.0;0.39119307230612493;0.4328358208955224;0.4328358208955224;0.39119307230612493
64;716;;3700.0;3500.0;[674, 675, 676, 715, 717, 756, 757, 758];1.0;0.75;0.0;0.0;0.0;0.0;0.0;0.0;0.0;0.0;0.0;0.0;0.0;0.25;0.0;0.0;0.0;5000.0;461.0625;464.0;458.0;;;;0;;0;;0.0;0.0;999.9;GF;0.0;0.0;0.0;0.0;0.0;0.0;0.0;0.0;0.0;0.0;0.0;0.0;0;0.0;;;;;;;;;;;;;;;;;;;167.0;23100.0;1.5;27266.70287697245;24540.032589275204;1.0;0.0;2733.2971230275507;4166.702876972449;;;;;;;;;;;;;;;;;;;;;;;;;;;;;;;;;;;;;;;;;;;;;;;;;;;;;;;;;0.0;27266.70287697245;24540.032589275204;0.61350081473188;0.681667571924311;23100.0;300.0;90.0;180.0;150.0;150.0;50.1;0.0;15.03;25.05;25.05;0.0;0.0;0.0;0.0;0.0;0.0;0.0;0.0;0.0;0.0;0.0;0.0;0.0;0.0;0.0;0.0;18.2865;0.0;5.48595;365.73;9.14325;9.14325;1.82865;1.0;0.0;-1.0;758.0;461.0625;0;1;0.000695833333333;0.0;461.0625;0.0;0.0;1.0;1.0;1.0;0.0;716.0;674.0;0.0;external;collection;3.0;282.842712474619;6.4375;0.022759999519441996;671.0;0.0;0.0;0.013916666666666666;0.0;0.013916666666666666;[];[674, 632, 672, 671];2018.0;5000.0;6412.159975086169;1603.0399937715422;6412.159975086169;0.1111111111111111;0.0;0.0;0.0;0.0;0.105960264900662;0.11111111111111113;0.11111111111111113;0.105960264900662
65;717;;3900.0;3500.0;[675, 676, 677, 716, 718, 757, 758, 759];1.0;0.5;0.0;0.0;0.0;0.0;0.0;0.0;0.0;0.0;0.0;0.0;0.0;0.5;0.0;0.0;0.0;4500.0;457.09375;459.0;455.0;;;;0;;0;;20000.0;10000.0;999.9;NA;0.0;0.0;0.0;0.0;0.0;0.0;0.0;0.0;0.0;0.0;0.0;0.0;0;0.0;;;;;;;;;;;;;;;;;;;151.0;10395.0;1.5;17801.13557505076;16021.022017545685;2.0;0.0;2198.864424949239;7406.135575050761;;;;;;;;;;;;;;;;;;;;;;;;;;;;;;;;;;;;;;;;;;;;;;;;;;;;;;;;;0.0;27801.13557505076;26021.022017545685;0.650525550438642;0.695028389376269;10395.0;300.0;90.0;180.0;150.0;150.0;45.3;0.0;13.59;22.65;22.65;0.0;0.0;0.0;0.0;0.0;0.0;0.0;0.0;0.0;0.0;0.0;0.0;0.0;0.0;0.0;0.0;16.5345;0.0;4.96035;330.69000000000005;8.26725;8.26725;1.65345;1.0;0.0;-1.0;672.0;457.09375;0;2;0.049834356438915;0.0;457.09375;0.0;0.0;1.0;1.0;1.0;0.0;717.0;677.0;0.0;external;collection;2.0;282.842712474619;1.890625;0.006684368790904082;671.0;0.0;0.0;0.012583333333333335;0.0;0.012583333333333335;[];[677, 637, 595, 553, 511, 510, 550, 671];2018.0;4500.0;5770.943977577552;1442.735994394388;5770.943977577552;0.0975609756097561;0.0;0.0;0.0;0.0;0.10218978102189795;0.09756097560975596;0.09756097560975596;0.10218978102189795
66;718;;4100.0;3500.0;[676, 677, 678, 717, 719, 758, 759, 760];1.0;0.5;0.0;0.0;0.0;0.0;0.0;0.0;0.0;0.0;0.0;0.0;0.0;0.5;0.0;0.0;0.0;520.0;457.484375;459.0;456.0;;;;0;;0;;20000.0;10000.0;999.9;NA;0.0;0.0;0.0;0.0;0.0;0.0;0.0;0.0;0.0;0.0;0.0;0.0;0;0.0;2.728524963930164;1.0;5234.040000000001;;3.0;10.0;1.0;10.0;1476.596;252.1157066671472;1110.0276797334498;1.0;296.7557066671472;267.0801360004325;1179.8402933328528;Direct;767.82992;48.727668;;;;;;;;;;;;;;;;;;;;;;;;;;;;;;;;;;;;;;;;;;;;;;;;;;;;;;;;;;;;;;;;;;0.0;16513.197066671473;15861.877360004326;0.396546934000108;0.412829926666787;2521.157066671472;545.7049927860329;163.71149783580987;327.42299567161973;272.85249639301645;272.85249639301645;5.457049927860329;0.0;1.637114978358098;2.728524963930165;2.728524963930165;0.0;0.0;0.0;0.0;0.0;0.0;0.0;0.0;0.0;0.0;0.0;0.0;0.0;0.0;0.0;0.0;1.99182322366902;0.0;0.597546967100706;39.8364644733804;0.99591161183451;0.99591161183451;0.199182322366902;1.0;0.0;-1.0;717.0;457.484375;0;2;0.002843095207578;0.0;457.484375;0.0;0.0;1.0;1.0;1.0;0.0;718.0;677.0;0.0;external;collection;2.0;200.0;2.28125;0.01140625;671.0;0.0;0.0;0.0015158472021834248;0.0;0.0015158472021834248;[];[677, 637, 595, 553, 511, 510, 550, 671];2018.0;520.0;666.8646374089616;166.7161593522404;666.8646374089616;0.625;0.0;0.0;0.0;0.0;0.6050836134637299;0.625;0.625;0.6050836134637299
67;719;;4300.0;3500.0;[677, 678, 679, 718, 720, 759, 760, 761];1.0;0.75;0.0;0.25;0.0;0.0;0.0;0.0;0.0;0.0;0.0;0.0;0.0;0.0;0.0;0.0;0.0;4520.0;456.703125;458.0;455.0;;;;0;;0;;0.0;0.0;999.9;NA;0.0;0.0;0.0;0.0;0.0;0.0;0.0;0.0;0.0;0.0;0.0;0.0;0;0.0;;;;;;;;;;;;;;;;;;;151.0;20882.4;1.5;27385.439676972448;24646.895709275203;1.0;0.0;2614.56032302755;6503.039676972448;;;;;;;;;;;;;;;;;;;;;;;;;;;;;;;;;;;;;;;;;;;400.0;1.0;324.7;1719.0;1394.3;10000.0;7333.333333333333;6.0;947.666666666667;0.0;0.0;0.0;7452.900000000001;8281.0;400.0;37060.739676972444;33354.6657092752;0.83386664273188;0.926518491924311;28215.733333333334;300.0;90.0;180.0;150.0;150.0;45.3;0.0;13.59;22.65;22.65;0.0;0.0;3.2;0.64;0.0;0.0;0.0;0.0;3.2;0.64;0.0;1.6;1.6;0.0;0.0;0.0;17.7025;0.0;5.19395;354.05;8.85125;8.85125;1.77025;1.0;0.0;-1.0;677.0;456.703125;0;2;0.004169444444444;0.0;455.575125;0.0;3.0;1.0;1.0;1.0;0.0;719.0;677.0;0.0;internal;collection;2.0;282.842712474619;0.3720000000000141;0.0013152186130070281;671.0;0.0;0.17511322879123603;0.013472222222222222;0.0;0.18858545101345825;[760, 761, 800, 801, 802, 803, 840, 841, 842, 844, 843];[677, 637, 595, 553, 511, 510, 550, 671];2018.0;4564.8;5854.045570854669;1463.5113927136672;87232.05024666827;0.11330049261083744;0.0;0.0;0.0;0.0;0.10227272727272738;0.11206392516078736;0.0823891845100189;0.07662464888910273
68;720;;4500.0;3500.0;[678, 679, 680, 719, 721, 760, 761, 762];1.0;1.0;0.0;0.0;0.0;0.0;0.0;0.0;0.0;0.0;0.0;0.0;0.0;0.0;0.0;0.0;0.0;3340.0;458.171875;459.0;457.0;;;;0;;0;;0.0;0.0;999.9;NA;0.0;0.0;0.0;0.0;0.0;0.0;0.0;0.0;0.0;0.0;0.0;0.0;0;0.0;2.583904353950267;2.0;10046.32;;2.5;66.0;1.0;66.0;453.8436363636364;119.37638115250233;235.55814545336915;2.0;156.99638115250235;141.29674303725213;296.84725521113404;Direct;186.0758909090909;28.138305454545456;;;;;;;;;;;;;;;;;;;;;;;;;;;;;;;;;;;;;;;;;;;;;;;;;;;;;;;;;;;;;;;;;;0.0;17586.081156065156;15827.473040458639;0.395686826011466;0.439652028901629;7878.841156065154;516.7808707900533;155.034261237016;310.068522474032;258.39043539502666;258.39043539502666;34.10753747214352;0.0;10.232261241643057;17.05376873607176;17.05376873607176;0.0;0.0;0.0;0.0;0.0;0.0;0.0;0.0;0.0;0.0;0.0;0.0;0.0;0.0;0.0;0.0;12.449251177332384;0.0;3.734775353199716;248.98502354664768;6.224625588666192;6.224625588666192;1.244925117733239;1.0;0.0;-1.0;678.0;458.171875;0;2;0.001833969514136;0.0;458.171875;0.0;0.0;1.0;1.0;1.0;0.0;720.0;678.0;0.0;internal;collection;2.0;282.842712474619;2.96875;0.010496116283237815;671.0;0.0;0.012555555555555552;0.00947431596448431;0.0;0.022029871520039865;[762];[678, 637, 595, 553, 511, 510, 550, 671];2018.0;3340.0;4283.322863357561;1070.8307158393902;9966.035519677927;0.1360544217687075;0.0;0.0;0.0;0.0;0.13288257812003476;0.1360544217687074;0.11796524341120958;0.11532891735746968
69;721;;4700.0;3500.0;[679, 680, 720, 761, 762];1.0;1.0;0.0;0.0;0.0;0.0;0.0;0.0;0.0;0.0;0.0;0.0;0.0;0.0;0.0;0.0;0.0;3120.0;459.09375;460.0;458.0;;;;0;;0;;0.0;0.0;999.9;NA;0.0;0.0;0.0;0.0;0.0;0.0;0.0;0.0;0.0;0.0;0.0;0.0;0;0.0;2.236540477884825;2.0;10362.88;;1.5;70.0;1.0;70.0;423.3874285714286;206.65634015655783;82.96332801950636;1.0;246.35634015655785;221.72070614090208;177.03108841487074;Direct;173.5888457142857;24.979858285714286;;;;;;;;;;;;;;;;;;;;;;;;;;;;;;;;;;;;;;;;;;;;;;;;;;;;;;;;;;;;;;;;;;0.0;25918.223810959047;23326.401429863145;0.583160035746579;0.647955595273976;14465.943810959048;447.30809557696494;134.1924286730895;268.384857346179;223.65404778848247;223.65404778848247;31.311566690387547;0.0;9.393470007116264;15.655783345193774;15.655783345193774;0.0;0.0;0.0;0.0;0.0;0.0;0.0;0.0;0.0;0.0;0.0;0.0;0.0;0.0;0.0;0.0;11.428721841991454;0.0;3.428616552597436;228.57443683982908;5.714360920995727;5.714360920995727;1.142872184199146;1.0;0.0;-1.0;679.0;459.09375;0;2;0.001728329057283;0.0;459.09375;0.0;0.0;1.0;1.0;1.0;0.0;721.0;679.0;0.0;external;collection;2.0;282.842712474619;2.125;0.007513009550107067;671.0;0.0;0.0;0.00869765741399654;0.0;0.00869765741399654;[];[679, 637, 595, 553, 511, 510, 550, 671];2018.0;3120.0;4001.1878244537693;1000.2969561134423;4001.1878244537693;0.14705882352941177;0.0;0.0;0.0;0.0;0.1091872626251701;0.1470588235294117;0.1470588235294117;0.1091872626251701
77;760;;4300.0;3700.0;[718, 719, 720, 759, 761, 800, 801, 802];1.0;1.0;0.0;0.0;0.0;0.0;0.0;0.0;0.0;0.0;0.0;0.0;0.0;0.0;0.0;0.0;0.0;6140.0;458.203125;459.0;457.0;;;;0;;0;;0.0;0.0;999.9;NA;0.0;0.0;0.0;0.0;0.0;0.0;0.0;0.0;0.0;0.0;0.0;0.0;0;0.0;;;;;;;;;;;;;;;;;;;205.0;28366.8;1.5;36590.3;32931.270000000004;1.0;0.0;3409.7000000000007;8223.5;;;;;;;;;;;;;;;;;;;;;;;;;;;;;;;;;;;;;;;;;;;;;;;;;;;;;;;;;0.0;36590.3;32931.270000000004;0.82328175;0.9147575;28366.8;300.0;90.0;180.0;150.0;150.0;61.5;0.0;18.45;30.75;30.75;0.0;0.0;0.0;0.0;0.0;0.0;0.0;0.0;0.0;0.0;0.0;0.0;0.0;0.0;0.0;0.0;22.447499999999998;0.0;6.734249999999999;448.94999999999993;11.223749999999999;11.223749999999999;2.24475;1.0;0.0;-1.0;719.0;458.203125;0;1;0.000854166666667;0.0;455.576125;0.0;2.0;1.0;1.0;1.0;0.0;760.0;719.0;0.0;internal;collection;2.0;200.0;0.0009999999999763531;4.999999999881766e-06;671.0;0.0;0.10519656212456938;0.01708333333333333;0.0;0.1222798954579027;[800, 801, 802, 840, 841, 842, 844, 843];[719, 677, 637, 595, 553, 511, 510, 550, 671];2018.0;6140.0;7874.132449405815;1968.5331123514538;57037.44541038649;0.06968641114982578;0.0;0.0;0.0;0.0;0.06770833333333326;0.06968641114982568;0.09659158152195357;0.08830564272582303
78;761;;4500.0;3700.0;[719, 720, 721, 760, 762, 801, 802, 803];1.0;1.0;0.0;0.0;0.0;0.0;0.0;0.0;0.0;0.0;0.0;0.0;0.0;0.0;0.0;0.0;0.0;11240.0;459.53125;461.0;459.0;;;;0;;0;;0.0;0.0;999.9;NA;0.0;0.0;0.0;0.0;0.0;0.0;0.0;0.0;0.0;0.0;0.0;0.0;0;0.0;;;;;;;;;;;;;;;;;;;375.0;37092.0;1.5;39202.0;35281.8;1.0;0.0;798.0;2110.0;;;;;;;;;;;;;;;;;;;;;;;;;;;;;;;;;;;;;;;;;;;;;;;;;;;;;;;;;0.0;39202.0;35281.8;0.882045;0.98005;37092.0;300.0;90.0;180.0;150.0;150.0;112.5;0.0;33.75;56.25;56.25;0.0;0.0;0.0;0.0;0.0;0.0;0.0;0.0;0.0;0.0;0.0;0.0;0.0;0.0;0.0;0.0;41.0625;0.0;12.318750000000001;821.25;20.53125;20.53125;4.10625;1.0;0.0;-1.0;719.0;459.53125;0;2;0.002641666666667;0.0;459.53125;0.0;0.0;1.0;1.0;1.0;0.0;761.0;719.0;0.0;internal;collection;2.0;282.842712474619;3.956124999999986;0.013987014073608101;671.0;0.0;0.021583333333333333;0.031249999999999997;0.0;0.05283333333333333;[803];[719, 677, 637, 595, 553, 511, 510, 550, 671];2018.0;11240.0;14414.535623993708;3603.633905998427;24340.5592654271;0.03690036900369004;0.0;0.0;0.0;0.0;0.03591160220994471;0.03690036900368999;0.044004400440044104;0.04448105436573316
79;762;;4700.0;3700.0;[720, 721, 761, 802, 803];1.0;0.75;0.25;0.0;0.0;0.0;0.0;0.0;0.0;0.0;0.0;0.0;0.0;0.0;0.0;0.0;0.0;4420.0;460.640625;463.0;459.0;;;;0;;0;;0.0;0.0;999.9;NA;0.0;0.0;0.0;0.0;0.0;0.0;0.0;0.0;0.0;0.0;0.0;0.0;0;0.0;;;;;;;;;;;;;;;;;;;148.0;20420.4;1.5;27423.65967697245;24681.293709275204;1.0;0.0;2576.3403230275508;7003.259676972448;;;;;;;;;;;;;;;;;;;;;;;;;;;;;100.0;1.0;384.6;1480.7099999999998;1096.1099999999997;10000.0;7333.333333333333;3.0;1185.9566666666678;0.0;0.0;0.0;7667.361000000001;8519.29;;;;;;;;;;;;;;;100.0;37039.05967697245;33335.153709275204;0.83337884273188;0.925976491924311;27753.733333333334;300.0;90.0;180.0;150.0;150.0;44.4;0.0;13.32;22.2;22.2;0.8;0.16;0.0;0.0;0.0;0.0;0.0;0.0;0.8;0.16;0.0;0.4;0.4;0.0;0.0;0.0;16.497999999999998;0.0;4.9202;329.9599999999999;8.248999999999999;8.248999999999999;1.6498;1.0;0.0;-1.0;720.0;460.640625;0;2;0.001360253715911;0.0;460.640625;0.0;0.0;1.0;1.0;1.0;0.0;762.0;720.0;0.0;external;collection;2.0;282.842712474619;2.46875;0.008728349330271445;671.0;0.0;0.0;0.012555555555555552;0.0;0.012555555555555552;[];[720, 678, 637, 595, 553, 511, 510, 550, 671];2018.0;4431.2;5682.7126563203665;1420.6781640800916;5682.7126563203665;0.105;0.0;0.0;0.0;0.0;0.10243902439024376;0.10470682090147583;0.10470682090147583;0.10243902439024376
86;800;;4100.0;3900.0;[758, 759, 760, 799, 801, 840, 841, 842];1.0;0.5;0.0;0.0;0.0;0.0;0.0;0.0;0.0;0.0;0.0;0.0;0.0;0.5;0.0;0.0;0.0;1320.0;457.390625;459.0;456.0;;;;0;;0;;20000.0;10000.0;999.9;NA;0.0;0.0;0.0;0.0;0.0;0.0;0.0;0.0;0.0;0.0;0.0;0.0;0;0.0;2.445187172817099;1.0;3234.56;;1.2;28.0;1.0;28.0;598.7657142857142;225.93529476829994;225.7236217799749;1.0;271.6152947682999;244.45376529146992;327.1504195174143;Direct;263.4569142857143;31.13581714285714;;;;;;;;;;;;;;;;;;;;;;;;;;;;;;;;;;;;;;;;;;;;;;;;;;;;;;;;;;;;;;;;;;0.0;20146.6682535124;19132.00142816116;0.478300035704029;0.50366670633781;6326.188253512399;489.0374345634197;146.7112303690259;293.4224607380518;244.51871728170985;244.51871728170985;13.693048167775753;0.0;4.107914450332725;6.846524083887877;6.846524083887877;0.0;0.0;0.0;0.0;0.0;0.0;0.0;0.0;0.0;0.0;0.0;0.0;0.0;0.0;0.0;0.0;4.997962581238149;0.0;1.499388774371445;99.95925162476298;2.498981290619075;2.498981290619075;0.499796258123815;1.0;0.0;-1.0;840.0;457.390625;0;1;0.000190181224552;0.0;455.577125;0.0;1.0;1.0;1.0;1.0;0.0;800.0;760.0;0.0;internal;collection;2.0;282.842712474619;0.0010000000000331966;3.535533906050105e-06;671.0;0.0;0.04239293763352058;0.0038036244910488195;0.0;0.0461965621245694;[840, 841, 842, 843];[760, 719, 677, 637, 595, 553, 511, 510, 550, 671];2018.0;1320.0;1692.8102334227488;423.2025583556872;22001.403306515662;0.43478260869565216;0.0;0.0;0.0;0.0;0.4585491252199048;0.4347826086956524;0.12880303189809442;0.10806029622896639
87;801;;4300.0;3900.0;[759, 760, 761, 800, 802, 841, 842, 843];1.0;1.0;0.0;0.0;0.0;0.0;0.0;0.0;0.0;0.0;0.0;0.0;0.0;0.0;0.0;0.0;0.0;9620.0;458.5;459.0;457.0;;;;0;;0;;0.0;0.0;999.9;NA;0.0;0.0;0.0;0.0;0.0;0.0;0.0;0.0;0.0;0.0;0.0;0.0;0;0.0;;;;;;;;;;;;;;;;;;;321.0;22222.2;1.5;35807.6818;32226.91362;2.0;0.0;4192.3182000000015;13585.481799999998;;;;;;;;;;;;;;;;;;;;;;;;;;;;;;;;;;;;;;;;;;;;;;;;;;;;;;;;;0.0;35807.6818;32226.91362;0.8056728405;0.895192045;22222.2;300.0;90.0;180.0;150.0;150.0;96.3;0.0;28.89;48.15;48.15;0.0;0.0;0.0;0.0;0.0;0.0;0.0;0.0;0.0;0.0;0.0;0.0;0.0;0.0;0.0;0.0;35.149499999999996;0.0;10.54485;702.9899999999999;17.574749999999998;17.574749999999998;3.514950000000001;1.0;0.0;-1.0;841.0;458.5;0;1;0.0013375;0.0;458.5;0.0;0.0;1.0;1.0;1.0;0.0;801.0;760.0;0.0;external;collection;2.0;200.0;2.9238750000000095;0.014619375000000047;671.0;0.0;0.0;0.026749999999999993;0.0;0.026749999999999993;[];[760, 719, 677, 637, 595, 553, 511, 510, 550, 671];2018.0;9620.0;12336.995792065789;3084.2489480164472;12336.995792065789;0.09070294784580499;0.0;0.0;0.0;0.0;0.08813559322033888;0.09070294784580503;0.09070294784580503;0.08813559322033888
88;802;;4500.0;3900.0;[760, 761, 762, 801, 803, 842, 843, 844];1.0;1.0;0.0;0.0;0.0;0.0;0.0;0.0;0.0;0.0;0.0;0.0;0.0;0.0;0.0;0.0;0.0;9940.0;460.046875;463.0;459.0;;;;0;;0;;0.0;0.0;999.9;NA;0.0;0.0;0.0;0.0;0.0;0.0;0.0;0.0;0.0;0.0;0.0;0.0;0;0.0;;;;;;;;;;;;;;;;;;;332.0;22961.4;1.5;35691.3656;32122.22904;2.0;0.0;4308.634400000001;12729.965599999998;;;;;;;;;;;;;;;;;;;;;;;;;;;;;;;;;;;;;;;;;;;;;;;;;;;;;;;;;0.0;35691.3656;32122.22904;0.803055726;0.89228414;22961.4;300.0;90.0;180.0;150.0;150.0;99.6;0.0;29.88;49.8;49.8;0.0;0.0;0.0;0.0;0.0;0.0;0.0;0.0;0.0;0.0;0.0;0.0;0.0;0.0;0.0;0.0;36.354;0.0;10.9062;727.0799999999999;18.177;18.177;3.6354;1.0;0.0;-1.0;842.0;460.046875;0;1;0.001383333333333;0.0;460.046875;0.0;0.0;1.0;1.0;1.0;0.0;802.0;760.0;0.0;internal;collection;2.0;282.842712474619;4.4707500000000095;0.01580648820994882;671.0;0.0;0.004583333333333333;0.027666666666666662;0.0;0.032249999999999994;[844];[760, 719, 677, 637, 595, 553, 511, 510, 550, 671];2018.0;9940.0;12747.374030471305;3186.843507617826;14824.913862399224;0.05970149253731343;0.0;0.0;0.0;0.0;0.060702875399360715;0.05970149253731341;0.07037037037037046;0.07202216066481962
89;803;;4700.0;3900.0;[761, 762, 802, 843, 844];1.0;1.0;0.0;0.0;0.0;0.0;0.0;0.0;0.0;0.0;0.0;0.0;0.0;0.0;0.0;0.0;0.0;7740.0;464.59375;475.0;462.0;;;;0;;0;;0.0;0.0;999.9;NA;0.0;0.0;0.0;0.0;0.0;0.0;0.0;0.0;0.0;0.0;0.0;0.0;0;0.0;;;;;;;;;;;;;;;;;;;259.0;35758.8;1.5;36232.306;32609.075399999998;1.0;0.0;3767.6940000000004;473.5059999999967;;;;;;;;;;;;;;;;;;;;;;;;;;;;;;;;;;;;;;;;;;;;;;;;;;;;;;;;;0.0;36232.306;32609.075399999998;0.815226885;0.90580765;35758.8;300.0;90.0;180.0;150.0;150.0;77.7;0.0;23.31;38.85;38.85;0.0;0.0;0.0;0.0;0.0;0.0;0.0;0.0;0.0;0.0;0.0;0.0;0.0;0.0;0.0;0.0;28.360500000000002;0.0;8.508149999999999;567.21;14.180250000000001;14.180250000000001;2.83605;1.0;0.0;-1.0;761.0;464.59375;0;1;0.001079166666667;0.0;464.59375;0.0;0.0;1.0;1.0;1.0;0.0;803.0;761.0;0.0;external;collection;2.0;282.842712474619;5.0625;0.017898640398784485;671.0;0.0;0.0;0.021583333333333333;0.0;0.021583333333333333;[];[761, 719, 677, 637, 595, 553, 511, 510, 550, 671];2018.0;7740.0;9926.02364143339;2481.5059103583476;9926.02364143339;0.05449591280653951;0.0;0.0;0.0;0.0;0.057142857142857315;0.054495912806539634;0.054495912806539634;0.057142857142857315
95;840;;3900.0;4100.0;[798, 799, 800, 839, 841];1.0;0.0;0.0;0.0;0.25;0.0;0.0;0.0;0.0;0.0;0.0;0.0;0.0;0.25;0.0;0.0;0.5;980.0;456.40625;461.0;454.0;;;;1;;0;;0.0;0.0;999.9;GF;0.0;0.0;0.0;0.0;0.0;0.0;0.0;0.0;0.0;0.0;0.0;0.0;0;0.0;;;;;;;;;;;;;;;;;;;;;;;;;;;;100.0;1.0;211.86;1425.2399999999998;1213.3799999999997;10000.0;3500.0;2.0;1890.0;1196.0;1988.7600000000002;0.0;5927.400000000001;6586.0;;;;;;;;;;;;;;;;;;;;;;;;;;;;;;;;;;;;;;;;;;;100.0;7799.379999999999;7019.442;0.17548605;0.1949845;3500.0;0.0;0.0;0.0;0.0;0.0;0.0;0.0;0.0;0.0;0.0;0.0;0.0;0.0;0.0;1.6;0.32;0.0;0.0;1.6;0.32;0.0;0.0;0.0;0.8;0.8;0.0;0.584;0.0;0.1168;11.68;0.292;0.292;0.0584;1.0;0.0;-1.0;881.0;456.40625;0;2;0.001107591623959;0.0;456.40625;0.0;0.0;1.0;1.0;1.0;0.0;840.0;800.0;0.0;external;collection;2.0;282.842712474619;0.8291249999999764;0.0029313995497563974;671.0;0.0;0.0;0.0004444444444444444;0.0;0.0004444444444444444;[];[800, 760, 719, 677, 637, 595, 553, 511, 510, 550, 671];2018.0;1002.4;1285.509831805275;321.3774579513188;1285.509831805275;0.2894736842105263;0.0;0.0;0.0;0.0;0.0;0.2811860940695296;0.2811860940695296;0.0
96;841;;4100.0;4100.0;[799, 800, 801, 840, 842];1.0;1.0;0.0;0.0;0.0;0.0;0.0;0.0;0.0;0.0;0.0;0.0;0.0;0.0;0.0;0.0;0.0;1780.0;455.578125;457.0;454.0;;;;0;;0;;0.0;0.0;999.9;NA;0.0;0.0;0.0;0.0;0.0;0.0;0.0;0.0;0.0;0.0;0.0;0.0;0;0.0;3.019095913445686;2.0;10046.32;;2.8;30.0;1.0;30.0;998.456;278.96446240238146;607.4948613392438;1.0;312.6844624023815;281.41601616214336;685.7715375976186;Direct;479.25888;41.935152;;;;;;;;;;;;;;;;;;;;;;;;;;;;;;;;;;;;;;;;;;;;;;;;;;;;;;;;;;;;;;;;;;0.0;16266.213872071443;14639.5924848643;0.365989812121608;0.406655346801786;8368.933872071444;603.8191826891373;181.14575480674117;362.29150961348233;301.90959134456864;301.90959134456864;18.114575480674116;0.0;5.434372644202235;9.057287740337058;9.057287740337058;0.0;0.0;0.0;0.0;0.0;0.0;0.0;0.0;0.0;0.0;0.0;0.0;0.0;0.0;0.0;0.0;6.611820050446052;0.0;1.983546015133816;132.23640100892104;3.305910025223026;3.305910025223026;0.661182005044605;1.0;0.0;-1.0;881.0;455.578125;0;2;0.00158909132612;0.0;455.578125;0.0;0.0;1.0;1.0;1.0;0.0;841.0;800.0;0.0;external;collection;2.0;200.0;0.0009999999999763531;4.999999999881766e-06;671.0;0.0;0.0;0.0050318265224094764;0.0;0.0050318265224094764;[];[800, 760, 719, 677, 637, 595, 553, 511, 510, 550, 671];2018.0;1780.0;2282.7289511306763;570.6822377826691;2282.7289511306763;-0.05319148936170213;0.0;0.0;0.0;0.0;-0.12068736047183252;-0.06433978132884782;-0.06433978132884782;-0.12068736047183252
97;842;;4300.0;4100.0;[800, 801, 802, 841, 843];1.0;0.5;0.25;0.0;0.25;0.0;0.0;0.0;0.0;0.0;0.0;0.0;0.0;0.0;0.0;0.0;0.0;3560.0;457.5625;459.0;456.0;;;;0;;0;;0.0;0.0;999.9;NA;0.0;0.0;0.0;0.0;0.0;0.0;0.0;0.0;0.0;0.0;0.0;0.0;0;0.0;;;;;;;;;;;;;;;;;;;119.0;16447.2;1.5;18177.98477505076;16360.186297545686;1.0;0.0;1822.0152249492392;1730.7847750507601;100.0;1.0;363.46999999999997;1664.3100000000002;1300.8400000000001;10000.0;3500.0;2.0;1890.0;1196.0;1749.6900000000005;0.0;5927.400000000001;6586.0;;;;;;;;;;;;;;;100.0;1.0;363.46999999999997;1664.3100000000002;1300.8400000000001;10000.0;7333.333333333333;3.0;1002.3566666666675;0.0;0.0;0.0;7502.121000000001;8335.69;;;;;;;;;;;;;;;200.0;35701.354775050764;32131.219297545686;0.803280482438642;0.892533869376269;27280.533333333333;300.0;90.0;180.0;150.0;150.0;35.7;0.0;10.71;17.85;17.85;0.8;0.16;0.0;0.0;1.6;0.32;0.0;0.0;2.4;0.48;0.0;0.4;0.4;0.8;0.8;0.0;13.906500000000001;0.0;4.084350000000001;278.13;6.953250000000001;6.953250000000001;1.39065;1.0;0.0;-1.0;882.0;457.5625;0;2;0.0019125;0.0;457.5625;0.0;0.0;1.0;1.0;1.0;0.0;842.0;800.0;0.0;internal;collection;2.0;282.842712474619;1.9853749999999764;0.007019360628491125;671.0;0.0;0.02633333333333333;0.010583333333333332;0.0;0.03691666666666666;[843];[800, 760, 719, 677, 637, 595, 553, 511, 510, 550, 671];2018.0;3593.6;4608.547617293932;1152.136904323483;16740.354290156964;0.2714285714285714;0.0;0.0;0.0;0.0;0.24509803921568626;0.2682100508187466;0.1259315484405189;0.12151898734177183
98;843;;4500.0;4100.0;[801, 802, 803, 842, 844];1.0;1.0;0.0;0.0;0.0;0.0;0.0;0.0;0.0;0.0;0.0;0.0;0.0;0.0;0.0;0.0;0.0;9460.0;461.25;470.0;459.0;;;;0;;0;;0.0;0.0;999.9;NA;0.0;0.0;0.0;0.0;0.0;0.0;0.0;0.0;0.0;0.0;0.0;0.0;0;0.0;;;;;;;;;;;;;;;;;;;316.0;21852.6;1.5;35860.5528;32274.497519999997;2.0;0.0;4139.4472000000005;14007.952800000001;;;;;;;;;;;;;;;;;;;;;;;;;;;;;;;;;;;;;;;;;;;;;;;;;;;;;;;;;0.0;35860.5528;32274.497519999997;0.806862438;0.89651382;21852.6;300.0;90.0;180.0;150.0;150.0;94.8;0.0;28.44;47.4;47.4;0.0;0.0;0.0;0.0;0.0;0.0;0.0;0.0;0.0;0.0;0.0;0.0;0.0;0.0;0.0;0.0;34.602;0.0;10.3806;692.04;17.301;17.301;3.4602;1.0;0.0;-1.0;883.0;461.25;0;1;0.001316666666667;0.0;461.25;0.0;0.0;1.0;1.0;1.0;0.0;843.0;842.0;0.0;external;collection;2.0;200.0;3.6875;0.0184375;671.0;0.0;0.0;0.02633333333333333;0.0;0.02633333333333333;[];[842, 800, 760, 719, 677, 637, 595, 553, 511, 510, 550, 671];2018.0;9460.0;12131.806672863031;3032.9516682157578;12131.806672863031;0.07990867579908675;0.0;0.0;0.0;0.0;0.07849829351535809;0.07990867579908664;0.07990867579908664;0.07849829351535809
99;844;;4700.0;4100.0;[802, 803, 843];1.0;0.25;0.0;0.0;0.0;0.0;0.0;0.0;0.0;0.0;0.0;0.0;0.0;0.0;0.0;0.75;0.0;1620.0;473.875;481.0;464.0;;;;0;;0;;0.0;0.0;999.9;NA;0.0;0.0;0.0;0.0;0.0;0.0;0.0;0.0;0.0;0.0;0.0;0.0;0;0.0;;;;;;;;;;;;;;;;;;;55.0;7484.4;1.5;8908.307;8017.476300000001;1.0;0.0;1091.6930000000002;1423.9070000000002;;;;;;;;;;;;;;;;;;;;;;;;;;;;;;;;;;;;;;;;;;;;;;;;;;;;;;;;;0.0;8908.307;8017.476300000001;0.2004369075;0.222707675;7484.4;300.0;90.0;180.0;150.0;150.0;16.5;0.0;4.95;8.25;8.25;0.0;0.0;0.0;0.0;0.0;0.0;0.0;0.0;0.0;0.0;0.0;0.0;0.0;0.0;0.0;0.0;6.0225;0.0;1.80675;120.45;3.01125;3.01125;0.60225;1.0;0.0;-1.0;884.0;473.875;0;1;0.000229166666667;0.0;473.875;0.0;0.0;1.0;1.0;1.0;0.0;844.0;802.0;0.0;external;collection;2.0;282.842712474619;13.828125;0.04888980479297614;671.0;0.0;0.0;0.004583333333333333;0.0;0.004583333333333333;[];[802, 760, 719, 677, 637, 595, 553, 511, 510, 550, 671];2018.0;1620.0;2077.539831927919;519.3849579819797;2077.539831927919;0.14084507042253522;0.0;0.0;0.0;0.0;0.14583333333333356;0.14084507042253527;0.14084507042253527;0.14583333333333356
