,BlockID,CentreX,CentreY,Neighbours,Active,Population,AvgElev,MaxElev,MinElev,HasRiver,HasLake,Total_jobs,Blk_WD,Blk_WW,dem_sink,blk_elev,edge,carved,has_ww,has_infra,has_pipe,has_wwtp,id_up,id_down,has_outlet,pipe_loc,type_sewer,basin_id,horiz_dist,elev_drop,terr_slope,near_wwtp,near_river,ww_inflow,peak_flow,PE,desg_flow,up_ids,down_ids,built_year,pop_D,ww_D,infra_D,wwtp_D,outlet_D,pk_flow_D,PE_D,des_flow_D
0,671,2900.0,3300.0,"[672, 712, 713]",1.0,30.0,435.734375,438.0,435.0,1,1,100.0,9.246410386448128,8.24641038644813,0.0,435.734375,1.0,0.0,1.0,1.0,0.0,1.0,671.0,671.0,1.0,0.0,wwtp_c,1.0,0.0,0.0,0.0,671.0,0.0,0.0071212751185999,0.00031379034956043105,3965.36824968551,0.007435065468160331,"[672, 876, 881, 673, 835, 836, 877, 840, 674, 795, 799, 675, 716, 676, 717, 757, 758]",[671],0.0,0.0,0.0,0.0,0.0,0.0,0.0,0.0,0.0
1,672,3100.0,3300.0,"[671, 673, 712, 713, 714]",1.0,60.0,440.171875,450.0,437.0,1,0,200.0,16.43187714078935,16.43187714078935,0.0,440.171875,1.0,0.0,1.0,1.0,1.0,0.0,672.0,671.0,0.0,internal,collection,1.0,200.0,4.4375,0.0221875,671.0,0.0,0.003781451066481185,0.000625261687244648,2350.2468019871108,0.004406712753725833,"[673, 674, 675, 716, 676, 717, 757, 758]",[671],2018.0,0.0,0.0,0.0,0.0,0.0,0.0,0.0,0.0
2,673,3300.0,3300.0,"[672, 674, 713, 714, 715]",1.0,109.0,447.09375,454.0,440.0,0,0,0.0,8.715192056834592,6.642471552628372,0.0,447.09375,1.0,0.0,1.0,1.0,1.0,0.0,673.0,672.0,0.0,internal,collection,1.0,200.0,6.921875,0.034609375,671.0,0.0,0.003528693397050882,0.00025275766943030334,2016.773902123299,0.0037814510664811855,"[674, 675, 716, 676, 717, 757, 758]","[672, 671]",2018.0,0.0,0.0,0.0,0.0,0.0,0.0,0.0,0.0
3,674,3500.0,3300.0,"[673, 675, 714, 715, 716]",1.0,294.0,454.625,459.0,450.0,0,0,0.0,17.803693,17.472915,0.0,453.27825,1.0,3.0,1.0,1.0,1.0,0.0,674.0,673.0,0.0,internal,collection,1.0,200.0,6.184500000000014,0.03092250000000007,671.0,0.0,0.0028638183970508815,0.000664875,1881.96981176047,0.0035286933970508816,"[675, 716, 676, 717, 757, 758]","[673, 672, 671]",2018.0,0.0,0.0,0.0,0.0,0.0,0.0,0.0,0.0
4,675,3700.0,3300.0,"[674, 676, 715, 716, 717]",1.0,187.0,460.46875,463.0,458.0,0,0,0.0,13.068398162282524,11.092323900857927,0.0,453.27925,1.0,2.0,1.0,1.0,1.0,0.0,675.0,674.0,0.0,internal,collection,1.0,200.0,0.0009999999999763531,4.999999999881766e-06,671.0,0.0,0.0020602671110056367,0.000422082340215294,1323.9197073178298,0.002482349451220931,"[676, 717, 757, 758]","[674, 673, 672, 671]",2018.0,0.0,0.0,0.0,0.0,0.0,0.0,0.0,0.0
5,676,3900.0,3300.0,"[675, 716, 717]",1.0,87.0,456.359375,461.0,454.0,0,0,0.0,5.344964360000001,5.233004999999999,1.0,456.359375,1.0,0.0,1.0,1.0,1.0,0.0,676.0,675.0,0.0,external,collection,1.0,200.0,3.0801250000000095,0.015400625000000048,671.0,0.0,0.0,0.00019912499999999992,106.19999999999996,0.00019912499999999992,[],"[675, 674, 673, 672, 671]",2018.0,0.0,0.0,0.0,0.0,0.0,0.0,0.0,0.0
6,712,2900.0,3500.0,"670,671,672,711,713,752,753,754",1.0,0.0,440.25,450.0,435.0,1,1,0.0,0.0,0.0,0.0,440.25,0.0,0.0,0.0,0.0,0.0,0.0,0.0,0.0,0.0,0.0,0.0,0.0,0.0,0.0,0.0,0.0,0.0,0.0,0.0,0.0,0.0,0.0,0.0,0.0,0.0,0.0,0.0,0.0,0.0,0.0,0.0,0.0
7,713,3100.0,3500.0,"671,672,673,712,714,753,754,755",1.0,0.0,449.203125,453.0,439.0,0,0,0.0,0.0,0.0,0.0,449.203125,0.0,0.0,0.0,0.0,0.0,0.0,0.0,0.0,0.0,0.0,0.0,0.0,0.0,0.0,0.0,0.0,0.0,0.0,0.0,0.0,0.0,0.0,0.0,0.0,0.0,0.0,0.0,0.0,0.0,0.0,0.0,0.0
8,714,3300.0,3500.0,"672,673,674,713,715,754,755,756",1.0,0.0,455.109375,459.0,451.0,1,0,0.0,0.0,0.0,0.0,455.109375,0.0,0.0,0.0,0.0,0.0,0.0,0.0,0.0,0.0,0.0,0.0,0.0,0.0,0.0,0.0,0.0,0.0,0.0,0.0,0.0,0.0,0.0,0.0,0.0,0.0,0.0,0.0,0.0,0.0,0.0,0.0,0.0
9,715,3500.0,3500.0,"673,674,675,714,716,755,756,757",1.0,0.0,461.390625,466.0,456.0,0,0,0.0,0.0,0.0,0.0,461.390625,0.0,0.0,0.0,0.0,0.0,0.0,0.0,0.0,0.0,0.0,0.0,0.0,0.0,0.0,0.0,0.0,0.0,0.0,0.0,0.0,0.0,0.0,0.0,0.0,0.0,0.0,0.0,0.0,0.0,0.0,0.0,0.0
10,716,3700.0,3500.0,"[674, 675, 676, 715, 717, 756, 757, 758]",1.0,165.0,461.0625,464.0,458.0,0,0,0.0,11.617458994306949,10.025003896411114,0.0,461.0625,0.0,0.0,1.0,1.0,1.0,0.0,716.0,674.0,0.0,external,collection,1.0,282.842712474619,7.784249999999986,0.027521479807256864,671.0,0.0,0.0,0.000381468945829951,203.45010444264054,0.000381468945829951,[],"[674, 673, 672, 671]",2018.0,0.0,0.0,0.0,0.0,0.0,0.0,0.0,0.0
11,717,3900.0,3500.0,"[675, 676, 716, 757, 758]",1.0,159.0,457.09375,459.0,455.0,0,0,0.0,9.681688362494926,9.490365,0.0,453.28025,1.0,1.0,1.0,1.0,1.0,0.0,717.0,675.0,0.0,internal,collection,1.0,282.842712474619,0.0010000000000331966,3.535533906050105e-06,671.0,0.0,0.001500017111005637,0.00036112499999999996,992.609125869673,0.0018611421110056368,"[757, 758]","[675, 674, 673, 672, 671]",2018.0,0.0,0.0,0.0,0.0,0.0,0.0,0.0,0.0
12,753,2900.0,3700.0,"711,712,713,752,754,793,794,795",1.0,0.0,446.40625,455.0,438.0,1,0,0.0,0.0,0.0,0.0,446.40625,0.0,0.0,0.0,0.0,0.0,0.0,0.0,0.0,0.0,0.0,0.0,0.0,0.0,0.0,0.0,0.0,0.0,0.0,0.0,0.0,0.0,0.0,0.0,0.0,0.0,0.0,0.0,0.0,0.0,0.0,0.0,0.0
13,754,3100.0,3700.0,"712,713,714,753,755,794,795,796",1.0,0.0,454.3125,465.0,448.0,1,0,0.0,0.0,0.0,0.0,454.3125,0.0,0.0,0.0,0.0,0.0,0.0,0.0,0.0,0.0,0.0,0.0,0.0,0.0,0.0,0.0,0.0,0.0,0.0,0.0,0.0,0.0,0.0,0.0,0.0,0.0,0.0,0.0,0.0,0.0,0.0,0.0,0.0
14,755,3300.0,3700.0,"713,714,715,754,756,795,796,797",1.0,0.0,463.03125,470.0,455.0,1,0,0.0,0.0,0.0,0.0,463.03125,0.0,0.0,0.0,0.0,0.0,0.0,0.0,0.0,0.0,0.0,0.0,0.0,0.0,0.0,0.0,0.0,0.0,0.0,0.0,0.0,0.0,0.0,0.0,0.0,0.0,0.0,0.0,0.0,0.0,0.0,0.0,0.0
15,756,3500.0,3700.0,"714,715,716,755,757,796,797,798",1.0,0.0,465.484375,471.0,460.0,0,0,0.0,0.0,0.0,0.0,465.484375,0.0,0.0,0.0,0.0,0.0,0.0,0.0,0.0,0.0,0.0,0.0,0.0,0.0,0.0,0.0,0.0,0.0,0.0,0.0,0.0,0.0,0.0,0.0,0.0,0.0,0.0,0.0,0.0,0.0,0.0,0.0,0.0
16,757,3700.0,3700.0,"715,716,717,756,758,797,798,799",1.0,13.0,459.828125,463.0,458.0,0,0,0.0,1.409141659418523,0.896976451421472,0.0,459.828125,0.0,0.0,1.0,1.0,1.0,0.0,757.0,717.0,0.0,external,collection,1.0,282.842712474619,6.547874999999976,0.02315023407430924,671.0,0.0,0.0,3.413152402669223e-05,18.203479480902523,3.413152402669223e-05,[],"[717, 675, 674, 673, 672, 671]",2023.0,0.0,0.0,0.0,0.0,0.0,0.0,0.0,0.0
17,758,3900.0,3700.0,"716,717,718,757,759,798,799,800",1.0,42.0,458.46875,459.0,457.0,1,0,400.0,38.52347322580667,38.52347322580667,0.0,456.358375,0.0,1.0,1.0,1.0,1.0,0.0,758.0,717.0,0.0,external,collection,1.0,200.0,3.078125,0.015390625,671.0,0.0,0.0,0.0014658855869789447,781.8056463887705,0.0014658855869789447,[],"[717, 675, 674, 673, 672, 671]",2023.0,0.0,0.0,0.0,0.0,0.0,0.0,0.0,0.0
18,794,2900.0,3900.0,"752,753,754,793,795,834,835,836",1.0,0.0,457.828125,467.0,446.0,0,0,0.0,0.0,0.0,0.0,457.828125,0.0,0.0,0.0,0.0,0.0,0.0,0.0,0.0,0.0,0.0,0.0,0.0,0.0,0.0,0.0,0.0,0.0,0.0,0.0,0.0,0.0,0.0,0.0,0.0,0.0,0.0,0.0,0.0,0.0,0.0,0.0,0.0
19,795,3100.0,3900.0,"753,754,755,794,796,835,836,837",1.0,7.0,467.921875,475.0,460.0,0,0,0.0,2.033043025788276,0.571795071454414,0.0,467.921875,0.0,0.0,1.0,1.0,1.0,0.0,795.0,835.0,0.0,external,collection,1.0,282.842712474619,6.671875,0.023588640278644983,671.0,0.0,0.0,2.175780332779353e-05,11.604161774823215,2.175780332779353e-05,[],"[835, 876, 671]",2028.0,0.0,0.0,0.0,0.0,0.0,0.0,0.0,0.0
20,796,3300.0,3900.0,"754,755,756,795,797,836,837,838",1.0,0.0,471.515625,475.0,467.0,0,0,0.0,0.0,0.0,0.0,471.515625,0.0,0.0,0.0,0.0,0.0,0.0,0.0,0.0,0.0,0.0,0.0,0.0,0.0,0.0,0.0,0.0,0.0,0.0,0.0,0.0,0.0,0.0,0.0,0.0,0.0,0.0,0.0,0.0,0.0,0.0,0.0,0.0
21,797,3500.0,3900.0,"755,756,757,796,798,837,838,839",1.0,0.0,466.734375,474.0,463.0,0,0,0.0,0.0,0.0,0.0,466.734375,0.0,0.0,0.0,0.0,0.0,0.0,0.0,0.0,0.0,0.0,0.0,0.0,0.0,0.0,0.0,0.0,0.0,0.0,0.0,0.0,0.0,0.0,0.0,0.0,0.0,0.0,0.0,0.0,0.0,0.0,0.0,0.0
22,798,3700.0,3900.0,"756,757,758,797,799,838,839,840",1.0,0.0,461.484375,466.0,459.0,0,0,0.0,0.0,0.0,0.0,461.484375,0.0,0.0,0.0,0.0,0.0,0.0,0.0,0.0,0.0,0.0,0.0,0.0,0.0,0.0,0.0,0.0,0.0,0.0,0.0,0.0,0.0,0.0,0.0,0.0,0.0,0.0,0.0,0.0,0.0,0.0,0.0,0.0
23,799,3900.0,3900.0,"757,758,759,798,800,839,840,841",1.0,8.0,457.421875,462.0,456.0,1,0,0.0,1.27835102934358,0.655750431050027,0.0,456.357375,0.0,2.0,1.0,1.0,1.0,0.0,799.0,840.0,0.0,external,collection,1.0,200.0,0.0009999999999763531,4.999999999881766e-06,671.0,0.0,0.0,2.495245171423238e-05,13.307974247590602,2.495245171423238e-05,[],"[840, 881, 671]",2023.0,0.0,0.0,0.0,0.0,0.0,0.0,0.0,0.0
24,835,2900.0,4100.0,"793,794,795,834,836,875,876,877",1.0,9.0,461.25,473.0,448.0,0,0,0.0,2.032169762325356,0.549450043020612,0.0,461.25,0.0,0.0,1.0,1.0,2.0,0.0,835.0,876.0,1.0,internal,trunk,1.0,200.0,-0.9375,-0.0046875,671.0,0.0,2.175780332779353e-05,2.0907535883584928e-05,22.75484757940184,4.2665339211378454e-05,[795],"[876, 671]",2028.0,0.0,0.0,0.0,0.0,0.0,0.0,0.0,0.0
25,836,3100.0,4100.0,"794,795,796,835,837,876,877,878",1.0,11.0,477.453125,484.0,472.0,0,0,100.0,18.586380960612182,18.38750496061218,0.0,477.453125,0.0,0.0,1.0,1.0,1.0,0.0,836.0,876.0,0.0,external,collection,1.0,282.842712474619,15.265625,0.05397213478275444,671.0,0.0,0.0,0.0006996767488817419,373.160932736929,0.0006996767488817419,[],"[876, 671]",2023.0,0.0,0.0,0.0,0.0,0.0,0.0,0.0,0.0
26,837,3300.0,4100.0,"795,796,797,836,838,877,878,879",1.0,0.0,473.578125,477.0,470.0,0,0,0.0,0.0,0.0,0.0,473.578125,0.0,0.0,0.0,0.0,0.0,0.0,0.0,0.0,0.0,0.0,0.0,0.0,0.0,0.0,0.0,0.0,0.0,0.0,0.0,0.0,0.0,0.0,0.0,0.0,0.0,0.0,0.0,0.0,0.0,0.0,0.0,0.0
27,838,3500.0,4100.0,"796,797,798,837,839,878,879,880",1.0,0.0,468.546875,473.0,464.0,0,0,0.0,0.0,0.0,0.0,468.546875,0.0,0.0,0.0,0.0,0.0,0.0,0.0,0.0,0.0,0.0,0.0,0.0,0.0,0.0,0.0,0.0,0.0,0.0,0.0,0.0,0.0,0.0,0.0,0.0,0.0,0.0,0.0,0.0,0.0,0.0,0.0,0.0
28,839,3700.0,4100.0,"797,798,799,838,840,879,880,881",1.0,0.0,462.671875,466.0,459.0,0,0,0.0,0.0,0.0,0.0,462.671875,0.0,0.0,0.0,0.0,0.0,0.0,0.0,0.0,0.0,0.0,0.0,0.0,0.0,0.0,0.0,0.0,0.0,0.0,0.0,0.0,0.0,0.0,0.0,0.0,0.0,0.0,0.0,0.0,0.0,0.0,0.0,0.0
29,840,3900.0,4100.0,"[798, 799, 839, 880, 881]",1.0,20.0,456.40625,461.0,454.0,1,0,100.0,17.100557073438676,16.868021073438676,0.0,456.356375,1.0,3.0,1.0,1.0,1.0,0.0,840.0,881.0,0.0,internal,collection,1.0,200.0,3.075125000000014,0.01537562500000007,671.0,0.0,2.495245171423238e-05,0.0006418577272997973,355.6320954741492,0.0006668101790140297,[799],"[881, 671]",2018.0,0.0,0.0,0.0,0.0,0.0,0.0,0.0,0.0
30,876,2900.0,4300.0,"834,835,836,875,877,916,917,918",1.0,4.0,462.1875,475.0,448.0,0,0,0.0,0.943569421562582,0.300323772639717,0.0,462.1875,0.0,0.0,1.0,1.0,2.0,0.0,876.0,671.0,1.0,internal,trunk,1.0,1000.0,26.453125,0.026453125,671.0,0.0,0.0013573959621261404,1.1427845229821803e-05,730.0393639231798,0.0013688238073559622,"[835, 836, 877, 795]",[671],2023.0,0.0,0.0,0.0,0.0,0.0,0.0,0.0,0.0
31,877,3100.0,4300.0,"835,836,837,876,878,917,918,919",1.0,11.0,476.40625,479.0,473.0,0,0,100.0,16.373639809587768,16.163615809587768,0.0,476.40625,0.0,0.0,1.0,1.0,1.0,0.0,877.0,876.0,0.0,external,collection,1.0,200.0,14.21875,0.07109375,671.0,0.0,0.0,0.0006150538740330201,328.0287328176107,0.0006150538740330201,[],"[876, 671]",2023.0,0.0,0.0,0.0,0.0,0.0,0.0,0.0,0.0
32,878,3300.0,4300.0,"836,837,838,877,879,918,919,920",1.0,0.0,473.265625,477.0,467.0,0,0,0.0,0.0,0.0,0.0,473.265625,0.0,0.0,0.0,0.0,0.0,0.0,0.0,0.0,0.0,0.0,0.0,0.0,0.0,0.0,0.0,0.0,0.0,0.0,0.0,0.0,0.0,0.0,0.0,0.0,0.0,0.0,0.0,0.0,0.0,0.0,0.0,0.0
33,879,3500.0,4300.0,"837,838,839,878,880,919,920,921",1.0,0.0,467.578125,473.0,456.0,0,0,0.0,0.0,0.0,0.0,467.578125,0.0,0.0,0.0,0.0,0.0,0.0,0.0,0.0,0.0,0.0,0.0,0.0,0.0,0.0,0.0,0.0,0.0,0.0,0.0,0.0,0.0,0.0,0.0,0.0,0.0,0.0,0.0,0.0,0.0,0.0,0.0,0.0
34,880,3700.0,4300.0,"838,839,840,879,881,920,921,922",1.0,0.0,458.765625,467.0,453.0,0,0,0.0,1.0,0.0,0.0,458.765625,0.0,0.0,0.0,0.0,0.0,0.0,0.0,0.0,0.0,0.0,0.0,0.0,0.0,0.0,0.0,0.0,0.0,0.0,0.0,0.0,0.0,0.0,0.0,0.0,0.0,0.0,0.0,0.0,0.0,0.0,0.0,0.0
35,881,3900.0,4300.0,"[839, 840, 880]",1.0,20.0,453.28125,457.0,452.0,1,0,100.0,19.02819878708709,17.84223778708709,1.0,453.28125,1.0,0.0,1.0,1.0,2.0,0.0,881.0,671.0,1.0,internal,trunk,1.0,1414.213562373095,17.546875,0.0124075143011327,671.0,0.0,0.0006668101790140297,0.0006789283785040748,717.7272306763224,0.0013457385575181046,"[840, 799]",[671],2018.0,0.0,0.0,0.0,0.0,0.0,0.0,0.0,0.0
