<?xml version="1.0" encoding="utf-8" standalone="no"?>
<!DOCTYPE svg PUBLIC "-//W3C//DTD SVG 1.1//EN"
  "http://www.w3.org/Graphics/SVG/1.1/DTD/svg11.dtd">
<svg xmlns:xlink="http://www.w3.org/1999/xlink" width="2551.181102pt" height="5102.362205pt" viewBox="0 0 2551.181102 5102.362205" xmlns="http://www.w3.org/2000/svg" version="1.1">
 <metadata>
  <rdf:RDF xmlns:dc="http://purl.org/dc/elements/1.1/" xmlns:cc="http://creativecommons.org/ns#" xmlns:rdf="http://www.w3.org/1999/02/22-rdf-syntax-ns#">
   <cc:Work>
    <dc:type rdf:resource="http://purl.org/dc/dcmitype/StillImage"/>
    <dc:date>2023-03-17T00:09:31.180597</dc:date>
    <dc:format>image/svg+xml</dc:format>
    <dc:creator>
     <cc:Agent>
      <dc:title>Matplotlib v3.6.2, https://matplotlib.org/</dc:title>
     </cc:Agent>
    </dc:creator>
   </cc:Work>
  </rdf:RDF>
 </metadata>
 <defs>
  <style type="text/css">*{stroke-linejoin: round; stroke-linecap: butt}</style>
 </defs>
 <g id="figure_1">
  <g id="patch_1">
   <path d="M 0 5102.362205 
L 2551.181102 5102.362205 
L 2551.181102 0 
L 0 0 
z
" style="fill: #ffffff"/>
  </g>
  <g id="axes_1">
   <g id="PatchCollection_1">
    <path d="M 334.392664 2731.643176 
L 334.392664 2700.653124 
L 365.382717 2700.653124 
L 365.382717 2731.643176 
L 334.392664 2731.643176 
" clip-path="url(#p1b7f5bae96)" style="fill: none; stroke: #d3d3d3"/>
    <path d="M 365.382717 2731.643176 
L 365.382717 2700.653124 
L 396.372769 2700.653124 
L 396.372769 2731.643176 
L 365.382717 2731.643176 
" clip-path="url(#p1b7f5bae96)" style="fill: none; stroke: #d3d3d3"/>
    <path d="M 396.372769 2731.643176 
L 396.372769 2700.653124 
L 427.362822 2700.653124 
L 427.362822 2731.643176 
L 396.372769 2731.643176 
" clip-path="url(#p1b7f5bae96)" style="fill: none; stroke: #d3d3d3"/>
    <path d="M 427.362822 2731.643176 
L 427.362822 2700.653124 
L 458.352874 2700.653124 
L 458.352874 2731.643176 
L 427.362822 2731.643176 
" clip-path="url(#p1b7f5bae96)" style="fill: none; stroke: #d3d3d3"/>
    <path d="M 458.352874 2731.643176 
L 458.352874 2700.653124 
L 489.342927 2700.653124 
L 489.342927 2731.643176 
L 458.352874 2731.643176 
" clip-path="url(#p1b7f5bae96)" style="fill: none; stroke: #d3d3d3"/>
    <path d="M 489.342927 2731.643176 
L 489.342927 2700.653124 
L 520.33298 2700.653124 
L 520.33298 2731.643176 
L 489.342927 2731.643176 
" clip-path="url(#p1b7f5bae96)" style="fill: none; stroke: #d3d3d3"/>
    <path d="M 520.33298 2731.643176 
L 520.33298 2700.653124 
L 551.323032 2700.653124 
L 551.323032 2731.643176 
L 520.33298 2731.643176 
" clip-path="url(#p1b7f5bae96)" style="fill: none; stroke: #d3d3d3"/>
    <path d="M 551.323032 2731.643176 
L 551.323032 2700.653124 
L 582.313085 2700.653124 
L 582.313085 2731.643176 
L 551.323032 2731.643176 
" clip-path="url(#p1b7f5bae96)" style="fill: none; stroke: #d3d3d3"/>
    <path d="M 582.313085 2731.643176 
L 582.313085 2700.653124 
L 613.303137 2700.653124 
L 613.303137 2731.643176 
L 582.313085 2731.643176 
" clip-path="url(#p1b7f5bae96)" style="fill: none; stroke: #d3d3d3"/>
    <path d="M 613.303137 2731.643176 
L 613.303137 2700.653124 
L 644.29319 2700.653124 
L 644.29319 2731.643176 
L 613.303137 2731.643176 
" clip-path="url(#p1b7f5bae96)" style="fill: none; stroke: #d3d3d3"/>
    <path d="M 334.392664 2700.653124 
L 334.392664 2669.663071 
L 365.382717 2669.663071 
L 365.382717 2700.653124 
L 334.392664 2700.653124 
" clip-path="url(#p1b7f5bae96)" style="fill: none; stroke: #d3d3d3"/>
    <path d="M 365.382717 2700.653124 
L 365.382717 2669.663071 
L 396.372769 2669.663071 
L 396.372769 2700.653124 
L 365.382717 2700.653124 
" clip-path="url(#p1b7f5bae96)" style="fill: none; stroke: #d3d3d3"/>
    <path d="M 396.372769 2700.653124 
L 396.372769 2669.663071 
L 427.362822 2669.663071 
L 427.362822 2700.653124 
L 396.372769 2700.653124 
" clip-path="url(#p1b7f5bae96)" style="fill: none; stroke: #d3d3d3"/>
    <path d="M 427.362822 2700.653124 
L 427.362822 2669.663071 
L 458.352874 2669.663071 
L 458.352874 2700.653124 
L 427.362822 2700.653124 
" clip-path="url(#p1b7f5bae96)" style="fill: none; stroke: #d3d3d3"/>
    <path d="M 458.352874 2700.653124 
L 458.352874 2669.663071 
L 489.342927 2669.663071 
L 489.342927 2700.653124 
L 458.352874 2700.653124 
" clip-path="url(#p1b7f5bae96)" style="fill: none; stroke: #d3d3d3"/>
    <path d="M 489.342927 2700.653124 
L 489.342927 2669.663071 
L 520.33298 2669.663071 
L 520.33298 2700.653124 
L 489.342927 2700.653124 
" clip-path="url(#p1b7f5bae96)" style="fill: none; stroke: #d3d3d3"/>
    <path d="M 520.33298 2700.653124 
L 520.33298 2669.663071 
L 551.323032 2669.663071 
L 551.323032 2700.653124 
L 520.33298 2700.653124 
" clip-path="url(#p1b7f5bae96)" style="fill: none; stroke: #d3d3d3"/>
    <path d="M 551.323032 2700.653124 
L 551.323032 2669.663071 
L 582.313085 2669.663071 
L 582.313085 2700.653124 
L 551.323032 2700.653124 
" clip-path="url(#p1b7f5bae96)" style="fill: none; stroke: #d3d3d3"/>
    <path d="M 582.313085 2700.653124 
L 582.313085 2669.663071 
L 613.303137 2669.663071 
L 613.303137 2700.653124 
L 582.313085 2700.653124 
" clip-path="url(#p1b7f5bae96)" style="fill: none; stroke: #d3d3d3"/>
    <path d="M 613.303137 2700.653124 
L 613.303137 2669.663071 
L 644.29319 2669.663071 
L 644.29319 2700.653124 
L 613.303137 2700.653124 
" clip-path="url(#p1b7f5bae96)" style="fill: none; stroke: #d3d3d3"/>
    <path d="M 334.392664 2669.663071 
L 334.392664 2638.673019 
L 365.382717 2638.673019 
L 365.382717 2669.663071 
L 334.392664 2669.663071 
" clip-path="url(#p1b7f5bae96)" style="fill: none; stroke: #d3d3d3"/>
    <path d="M 365.382717 2669.663071 
L 365.382717 2638.673019 
L 396.372769 2638.673019 
L 396.372769 2669.663071 
L 365.382717 2669.663071 
" clip-path="url(#p1b7f5bae96)" style="fill: none; stroke: #d3d3d3"/>
    <path d="M 396.372769 2669.663071 
L 396.372769 2638.673019 
L 427.362822 2638.673019 
L 427.362822 2669.663071 
L 396.372769 2669.663071 
" clip-path="url(#p1b7f5bae96)" style="fill: none; stroke: #d3d3d3"/>
    <path d="M 427.362822 2669.663071 
L 427.362822 2638.673019 
L 458.352874 2638.673019 
L 458.352874 2669.663071 
L 427.362822 2669.663071 
" clip-path="url(#p1b7f5bae96)" style="fill: none; stroke: #d3d3d3"/>
    <path d="M 458.352874 2669.663071 
L 458.352874 2638.673019 
L 489.342927 2638.673019 
L 489.342927 2669.663071 
L 458.352874 2669.663071 
" clip-path="url(#p1b7f5bae96)" style="fill: none; stroke: #d3d3d3"/>
    <path d="M 489.342927 2669.663071 
L 489.342927 2638.673019 
L 520.33298 2638.673019 
L 520.33298 2669.663071 
L 489.342927 2669.663071 
" clip-path="url(#p1b7f5bae96)" style="fill: none; stroke: #d3d3d3"/>
    <path d="M 520.33298 2669.663071 
L 520.33298 2638.673019 
L 551.323032 2638.673019 
L 551.323032 2669.663071 
L 520.33298 2669.663071 
" clip-path="url(#p1b7f5bae96)" style="fill: none; stroke: #d3d3d3"/>
    <path d="M 551.323032 2669.663071 
L 551.323032 2638.673019 
L 582.313085 2638.673019 
L 582.313085 2669.663071 
L 551.323032 2669.663071 
" clip-path="url(#p1b7f5bae96)" style="fill: none; stroke: #d3d3d3"/>
    <path d="M 582.313085 2669.663071 
L 582.313085 2638.673019 
L 613.303137 2638.673019 
L 613.303137 2669.663071 
L 582.313085 2669.663071 
" clip-path="url(#p1b7f5bae96)" style="fill: none; stroke: #d3d3d3"/>
    <path d="M 613.303137 2669.663071 
L 613.303137 2638.673019 
L 644.29319 2638.673019 
L 644.29319 2669.663071 
L 613.303137 2669.663071 
" clip-path="url(#p1b7f5bae96)" style="fill: none; stroke: #d3d3d3"/>
    <path d="M 334.392664 2638.673019 
L 334.392664 2607.682966 
L 365.382717 2607.682966 
L 365.382717 2638.673019 
L 334.392664 2638.673019 
" clip-path="url(#p1b7f5bae96)" style="fill: none; stroke: #d3d3d3"/>
    <path d="M 365.382717 2638.673019 
L 365.382717 2607.682966 
L 396.372769 2607.682966 
L 396.372769 2638.673019 
L 365.382717 2638.673019 
" clip-path="url(#p1b7f5bae96)" style="fill: none; stroke: #d3d3d3"/>
    <path d="M 396.372769 2638.673019 
L 396.372769 2607.682966 
L 427.362822 2607.682966 
L 427.362822 2638.673019 
L 396.372769 2638.673019 
" clip-path="url(#p1b7f5bae96)" style="fill: none; stroke: #d3d3d3"/>
    <path d="M 427.362822 2638.673019 
L 427.362822 2607.682966 
L 458.352874 2607.682966 
L 458.352874 2638.673019 
L 427.362822 2638.673019 
" clip-path="url(#p1b7f5bae96)" style="fill: none; stroke: #d3d3d3"/>
    <path d="M 458.352874 2638.673019 
L 458.352874 2607.682966 
L 489.342927 2607.682966 
L 489.342927 2638.673019 
L 458.352874 2638.673019 
" clip-path="url(#p1b7f5bae96)" style="fill: none; stroke: #d3d3d3"/>
    <path d="M 489.342927 2638.673019 
L 489.342927 2607.682966 
L 520.33298 2607.682966 
L 520.33298 2638.673019 
L 489.342927 2638.673019 
" clip-path="url(#p1b7f5bae96)" style="fill: none; stroke: #d3d3d3"/>
    <path d="M 520.33298 2638.673019 
L 520.33298 2607.682966 
L 551.323032 2607.682966 
L 551.323032 2638.673019 
L 520.33298 2638.673019 
" clip-path="url(#p1b7f5bae96)" style="fill: none; stroke: #d3d3d3"/>
    <path d="M 551.323032 2638.673019 
L 551.323032 2607.682966 
L 582.313085 2607.682966 
L 582.313085 2638.673019 
L 551.323032 2638.673019 
" clip-path="url(#p1b7f5bae96)" style="fill: none; stroke: #d3d3d3"/>
    <path d="M 582.313085 2638.673019 
L 582.313085 2607.682966 
L 613.303137 2607.682966 
L 613.303137 2638.673019 
L 582.313085 2638.673019 
" clip-path="url(#p1b7f5bae96)" style="fill: none; stroke: #d3d3d3"/>
    <path d="M 613.303137 2638.673019 
L 613.303137 2607.682966 
L 644.29319 2607.682966 
L 644.29319 2638.673019 
L 613.303137 2638.673019 
" clip-path="url(#p1b7f5bae96)" style="fill: none; stroke: #d3d3d3"/>
    <path d="M 334.392664 2607.682966 
L 334.392664 2576.692913 
L 365.382717 2576.692913 
L 365.382717 2607.682966 
L 334.392664 2607.682966 
" clip-path="url(#p1b7f5bae96)" style="fill: none; stroke: #d3d3d3"/>
    <path d="M 365.382717 2607.682966 
L 365.382717 2576.692913 
L 396.372769 2576.692913 
L 396.372769 2607.682966 
L 365.382717 2607.682966 
" clip-path="url(#p1b7f5bae96)" style="fill: none; stroke: #d3d3d3"/>
    <path d="M 396.372769 2607.682966 
L 396.372769 2576.692913 
L 427.362822 2576.692913 
L 427.362822 2607.682966 
L 396.372769 2607.682966 
" clip-path="url(#p1b7f5bae96)" style="fill: none; stroke: #d3d3d3"/>
    <path d="M 427.362822 2607.682966 
L 427.362822 2576.692913 
L 458.352874 2576.692913 
L 458.352874 2607.682966 
L 427.362822 2607.682966 
" clip-path="url(#p1b7f5bae96)" style="fill: none; stroke: #d3d3d3"/>
    <path d="M 458.352874 2607.682966 
L 458.352874 2576.692913 
L 489.342927 2576.692913 
L 489.342927 2607.682966 
L 458.352874 2607.682966 
" clip-path="url(#p1b7f5bae96)" style="fill: none; stroke: #d3d3d3"/>
    <path d="M 489.342927 2607.682966 
L 489.342927 2576.692913 
L 520.33298 2576.692913 
L 520.33298 2607.682966 
L 489.342927 2607.682966 
" clip-path="url(#p1b7f5bae96)" style="fill: none; stroke: #d3d3d3"/>
    <path d="M 520.33298 2607.682966 
L 520.33298 2576.692913 
L 551.323032 2576.692913 
L 551.323032 2607.682966 
L 520.33298 2607.682966 
" clip-path="url(#p1b7f5bae96)" style="fill: none; stroke: #d3d3d3"/>
    <path d="M 551.323032 2607.682966 
L 551.323032 2576.692913 
L 582.313085 2576.692913 
L 582.313085 2607.682966 
L 551.323032 2607.682966 
" clip-path="url(#p1b7f5bae96)" style="fill: none; stroke: #d3d3d3"/>
    <path d="M 582.313085 2607.682966 
L 582.313085 2576.692913 
L 613.303137 2576.692913 
L 613.303137 2607.682966 
L 582.313085 2607.682966 
" clip-path="url(#p1b7f5bae96)" style="fill: none; stroke: #d3d3d3"/>
    <path d="M 613.303137 2607.682966 
L 613.303137 2576.692913 
L 644.29319 2576.692913 
L 644.29319 2607.682966 
L 613.303137 2607.682966 
" clip-path="url(#p1b7f5bae96)" style="fill: none; stroke: #d3d3d3"/>
    <path d="M 334.392664 2576.692913 
L 334.392664 2545.702861 
L 365.382717 2545.702861 
L 365.382717 2576.692913 
L 334.392664 2576.692913 
" clip-path="url(#p1b7f5bae96)" style="fill: none; stroke: #d3d3d3"/>
    <path d="M 365.382717 2576.692913 
L 365.382717 2545.702861 
L 396.372769 2545.702861 
L 396.372769 2576.692913 
L 365.382717 2576.692913 
" clip-path="url(#p1b7f5bae96)" style="fill: none; stroke: #d3d3d3"/>
    <path d="M 396.372769 2576.692913 
L 396.372769 2545.702861 
L 427.362822 2545.702861 
L 427.362822 2576.692913 
L 396.372769 2576.692913 
" clip-path="url(#p1b7f5bae96)" style="fill: none; stroke: #d3d3d3"/>
    <path d="M 427.362822 2576.692913 
L 427.362822 2545.702861 
L 458.352874 2545.702861 
L 458.352874 2576.692913 
L 427.362822 2576.692913 
" clip-path="url(#p1b7f5bae96)" style="fill: none; stroke: #d3d3d3"/>
    <path d="M 458.352874 2576.692913 
L 458.352874 2545.702861 
L 489.342927 2545.702861 
L 489.342927 2576.692913 
L 458.352874 2576.692913 
" clip-path="url(#p1b7f5bae96)" style="fill: none; stroke: #d3d3d3"/>
    <path d="M 489.342927 2576.692913 
L 489.342927 2545.702861 
L 520.33298 2545.702861 
L 520.33298 2576.692913 
L 489.342927 2576.692913 
" clip-path="url(#p1b7f5bae96)" style="fill: none; stroke: #d3d3d3"/>
    <path d="M 520.33298 2576.692913 
L 520.33298 2545.702861 
L 551.323032 2545.702861 
L 551.323032 2576.692913 
L 520.33298 2576.692913 
" clip-path="url(#p1b7f5bae96)" style="fill: none; stroke: #d3d3d3"/>
    <path d="M 551.323032 2576.692913 
L 551.323032 2545.702861 
L 582.313085 2545.702861 
L 582.313085 2576.692913 
L 551.323032 2576.692913 
" clip-path="url(#p1b7f5bae96)" style="fill: none; stroke: #d3d3d3"/>
    <path d="M 582.313085 2576.692913 
L 582.313085 2545.702861 
L 613.303137 2545.702861 
L 613.303137 2576.692913 
L 582.313085 2576.692913 
" clip-path="url(#p1b7f5bae96)" style="fill: none; stroke: #d3d3d3"/>
    <path d="M 613.303137 2576.692913 
L 613.303137 2545.702861 
L 644.29319 2545.702861 
L 644.29319 2576.692913 
L 613.303137 2576.692913 
" clip-path="url(#p1b7f5bae96)" style="fill: none; stroke: #d3d3d3"/>
    <path d="M 334.392664 2545.702861 
L 334.392664 2514.712808 
L 365.382717 2514.712808 
L 365.382717 2545.702861 
L 334.392664 2545.702861 
" clip-path="url(#p1b7f5bae96)" style="fill: none; stroke: #d3d3d3"/>
    <path d="M 365.382717 2545.702861 
L 365.382717 2514.712808 
L 396.372769 2514.712808 
L 396.372769 2545.702861 
L 365.382717 2545.702861 
" clip-path="url(#p1b7f5bae96)" style="fill: none; stroke: #d3d3d3"/>
    <path d="M 396.372769 2545.702861 
L 396.372769 2514.712808 
L 427.362822 2514.712808 
L 427.362822 2545.702861 
L 396.372769 2545.702861 
" clip-path="url(#p1b7f5bae96)" style="fill: none; stroke: #d3d3d3"/>
    <path d="M 427.362822 2545.702861 
L 427.362822 2514.712808 
L 458.352874 2514.712808 
L 458.352874 2545.702861 
L 427.362822 2545.702861 
" clip-path="url(#p1b7f5bae96)" style="fill: none; stroke: #d3d3d3"/>
    <path d="M 458.352874 2545.702861 
L 458.352874 2514.712808 
L 489.342927 2514.712808 
L 489.342927 2545.702861 
L 458.352874 2545.702861 
" clip-path="url(#p1b7f5bae96)" style="fill: none; stroke: #d3d3d3"/>
    <path d="M 489.342927 2545.702861 
L 489.342927 2514.712808 
L 520.33298 2514.712808 
L 520.33298 2545.702861 
L 489.342927 2545.702861 
" clip-path="url(#p1b7f5bae96)" style="fill: none; stroke: #d3d3d3"/>
    <path d="M 520.33298 2545.702861 
L 520.33298 2514.712808 
L 551.323032 2514.712808 
L 551.323032 2545.702861 
L 520.33298 2545.702861 
" clip-path="url(#p1b7f5bae96)" style="fill: none; stroke: #d3d3d3"/>
    <path d="M 551.323032 2545.702861 
L 551.323032 2514.712808 
L 582.313085 2514.712808 
L 582.313085 2545.702861 
L 551.323032 2545.702861 
" clip-path="url(#p1b7f5bae96)" style="fill: none; stroke: #d3d3d3"/>
    <path d="M 582.313085 2545.702861 
L 582.313085 2514.712808 
L 613.303137 2514.712808 
L 613.303137 2545.702861 
L 582.313085 2545.702861 
" clip-path="url(#p1b7f5bae96)" style="fill: none; stroke: #d3d3d3"/>
    <path d="M 613.303137 2545.702861 
L 613.303137 2514.712808 
L 644.29319 2514.712808 
L 644.29319 2545.702861 
L 613.303137 2545.702861 
" clip-path="url(#p1b7f5bae96)" style="fill: none; stroke: #d3d3d3"/>
    <path d="M 334.392664 2514.712808 
L 334.392664 2483.722756 
L 365.382717 2483.722756 
L 365.382717 2514.712808 
L 334.392664 2514.712808 
" clip-path="url(#p1b7f5bae96)" style="fill: none; stroke: #d3d3d3"/>
    <path d="M 365.382717 2514.712808 
L 365.382717 2483.722756 
L 396.372769 2483.722756 
L 396.372769 2514.712808 
L 365.382717 2514.712808 
" clip-path="url(#p1b7f5bae96)" style="fill: none; stroke: #d3d3d3"/>
    <path d="M 396.372769 2514.712808 
L 396.372769 2483.722756 
L 427.362822 2483.722756 
L 427.362822 2514.712808 
L 396.372769 2514.712808 
" clip-path="url(#p1b7f5bae96)" style="fill: none; stroke: #d3d3d3"/>
    <path d="M 427.362822 2514.712808 
L 427.362822 2483.722756 
L 458.352874 2483.722756 
L 458.352874 2514.712808 
L 427.362822 2514.712808 
" clip-path="url(#p1b7f5bae96)" style="fill: none; stroke: #d3d3d3"/>
    <path d="M 458.352874 2514.712808 
L 458.352874 2483.722756 
L 489.342927 2483.722756 
L 489.342927 2514.712808 
L 458.352874 2514.712808 
" clip-path="url(#p1b7f5bae96)" style="fill: none; stroke: #d3d3d3"/>
    <path d="M 489.342927 2514.712808 
L 489.342927 2483.722756 
L 520.33298 2483.722756 
L 520.33298 2514.712808 
L 489.342927 2514.712808 
" clip-path="url(#p1b7f5bae96)" style="fill: none; stroke: #d3d3d3"/>
    <path d="M 520.33298 2514.712808 
L 520.33298 2483.722756 
L 551.323032 2483.722756 
L 551.323032 2514.712808 
L 520.33298 2514.712808 
" clip-path="url(#p1b7f5bae96)" style="fill: none; stroke: #d3d3d3"/>
    <path d="M 551.323032 2514.712808 
L 551.323032 2483.722756 
L 582.313085 2483.722756 
L 582.313085 2514.712808 
L 551.323032 2514.712808 
" clip-path="url(#p1b7f5bae96)" style="fill: none; stroke: #d3d3d3"/>
    <path d="M 582.313085 2514.712808 
L 582.313085 2483.722756 
L 613.303137 2483.722756 
L 613.303137 2514.712808 
L 582.313085 2514.712808 
" clip-path="url(#p1b7f5bae96)" style="fill: none; stroke: #d3d3d3"/>
    <path d="M 613.303137 2514.712808 
L 613.303137 2483.722756 
L 644.29319 2483.722756 
L 644.29319 2514.712808 
L 613.303137 2514.712808 
" clip-path="url(#p1b7f5bae96)" style="fill: none; stroke: #d3d3d3"/>
    <path d="M 334.392664 2483.722756 
L 334.392664 2452.732703 
L 365.382717 2452.732703 
L 365.382717 2483.722756 
L 334.392664 2483.722756 
" clip-path="url(#p1b7f5bae96)" style="fill: none; stroke: #d3d3d3"/>
    <path d="M 365.382717 2483.722756 
L 365.382717 2452.732703 
L 396.372769 2452.732703 
L 396.372769 2483.722756 
L 365.382717 2483.722756 
" clip-path="url(#p1b7f5bae96)" style="fill: none; stroke: #d3d3d3"/>
    <path d="M 396.372769 2483.722756 
L 396.372769 2452.732703 
L 427.362822 2452.732703 
L 427.362822 2483.722756 
L 396.372769 2483.722756 
" clip-path="url(#p1b7f5bae96)" style="fill: none; stroke: #d3d3d3"/>
    <path d="M 427.362822 2483.722756 
L 427.362822 2452.732703 
L 458.352874 2452.732703 
L 458.352874 2483.722756 
L 427.362822 2483.722756 
" clip-path="url(#p1b7f5bae96)" style="fill: none; stroke: #d3d3d3"/>
    <path d="M 458.352874 2483.722756 
L 458.352874 2452.732703 
L 489.342927 2452.732703 
L 489.342927 2483.722756 
L 458.352874 2483.722756 
" clip-path="url(#p1b7f5bae96)" style="fill: none; stroke: #d3d3d3"/>
    <path d="M 489.342927 2483.722756 
L 489.342927 2452.732703 
L 520.33298 2452.732703 
L 520.33298 2483.722756 
L 489.342927 2483.722756 
" clip-path="url(#p1b7f5bae96)" style="fill: none; stroke: #d3d3d3"/>
    <path d="M 520.33298 2483.722756 
L 520.33298 2452.732703 
L 551.323032 2452.732703 
L 551.323032 2483.722756 
L 520.33298 2483.722756 
" clip-path="url(#p1b7f5bae96)" style="fill: none; stroke: #d3d3d3"/>
    <path d="M 551.323032 2483.722756 
L 551.323032 2452.732703 
L 582.313085 2452.732703 
L 582.313085 2483.722756 
L 551.323032 2483.722756 
" clip-path="url(#p1b7f5bae96)" style="fill: none; stroke: #d3d3d3"/>
    <path d="M 582.313085 2483.722756 
L 582.313085 2452.732703 
L 613.303137 2452.732703 
L 613.303137 2483.722756 
L 582.313085 2483.722756 
" clip-path="url(#p1b7f5bae96)" style="fill: none; stroke: #d3d3d3"/>
    <path d="M 613.303137 2483.722756 
L 613.303137 2452.732703 
L 644.29319 2452.732703 
L 644.29319 2483.722756 
L 613.303137 2483.722756 
" clip-path="url(#p1b7f5bae96)" style="fill: none; stroke: #d3d3d3"/>
    <path d="M 334.392664 2452.732703 
L 334.392664 2421.742651 
L 365.382717 2421.742651 
L 365.382717 2452.732703 
L 334.392664 2452.732703 
" clip-path="url(#p1b7f5bae96)" style="fill: none; stroke: #d3d3d3"/>
    <path d="M 365.382717 2452.732703 
L 365.382717 2421.742651 
L 396.372769 2421.742651 
L 396.372769 2452.732703 
L 365.382717 2452.732703 
" clip-path="url(#p1b7f5bae96)" style="fill: none; stroke: #d3d3d3"/>
    <path d="M 396.372769 2452.732703 
L 396.372769 2421.742651 
L 427.362822 2421.742651 
L 427.362822 2452.732703 
L 396.372769 2452.732703 
" clip-path="url(#p1b7f5bae96)" style="fill: none; stroke: #d3d3d3"/>
    <path d="M 427.362822 2452.732703 
L 427.362822 2421.742651 
L 458.352874 2421.742651 
L 458.352874 2452.732703 
L 427.362822 2452.732703 
" clip-path="url(#p1b7f5bae96)" style="fill: none; stroke: #d3d3d3"/>
    <path d="M 458.352874 2452.732703 
L 458.352874 2421.742651 
L 489.342927 2421.742651 
L 489.342927 2452.732703 
L 458.352874 2452.732703 
" clip-path="url(#p1b7f5bae96)" style="fill: none; stroke: #d3d3d3"/>
    <path d="M 489.342927 2452.732703 
L 489.342927 2421.742651 
L 520.33298 2421.742651 
L 520.33298 2452.732703 
L 489.342927 2452.732703 
" clip-path="url(#p1b7f5bae96)" style="fill: none; stroke: #d3d3d3"/>
    <path d="M 520.33298 2452.732703 
L 520.33298 2421.742651 
L 551.323032 2421.742651 
L 551.323032 2452.732703 
L 520.33298 2452.732703 
" clip-path="url(#p1b7f5bae96)" style="fill: none; stroke: #d3d3d3"/>
    <path d="M 551.323032 2452.732703 
L 551.323032 2421.742651 
L 582.313085 2421.742651 
L 582.313085 2452.732703 
L 551.323032 2452.732703 
" clip-path="url(#p1b7f5bae96)" style="fill: none; stroke: #d3d3d3"/>
    <path d="M 582.313085 2452.732703 
L 582.313085 2421.742651 
L 613.303137 2421.742651 
L 613.303137 2452.732703 
L 582.313085 2452.732703 
" clip-path="url(#p1b7f5bae96)" style="fill: none; stroke: #d3d3d3"/>
    <path d="M 613.303137 2452.732703 
L 613.303137 2421.742651 
L 644.29319 2421.742651 
L 644.29319 2452.732703 
L 613.303137 2452.732703 
" clip-path="url(#p1b7f5bae96)" style="fill: none; stroke: #d3d3d3"/>
   </g>
   <g id="PatchCollection_2">
    <path d="M 489.342927 2731.643176 
L 489.342927 2700.653124 
L 520.33298 2700.653124 
L 520.33298 2731.643176 
L 489.342927 2731.643176 
" clip-path="url(#p1b7f5bae96)" style="fill: #e2e2e2; fill-opacity: 0.5"/>
    <path d="M 427.362822 2700.653124 
L 427.362822 2669.663071 
L 458.352874 2669.663071 
L 458.352874 2700.653124 
L 427.362822 2700.653124 
" clip-path="url(#p1b7f5bae96)" style="fill: #e2e2e2; fill-opacity: 0.5"/>
    <path d="M 458.352874 2700.653124 
L 458.352874 2669.663071 
L 489.342927 2669.663071 
L 489.342927 2700.653124 
L 458.352874 2700.653124 
" clip-path="url(#p1b7f5bae96)" style="fill: #e2e2e2; fill-opacity: 0.5"/>
    <path d="M 489.342927 2700.653124 
L 489.342927 2669.663071 
L 520.33298 2669.663071 
L 520.33298 2700.653124 
L 489.342927 2700.653124 
" clip-path="url(#p1b7f5bae96)" style="fill: #e2e2e2; fill-opacity: 0.5"/>
    <path d="M 520.33298 2700.653124 
L 520.33298 2669.663071 
L 551.323032 2669.663071 
L 551.323032 2700.653124 
L 520.33298 2700.653124 
" clip-path="url(#p1b7f5bae96)" style="fill: #e2e2e2; fill-opacity: 0.5"/>
    <path d="M 551.323032 2700.653124 
L 551.323032 2669.663071 
L 582.313085 2669.663071 
L 582.313085 2700.653124 
L 551.323032 2700.653124 
" clip-path="url(#p1b7f5bae96)" style="fill: #e2e2e2; fill-opacity: 0.5"/>
    <path d="M 582.313085 2700.653124 
L 582.313085 2669.663071 
L 613.303137 2669.663071 
L 613.303137 2700.653124 
L 582.313085 2700.653124 
" clip-path="url(#p1b7f5bae96)" style="fill: #e2e2e2; fill-opacity: 0.5"/>
    <path d="M 396.372769 2669.663071 
L 396.372769 2638.673019 
L 427.362822 2638.673019 
L 427.362822 2669.663071 
L 396.372769 2669.663071 
" clip-path="url(#p1b7f5bae96)" style="fill: #e2e2e2; fill-opacity: 0.5"/>
    <path d="M 427.362822 2669.663071 
L 427.362822 2638.673019 
L 458.352874 2638.673019 
L 458.352874 2669.663071 
L 427.362822 2669.663071 
" clip-path="url(#p1b7f5bae96)" style="fill: #e2e2e2; fill-opacity: 0.5"/>
    <path d="M 458.352874 2669.663071 
L 458.352874 2638.673019 
L 489.342927 2638.673019 
L 489.342927 2669.663071 
L 458.352874 2669.663071 
" clip-path="url(#p1b7f5bae96)" style="fill: #e2e2e2; fill-opacity: 0.5"/>
    <path d="M 489.342927 2669.663071 
L 489.342927 2638.673019 
L 520.33298 2638.673019 
L 520.33298 2669.663071 
L 489.342927 2669.663071 
" clip-path="url(#p1b7f5bae96)" style="fill: #e2e2e2; fill-opacity: 0.5"/>
    <path d="M 520.33298 2669.663071 
L 520.33298 2638.673019 
L 551.323032 2638.673019 
L 551.323032 2669.663071 
L 520.33298 2669.663071 
" clip-path="url(#p1b7f5bae96)" style="fill: #e2e2e2; fill-opacity: 0.5"/>
    <path d="M 551.323032 2669.663071 
L 551.323032 2638.673019 
L 582.313085 2638.673019 
L 582.313085 2669.663071 
L 551.323032 2669.663071 
" clip-path="url(#p1b7f5bae96)" style="fill: #e2e2e2; fill-opacity: 0.5"/>
    <path d="M 582.313085 2669.663071 
L 582.313085 2638.673019 
L 613.303137 2638.673019 
L 613.303137 2669.663071 
L 582.313085 2669.663071 
" clip-path="url(#p1b7f5bae96)" style="fill: #e2e2e2; fill-opacity: 0.5"/>
    <path d="M 396.372769 2638.673019 
L 396.372769 2607.682966 
L 427.362822 2607.682966 
L 427.362822 2638.673019 
L 396.372769 2638.673019 
" clip-path="url(#p1b7f5bae96)" style="fill: #e2e2e2; fill-opacity: 0.5"/>
    <path d="M 427.362822 2638.673019 
L 427.362822 2607.682966 
L 458.352874 2607.682966 
L 458.352874 2638.673019 
L 427.362822 2638.673019 
" clip-path="url(#p1b7f5bae96)" style="fill: #e2e2e2; fill-opacity: 0.5"/>
    <path d="M 458.352874 2638.673019 
L 458.352874 2607.682966 
L 489.342927 2607.682966 
L 489.342927 2638.673019 
L 458.352874 2638.673019 
" clip-path="url(#p1b7f5bae96)" style="fill: #e2e2e2; fill-opacity: 0.5"/>
    <path d="M 489.342927 2638.673019 
L 489.342927 2607.682966 
L 520.33298 2607.682966 
L 520.33298 2638.673019 
L 489.342927 2638.673019 
" clip-path="url(#p1b7f5bae96)" style="fill: #e2e2e2; fill-opacity: 0.5"/>
    <path d="M 520.33298 2638.673019 
L 520.33298 2607.682966 
L 551.323032 2607.682966 
L 551.323032 2638.673019 
L 520.33298 2638.673019 
" clip-path="url(#p1b7f5bae96)" style="fill: #e2e2e2; fill-opacity: 0.5"/>
    <path d="M 551.323032 2638.673019 
L 551.323032 2607.682966 
L 582.313085 2607.682966 
L 582.313085 2638.673019 
L 551.323032 2638.673019 
" clip-path="url(#p1b7f5bae96)" style="fill: #e2e2e2; fill-opacity: 0.5"/>
    <path d="M 582.313085 2638.673019 
L 582.313085 2607.682966 
L 613.303137 2607.682966 
L 613.303137 2638.673019 
L 582.313085 2638.673019 
" clip-path="url(#p1b7f5bae96)" style="fill: #e2e2e2; fill-opacity: 0.5"/>
    <path d="M 613.303137 2638.673019 
L 613.303137 2607.682966 
L 644.29319 2607.682966 
L 644.29319 2638.673019 
L 613.303137 2638.673019 
" clip-path="url(#p1b7f5bae96)" style="fill: #e2e2e2; fill-opacity: 0.5"/>
    <path d="M 396.372769 2607.682966 
L 396.372769 2576.692913 
L 427.362822 2576.692913 
L 427.362822 2607.682966 
L 396.372769 2607.682966 
" clip-path="url(#p1b7f5bae96)" style="fill: #e2e2e2; fill-opacity: 0.5"/>
    <path d="M 427.362822 2607.682966 
L 427.362822 2576.692913 
L 458.352874 2576.692913 
L 458.352874 2607.682966 
L 427.362822 2607.682966 
" clip-path="url(#p1b7f5bae96)" style="fill: #e2e2e2; fill-opacity: 0.5"/>
    <path d="M 458.352874 2607.682966 
L 458.352874 2576.692913 
L 489.342927 2576.692913 
L 489.342927 2607.682966 
L 458.352874 2607.682966 
" clip-path="url(#p1b7f5bae96)" style="fill: #e2e2e2; fill-opacity: 0.5"/>
    <path d="M 551.323032 2607.682966 
L 551.323032 2576.692913 
L 582.313085 2576.692913 
L 582.313085 2607.682966 
L 551.323032 2607.682966 
" clip-path="url(#p1b7f5bae96)" style="fill: #e2e2e2; fill-opacity: 0.5"/>
    <path d="M 582.313085 2607.682966 
L 582.313085 2576.692913 
L 613.303137 2576.692913 
L 613.303137 2607.682966 
L 582.313085 2607.682966 
" clip-path="url(#p1b7f5bae96)" style="fill: #e2e2e2; fill-opacity: 0.5"/>
    <path d="M 613.303137 2607.682966 
L 613.303137 2576.692913 
L 644.29319 2576.692913 
L 644.29319 2607.682966 
L 613.303137 2607.682966 
" clip-path="url(#p1b7f5bae96)" style="fill: #e2e2e2; fill-opacity: 0.5"/>
    <path d="M 334.392664 2576.692913 
L 334.392664 2545.702861 
L 365.382717 2545.702861 
L 365.382717 2576.692913 
L 334.392664 2576.692913 
" clip-path="url(#p1b7f5bae96)" style="fill: #e2e2e2; fill-opacity: 0.5"/>
    <path d="M 365.382717 2576.692913 
L 365.382717 2545.702861 
L 396.372769 2545.702861 
L 396.372769 2576.692913 
L 365.382717 2576.692913 
" clip-path="url(#p1b7f5bae96)" style="fill: #e2e2e2; fill-opacity: 0.5"/>
    <path d="M 396.372769 2576.692913 
L 396.372769 2545.702861 
L 427.362822 2545.702861 
L 427.362822 2576.692913 
L 396.372769 2576.692913 
" clip-path="url(#p1b7f5bae96)" style="fill: #e2e2e2; fill-opacity: 0.5"/>
    <path d="M 427.362822 2576.692913 
L 427.362822 2545.702861 
L 458.352874 2545.702861 
L 458.352874 2576.692913 
L 427.362822 2576.692913 
" clip-path="url(#p1b7f5bae96)" style="fill: #e2e2e2; fill-opacity: 0.5"/>
    <path d="M 458.352874 2576.692913 
L 458.352874 2545.702861 
L 489.342927 2545.702861 
L 489.342927 2576.692913 
L 458.352874 2576.692913 
" clip-path="url(#p1b7f5bae96)" style="fill: #e2e2e2; fill-opacity: 0.5"/>
    <path d="M 489.342927 2576.692913 
L 489.342927 2545.702861 
L 520.33298 2545.702861 
L 520.33298 2576.692913 
L 489.342927 2576.692913 
" clip-path="url(#p1b7f5bae96)" style="fill: #e2e2e2; fill-opacity: 0.5"/>
    <path d="M 520.33298 2576.692913 
L 520.33298 2545.702861 
L 551.323032 2545.702861 
L 551.323032 2576.692913 
L 520.33298 2576.692913 
" clip-path="url(#p1b7f5bae96)" style="fill: #e2e2e2; fill-opacity: 0.5"/>
    <path d="M 551.323032 2576.692913 
L 551.323032 2545.702861 
L 582.313085 2545.702861 
L 582.313085 2576.692913 
L 551.323032 2576.692913 
" clip-path="url(#p1b7f5bae96)" style="fill: #e2e2e2; fill-opacity: 0.5"/>
    <path d="M 582.313085 2576.692913 
L 582.313085 2545.702861 
L 613.303137 2545.702861 
L 613.303137 2576.692913 
L 582.313085 2576.692913 
" clip-path="url(#p1b7f5bae96)" style="fill: #e2e2e2; fill-opacity: 0.5"/>
    <path d="M 613.303137 2576.692913 
L 613.303137 2545.702861 
L 644.29319 2545.702861 
L 644.29319 2576.692913 
L 613.303137 2576.692913 
" clip-path="url(#p1b7f5bae96)" style="fill: #e2e2e2; fill-opacity: 0.5"/>
    <path d="M 458.352874 2545.702861 
L 458.352874 2514.712808 
L 489.342927 2514.712808 
L 489.342927 2545.702861 
L 458.352874 2545.702861 
" clip-path="url(#p1b7f5bae96)" style="fill: #e2e2e2; fill-opacity: 0.5"/>
    <path d="M 489.342927 2545.702861 
L 489.342927 2514.712808 
L 520.33298 2514.712808 
L 520.33298 2545.702861 
L 489.342927 2545.702861 
" clip-path="url(#p1b7f5bae96)" style="fill: #e2e2e2; fill-opacity: 0.5"/>
    <path d="M 520.33298 2545.702861 
L 520.33298 2514.712808 
L 551.323032 2514.712808 
L 551.323032 2545.702861 
L 520.33298 2545.702861 
" clip-path="url(#p1b7f5bae96)" style="fill: #e2e2e2; fill-opacity: 0.5"/>
    <path d="M 551.323032 2545.702861 
L 551.323032 2514.712808 
L 582.313085 2514.712808 
L 582.313085 2545.702861 
L 551.323032 2545.702861 
" clip-path="url(#p1b7f5bae96)" style="fill: #e2e2e2; fill-opacity: 0.5"/>
    <path d="M 582.313085 2545.702861 
L 582.313085 2514.712808 
L 613.303137 2514.712808 
L 613.303137 2545.702861 
L 582.313085 2545.702861 
" clip-path="url(#p1b7f5bae96)" style="fill: #e2e2e2; fill-opacity: 0.5"/>
    <path d="M 613.303137 2545.702861 
L 613.303137 2514.712808 
L 644.29319 2514.712808 
L 644.29319 2545.702861 
L 613.303137 2545.702861 
" clip-path="url(#p1b7f5bae96)" style="fill: #e2e2e2; fill-opacity: 0.5"/>
    <path d="M 551.323032 2514.712808 
L 551.323032 2483.722756 
L 582.313085 2483.722756 
L 582.313085 2514.712808 
L 551.323032 2514.712808 
" clip-path="url(#p1b7f5bae96)" style="fill: #e2e2e2; fill-opacity: 0.5"/>
    <path d="M 582.313085 2514.712808 
L 582.313085 2483.722756 
L 613.303137 2483.722756 
L 613.303137 2514.712808 
L 582.313085 2514.712808 
" clip-path="url(#p1b7f5bae96)" style="fill: #e2e2e2; fill-opacity: 0.5"/>
    <path d="M 613.303137 2514.712808 
L 613.303137 2483.722756 
L 644.29319 2483.722756 
L 644.29319 2514.712808 
L 613.303137 2514.712808 
" clip-path="url(#p1b7f5bae96)" style="fill: #e2e2e2; fill-opacity: 0.5"/>
    <path d="M 520.33298 2483.722756 
L 520.33298 2452.732703 
L 551.323032 2452.732703 
L 551.323032 2483.722756 
L 520.33298 2483.722756 
" clip-path="url(#p1b7f5bae96)" style="fill: #e2e2e2; fill-opacity: 0.5"/>
    <path d="M 551.323032 2483.722756 
L 551.323032 2452.732703 
L 582.313085 2452.732703 
L 582.313085 2483.722756 
L 551.323032 2483.722756 
" clip-path="url(#p1b7f5bae96)" style="fill: #e2e2e2; fill-opacity: 0.5"/>
    <path d="M 582.313085 2483.722756 
L 582.313085 2452.732703 
L 613.303137 2452.732703 
L 613.303137 2483.722756 
L 582.313085 2483.722756 
" clip-path="url(#p1b7f5bae96)" style="fill: #e2e2e2; fill-opacity: 0.5"/>
    <path d="M 613.303137 2483.722756 
L 613.303137 2452.732703 
L 644.29319 2452.732703 
L 644.29319 2483.722756 
L 613.303137 2483.722756 
" clip-path="url(#p1b7f5bae96)" style="fill: #e2e2e2; fill-opacity: 0.5"/>
    <path d="M 489.342927 2452.732703 
L 489.342927 2421.742651 
L 520.33298 2421.742651 
L 520.33298 2452.732703 
L 489.342927 2452.732703 
" clip-path="url(#p1b7f5bae96)" style="fill: #e2e2e2; fill-opacity: 0.5"/>
    <path d="M 520.33298 2452.732703 
L 520.33298 2421.742651 
L 551.323032 2421.742651 
L 551.323032 2452.732703 
L 520.33298 2452.732703 
" clip-path="url(#p1b7f5bae96)" style="fill: #e2e2e2; fill-opacity: 0.5"/>
    <path d="M 551.323032 2452.732703 
L 551.323032 2421.742651 
L 582.313085 2421.742651 
L 582.313085 2452.732703 
L 551.323032 2452.732703 
" clip-path="url(#p1b7f5bae96)" style="fill: #e2e2e2; fill-opacity: 0.5"/>
    <path d="M 582.313085 2452.732703 
L 582.313085 2421.742651 
L 613.303137 2421.742651 
L 613.303137 2452.732703 
L 582.313085 2452.732703 
" clip-path="url(#p1b7f5bae96)" style="fill: #e2e2e2; fill-opacity: 0.5"/>
    <path d="M 613.303137 2452.732703 
L 613.303137 2421.742651 
L 644.29319 2421.742651 
L 644.29319 2452.732703 
L 613.303137 2452.732703 
" clip-path="url(#p1b7f5bae96)" style="fill: #e2e2e2; fill-opacity: 0.5"/>
   </g>
   <g id="PathCollection_1">
    <path d="M 349.88769 2564.197887 
C 350.6833 2564.197887 351.44643 2563.881788 352.009011 2563.319207 
C 352.571591 2562.756627 352.88769 2561.993496 352.88769 2561.197887 
C 352.88769 2560.402278 352.571591 2559.639147 352.009011 2559.076567 
C 351.44643 2558.513986 350.6833 2558.197887 349.88769 2558.197887 
C 349.092081 2558.197887 348.328951 2558.513986 347.76637 2559.076567 
C 347.203789 2559.639147 346.88769 2560.402278 346.88769 2561.197887 
C 346.88769 2561.993496 347.203789 2562.756627 347.76637 2563.319207 
C 348.328951 2563.881788 349.092081 2564.197887 349.88769 2564.197887 
z
" clip-path="url(#p1b7f5bae96)" style="fill: #fff5f0"/>
   </g>
   <g id="PatchCollection_3">
    <path d="M 334.392664 2576.692913 
L 334.392664 2545.702861 
L 365.382717 2545.702861 
L 365.382717 2576.692913 
L 334.392664 2576.692913 
" clip-path="url(#p1b7f5bae96)" style="fill: #fff5f0"/>
   </g>
   <g id="LineCollection_1">
    <path d="M 504.837953 2716.14815 
L 411.867796 2654.168045 
" clip-path="url(#p1b7f5bae96)" style="fill: none; stroke: #006837; stroke-width: 1.5"/>
    <path d="M 535.828006 2685.158097 
L 504.837953 2654.168045 
" clip-path="url(#p1b7f5bae96)" style="fill: none; stroke: #006837; stroke-width: 1.5"/>
    <path d="M 597.808111 2561.197887 
L 566.818058 2592.18794 
" clip-path="url(#p1b7f5bae96)" style="fill: none; stroke: #006837; stroke-width: 1.5"/>
    <path d="M 504.837953 2530.207835 
L 535.828006 2561.197887 
" clip-path="url(#p1b7f5bae96)" style="fill: none; stroke: #006837; stroke-width: 1.5"/>
    <path d="M 535.828006 2530.207835 
L 535.828006 2561.197887 
" clip-path="url(#p1b7f5bae96)" style="fill: none; stroke: #006837; stroke-width: 1.5"/>
    <path d="M 597.808111 2530.207835 
L 566.818058 2561.197887 
" clip-path="url(#p1b7f5bae96)" style="fill: none; stroke: #006837; stroke-width: 1.5"/>
    <path d="M 628.798164 2530.207835 
L 597.808111 2561.197887 
" clip-path="url(#p1b7f5bae96)" style="fill: none; stroke: #006837; stroke-width: 1.5"/>
    <path d="M 628.798164 2499.217782 
L 597.808111 2530.207835 
" clip-path="url(#p1b7f5bae96)" style="fill: none; stroke: #006837; stroke-width: 1.5"/>
   </g>
   <g id="LineCollection_2">
    <path d="M 566.818058 2654.168045 
L 535.828006 2654.168045 
" clip-path="url(#p1b7f5bae96)" style="fill: none; stroke: #4bb05c; stroke-width: 1.5"/>
    <path d="M 628.798164 2623.177992 
L 597.808111 2592.18794 
" clip-path="url(#p1b7f5bae96)" style="fill: none; stroke: #4bb05c; stroke-width: 1.5"/>
    <path d="M 628.798164 2592.18794 
L 597.808111 2592.18794 
" clip-path="url(#p1b7f5bae96)" style="fill: none; stroke: #4bb05c; stroke-width: 1.5"/>
    <path d="M 504.837953 2561.197887 
L 535.828006 2561.197887 
" clip-path="url(#p1b7f5bae96)" style="fill: none; stroke: #4bb05c; stroke-width: 1.5"/>
    <path d="M 566.818058 2561.197887 
L 566.818058 2592.18794 
" clip-path="url(#p1b7f5bae96)" style="fill: none; stroke: #4bb05c; stroke-width: 1.5"/>
    <path d="M 566.818058 2468.227729 
L 566.818058 2499.217782 
" clip-path="url(#p1b7f5bae96)" style="fill: none; stroke: #4bb05c; stroke-width: 1.5"/>
   </g>
   <g id="LineCollection_3">
    <path d="M 504.837953 2685.158097 
L 473.847901 2685.158097 
" clip-path="url(#p1b7f5bae96)" style="fill: none; stroke: #b7e075; stroke-width: 1.5"/>
    <path d="M 597.808111 2685.158097 
L 566.818058 2685.158097 
" clip-path="url(#p1b7f5bae96)" style="fill: none; stroke: #b7e075; stroke-width: 1.5"/>
    <path d="M 597.808111 2592.18794 
L 566.818058 2623.177992 
" clip-path="url(#p1b7f5bae96)" style="fill: none; stroke: #b7e075; stroke-width: 1.5"/>
    <path d="M 597.808111 2499.217782 
L 566.818058 2530.207835 
" clip-path="url(#p1b7f5bae96)" style="fill: none; stroke: #b7e075; stroke-width: 1.5"/>
    <path d="M 535.828006 2468.227729 
L 566.818058 2499.217782 
" clip-path="url(#p1b7f5bae96)" style="fill: none; stroke: #b7e075; stroke-width: 1.5"/>
    <path d="M 628.798164 2468.227729 
L 597.808111 2499.217782 
" clip-path="url(#p1b7f5bae96)" style="fill: none; stroke: #b7e075; stroke-width: 1.5"/>
    <path d="M 566.818058 2437.237677 
L 535.828006 2468.227729 
" clip-path="url(#p1b7f5bae96)" style="fill: none; stroke: #b7e075; stroke-width: 1.5"/>
    <path d="M 597.808111 2437.237677 
L 566.818058 2437.237677 
" clip-path="url(#p1b7f5bae96)" style="fill: none; stroke: #b7e075; stroke-width: 1.5"/>
   </g>
   <g id="LineCollection_4">
    <path d="M 473.847901 2654.168045 
L 442.857848 2685.158097 
" clip-path="url(#p1b7f5bae96)" style="fill: none; stroke: #fffebe; stroke-width: 1.5"/>
    <path d="M 535.828006 2654.168045 
L 504.837953 2654.168045 
" clip-path="url(#p1b7f5bae96)" style="fill: none; stroke: #fffebe; stroke-width: 1.5"/>
    <path d="M 597.808111 2623.177992 
L 566.818058 2623.177992 
" clip-path="url(#p1b7f5bae96)" style="fill: none; stroke: #fffebe; stroke-width: 1.5"/>
    <path d="M 411.867796 2592.18794 
L 380.877743 2561.197887 
" clip-path="url(#p1b7f5bae96)" style="fill: none; stroke: #fffebe; stroke-width: 1.5"/>
    <path d="M 380.877743 2561.197887 
L 349.88769 2561.197887 
" clip-path="url(#p1b7f5bae96)" style="fill: none; stroke: #fffebe; stroke-width: 1.5"/>
    <path d="M 442.857848 2561.197887 
L 411.867796 2592.18794 
" clip-path="url(#p1b7f5bae96)" style="fill: none; stroke: #fffebe; stroke-width: 1.5"/>
    <path d="M 628.798164 2561.197887 
L 597.808111 2592.18794 
" clip-path="url(#p1b7f5bae96)" style="fill: none; stroke: #fffebe; stroke-width: 1.5"/>
    <path d="M 473.847901 2530.207835 
L 442.857848 2561.197887 
" clip-path="url(#p1b7f5bae96)" style="fill: none; stroke: #fffebe; stroke-width: 1.5"/>
   </g>
   <g id="LineCollection_5">
    <path d="M 442.857848 2654.168045 
L 411.867796 2623.177992 
" clip-path="url(#p1b7f5bae96)" style="fill: none; stroke: #fdbf6f; stroke-width: 1.5"/>
    <path d="M 411.867796 2623.177992 
L 411.867796 2654.168045 
" clip-path="url(#p1b7f5bae96)" style="fill: none; stroke: #fdbf6f; stroke-width: 1.5"/>
    <path d="M 442.857848 2623.177992 
L 411.867796 2623.177992 
" clip-path="url(#p1b7f5bae96)" style="fill: none; stroke: #fdbf6f; stroke-width: 1.5"/>
    <path d="M 473.847901 2623.177992 
L 442.857848 2654.168045 
" clip-path="url(#p1b7f5bae96)" style="fill: none; stroke: #fdbf6f; stroke-width: 1.5"/>
    <path d="M 504.837953 2623.177992 
L 473.847901 2654.168045 
" clip-path="url(#p1b7f5bae96)" style="fill: none; stroke: #fdbf6f; stroke-width: 1.5"/>
    <path d="M 473.847901 2592.18794 
L 442.857848 2623.177992 
" clip-path="url(#p1b7f5bae96)" style="fill: none; stroke: #fdbf6f; stroke-width: 1.5"/>
    <path d="M 411.867796 2561.197887 
L 380.877743 2561.197887 
" clip-path="url(#p1b7f5bae96)" style="fill: none; stroke: #fdbf6f; stroke-width: 1.5"/>
    <path d="M 473.847901 2561.197887 
L 442.857848 2561.197887 
" clip-path="url(#p1b7f5bae96)" style="fill: none; stroke: #fdbf6f; stroke-width: 1.5"/>
    <path d="M 535.828006 2437.237677 
L 535.828006 2468.227729 
" clip-path="url(#p1b7f5bae96)" style="fill: none; stroke: #fdbf6f; stroke-width: 1.5"/>
   </g>
   <g id="LineCollection_6">
    <path d="M 473.847901 2685.158097 
L 442.857848 2685.158097 
" clip-path="url(#p1b7f5bae96)" style="fill: none; stroke: #ea5739; stroke-width: 1.5"/>
    <path d="M 566.818058 2685.158097 
L 535.828006 2654.168045 
" clip-path="url(#p1b7f5bae96)" style="fill: none; stroke: #ea5739; stroke-width: 1.5"/>
    <path d="M 504.837953 2654.168045 
L 473.847901 2685.158097 
" clip-path="url(#p1b7f5bae96)" style="fill: none; stroke: #ea5739; stroke-width: 1.5"/>
    <path d="M 597.808111 2654.168045 
L 566.818058 2685.158097 
" clip-path="url(#p1b7f5bae96)" style="fill: none; stroke: #ea5739; stroke-width: 1.5"/>
    <path d="M 566.818058 2623.177992 
L 535.828006 2654.168045 
" clip-path="url(#p1b7f5bae96)" style="fill: none; stroke: #ea5739; stroke-width: 1.5"/>
    <path d="M 442.857848 2592.18794 
L 411.867796 2623.177992 
" clip-path="url(#p1b7f5bae96)" style="fill: none; stroke: #ea5739; stroke-width: 1.5"/>
    <path d="M 535.828006 2561.197887 
L 566.818058 2592.18794 
" clip-path="url(#p1b7f5bae96)" style="fill: none; stroke: #ea5739; stroke-width: 1.5"/>
    <path d="M 566.818058 2530.207835 
L 535.828006 2561.197887 
" clip-path="url(#p1b7f5bae96)" style="fill: none; stroke: #ea5739; stroke-width: 1.5"/>
    <path d="M 597.808111 2468.227729 
L 566.818058 2499.217782 
" clip-path="url(#p1b7f5bae96)" style="fill: none; stroke: #ea5739; stroke-width: 1.5"/>
    <path d="M 628.798164 2437.237677 
L 597.808111 2468.227729 
" clip-path="url(#p1b7f5bae96)" style="fill: none; stroke: #ea5739; stroke-width: 1.5"/>
   </g>
   <g id="LineCollection_7">
    <path d="M 442.857848 2685.158097 
L 411.867796 2654.168045 
" clip-path="url(#p1b7f5bae96)" style="fill: none; stroke: #a50026; stroke-width: 1.5"/>
    <path d="M 411.867796 2654.168045 
L 349.88769 2561.197887 
" clip-path="url(#p1b7f5bae96)" style="fill: none; stroke: #a50026; stroke-width: 1.5"/>
    <path d="M 535.828006 2623.177992 
L 504.837953 2654.168045 
" clip-path="url(#p1b7f5bae96)" style="fill: none; stroke: #a50026; stroke-width: 1.5"/>
    <path d="M 566.818058 2592.18794 
L 535.828006 2623.177992 
" clip-path="url(#p1b7f5bae96)" style="fill: none; stroke: #a50026; stroke-width: 1.5"/>
    <path d="M 566.818058 2499.217782 
L 566.818058 2530.207835 
" clip-path="url(#p1b7f5bae96)" style="fill: none; stroke: #a50026; stroke-width: 1.5"/>
    <path d="M 504.837953 2437.237677 
L 535.828006 2468.227729 
" clip-path="url(#p1b7f5bae96)" style="fill: none; stroke: #a50026; stroke-width: 1.5"/>
   </g>
   <g id="text_1">
    <!-- 2018 -->
    <g transform="translate(458.802927 2400.247624) scale(0.24 -0.24)">
     <defs>
      <path id="DejaVuSans-32" d="M 1228 531 
L 3431 531 
L 3431 0 
L 469 0 
L 469 531 
Q 828 903 1448 1529 
Q 2069 2156 2228 2338 
Q 2531 2678 2651 2914 
Q 2772 3150 2772 3378 
Q 2772 3750 2511 3984 
Q 2250 4219 1831 4219 
Q 1534 4219 1204 4116 
Q 875 4013 500 3803 
L 500 4441 
Q 881 4594 1212 4672 
Q 1544 4750 1819 4750 
Q 2544 4750 2975 4387 
Q 3406 4025 3406 3419 
Q 3406 3131 3298 2873 
Q 3191 2616 2906 2266 
Q 2828 2175 2409 1742 
Q 1991 1309 1228 531 
z
" transform="scale(0.015625)"/>
      <path id="DejaVuSans-30" d="M 2034 4250 
Q 1547 4250 1301 3770 
Q 1056 3291 1056 2328 
Q 1056 1369 1301 889 
Q 1547 409 2034 409 
Q 2525 409 2770 889 
Q 3016 1369 3016 2328 
Q 3016 3291 2770 3770 
Q 2525 4250 2034 4250 
z
M 2034 4750 
Q 2819 4750 3233 4129 
Q 3647 3509 3647 2328 
Q 3647 1150 3233 529 
Q 2819 -91 2034 -91 
Q 1250 -91 836 529 
Q 422 1150 422 2328 
Q 422 3509 836 4129 
Q 1250 4750 2034 4750 
z
" transform="scale(0.015625)"/>
      <path id="DejaVuSans-31" d="M 794 531 
L 1825 531 
L 1825 4091 
L 703 3866 
L 703 4441 
L 1819 4666 
L 2450 4666 
L 2450 531 
L 3481 531 
L 3481 0 
L 794 0 
L 794 531 
z
" transform="scale(0.015625)"/>
      <path id="DejaVuSans-38" d="M 2034 2216 
Q 1584 2216 1326 1975 
Q 1069 1734 1069 1313 
Q 1069 891 1326 650 
Q 1584 409 2034 409 
Q 2484 409 2743 651 
Q 3003 894 3003 1313 
Q 3003 1734 2745 1975 
Q 2488 2216 2034 2216 
z
M 1403 2484 
Q 997 2584 770 2862 
Q 544 3141 544 3541 
Q 544 4100 942 4425 
Q 1341 4750 2034 4750 
Q 2731 4750 3128 4425 
Q 3525 4100 3525 3541 
Q 3525 3141 3298 2862 
Q 3072 2584 2669 2484 
Q 3125 2378 3379 2068 
Q 3634 1759 3634 1313 
Q 3634 634 3220 271 
Q 2806 -91 2034 -91 
Q 1263 -91 848 271 
Q 434 634 434 1313 
Q 434 1759 690 2068 
Q 947 2378 1403 2484 
z
M 1172 3481 
Q 1172 3119 1398 2916 
Q 1625 2713 2034 2713 
Q 2441 2713 2670 2916 
Q 2900 3119 2900 3481 
Q 2900 3844 2670 4047 
Q 2441 4250 2034 4250 
Q 1625 4250 1398 4047 
Q 1172 3844 1172 3481 
z
" transform="scale(0.015625)"/>
     </defs>
     <use xlink:href="#DejaVuSans-32"/>
     <use xlink:href="#DejaVuSans-30" x="63.623047"/>
     <use xlink:href="#DejaVuSans-31" x="127.246094"/>
     <use xlink:href="#DejaVuSans-38" x="190.869141"/>
    </g>
   </g>
  </g>
  <g id="axes_2">
   <g id="patch_2">
    <path d="M 727.966332 4541.102362 
L 1068.85691 4541.102362 
L 1068.85691 612.283465 
L 727.966332 612.283465 
z
" style="fill: #ffffff"/>
   </g>
   <g id="matplotlib.axis_1">
    <g id="xtick_1">
     <g id="line2d_1">
      <defs>
       <path id="m856e9ea834" d="M 0 0 
L 0 3.5 
" style="stroke: #000000; stroke-width: 0.8"/>
      </defs>
      <g>
       <use xlink:href="#m856e9ea834" x="727.966332" y="4541.102362" style="stroke: #000000; stroke-width: 0.8"/>
      </g>
     </g>
     <g id="text_2">
      <!-- 0.0 -->
      <g transform="translate(712.063207 4563.299237) scale(0.2 -0.2)">
       <defs>
        <path id="DejaVuSans-2e" d="M 684 794 
L 1344 794 
L 1344 0 
L 684 0 
L 684 794 
z
" transform="scale(0.015625)"/>
       </defs>
       <use xlink:href="#DejaVuSans-30"/>
       <use xlink:href="#DejaVuSans-2e" x="63.623047"/>
       <use xlink:href="#DejaVuSans-30" x="95.410156"/>
      </g>
     </g>
    </g>
    <g id="xtick_2">
     <g id="line2d_2">
      <g>
       <use xlink:href="#m856e9ea834" x="796.144447" y="4541.102362" style="stroke: #000000; stroke-width: 0.8"/>
      </g>
     </g>
     <g id="text_3">
      <!-- 0.2 -->
      <g transform="translate(780.241322 4563.299237) scale(0.2 -0.2)">
       <use xlink:href="#DejaVuSans-30"/>
       <use xlink:href="#DejaVuSans-2e" x="63.623047"/>
       <use xlink:href="#DejaVuSans-32" x="95.410156"/>
      </g>
     </g>
    </g>
    <g id="xtick_3">
     <g id="line2d_3">
      <g>
       <use xlink:href="#m856e9ea834" x="864.322563" y="4541.102362" style="stroke: #000000; stroke-width: 0.8"/>
      </g>
     </g>
     <g id="text_4">
      <!-- 0.4 -->
      <g transform="translate(848.419438 4563.299237) scale(0.2 -0.2)">
       <defs>
        <path id="DejaVuSans-34" d="M 2419 4116 
L 825 1625 
L 2419 1625 
L 2419 4116 
z
M 2253 4666 
L 3047 4666 
L 3047 1625 
L 3713 1625 
L 3713 1100 
L 3047 1100 
L 3047 0 
L 2419 0 
L 2419 1100 
L 313 1100 
L 313 1709 
L 2253 4666 
z
" transform="scale(0.015625)"/>
       </defs>
       <use xlink:href="#DejaVuSans-30"/>
       <use xlink:href="#DejaVuSans-2e" x="63.623047"/>
       <use xlink:href="#DejaVuSans-34" x="95.410156"/>
      </g>
     </g>
    </g>
    <g id="xtick_4">
     <g id="line2d_4">
      <g>
       <use xlink:href="#m856e9ea834" x="932.500679" y="4541.102362" style="stroke: #000000; stroke-width: 0.8"/>
      </g>
     </g>
     <g id="text_5">
      <!-- 0.6 -->
      <g transform="translate(916.597554 4563.299237) scale(0.2 -0.2)">
       <defs>
        <path id="DejaVuSans-36" d="M 2113 2584 
Q 1688 2584 1439 2293 
Q 1191 2003 1191 1497 
Q 1191 994 1439 701 
Q 1688 409 2113 409 
Q 2538 409 2786 701 
Q 3034 994 3034 1497 
Q 3034 2003 2786 2293 
Q 2538 2584 2113 2584 
z
M 3366 4563 
L 3366 3988 
Q 3128 4100 2886 4159 
Q 2644 4219 2406 4219 
Q 1781 4219 1451 3797 
Q 1122 3375 1075 2522 
Q 1259 2794 1537 2939 
Q 1816 3084 2150 3084 
Q 2853 3084 3261 2657 
Q 3669 2231 3669 1497 
Q 3669 778 3244 343 
Q 2819 -91 2113 -91 
Q 1303 -91 875 529 
Q 447 1150 447 2328 
Q 447 3434 972 4092 
Q 1497 4750 2381 4750 
Q 2619 4750 2861 4703 
Q 3103 4656 3366 4563 
z
" transform="scale(0.015625)"/>
       </defs>
       <use xlink:href="#DejaVuSans-30"/>
       <use xlink:href="#DejaVuSans-2e" x="63.623047"/>
       <use xlink:href="#DejaVuSans-36" x="95.410156"/>
      </g>
     </g>
    </g>
    <g id="xtick_5">
     <g id="line2d_5">
      <g>
       <use xlink:href="#m856e9ea834" x="1000.678794" y="4541.102362" style="stroke: #000000; stroke-width: 0.8"/>
      </g>
     </g>
     <g id="text_6">
      <!-- 0.8 -->
      <g transform="translate(984.775669 4563.299237) scale(0.2 -0.2)">
       <use xlink:href="#DejaVuSans-30"/>
       <use xlink:href="#DejaVuSans-2e" x="63.623047"/>
       <use xlink:href="#DejaVuSans-38" x="95.410156"/>
      </g>
     </g>
    </g>
    <g id="xtick_6">
     <g id="line2d_6">
      <g>
       <use xlink:href="#m856e9ea834" x="1068.85691" y="4541.102362" style="stroke: #000000; stroke-width: 0.8"/>
      </g>
     </g>
     <g id="text_7">
      <!-- 1.0 -->
      <g transform="translate(1052.953785 4563.299237) scale(0.2 -0.2)">
       <use xlink:href="#DejaVuSans-31"/>
       <use xlink:href="#DejaVuSans-2e" x="63.623047"/>
       <use xlink:href="#DejaVuSans-30" x="95.410156"/>
      </g>
     </g>
    </g>
   </g>
   <g id="matplotlib.axis_2">
    <g id="ytick_1">
     <g id="line2d_7">
      <defs>
       <path id="m9b0262593a" d="M 0 0 
L -3.5 0 
" style="stroke: #000000; stroke-width: 0.8"/>
      </defs>
      <g>
       <use xlink:href="#m9b0262593a" x="727.966332" y="4541.102362" style="stroke: #000000; stroke-width: 0.8"/>
      </g>
     </g>
     <g id="text_8">
      <!-- 0.0 -->
      <g transform="translate(689.160082 4548.7008) scale(0.2 -0.2)">
       <use xlink:href="#DejaVuSans-30"/>
       <use xlink:href="#DejaVuSans-2e" x="63.623047"/>
       <use xlink:href="#DejaVuSans-30" x="95.410156"/>
      </g>
     </g>
    </g>
    <g id="ytick_2">
     <g id="line2d_8">
      <g>
       <use xlink:href="#m9b0262593a" x="727.966332" y="3755.338583" style="stroke: #000000; stroke-width: 0.8"/>
      </g>
     </g>
     <g id="text_9">
      <!-- 0.2 -->
      <g transform="translate(689.160082 3762.93702) scale(0.2 -0.2)">
       <use xlink:href="#DejaVuSans-30"/>
       <use xlink:href="#DejaVuSans-2e" x="63.623047"/>
       <use xlink:href="#DejaVuSans-32" x="95.410156"/>
      </g>
     </g>
    </g>
    <g id="ytick_3">
     <g id="line2d_9">
      <g>
       <use xlink:href="#m9b0262593a" x="727.966332" y="2969.574803" style="stroke: #000000; stroke-width: 0.8"/>
      </g>
     </g>
     <g id="text_10">
      <!-- 0.4 -->
      <g transform="translate(689.160082 2977.173241) scale(0.2 -0.2)">
       <use xlink:href="#DejaVuSans-30"/>
       <use xlink:href="#DejaVuSans-2e" x="63.623047"/>
       <use xlink:href="#DejaVuSans-34" x="95.410156"/>
      </g>
     </g>
    </g>
    <g id="ytick_4">
     <g id="line2d_10">
      <g>
       <use xlink:href="#m9b0262593a" x="727.966332" y="2183.811024" style="stroke: #000000; stroke-width: 0.8"/>
      </g>
     </g>
     <g id="text_11">
      <!-- 0.6 -->
      <g transform="translate(689.160082 2191.409461) scale(0.2 -0.2)">
       <use xlink:href="#DejaVuSans-30"/>
       <use xlink:href="#DejaVuSans-2e" x="63.623047"/>
       <use xlink:href="#DejaVuSans-36" x="95.410156"/>
      </g>
     </g>
    </g>
    <g id="ytick_5">
     <g id="line2d_11">
      <g>
       <use xlink:href="#m9b0262593a" x="727.966332" y="1398.047244" style="stroke: #000000; stroke-width: 0.8"/>
      </g>
     </g>
     <g id="text_12">
      <!-- 0.8 -->
      <g transform="translate(689.160082 1405.645682) scale(0.2 -0.2)">
       <use xlink:href="#DejaVuSans-30"/>
       <use xlink:href="#DejaVuSans-2e" x="63.623047"/>
       <use xlink:href="#DejaVuSans-38" x="95.410156"/>
      </g>
     </g>
    </g>
    <g id="ytick_6">
     <g id="line2d_12">
      <g>
       <use xlink:href="#m9b0262593a" x="727.966332" y="612.283465" style="stroke: #000000; stroke-width: 0.8"/>
      </g>
     </g>
     <g id="text_13">
      <!-- 1.0 -->
      <g transform="translate(689.160082 619.881902) scale(0.2 -0.2)">
       <use xlink:href="#DejaVuSans-31"/>
       <use xlink:href="#DejaVuSans-2e" x="63.623047"/>
       <use xlink:href="#DejaVuSans-30" x="95.410156"/>
      </g>
     </g>
    </g>
   </g>
   <g id="patch_3">
    <path d="M 727.966332 4541.102362 
L 727.966332 612.283465 
" style="fill: none; stroke: #000000; stroke-width: 0.8; stroke-linejoin: miter; stroke-linecap: square"/>
   </g>
   <g id="patch_4">
    <path d="M 1068.85691 4541.102362 
L 1068.85691 612.283465 
" style="fill: none; stroke: #000000; stroke-width: 0.8; stroke-linejoin: miter; stroke-linecap: square"/>
   </g>
   <g id="patch_5">
    <path d="M 727.966332 4541.102362 
L 1068.85691 4541.102362 
" style="fill: none; stroke: #000000; stroke-width: 0.8; stroke-linejoin: miter; stroke-linecap: square"/>
   </g>
   <g id="patch_6">
    <path d="M 727.966332 612.283465 
L 1068.85691 612.283465 
" style="fill: none; stroke: #000000; stroke-width: 0.8; stroke-linejoin: miter; stroke-linecap: square"/>
   </g>
  </g>
  <g id="axes_3">
   <g id="patch_7">
    <path d="M 1137.035026 4541.102362 
L 1477.925604 4541.102362 
L 1477.925604 612.283465 
L 1137.035026 612.283465 
z
" style="fill: #ffffff"/>
   </g>
   <g id="matplotlib.axis_3">
    <g id="xtick_7">
     <g id="line2d_13">
      <g>
       <use xlink:href="#m856e9ea834" x="1137.035026" y="4541.102362" style="stroke: #000000; stroke-width: 0.8"/>
      </g>
     </g>
     <g id="text_14">
      <!-- 0.0 -->
      <g transform="translate(1121.131901 4563.299237) scale(0.2 -0.2)">
       <use xlink:href="#DejaVuSans-30"/>
       <use xlink:href="#DejaVuSans-2e" x="63.623047"/>
       <use xlink:href="#DejaVuSans-30" x="95.410156"/>
      </g>
     </g>
    </g>
    <g id="xtick_8">
     <g id="line2d_14">
      <g>
       <use xlink:href="#m856e9ea834" x="1205.213141" y="4541.102362" style="stroke: #000000; stroke-width: 0.8"/>
      </g>
     </g>
     <g id="text_15">
      <!-- 0.2 -->
      <g transform="translate(1189.310016 4563.299237) scale(0.2 -0.2)">
       <use xlink:href="#DejaVuSans-30"/>
       <use xlink:href="#DejaVuSans-2e" x="63.623047"/>
       <use xlink:href="#DejaVuSans-32" x="95.410156"/>
      </g>
     </g>
    </g>
    <g id="xtick_9">
     <g id="line2d_15">
      <g>
       <use xlink:href="#m856e9ea834" x="1273.391257" y="4541.102362" style="stroke: #000000; stroke-width: 0.8"/>
      </g>
     </g>
     <g id="text_16">
      <!-- 0.4 -->
      <g transform="translate(1257.488132 4563.299237) scale(0.2 -0.2)">
       <use xlink:href="#DejaVuSans-30"/>
       <use xlink:href="#DejaVuSans-2e" x="63.623047"/>
       <use xlink:href="#DejaVuSans-34" x="95.410156"/>
      </g>
     </g>
    </g>
    <g id="xtick_10">
     <g id="line2d_16">
      <g>
       <use xlink:href="#m856e9ea834" x="1341.569373" y="4541.102362" style="stroke: #000000; stroke-width: 0.8"/>
      </g>
     </g>
     <g id="text_17">
      <!-- 0.6 -->
      <g transform="translate(1325.666248 4563.299237) scale(0.2 -0.2)">
       <use xlink:href="#DejaVuSans-30"/>
       <use xlink:href="#DejaVuSans-2e" x="63.623047"/>
       <use xlink:href="#DejaVuSans-36" x="95.410156"/>
      </g>
     </g>
    </g>
    <g id="xtick_11">
     <g id="line2d_17">
      <g>
       <use xlink:href="#m856e9ea834" x="1409.747488" y="4541.102362" style="stroke: #000000; stroke-width: 0.8"/>
      </g>
     </g>
     <g id="text_18">
      <!-- 0.8 -->
      <g transform="translate(1393.844363 4563.299237) scale(0.2 -0.2)">
       <use xlink:href="#DejaVuSans-30"/>
       <use xlink:href="#DejaVuSans-2e" x="63.623047"/>
       <use xlink:href="#DejaVuSans-38" x="95.410156"/>
      </g>
     </g>
    </g>
    <g id="xtick_12">
     <g id="line2d_18">
      <g>
       <use xlink:href="#m856e9ea834" x="1477.925604" y="4541.102362" style="stroke: #000000; stroke-width: 0.8"/>
      </g>
     </g>
     <g id="text_19">
      <!-- 1.0 -->
      <g transform="translate(1462.022479 4563.299237) scale(0.2 -0.2)">
       <use xlink:href="#DejaVuSans-31"/>
       <use xlink:href="#DejaVuSans-2e" x="63.623047"/>
       <use xlink:href="#DejaVuSans-30" x="95.410156"/>
      </g>
     </g>
    </g>
   </g>
   <g id="matplotlib.axis_4">
    <g id="ytick_7">
     <g id="line2d_19">
      <g>
       <use xlink:href="#m9b0262593a" x="1137.035026" y="4541.102362" style="stroke: #000000; stroke-width: 0.8"/>
      </g>
     </g>
     <g id="text_20">
      <!-- 0.0 -->
      <g transform="translate(1098.228776 4548.7008) scale(0.2 -0.2)">
       <use xlink:href="#DejaVuSans-30"/>
       <use xlink:href="#DejaVuSans-2e" x="63.623047"/>
       <use xlink:href="#DejaVuSans-30" x="95.410156"/>
      </g>
     </g>
    </g>
    <g id="ytick_8">
     <g id="line2d_20">
      <g>
       <use xlink:href="#m9b0262593a" x="1137.035026" y="3755.338583" style="stroke: #000000; stroke-width: 0.8"/>
      </g>
     </g>
     <g id="text_21">
      <!-- 0.2 -->
      <g transform="translate(1098.228776 3762.93702) scale(0.2 -0.2)">
       <use xlink:href="#DejaVuSans-30"/>
       <use xlink:href="#DejaVuSans-2e" x="63.623047"/>
       <use xlink:href="#DejaVuSans-32" x="95.410156"/>
      </g>
     </g>
    </g>
    <g id="ytick_9">
     <g id="line2d_21">
      <g>
       <use xlink:href="#m9b0262593a" x="1137.035026" y="2969.574803" style="stroke: #000000; stroke-width: 0.8"/>
      </g>
     </g>
     <g id="text_22">
      <!-- 0.4 -->
      <g transform="translate(1098.228776 2977.173241) scale(0.2 -0.2)">
       <use xlink:href="#DejaVuSans-30"/>
       <use xlink:href="#DejaVuSans-2e" x="63.623047"/>
       <use xlink:href="#DejaVuSans-34" x="95.410156"/>
      </g>
     </g>
    </g>
    <g id="ytick_10">
     <g id="line2d_22">
      <g>
       <use xlink:href="#m9b0262593a" x="1137.035026" y="2183.811024" style="stroke: #000000; stroke-width: 0.8"/>
      </g>
     </g>
     <g id="text_23">
      <!-- 0.6 -->
      <g transform="translate(1098.228776 2191.409461) scale(0.2 -0.2)">
       <use xlink:href="#DejaVuSans-30"/>
       <use xlink:href="#DejaVuSans-2e" x="63.623047"/>
       <use xlink:href="#DejaVuSans-36" x="95.410156"/>
      </g>
     </g>
    </g>
    <g id="ytick_11">
     <g id="line2d_23">
      <g>
       <use xlink:href="#m9b0262593a" x="1137.035026" y="1398.047244" style="stroke: #000000; stroke-width: 0.8"/>
      </g>
     </g>
     <g id="text_24">
      <!-- 0.8 -->
      <g transform="translate(1098.228776 1405.645682) scale(0.2 -0.2)">
       <use xlink:href="#DejaVuSans-30"/>
       <use xlink:href="#DejaVuSans-2e" x="63.623047"/>
       <use xlink:href="#DejaVuSans-38" x="95.410156"/>
      </g>
     </g>
    </g>
    <g id="ytick_12">
     <g id="line2d_24">
      <g>
       <use xlink:href="#m9b0262593a" x="1137.035026" y="612.283465" style="stroke: #000000; stroke-width: 0.8"/>
      </g>
     </g>
     <g id="text_25">
      <!-- 1.0 -->
      <g transform="translate(1098.228776 619.881902) scale(0.2 -0.2)">
       <use xlink:href="#DejaVuSans-31"/>
       <use xlink:href="#DejaVuSans-2e" x="63.623047"/>
       <use xlink:href="#DejaVuSans-30" x="95.410156"/>
      </g>
     </g>
    </g>
   </g>
   <g id="patch_8">
    <path d="M 1137.035026 4541.102362 
L 1137.035026 612.283465 
" style="fill: none; stroke: #000000; stroke-width: 0.8; stroke-linejoin: miter; stroke-linecap: square"/>
   </g>
   <g id="patch_9">
    <path d="M 1477.925604 4541.102362 
L 1477.925604 612.283465 
" style="fill: none; stroke: #000000; stroke-width: 0.8; stroke-linejoin: miter; stroke-linecap: square"/>
   </g>
   <g id="patch_10">
    <path d="M 1137.035026 4541.102362 
L 1477.925604 4541.102362 
" style="fill: none; stroke: #000000; stroke-width: 0.8; stroke-linejoin: miter; stroke-linecap: square"/>
   </g>
   <g id="patch_11">
    <path d="M 1137.035026 612.283465 
L 1477.925604 612.283465 
" style="fill: none; stroke: #000000; stroke-width: 0.8; stroke-linejoin: miter; stroke-linecap: square"/>
   </g>
  </g>
  <g id="axes_4">
   <g id="patch_12">
    <path d="M 1546.10372 4541.102362 
L 1886.994298 4541.102362 
L 1886.994298 612.283465 
L 1546.10372 612.283465 
z
" style="fill: #ffffff"/>
   </g>
   <g id="matplotlib.axis_5">
    <g id="xtick_13">
     <g id="line2d_25">
      <g>
       <use xlink:href="#m856e9ea834" x="1546.10372" y="4541.102362" style="stroke: #000000; stroke-width: 0.8"/>
      </g>
     </g>
     <g id="text_26">
      <!-- 0.0 -->
      <g transform="translate(1530.200595 4563.299237) scale(0.2 -0.2)">
       <use xlink:href="#DejaVuSans-30"/>
       <use xlink:href="#DejaVuSans-2e" x="63.623047"/>
       <use xlink:href="#DejaVuSans-30" x="95.410156"/>
      </g>
     </g>
    </g>
    <g id="xtick_14">
     <g id="line2d_26">
      <g>
       <use xlink:href="#m856e9ea834" x="1614.281835" y="4541.102362" style="stroke: #000000; stroke-width: 0.8"/>
      </g>
     </g>
     <g id="text_27">
      <!-- 0.2 -->
      <g transform="translate(1598.37871 4563.299237) scale(0.2 -0.2)">
       <use xlink:href="#DejaVuSans-30"/>
       <use xlink:href="#DejaVuSans-2e" x="63.623047"/>
       <use xlink:href="#DejaVuSans-32" x="95.410156"/>
      </g>
     </g>
    </g>
    <g id="xtick_15">
     <g id="line2d_27">
      <g>
       <use xlink:href="#m856e9ea834" x="1682.459951" y="4541.102362" style="stroke: #000000; stroke-width: 0.8"/>
      </g>
     </g>
     <g id="text_28">
      <!-- 0.4 -->
      <g transform="translate(1666.556826 4563.299237) scale(0.2 -0.2)">
       <use xlink:href="#DejaVuSans-30"/>
       <use xlink:href="#DejaVuSans-2e" x="63.623047"/>
       <use xlink:href="#DejaVuSans-34" x="95.410156"/>
      </g>
     </g>
    </g>
    <g id="xtick_16">
     <g id="line2d_28">
      <g>
       <use xlink:href="#m856e9ea834" x="1750.638067" y="4541.102362" style="stroke: #000000; stroke-width: 0.8"/>
      </g>
     </g>
     <g id="text_29">
      <!-- 0.6 -->
      <g transform="translate(1734.734942 4563.299237) scale(0.2 -0.2)">
       <use xlink:href="#DejaVuSans-30"/>
       <use xlink:href="#DejaVuSans-2e" x="63.623047"/>
       <use xlink:href="#DejaVuSans-36" x="95.410156"/>
      </g>
     </g>
    </g>
    <g id="xtick_17">
     <g id="line2d_29">
      <g>
       <use xlink:href="#m856e9ea834" x="1818.816182" y="4541.102362" style="stroke: #000000; stroke-width: 0.8"/>
      </g>
     </g>
     <g id="text_30">
      <!-- 0.8 -->
      <g transform="translate(1802.913057 4563.299237) scale(0.2 -0.2)">
       <use xlink:href="#DejaVuSans-30"/>
       <use xlink:href="#DejaVuSans-2e" x="63.623047"/>
       <use xlink:href="#DejaVuSans-38" x="95.410156"/>
      </g>
     </g>
    </g>
    <g id="xtick_18">
     <g id="line2d_30">
      <g>
       <use xlink:href="#m856e9ea834" x="1886.994298" y="4541.102362" style="stroke: #000000; stroke-width: 0.8"/>
      </g>
     </g>
     <g id="text_31">
      <!-- 1.0 -->
      <g transform="translate(1871.091173 4563.299237) scale(0.2 -0.2)">
       <use xlink:href="#DejaVuSans-31"/>
       <use xlink:href="#DejaVuSans-2e" x="63.623047"/>
       <use xlink:href="#DejaVuSans-30" x="95.410156"/>
      </g>
     </g>
    </g>
   </g>
   <g id="matplotlib.axis_6">
    <g id="ytick_13">
     <g id="line2d_31">
      <g>
       <use xlink:href="#m9b0262593a" x="1546.10372" y="4541.102362" style="stroke: #000000; stroke-width: 0.8"/>
      </g>
     </g>
     <g id="text_32">
      <!-- 0.0 -->
      <g transform="translate(1507.29747 4548.7008) scale(0.2 -0.2)">
       <use xlink:href="#DejaVuSans-30"/>
       <use xlink:href="#DejaVuSans-2e" x="63.623047"/>
       <use xlink:href="#DejaVuSans-30" x="95.410156"/>
      </g>
     </g>
    </g>
    <g id="ytick_14">
     <g id="line2d_32">
      <g>
       <use xlink:href="#m9b0262593a" x="1546.10372" y="3755.338583" style="stroke: #000000; stroke-width: 0.8"/>
      </g>
     </g>
     <g id="text_33">
      <!-- 0.2 -->
      <g transform="translate(1507.29747 3762.93702) scale(0.2 -0.2)">
       <use xlink:href="#DejaVuSans-30"/>
       <use xlink:href="#DejaVuSans-2e" x="63.623047"/>
       <use xlink:href="#DejaVuSans-32" x="95.410156"/>
      </g>
     </g>
    </g>
    <g id="ytick_15">
     <g id="line2d_33">
      <g>
       <use xlink:href="#m9b0262593a" x="1546.10372" y="2969.574803" style="stroke: #000000; stroke-width: 0.8"/>
      </g>
     </g>
     <g id="text_34">
      <!-- 0.4 -->
      <g transform="translate(1507.29747 2977.173241) scale(0.2 -0.2)">
       <use xlink:href="#DejaVuSans-30"/>
       <use xlink:href="#DejaVuSans-2e" x="63.623047"/>
       <use xlink:href="#DejaVuSans-34" x="95.410156"/>
      </g>
     </g>
    </g>
    <g id="ytick_16">
     <g id="line2d_34">
      <g>
       <use xlink:href="#m9b0262593a" x="1546.10372" y="2183.811024" style="stroke: #000000; stroke-width: 0.8"/>
      </g>
     </g>
     <g id="text_35">
      <!-- 0.6 -->
      <g transform="translate(1507.29747 2191.409461) scale(0.2 -0.2)">
       <use xlink:href="#DejaVuSans-30"/>
       <use xlink:href="#DejaVuSans-2e" x="63.623047"/>
       <use xlink:href="#DejaVuSans-36" x="95.410156"/>
      </g>
     </g>
    </g>
    <g id="ytick_17">
     <g id="line2d_35">
      <g>
       <use xlink:href="#m9b0262593a" x="1546.10372" y="1398.047244" style="stroke: #000000; stroke-width: 0.8"/>
      </g>
     </g>
     <g id="text_36">
      <!-- 0.8 -->
      <g transform="translate(1507.29747 1405.645682) scale(0.2 -0.2)">
       <use xlink:href="#DejaVuSans-30"/>
       <use xlink:href="#DejaVuSans-2e" x="63.623047"/>
       <use xlink:href="#DejaVuSans-38" x="95.410156"/>
      </g>
     </g>
    </g>
    <g id="ytick_18">
     <g id="line2d_36">
      <g>
       <use xlink:href="#m9b0262593a" x="1546.10372" y="612.283465" style="stroke: #000000; stroke-width: 0.8"/>
      </g>
     </g>
     <g id="text_37">
      <!-- 1.0 -->
      <g transform="translate(1507.29747 619.881902) scale(0.2 -0.2)">
       <use xlink:href="#DejaVuSans-31"/>
       <use xlink:href="#DejaVuSans-2e" x="63.623047"/>
       <use xlink:href="#DejaVuSans-30" x="95.410156"/>
      </g>
     </g>
    </g>
   </g>
   <g id="patch_13">
    <path d="M 1546.10372 4541.102362 
L 1546.10372 612.283465 
" style="fill: none; stroke: #000000; stroke-width: 0.8; stroke-linejoin: miter; stroke-linecap: square"/>
   </g>
   <g id="patch_14">
    <path d="M 1886.994298 4541.102362 
L 1886.994298 612.283465 
" style="fill: none; stroke: #000000; stroke-width: 0.8; stroke-linejoin: miter; stroke-linecap: square"/>
   </g>
   <g id="patch_15">
    <path d="M 1546.10372 4541.102362 
L 1886.994298 4541.102362 
" style="fill: none; stroke: #000000; stroke-width: 0.8; stroke-linejoin: miter; stroke-linecap: square"/>
   </g>
   <g id="patch_16">
    <path d="M 1546.10372 612.283465 
L 1886.994298 612.283465 
" style="fill: none; stroke: #000000; stroke-width: 0.8; stroke-linejoin: miter; stroke-linecap: square"/>
   </g>
  </g>
  <g id="axes_5">
   <g id="patch_17">
    <path d="M 1955.172414 4541.102362 
L 2296.062992 4541.102362 
L 2296.062992 612.283465 
L 1955.172414 612.283465 
z
" style="fill: #ffffff"/>
   </g>
   <g id="matplotlib.axis_7">
    <g id="xtick_19">
     <g id="line2d_37">
      <g>
       <use xlink:href="#m856e9ea834" x="1955.172414" y="4541.102362" style="stroke: #000000; stroke-width: 0.8"/>
      </g>
     </g>
     <g id="text_38">
      <!-- 0.0 -->
      <g transform="translate(1939.269289 4563.299237) scale(0.2 -0.2)">
       <use xlink:href="#DejaVuSans-30"/>
       <use xlink:href="#DejaVuSans-2e" x="63.623047"/>
       <use xlink:href="#DejaVuSans-30" x="95.410156"/>
      </g>
     </g>
    </g>
    <g id="xtick_20">
     <g id="line2d_38">
      <g>
       <use xlink:href="#m856e9ea834" x="2023.350529" y="4541.102362" style="stroke: #000000; stroke-width: 0.8"/>
      </g>
     </g>
     <g id="text_39">
      <!-- 0.2 -->
      <g transform="translate(2007.447404 4563.299237) scale(0.2 -0.2)">
       <use xlink:href="#DejaVuSans-30"/>
       <use xlink:href="#DejaVuSans-2e" x="63.623047"/>
       <use xlink:href="#DejaVuSans-32" x="95.410156"/>
      </g>
     </g>
    </g>
    <g id="xtick_21">
     <g id="line2d_39">
      <g>
       <use xlink:href="#m856e9ea834" x="2091.528645" y="4541.102362" style="stroke: #000000; stroke-width: 0.8"/>
      </g>
     </g>
     <g id="text_40">
      <!-- 0.4 -->
      <g transform="translate(2075.62552 4563.299237) scale(0.2 -0.2)">
       <use xlink:href="#DejaVuSans-30"/>
       <use xlink:href="#DejaVuSans-2e" x="63.623047"/>
       <use xlink:href="#DejaVuSans-34" x="95.410156"/>
      </g>
     </g>
    </g>
    <g id="xtick_22">
     <g id="line2d_40">
      <g>
       <use xlink:href="#m856e9ea834" x="2159.706761" y="4541.102362" style="stroke: #000000; stroke-width: 0.8"/>
      </g>
     </g>
     <g id="text_41">
      <!-- 0.6 -->
      <g transform="translate(2143.803636 4563.299237) scale(0.2 -0.2)">
       <use xlink:href="#DejaVuSans-30"/>
       <use xlink:href="#DejaVuSans-2e" x="63.623047"/>
       <use xlink:href="#DejaVuSans-36" x="95.410156"/>
      </g>
     </g>
    </g>
    <g id="xtick_23">
     <g id="line2d_41">
      <g>
       <use xlink:href="#m856e9ea834" x="2227.884876" y="4541.102362" style="stroke: #000000; stroke-width: 0.8"/>
      </g>
     </g>
     <g id="text_42">
      <!-- 0.8 -->
      <g transform="translate(2211.981751 4563.299237) scale(0.2 -0.2)">
       <use xlink:href="#DejaVuSans-30"/>
       <use xlink:href="#DejaVuSans-2e" x="63.623047"/>
       <use xlink:href="#DejaVuSans-38" x="95.410156"/>
      </g>
     </g>
    </g>
    <g id="xtick_24">
     <g id="line2d_42">
      <g>
       <use xlink:href="#m856e9ea834" x="2296.062992" y="4541.102362" style="stroke: #000000; stroke-width: 0.8"/>
      </g>
     </g>
     <g id="text_43">
      <!-- 1.0 -->
      <g transform="translate(2280.159867 4563.299237) scale(0.2 -0.2)">
       <use xlink:href="#DejaVuSans-31"/>
       <use xlink:href="#DejaVuSans-2e" x="63.623047"/>
       <use xlink:href="#DejaVuSans-30" x="95.410156"/>
      </g>
     </g>
    </g>
   </g>
   <g id="matplotlib.axis_8">
    <g id="ytick_19">
     <g id="line2d_43">
      <g>
       <use xlink:href="#m9b0262593a" x="1955.172414" y="4541.102362" style="stroke: #000000; stroke-width: 0.8"/>
      </g>
     </g>
     <g id="text_44">
      <!-- 0.0 -->
      <g transform="translate(1916.366164 4548.7008) scale(0.2 -0.2)">
       <use xlink:href="#DejaVuSans-30"/>
       <use xlink:href="#DejaVuSans-2e" x="63.623047"/>
       <use xlink:href="#DejaVuSans-30" x="95.410156"/>
      </g>
     </g>
    </g>
    <g id="ytick_20">
     <g id="line2d_44">
      <g>
       <use xlink:href="#m9b0262593a" x="1955.172414" y="3755.338583" style="stroke: #000000; stroke-width: 0.8"/>
      </g>
     </g>
     <g id="text_45">
      <!-- 0.2 -->
      <g transform="translate(1916.366164 3762.93702) scale(0.2 -0.2)">
       <use xlink:href="#DejaVuSans-30"/>
       <use xlink:href="#DejaVuSans-2e" x="63.623047"/>
       <use xlink:href="#DejaVuSans-32" x="95.410156"/>
      </g>
     </g>
    </g>
    <g id="ytick_21">
     <g id="line2d_45">
      <g>
       <use xlink:href="#m9b0262593a" x="1955.172414" y="2969.574803" style="stroke: #000000; stroke-width: 0.8"/>
      </g>
     </g>
     <g id="text_46">
      <!-- 0.4 -->
      <g transform="translate(1916.366164 2977.173241) scale(0.2 -0.2)">
       <use xlink:href="#DejaVuSans-30"/>
       <use xlink:href="#DejaVuSans-2e" x="63.623047"/>
       <use xlink:href="#DejaVuSans-34" x="95.410156"/>
      </g>
     </g>
    </g>
    <g id="ytick_22">
     <g id="line2d_46">
      <g>
       <use xlink:href="#m9b0262593a" x="1955.172414" y="2183.811024" style="stroke: #000000; stroke-width: 0.8"/>
      </g>
     </g>
     <g id="text_47">
      <!-- 0.6 -->
      <g transform="translate(1916.366164 2191.409461) scale(0.2 -0.2)">
       <use xlink:href="#DejaVuSans-30"/>
       <use xlink:href="#DejaVuSans-2e" x="63.623047"/>
       <use xlink:href="#DejaVuSans-36" x="95.410156"/>
      </g>
     </g>
    </g>
    <g id="ytick_23">
     <g id="line2d_47">
      <g>
       <use xlink:href="#m9b0262593a" x="1955.172414" y="1398.047244" style="stroke: #000000; stroke-width: 0.8"/>
      </g>
     </g>
     <g id="text_48">
      <!-- 0.8 -->
      <g transform="translate(1916.366164 1405.645682) scale(0.2 -0.2)">
       <use xlink:href="#DejaVuSans-30"/>
       <use xlink:href="#DejaVuSans-2e" x="63.623047"/>
       <use xlink:href="#DejaVuSans-38" x="95.410156"/>
      </g>
     </g>
    </g>
    <g id="ytick_24">
     <g id="line2d_48">
      <g>
       <use xlink:href="#m9b0262593a" x="1955.172414" y="612.283465" style="stroke: #000000; stroke-width: 0.8"/>
      </g>
     </g>
     <g id="text_49">
      <!-- 1.0 -->
      <g transform="translate(1916.366164 619.881902) scale(0.2 -0.2)">
       <use xlink:href="#DejaVuSans-31"/>
       <use xlink:href="#DejaVuSans-2e" x="63.623047"/>
       <use xlink:href="#DejaVuSans-30" x="95.410156"/>
      </g>
     </g>
    </g>
   </g>
   <g id="patch_18">
    <path d="M 1955.172414 4541.102362 
L 1955.172414 612.283465 
" style="fill: none; stroke: #000000; stroke-width: 0.8; stroke-linejoin: miter; stroke-linecap: square"/>
   </g>
   <g id="patch_19">
    <path d="M 2296.062992 4541.102362 
L 2296.062992 612.283465 
" style="fill: none; stroke: #000000; stroke-width: 0.8; stroke-linejoin: miter; stroke-linecap: square"/>
   </g>
   <g id="patch_20">
    <path d="M 1955.172414 4541.102362 
L 2296.062992 4541.102362 
" style="fill: none; stroke: #000000; stroke-width: 0.8; stroke-linejoin: miter; stroke-linecap: square"/>
   </g>
   <g id="patch_21">
    <path d="M 1955.172414 612.283465 
L 2296.062992 612.283465 
" style="fill: none; stroke: #000000; stroke-width: 0.8; stroke-linejoin: miter; stroke-linecap: square"/>
   </g>
   <g id="text_50">
    <!-- Development of has_wwtp  -->
    <g transform="translate(1962.663328 578.741215) scale(0.24 -0.24)">
     <defs>
      <path id="DejaVuSans-44" d="M 1259 4147 
L 1259 519 
L 2022 519 
Q 2988 519 3436 956 
Q 3884 1394 3884 2338 
Q 3884 3275 3436 3711 
Q 2988 4147 2022 4147 
L 1259 4147 
z
M 628 4666 
L 1925 4666 
Q 3281 4666 3915 4102 
Q 4550 3538 4550 2338 
Q 4550 1131 3912 565 
Q 3275 0 1925 0 
L 628 0 
L 628 4666 
z
" transform="scale(0.015625)"/>
      <path id="DejaVuSans-65" d="M 3597 1894 
L 3597 1613 
L 953 1613 
Q 991 1019 1311 708 
Q 1631 397 2203 397 
Q 2534 397 2845 478 
Q 3156 559 3463 722 
L 3463 178 
Q 3153 47 2828 -22 
Q 2503 -91 2169 -91 
Q 1331 -91 842 396 
Q 353 884 353 1716 
Q 353 2575 817 3079 
Q 1281 3584 2069 3584 
Q 2775 3584 3186 3129 
Q 3597 2675 3597 1894 
z
M 3022 2063 
Q 3016 2534 2758 2815 
Q 2500 3097 2075 3097 
Q 1594 3097 1305 2825 
Q 1016 2553 972 2059 
L 3022 2063 
z
" transform="scale(0.015625)"/>
      <path id="DejaVuSans-76" d="M 191 3500 
L 800 3500 
L 1894 563 
L 2988 3500 
L 3597 3500 
L 2284 0 
L 1503 0 
L 191 3500 
z
" transform="scale(0.015625)"/>
      <path id="DejaVuSans-6c" d="M 603 4863 
L 1178 4863 
L 1178 0 
L 603 0 
L 603 4863 
z
" transform="scale(0.015625)"/>
      <path id="DejaVuSans-6f" d="M 1959 3097 
Q 1497 3097 1228 2736 
Q 959 2375 959 1747 
Q 959 1119 1226 758 
Q 1494 397 1959 397 
Q 2419 397 2687 759 
Q 2956 1122 2956 1747 
Q 2956 2369 2687 2733 
Q 2419 3097 1959 3097 
z
M 1959 3584 
Q 2709 3584 3137 3096 
Q 3566 2609 3566 1747 
Q 3566 888 3137 398 
Q 2709 -91 1959 -91 
Q 1206 -91 779 398 
Q 353 888 353 1747 
Q 353 2609 779 3096 
Q 1206 3584 1959 3584 
z
" transform="scale(0.015625)"/>
      <path id="DejaVuSans-70" d="M 1159 525 
L 1159 -1331 
L 581 -1331 
L 581 3500 
L 1159 3500 
L 1159 2969 
Q 1341 3281 1617 3432 
Q 1894 3584 2278 3584 
Q 2916 3584 3314 3078 
Q 3713 2572 3713 1747 
Q 3713 922 3314 415 
Q 2916 -91 2278 -91 
Q 1894 -91 1617 61 
Q 1341 213 1159 525 
z
M 3116 1747 
Q 3116 2381 2855 2742 
Q 2594 3103 2138 3103 
Q 1681 3103 1420 2742 
Q 1159 2381 1159 1747 
Q 1159 1113 1420 752 
Q 1681 391 2138 391 
Q 2594 391 2855 752 
Q 3116 1113 3116 1747 
z
" transform="scale(0.015625)"/>
      <path id="DejaVuSans-6d" d="M 3328 2828 
Q 3544 3216 3844 3400 
Q 4144 3584 4550 3584 
Q 5097 3584 5394 3201 
Q 5691 2819 5691 2113 
L 5691 0 
L 5113 0 
L 5113 2094 
Q 5113 2597 4934 2840 
Q 4756 3084 4391 3084 
Q 3944 3084 3684 2787 
Q 3425 2491 3425 1978 
L 3425 0 
L 2847 0 
L 2847 2094 
Q 2847 2600 2669 2842 
Q 2491 3084 2119 3084 
Q 1678 3084 1418 2786 
Q 1159 2488 1159 1978 
L 1159 0 
L 581 0 
L 581 3500 
L 1159 3500 
L 1159 2956 
Q 1356 3278 1631 3431 
Q 1906 3584 2284 3584 
Q 2666 3584 2933 3390 
Q 3200 3197 3328 2828 
z
" transform="scale(0.015625)"/>
      <path id="DejaVuSans-6e" d="M 3513 2113 
L 3513 0 
L 2938 0 
L 2938 2094 
Q 2938 2591 2744 2837 
Q 2550 3084 2163 3084 
Q 1697 3084 1428 2787 
Q 1159 2491 1159 1978 
L 1159 0 
L 581 0 
L 581 3500 
L 1159 3500 
L 1159 2956 
Q 1366 3272 1645 3428 
Q 1925 3584 2291 3584 
Q 2894 3584 3203 3211 
Q 3513 2838 3513 2113 
z
" transform="scale(0.015625)"/>
      <path id="DejaVuSans-74" d="M 1172 4494 
L 1172 3500 
L 2356 3500 
L 2356 3053 
L 1172 3053 
L 1172 1153 
Q 1172 725 1289 603 
Q 1406 481 1766 481 
L 2356 481 
L 2356 0 
L 1766 0 
Q 1100 0 847 248 
Q 594 497 594 1153 
L 594 3053 
L 172 3053 
L 172 3500 
L 594 3500 
L 594 4494 
L 1172 4494 
z
" transform="scale(0.015625)"/>
      <path id="DejaVuSans-20" transform="scale(0.015625)"/>
      <path id="DejaVuSans-66" d="M 2375 4863 
L 2375 4384 
L 1825 4384 
Q 1516 4384 1395 4259 
Q 1275 4134 1275 3809 
L 1275 3500 
L 2222 3500 
L 2222 3053 
L 1275 3053 
L 1275 0 
L 697 0 
L 697 3053 
L 147 3053 
L 147 3500 
L 697 3500 
L 697 3744 
Q 697 4328 969 4595 
Q 1241 4863 1831 4863 
L 2375 4863 
z
" transform="scale(0.015625)"/>
      <path id="DejaVuSans-68" d="M 3513 2113 
L 3513 0 
L 2938 0 
L 2938 2094 
Q 2938 2591 2744 2837 
Q 2550 3084 2163 3084 
Q 1697 3084 1428 2787 
Q 1159 2491 1159 1978 
L 1159 0 
L 581 0 
L 581 4863 
L 1159 4863 
L 1159 2956 
Q 1366 3272 1645 3428 
Q 1925 3584 2291 3584 
Q 2894 3584 3203 3211 
Q 3513 2838 3513 2113 
z
" transform="scale(0.015625)"/>
      <path id="DejaVuSans-61" d="M 2194 1759 
Q 1497 1759 1228 1600 
Q 959 1441 959 1056 
Q 959 750 1161 570 
Q 1363 391 1709 391 
Q 2188 391 2477 730 
Q 2766 1069 2766 1631 
L 2766 1759 
L 2194 1759 
z
M 3341 1997 
L 3341 0 
L 2766 0 
L 2766 531 
Q 2569 213 2275 61 
Q 1981 -91 1556 -91 
Q 1019 -91 701 211 
Q 384 513 384 1019 
Q 384 1609 779 1909 
Q 1175 2209 1959 2209 
L 2766 2209 
L 2766 2266 
Q 2766 2663 2505 2880 
Q 2244 3097 1772 3097 
Q 1472 3097 1187 3025 
Q 903 2953 641 2809 
L 641 3341 
Q 956 3463 1253 3523 
Q 1550 3584 1831 3584 
Q 2591 3584 2966 3190 
Q 3341 2797 3341 1997 
z
" transform="scale(0.015625)"/>
      <path id="DejaVuSans-73" d="M 2834 3397 
L 2834 2853 
Q 2591 2978 2328 3040 
Q 2066 3103 1784 3103 
Q 1356 3103 1142 2972 
Q 928 2841 928 2578 
Q 928 2378 1081 2264 
Q 1234 2150 1697 2047 
L 1894 2003 
Q 2506 1872 2764 1633 
Q 3022 1394 3022 966 
Q 3022 478 2636 193 
Q 2250 -91 1575 -91 
Q 1294 -91 989 -36 
Q 684 19 347 128 
L 347 722 
Q 666 556 975 473 
Q 1284 391 1588 391 
Q 1994 391 2212 530 
Q 2431 669 2431 922 
Q 2431 1156 2273 1281 
Q 2116 1406 1581 1522 
L 1381 1569 
Q 847 1681 609 1914 
Q 372 2147 372 2553 
Q 372 3047 722 3315 
Q 1072 3584 1716 3584 
Q 2034 3584 2315 3537 
Q 2597 3491 2834 3397 
z
" transform="scale(0.015625)"/>
      <path id="DejaVuSans-5f" d="M 3263 -1063 
L 3263 -1509 
L -63 -1509 
L -63 -1063 
L 3263 -1063 
z
" transform="scale(0.015625)"/>
      <path id="DejaVuSans-77" d="M 269 3500 
L 844 3500 
L 1563 769 
L 2278 3500 
L 2956 3500 
L 3675 769 
L 4391 3500 
L 4966 3500 
L 4050 0 
L 3372 0 
L 2619 2869 
L 1863 0 
L 1184 0 
L 269 3500 
z
" transform="scale(0.015625)"/>
     </defs>
     <use xlink:href="#DejaVuSans-44"/>
     <use xlink:href="#DejaVuSans-65" x="77.001953"/>
     <use xlink:href="#DejaVuSans-76" x="138.525391"/>
     <use xlink:href="#DejaVuSans-65" x="197.705078"/>
     <use xlink:href="#DejaVuSans-6c" x="259.228516"/>
     <use xlink:href="#DejaVuSans-6f" x="287.011719"/>
     <use xlink:href="#DejaVuSans-70" x="348.193359"/>
     <use xlink:href="#DejaVuSans-6d" x="411.669922"/>
     <use xlink:href="#DejaVuSans-65" x="509.082031"/>
     <use xlink:href="#DejaVuSans-6e" x="570.605469"/>
     <use xlink:href="#DejaVuSans-74" x="633.984375"/>
     <use xlink:href="#DejaVuSans-20" x="673.193359"/>
     <use xlink:href="#DejaVuSans-6f" x="704.980469"/>
     <use xlink:href="#DejaVuSans-66" x="766.162109"/>
     <use xlink:href="#DejaVuSans-20" x="801.367188"/>
     <use xlink:href="#DejaVuSans-68" x="833.154297"/>
     <use xlink:href="#DejaVuSans-61" x="896.533203"/>
     <use xlink:href="#DejaVuSans-73" x="957.8125"/>
     <use xlink:href="#DejaVuSans-5f" x="1009.912109"/>
     <use xlink:href="#DejaVuSans-77" x="1059.912109"/>
     <use xlink:href="#DejaVuSans-77" x="1141.699219"/>
     <use xlink:href="#DejaVuSans-74" x="1223.486328"/>
     <use xlink:href="#DejaVuSans-70" x="1262.695312"/>
     <use xlink:href="#DejaVuSans-20" x="1326.171875"/>
    </g>
    <!-- and infrastructure slope -->
    <g transform="translate(1981.585828 606.283465) scale(0.24 -0.24)">
     <defs>
      <path id="DejaVuSans-64" d="M 2906 2969 
L 2906 4863 
L 3481 4863 
L 3481 0 
L 2906 0 
L 2906 525 
Q 2725 213 2448 61 
Q 2172 -91 1784 -91 
Q 1150 -91 751 415 
Q 353 922 353 1747 
Q 353 2572 751 3078 
Q 1150 3584 1784 3584 
Q 2172 3584 2448 3432 
Q 2725 3281 2906 2969 
z
M 947 1747 
Q 947 1113 1208 752 
Q 1469 391 1925 391 
Q 2381 391 2643 752 
Q 2906 1113 2906 1747 
Q 2906 2381 2643 2742 
Q 2381 3103 1925 3103 
Q 1469 3103 1208 2742 
Q 947 2381 947 1747 
z
" transform="scale(0.015625)"/>
      <path id="DejaVuSans-69" d="M 603 3500 
L 1178 3500 
L 1178 0 
L 603 0 
L 603 3500 
z
M 603 4863 
L 1178 4863 
L 1178 4134 
L 603 4134 
L 603 4863 
z
" transform="scale(0.015625)"/>
      <path id="DejaVuSans-72" d="M 2631 2963 
Q 2534 3019 2420 3045 
Q 2306 3072 2169 3072 
Q 1681 3072 1420 2755 
Q 1159 2438 1159 1844 
L 1159 0 
L 581 0 
L 581 3500 
L 1159 3500 
L 1159 2956 
Q 1341 3275 1631 3429 
Q 1922 3584 2338 3584 
Q 2397 3584 2469 3576 
Q 2541 3569 2628 3553 
L 2631 2963 
z
" transform="scale(0.015625)"/>
      <path id="DejaVuSans-75" d="M 544 1381 
L 544 3500 
L 1119 3500 
L 1119 1403 
Q 1119 906 1312 657 
Q 1506 409 1894 409 
Q 2359 409 2629 706 
Q 2900 1003 2900 1516 
L 2900 3500 
L 3475 3500 
L 3475 0 
L 2900 0 
L 2900 538 
Q 2691 219 2414 64 
Q 2138 -91 1772 -91 
Q 1169 -91 856 284 
Q 544 659 544 1381 
z
M 1991 3584 
L 1991 3584 
z
" transform="scale(0.015625)"/>
      <path id="DejaVuSans-63" d="M 3122 3366 
L 3122 2828 
Q 2878 2963 2633 3030 
Q 2388 3097 2138 3097 
Q 1578 3097 1268 2742 
Q 959 2388 959 1747 
Q 959 1106 1268 751 
Q 1578 397 2138 397 
Q 2388 397 2633 464 
Q 2878 531 3122 666 
L 3122 134 
Q 2881 22 2623 -34 
Q 2366 -91 2075 -91 
Q 1284 -91 818 406 
Q 353 903 353 1747 
Q 353 2603 823 3093 
Q 1294 3584 2113 3584 
Q 2378 3584 2631 3529 
Q 2884 3475 3122 3366 
z
" transform="scale(0.015625)"/>
     </defs>
     <use xlink:href="#DejaVuSans-61"/>
     <use xlink:href="#DejaVuSans-6e" x="61.279297"/>
     <use xlink:href="#DejaVuSans-64" x="124.658203"/>
     <use xlink:href="#DejaVuSans-20" x="188.134766"/>
     <use xlink:href="#DejaVuSans-69" x="219.921875"/>
     <use xlink:href="#DejaVuSans-6e" x="247.705078"/>
     <use xlink:href="#DejaVuSans-66" x="311.083984"/>
     <use xlink:href="#DejaVuSans-72" x="346.289062"/>
     <use xlink:href="#DejaVuSans-61" x="387.402344"/>
     <use xlink:href="#DejaVuSans-73" x="448.681641"/>
     <use xlink:href="#DejaVuSans-74" x="500.78125"/>
     <use xlink:href="#DejaVuSans-72" x="539.990234"/>
     <use xlink:href="#DejaVuSans-75" x="581.103516"/>
     <use xlink:href="#DejaVuSans-63" x="644.482422"/>
     <use xlink:href="#DejaVuSans-74" x="699.462891"/>
     <use xlink:href="#DejaVuSans-75" x="738.671875"/>
     <use xlink:href="#DejaVuSans-72" x="802.050781"/>
     <use xlink:href="#DejaVuSans-65" x="840.914062"/>
     <use xlink:href="#DejaVuSans-20" x="902.4375"/>
     <use xlink:href="#DejaVuSans-73" x="934.224609"/>
     <use xlink:href="#DejaVuSans-6c" x="986.324219"/>
     <use xlink:href="#DejaVuSans-6f" x="1014.107422"/>
     <use xlink:href="#DejaVuSans-70" x="1075.289062"/>
     <use xlink:href="#DejaVuSans-65" x="1138.765625"/>
    </g>
   </g>
  </g>
 </g>
 <defs>
  <clipPath id="p1b7f5bae96">
   <rect x="318.897638" y="2406.247624" width="340.890578" height="340.890578"/>
  </clipPath>
 </defs>
</svg>
