<?xml version="1.0" encoding="utf-8" standalone="no"?>
<!DOCTYPE svg PUBLIC "-//W3C//DTD SVG 1.1//EN"
  "http://www.w3.org/Graphics/SVG/1.1/DTD/svg11.dtd">
<svg height="345.6pt" version="1.1" viewBox="0 0 460.8 345.6" width="460.8pt" xmlns="http://www.w3.org/2000/svg" xmlns:xlink="http://www.w3.org/1999/xlink">
 <metadata>
  <rdf:RDF xmlns:cc="http://creativecommons.org/ns#" xmlns:dc="http://purl.org/dc/elements/1.1/" xmlns:rdf="http://www.w3.org/1999/02/22-rdf-syntax-ns#">
   <cc:Work>
    <dc:type rdf:resource="http://purl.org/dc/dcmitype/StillImage"/>
    <dc:date>2021-11-25T11:31:37.467578</dc:date>
    <dc:format>image/svg+xml</dc:format>
    <dc:creator>
     <cc:Agent>
      <dc:title>Matplotlib v3.4.2, https://matplotlib.org/</dc:title>
     </cc:Agent>
    </dc:creator>
   </cc:Work>
  </rdf:RDF>
 </metadata>
 <defs>
  <style type="text/css">*{stroke-linecap:butt;stroke-linejoin:round;}</style>
 </defs>
 <g id="figure_1">
  <g id="patch_1">
   <path d="M 0 345.6 
L 460.8 345.6 
L 460.8 0 
L 0 0 
z
" style="fill:#ffffff;"/>
  </g>
  <g id="axes_1">
   <g id="patch_2">
    <path d="M 57.6 162.432 
L 414.72 162.432 
L 414.72 41.472 
L 57.6 41.472 
z
" style="fill:#ffffff;"/>
   </g>
   <g id="patch_3">
    <path clip-path="url(#p7f6e73b0cb)" d="M 73.832727 404.352 
L 77.697662 404.352 
L 77.697662 72.1152 
L 73.832727 72.1152 
z
" style="fill:url(#he0cdfd9e05);stroke:#000000;stroke-linejoin:miter;"/>
   </g>
   <g id="patch_4">
    <path clip-path="url(#p7f6e73b0cb)" d="M 99.598961 404.352 
L 103.463896 404.352 
L 103.463896 396.288 
L 99.598961 396.288 
z
" style="fill:url(#he0cdfd9e05);stroke:#000000;stroke-linejoin:miter;"/>
   </g>
   <g id="patch_5">
    <path clip-path="url(#p7f6e73b0cb)" d="M 125.365195 404.352 
L 129.23013 404.352 
L 129.23013 377.3376 
L 125.365195 377.3376 
z
" style="fill:url(#he0cdfd9e05);stroke:#000000;stroke-linejoin:miter;"/>
   </g>
   <g id="patch_6">
    <path clip-path="url(#p7f6e73b0cb)" d="M 151.131429 404.352 
L 154.996364 404.352 
L 154.996364 391.8528 
L 151.131429 391.8528 
z
" style="fill:url(#he0cdfd9e05);stroke:#000000;stroke-linejoin:miter;"/>
   </g>
   <g id="patch_7">
    <path clip-path="url(#p7f6e73b0cb)" d="M 176.897662 404.352 
L 180.762597 404.352 
L 180.762597 397.0944 
L 176.897662 397.0944 
z
" style="fill:url(#he0cdfd9e05);stroke:#000000;stroke-linejoin:miter;"/>
   </g>
   <g id="patch_8">
    <path clip-path="url(#p7f6e73b0cb)" d="M 202.663896 404.352 
L 206.528831 404.352 
L 206.528831 399.5136 
L 202.663896 399.5136 
z
" style="fill:url(#he0cdfd9e05);stroke:#000000;stroke-linejoin:miter;"/>
   </g>
   <g id="patch_9">
    <path clip-path="url(#p7f6e73b0cb)" d="M 228.43013 404.352 
L 232.295065 404.352 
L 232.295065 403.5456 
L 228.43013 403.5456 
z
" style="fill:url(#he0cdfd9e05);stroke:#000000;stroke-linejoin:miter;"/>
   </g>
   <g id="patch_10">
    <path clip-path="url(#p7f6e73b0cb)" d="M 254.196364 404.352 
L 258.061299 404.352 
L 258.061299 403.1424 
L 254.196364 403.1424 
z
" style="fill:url(#he0cdfd9e05);stroke:#000000;stroke-linejoin:miter;"/>
   </g>
   <g id="patch_11">
    <path clip-path="url(#p7f6e73b0cb)" d="M 279.962597 404.352 
L 283.827532 404.352 
L 283.827532 401.5296 
L 279.962597 401.5296 
z
" style="fill:url(#he0cdfd9e05);stroke:#000000;stroke-linejoin:miter;"/>
   </g>
   <g id="patch_12">
    <path clip-path="url(#p7f6e73b0cb)" d="M 305.728831 404.352 
L 309.593766 404.352 
L 309.593766 401.1264 
L 305.728831 401.1264 
z
" style="fill:url(#he0cdfd9e05);stroke:#000000;stroke-linejoin:miter;"/>
   </g>
   <g id="patch_13">
    <path clip-path="url(#p7f6e73b0cb)" d="M 331.495065 404.352 
L 335.36 404.352 
L 335.36 401.1264 
L 331.495065 401.1264 
z
" style="fill:url(#he0cdfd9e05);stroke:#000000;stroke-linejoin:miter;"/>
   </g>
   <g id="patch_14">
    <path clip-path="url(#p7f6e73b0cb)" d="M 357.261299 404.352 
L 361.126234 404.352 
L 361.126234 399.9168 
L 357.261299 399.9168 
z
" style="fill:url(#he0cdfd9e05);stroke:#000000;stroke-linejoin:miter;"/>
   </g>
   <g id="patch_15">
    <path clip-path="url(#p7f6e73b0cb)" d="M 383.027532 404.352 
L 386.892468 404.352 
L 386.892468 403.1424 
L 383.027532 403.1424 
z
" style="fill:url(#he0cdfd9e05);stroke:#000000;stroke-linejoin:miter;"/>
   </g>
   <g id="patch_16">
    <path clip-path="url(#p7f6e73b0cb)" d="M 77.697662 404.352 
L 81.562597 404.352 
L 81.562597 76.1472 
L 77.697662 76.1472 
z
" style="fill:#8fb1c6;"/>
   </g>
   <g id="patch_17">
    <path clip-path="url(#p7f6e73b0cb)" d="M 103.463896 404.352 
L 107.328831 404.352 
L 107.328831 388.224 
L 103.463896 388.224 
z
" style="fill:#8fb1c6;"/>
   </g>
   <g id="patch_18">
    <path clip-path="url(#p7f6e73b0cb)" d="M 129.23013 404.352 
L 133.095065 404.352 
L 133.095065 374.112 
L 129.23013 374.112 
z
" style="fill:#8fb1c6;"/>
   </g>
   <g id="patch_19">
    <path clip-path="url(#p7f6e73b0cb)" d="M 154.996364 404.352 
L 158.861299 404.352 
L 158.861299 394.6752 
L 154.996364 394.6752 
z
" style="fill:#8fb1c6;"/>
   </g>
   <g id="patch_20">
    <path clip-path="url(#p7f6e73b0cb)" d="M 180.762597 404.352 
L 184.627532 404.352 
L 184.627532 400.7232 
L 180.762597 400.7232 
z
" style="fill:#8fb1c6;"/>
   </g>
   <g id="patch_21">
    <path clip-path="url(#p7f6e73b0cb)" d="M 206.528831 404.352 
L 210.393766 404.352 
L 210.393766 401.5296 
L 206.528831 401.5296 
z
" style="fill:#8fb1c6;"/>
   </g>
   <g id="patch_22">
    <path clip-path="url(#p7f6e73b0cb)" d="M 232.295065 404.352 
L 236.16 404.352 
L 236.16 403.9488 
L 232.295065 403.9488 
z
" style="fill:#8fb1c6;"/>
   </g>
   <g id="patch_23">
    <path clip-path="url(#p7f6e73b0cb)" d="M 258.061299 404.352 
L 261.926234 404.352 
L 261.926234 402.7392 
L 258.061299 402.7392 
z
" style="fill:#8fb1c6;"/>
   </g>
   <g id="patch_24">
    <path clip-path="url(#p7f6e73b0cb)" d="M 283.827532 404.352 
L 287.692468 404.352 
L 287.692468 404.352 
L 283.827532 404.352 
z
" style="fill:#8fb1c6;"/>
   </g>
   <g id="patch_25">
    <path clip-path="url(#p7f6e73b0cb)" d="M 309.593766 404.352 
L 313.458701 404.352 
L 313.458701 403.1424 
L 309.593766 403.1424 
z
" style="fill:#8fb1c6;"/>
   </g>
   <g id="patch_26">
    <path clip-path="url(#p7f6e73b0cb)" d="M 335.36 404.352 
L 339.224935 404.352 
L 339.224935 402.7392 
L 335.36 402.7392 
z
" style="fill:#8fb1c6;"/>
   </g>
   <g id="patch_27">
    <path clip-path="url(#p7f6e73b0cb)" d="M 361.126234 404.352 
L 364.991169 404.352 
L 364.991169 391.8528 
L 361.126234 391.8528 
z
" style="fill:#8fb1c6;"/>
   </g>
   <g id="patch_28">
    <path clip-path="url(#p7f6e73b0cb)" d="M 386.892468 404.352 
L 390.757403 404.352 
L 390.757403 402.336 
L 386.892468 402.336 
z
" style="fill:#8fb1c6;"/>
   </g>
   <g id="patch_29">
    <path clip-path="url(#p7f6e73b0cb)" d="M 81.562597 404.352 
L 85.427532 404.352 
L 85.427532 56.584706 
L 81.562597 56.584706 
z
" style="fill:#5f59b1;"/>
   </g>
   <g id="patch_30">
    <path clip-path="url(#p7f6e73b0cb)" d="M 107.328831 404.352 
L 111.193766 404.352 
L 111.193766 404.352 
L 107.328831 404.352 
z
" style="fill:#5f59b1;"/>
   </g>
   <g id="patch_31">
    <path clip-path="url(#p7f6e73b0cb)" d="M 133.095065 404.352 
L 136.96 404.352 
L 136.96 380.428411 
L 133.095065 380.428411 
z
" style="fill:#5f59b1;"/>
   </g>
   <g id="patch_32">
    <path clip-path="url(#p7f6e73b0cb)" d="M 158.861299 404.352 
L 162.726234 404.352 
L 162.726234 401.434489 
L 158.861299 401.434489 
z
" style="fill:#5f59b1;"/>
   </g>
   <g id="patch_33">
    <path clip-path="url(#p7f6e73b0cb)" d="M 184.627532 404.352 
L 188.492468 404.352 
L 188.492468 390.93145 
L 184.627532 390.93145 
z
" style="fill:#5f59b1;"/>
   </g>
   <g id="patch_34">
    <path clip-path="url(#p7f6e73b0cb)" d="M 210.393766 404.352 
L 214.258701 404.352 
L 214.258701 401.434489 
L 210.393766 401.434489 
z
" style="fill:#5f59b1;"/>
   </g>
   <g id="patch_35">
    <path clip-path="url(#p7f6e73b0cb)" d="M 236.16 404.352 
L 240.024935 404.352 
L 240.024935 400.267485 
L 236.16 400.267485 
z
" style="fill:#5f59b1;"/>
   </g>
   <g id="patch_36">
    <path clip-path="url(#p7f6e73b0cb)" d="M 261.926234 404.352 
L 265.791169 404.352 
L 265.791169 402.601493 
L 261.926234 402.601493 
z
" style="fill:#5f59b1;"/>
   </g>
   <g id="patch_37">
    <path clip-path="url(#p7f6e73b0cb)" d="M 287.692468 404.352 
L 291.557403 404.352 
L 291.557403 402.601493 
L 287.692468 402.601493 
z
" style="fill:#5f59b1;"/>
   </g>
   <g id="patch_38">
    <path clip-path="url(#p7f6e73b0cb)" d="M 313.458701 404.352 
L 317.323636 404.352 
L 317.323636 400.267485 
L 313.458701 400.267485 
z
" style="fill:#5f59b1;"/>
   </g>
   <g id="patch_39">
    <path clip-path="url(#p7f6e73b0cb)" d="M 339.224935 404.352 
L 343.08987 404.352 
L 343.08987 404.352 
L 339.224935 404.352 
z
" style="fill:#5f59b1;"/>
   </g>
   <g id="patch_40">
    <path clip-path="url(#p7f6e73b0cb)" d="M 364.991169 404.352 
L 368.856104 404.352 
L 368.856104 404.352 
L 364.991169 404.352 
z
" style="fill:#5f59b1;"/>
   </g>
   <g id="patch_41">
    <path clip-path="url(#p7f6e73b0cb)" d="M 390.757403 404.352 
L 394.622338 404.352 
L 394.622338 403.768498 
L 390.757403 403.768498 
z
" style="fill:#5f59b1;"/>
   </g>
   <g id="patch_42">
    <path clip-path="url(#p7f6e73b0cb)" d="M 85.427532 404.352 
L 89.292468 404.352 
L 89.292468 73.94976 
L 85.427532 73.94976 
z
" style="fill:#ded3d3;"/>
   </g>
   <g id="patch_43">
    <path clip-path="url(#p7f6e73b0cb)" d="M 111.193766 404.352 
L 115.058701 404.352 
L 115.058701 404.352 
L 111.193766 404.352 
z
" style="fill:#ded3d3;"/>
   </g>
   <g id="patch_44">
    <path clip-path="url(#p7f6e73b0cb)" d="M 136.96 404.352 
L 140.824935 404.352 
L 140.824935 403.30368 
L 136.96 403.30368 
z
" style="fill:#ded3d3;"/>
   </g>
   <g id="patch_45">
    <path clip-path="url(#p7f6e73b0cb)" d="M 162.726234 404.352 
L 166.591169 404.352 
L 166.591169 403.56576 
L 162.726234 403.56576 
z
" style="fill:#ded3d3;"/>
   </g>
   <g id="patch_46">
    <path clip-path="url(#p7f6e73b0cb)" d="M 188.492468 404.352 
L 192.357403 404.352 
L 192.357403 402.25536 
L 188.492468 402.25536 
z
" style="fill:#ded3d3;"/>
   </g>
   <g id="patch_47">
    <path clip-path="url(#p7f6e73b0cb)" d="M 214.258701 404.352 
L 218.123636 404.352 
L 218.123636 401.473152 
L 214.258701 401.473152 
z
" style="fill:#ded3d3;"/>
   </g>
   <g id="patch_48">
    <path clip-path="url(#p7f6e73b0cb)" d="M 240.024935 404.352 
L 243.88987 404.352 
L 243.88987 395.711424 
L 240.024935 395.711424 
z
" style="fill:#ded3d3;"/>
   </g>
   <g id="patch_49">
    <path clip-path="url(#p7f6e73b0cb)" d="M 265.791169 404.352 
L 269.656104 404.352 
L 269.656104 390.998016 
L 265.791169 390.998016 
z
" style="fill:#ded3d3;"/>
   </g>
   <g id="patch_50">
    <path clip-path="url(#p7f6e73b0cb)" d="M 291.557403 404.352 
L 295.422338 404.352 
L 295.422338 386.022528 
L 291.557403 386.022528 
z
" style="fill:#ded3d3;"/>
   </g>
   <g id="patch_51">
    <path clip-path="url(#p7f6e73b0cb)" d="M 317.323636 404.352 
L 321.188571 404.352 
L 321.188571 378.68832 
L 317.323636 378.68832 
z
" style="fill:#ded3d3;"/>
   </g>
   <g id="patch_52">
    <path clip-path="url(#p7f6e73b0cb)" d="M 343.08987 404.352 
L 346.954805 404.352 
L 346.954805 404.352 
L 343.08987 404.352 
z
" style="fill:#ded3d3;"/>
   </g>
   <g id="patch_53">
    <path clip-path="url(#p7f6e73b0cb)" d="M 368.856104 404.352 
L 372.721039 404.352 
L 372.721039 404.352 
L 368.856104 404.352 
z
" style="fill:#ded3d3;"/>
   </g>
   <g id="patch_54">
    <path clip-path="url(#p7f6e73b0cb)" d="M 394.622338 404.352 
L 398.487273 404.352 
L 398.487273 404.352 
L 394.622338 404.352 
z
" style="fill:#ded3d3;"/>
   </g>
   <g id="matplotlib.axis_1">
    <g id="xtick_1"/>
    <g id="xtick_2"/>
    <g id="xtick_3"/>
    <g id="xtick_4"/>
    <g id="xtick_5"/>
    <g id="xtick_6"/>
    <g id="xtick_7"/>
    <g id="xtick_8"/>
    <g id="xtick_9"/>
    <g id="xtick_10"/>
    <g id="xtick_11"/>
    <g id="xtick_12"/>
    <g id="xtick_13"/>
   </g>
   <g id="matplotlib.axis_2">
    <g id="ytick_1">
     <g id="line2d_1">
      <defs>
       <path d="M 0 0 
L -3.5 0 
" id="m33d67c0ca7" style="stroke:#000000;stroke-width:0.8;"/>
      </defs>
      <g>
       <use style="stroke:#000000;stroke-width:0.8;" x="57.6" xlink:href="#m33d67c0ca7" y="162.432"/>
      </g>
     </g>
     <g id="text_1">
      <!-- 0.6 -->
      <g transform="translate(37.473438 165.92575)scale(0.1 -0.1)">
       <defs>
        <path d="M 1738 -50 
Q 1063 -50 733 481 
Q 403 1013 403 2094 
Q 403 2669 504 3087 
Q 606 3506 789 3779 
Q 972 4053 1228 4184 
Q 1484 4316 1788 4316 
Q 2472 4316 2806 3787 
Q 3141 3259 3141 2191 
Q 3141 1084 2783 517 
Q 2425 -50 1738 -50 
z
M 1013 2188 
Q 1013 1169 1202 692 
Q 1391 216 1788 216 
Q 2166 216 2348 664 
Q 2531 1113 2531 2053 
Q 2531 2772 2437 3217 
Q 2344 3663 2176 3856 
Q 2009 4050 1772 4050 
Q 1556 4050 1411 3922 
Q 1266 3794 1177 3553 
Q 1088 3313 1050 2967 
Q 1013 2622 1013 2188 
z
" id="Cambria-30" transform="scale(0.015625)"/>
        <path d="M 972 725 
L 972 0 
L 341 0 
L 341 725 
L 972 725 
z
" id="Cambria-2e" transform="scale(0.015625)"/>
        <path d="M 2847 4144 
L 2847 3991 
Q 2366 3991 1994 3784 
Q 1622 3578 1376 3178 
Q 1131 2778 1031 2228 
L 1063 2216 
Q 1325 2403 1579 2490 
Q 1834 2578 2131 2578 
Q 2484 2578 2732 2423 
Q 2981 2269 3106 1989 
Q 3231 1709 3231 1334 
Q 3231 928 3075 617 
Q 2919 306 2592 128 
Q 2266 -50 1788 -50 
Q 1103 -50 754 375 
Q 406 800 406 1628 
Q 406 2184 581 2668 
Q 756 3153 1078 3514 
Q 1400 3875 1825 4083 
Q 2250 4291 2719 4316 
L 2847 4144 
z
M 1916 2250 
Q 1763 2250 1620 2215 
Q 1478 2181 1353 2115 
Q 1228 2050 1109 1950 
Q 1072 1916 1053 1878 
Q 1022 1819 1012 1731 
Q 1003 1644 1003 1438 
Q 1003 841 1203 528 
Q 1403 216 1809 216 
Q 2044 216 2203 297 
Q 2363 378 2461 520 
Q 2559 663 2601 855 
Q 2644 1047 2644 1272 
Q 2644 1734 2453 1992 
Q 2263 2250 1916 2250 
z
" id="Cambria-36" transform="scale(0.015625)"/>
       </defs>
       <use xlink:href="#Cambria-30"/>
       <use x="55.371094" xlink:href="#Cambria-2e"/>
       <use x="75.878906" xlink:href="#Cambria-36"/>
      </g>
     </g>
    </g>
    <g id="ytick_2">
     <g id="line2d_2">
      <g>
       <use style="stroke:#000000;stroke-width:0.8;" x="57.6" xlink:href="#m33d67c0ca7" y="122.112"/>
      </g>
     </g>
     <g id="text_2">
      <!-- 0.7 -->
      <g transform="translate(37.473438 125.60575)scale(0.1 -0.1)">
       <defs>
        <path d="M 3206 4116 
L 1388 -22 
L 934 -22 
L 934 131 
L 2619 3697 
L 2619 3744 
L 1244 3744 
Q 1116 3744 1039 3720 
Q 963 3697 911 3653 
Q 859 3609 825 3537 
Q 791 3466 731 3253 
L 463 3253 
L 525 4266 
L 3206 4266 
L 3206 4116 
z
" id="Cambria-37" transform="scale(0.015625)"/>
       </defs>
       <use xlink:href="#Cambria-30"/>
       <use x="55.371094" xlink:href="#Cambria-2e"/>
       <use x="75.878906" xlink:href="#Cambria-37"/>
      </g>
     </g>
    </g>
    <g id="ytick_3">
     <g id="line2d_3">
      <g>
       <use style="stroke:#000000;stroke-width:0.8;" x="57.6" xlink:href="#m33d67c0ca7" y="81.792"/>
      </g>
     </g>
     <g id="text_3">
      <!-- 0.8 -->
      <g transform="translate(37.473438 85.28575)scale(0.1 -0.1)">
       <defs>
        <path d="M 2475 2253 
L 2481 2213 
Q 2834 2075 3015 1811 
Q 3197 1547 3197 1175 
Q 3197 809 3022 531 
Q 2847 253 2514 101 
Q 2181 -50 1738 -50 
Q 1322 -50 1008 89 
Q 694 228 520 495 
Q 347 763 347 1125 
Q 347 1397 440 1597 
Q 534 1797 686 1926 
Q 838 2056 1069 2163 
L 1063 2203 
Q 391 2494 391 3200 
Q 391 3522 567 3775 
Q 744 4028 1070 4172 
Q 1397 4316 1794 4316 
Q 2244 4316 2550 4189 
Q 2856 4063 3011 3823 
Q 3166 3584 3166 3250 
Q 3166 2906 2997 2657 
Q 2828 2409 2475 2253 
z
M 978 3228 
Q 978 3044 1022 2881 
Q 1066 2719 1162 2600 
Q 1259 2481 1414 2411 
Q 1569 2341 1794 2341 
Q 2053 2341 2229 2442 
Q 2406 2544 2492 2739 
Q 2578 2934 2578 3191 
Q 2578 3472 2476 3667 
Q 2375 3863 2197 3956 
Q 2019 4050 1788 4050 
Q 1394 4050 1186 3836 
Q 978 3622 978 3228 
z
M 944 1178 
Q 944 975 991 798 
Q 1038 622 1139 494 
Q 1241 366 1400 291 
Q 1559 216 1788 216 
Q 2044 216 2226 320 
Q 2409 425 2504 631 
Q 2600 838 2600 1119 
Q 2600 1419 2497 1636 
Q 2394 1853 2206 1967 
Q 2019 2081 1772 2081 
Q 1541 2081 1383 2009 
Q 1225 1938 1126 1816 
Q 1028 1694 986 1530 
Q 944 1366 944 1178 
z
" id="Cambria-38" transform="scale(0.015625)"/>
       </defs>
       <use xlink:href="#Cambria-30"/>
       <use x="55.371094" xlink:href="#Cambria-2e"/>
       <use x="75.878906" xlink:href="#Cambria-38"/>
      </g>
     </g>
    </g>
    <g id="ytick_4">
     <g id="line2d_4">
      <g>
       <use style="stroke:#000000;stroke-width:0.8;" x="57.6" xlink:href="#m33d67c0ca7" y="41.472"/>
      </g>
     </g>
     <g id="text_4">
      <!-- 0.9 -->
      <g transform="translate(37.473438 44.96575)scale(0.1 -0.1)">
       <defs>
        <path d="M 978 122 
L 978 275 
Q 1416 275 1736 469 
Q 2056 663 2251 1042 
Q 2447 1422 2513 2038 
L 2481 2050 
Q 2219 1863 1964 1775 
Q 1709 1688 1413 1688 
Q 1059 1688 811 1842 
Q 563 1997 438 2276 
Q 313 2556 313 2931 
Q 313 3213 406 3464 
Q 500 3716 684 3905 
Q 869 4094 1145 4205 
Q 1422 4316 1791 4316 
Q 2447 4316 2790 3862 
Q 3134 3409 3134 2559 
Q 3134 1781 2881 1211 
Q 2628 641 2172 323 
Q 1716 6 1106 -50 
L 978 122 
z
M 1628 2016 
Q 1747 2016 1855 2036 
Q 1963 2056 2066 2095 
Q 2169 2134 2267 2195 
Q 2366 2256 2444 2325 
Q 2472 2350 2494 2390 
Q 2516 2431 2528 2497 
Q 2541 2563 2541 2703 
Q 2541 3131 2455 3436 
Q 2369 3741 2192 3895 
Q 2016 4050 1756 4050 
Q 1522 4050 1359 3969 
Q 1197 3888 1095 3745 
Q 994 3603 947 3411 
Q 900 3219 900 2994 
Q 900 2528 1090 2272 
Q 1281 2016 1628 2016 
z
" id="Cambria-39" transform="scale(0.015625)"/>
       </defs>
       <use xlink:href="#Cambria-30"/>
       <use x="55.371094" xlink:href="#Cambria-2e"/>
       <use x="75.878906" xlink:href="#Cambria-39"/>
      </g>
     </g>
    </g>
   </g>
   <g id="line2d_5">
    <path d="M 55.8144 163.0368 
L 59.3856 161.8272 
" style="fill:none;stroke:#000000;stroke-linecap:square;stroke-width:1.5;"/>
   </g>
   <g id="line2d_6">
    <path d="M 412.9344 163.0368 
L 416.5056 161.8272 
" style="fill:none;stroke:#000000;stroke-linecap:square;stroke-width:1.5;"/>
   </g>
   <g id="patch_55">
    <path d="M 57.6 162.432 
L 57.6 41.472 
" style="fill:none;stroke:#000000;stroke-linecap:square;stroke-linejoin:miter;stroke-width:0.8;"/>
   </g>
   <g id="patch_56">
    <path d="M 414.72 162.432 
L 414.72 41.472 
" style="fill:none;stroke:#000000;stroke-linecap:square;stroke-linejoin:miter;stroke-width:0.8;"/>
   </g>
   <g id="legend_1">
    <g id="patch_57">
     <path d="M 328.409063 105.872 
L 407.72 105.872 
Q 409.72 105.872 409.72 103.872 
L 409.72 48.472 
Q 409.72 46.472 407.72 46.472 
L 328.409063 46.472 
Q 326.409063 46.472 326.409063 48.472 
L 326.409063 103.872 
Q 326.409063 105.872 328.409063 105.872 
z
" style="fill:#ffffff;opacity:0.8;stroke:#cccccc;stroke-linejoin:miter;"/>
    </g>
    <g id="patch_58">
     <path d="M 330.409063 57.472 
L 350.409063 57.472 
L 350.409063 50.472 
L 330.409063 50.472 
z
" style="fill:url(#he0cdfd9e05);stroke:#000000;stroke-linejoin:miter;"/>
    </g>
    <g id="text_5">
     <!-- Real Sewer -->
     <g transform="translate(358.409063 57.472)scale(0.1 -0.1)">
      <defs>
       <path d="M 1331 1853 
L 1331 791 
Q 1331 566 1348 464 
Q 1366 363 1400 311 
Q 1434 259 1493 226 
Q 1553 194 1697 153 
L 1697 0 
L 378 0 
L 378 153 
Q 572 203 637 264 
Q 703 325 723 437 
Q 744 550 744 781 
L 744 3484 
Q 744 3700 728 3798 
Q 713 3897 677 3951 
Q 641 4006 581 4039 
Q 522 4072 378 4113 
L 378 4266 
L 1925 4266 
Q 2656 4266 3018 4000 
Q 3381 3734 3381 3175 
Q 3381 2747 3145 2447 
Q 2909 2147 2438 1978 
L 2438 1953 
Q 2628 1875 2764 1729 
Q 2900 1584 3066 1278 
L 3347 766 
Q 3469 541 3556 422 
Q 3644 303 3734 240 
Q 3825 178 3975 153 
L 3975 0 
L 3109 0 
Q 2991 166 2884 356 
Q 2778 547 2675 744 
L 2400 1266 
Q 2275 1503 2195 1615 
Q 2116 1728 2048 1773 
Q 1981 1819 1904 1836 
Q 1828 1853 1675 1853 
L 1331 1853 
z
M 1331 3978 
L 1331 2122 
L 1684 2122 
Q 1956 2122 2125 2161 
Q 2294 2200 2437 2309 
Q 2581 2419 2667 2614 
Q 2753 2809 2753 3094 
Q 2753 3391 2651 3587 
Q 2550 3784 2344 3887 
Q 2138 3991 1788 3991 
Q 1506 3991 1331 3978 
z
" id="Cambria-52" transform="scale(0.015625)"/>
       <path d="M 2800 531 
Q 2600 322 2433 203 
Q 2266 84 2066 17 
Q 1866 -50 1625 -50 
Q 981 -50 653 336 
Q 325 722 325 1475 
Q 325 1941 492 2297 
Q 659 2653 968 2847 
Q 1278 3041 1681 3041 
Q 1997 3041 2219 2941 
Q 2441 2841 2573 2667 
Q 2706 2494 2779 2230 
Q 2853 1966 2863 1541 
L 894 1541 
L 894 1484 
Q 894 1116 976 864 
Q 1059 613 1248 470 
Q 1438 328 1741 328 
Q 1997 328 2201 423 
Q 2406 519 2609 734 
L 2800 531 
z
M 2275 1800 
Q 2256 2138 2190 2352 
Q 2125 2566 1994 2680 
Q 1863 2794 1650 2794 
Q 1328 2794 1136 2536 
Q 944 2278 909 1800 
L 2275 1800 
z
" id="Cambria-65" transform="scale(0.015625)"/>
       <path d="M 2109 447 
L 2063 459 
Q 1791 181 1552 65 
Q 1313 -50 1044 -50 
Q 806 -50 625 42 
Q 444 134 347 301 
Q 250 469 250 688 
Q 250 1144 701 1392 
Q 1153 1641 2056 1681 
L 2056 1884 
Q 2056 2209 1993 2396 
Q 1931 2584 1797 2671 
Q 1663 2759 1438 2759 
Q 1194 2759 1045 2631 
Q 897 2503 822 2247 
L 413 2247 
L 413 2653 
Q 713 2809 913 2882 
Q 1113 2956 1313 2998 
Q 1513 3041 1719 3041 
Q 2028 3041 2215 2942 
Q 2403 2844 2497 2641 
Q 2591 2438 2591 2028 
L 2591 941 
Q 2591 709 2594 614 
Q 2597 519 2612 437 
Q 2628 356 2659 307 
Q 2691 259 2752 225 
Q 2813 191 2950 153 
L 2950 0 
L 2094 0 
L 2109 447 
z
M 2056 1425 
Q 1422 1419 1106 1256 
Q 791 1094 791 766 
Q 791 588 862 484 
Q 934 381 1043 342 
Q 1153 303 1303 303 
Q 1516 303 1689 406 
Q 1863 509 1959 668 
Q 2056 828 2056 984 
L 2056 1425 
z
" id="Cambria-61" transform="scale(0.015625)"/>
       <path d="M 1138 781 
Q 1138 513 1163 408 
Q 1188 303 1258 248 
Q 1328 194 1488 153 
L 1488 0 
L 247 0 
L 247 153 
Q 403 194 464 237 
Q 525 281 551 342 
Q 578 403 589 508 
Q 600 613 600 781 
L 600 3397 
Q 600 3697 595 3815 
Q 591 3934 570 4017 
Q 550 4100 514 4147 
Q 478 4194 417 4222 
Q 356 4250 197 4278 
L 197 4441 
L 950 4472 
L 1138 4472 
L 1138 781 
z
" id="Cambria-6c" transform="scale(0.015625)"/>
       <path id="Cambria-20" transform="scale(0.015625)"/>
       <path d="M 663 972 
Q 725 697 831 537 
Q 938 378 1106 301 
Q 1275 225 1541 225 
Q 1906 225 2101 415 
Q 2297 606 2297 972 
Q 2297 1206 2215 1365 
Q 2134 1525 1950 1665 
Q 1766 1806 1388 1994 
Q 1022 2175 809 2348 
Q 597 2522 492 2725 
Q 388 2928 388 3169 
Q 388 3519 552 3776 
Q 716 4034 1033 4175 
Q 1350 4316 1759 4316 
Q 1997 4316 2223 4291 
Q 2450 4266 2791 4178 
L 2791 3334 
L 2481 3334 
Q 2409 3609 2300 3762 
Q 2191 3916 2044 3977 
Q 1897 4038 1663 4038 
Q 1459 4038 1298 3963 
Q 1138 3888 1044 3736 
Q 950 3584 950 3375 
Q 950 3153 1029 3000 
Q 1109 2847 1278 2715 
Q 1447 2584 1778 2422 
Q 2178 2222 2398 2050 
Q 2619 1878 2742 1658 
Q 2866 1438 2866 1144 
Q 2866 816 2762 589 
Q 2659 363 2476 220 
Q 2294 78 2039 14 
Q 1784 -50 1481 -50 
Q 991 -50 350 116 
L 350 972 
L 663 972 
z
" id="Cambria-53" transform="scale(0.015625)"/>
       <path d="M 2494 2334 
L 1675 -16 
L 1241 -16 
L 491 2303 
Q 419 2528 370 2620 
Q 322 2713 267 2758 
Q 213 2803 91 2834 
L 91 2988 
L 1325 2988 
L 1325 2834 
Q 1144 2797 1080 2736 
Q 1016 2675 1016 2553 
Q 1016 2469 1034 2376 
Q 1053 2284 1091 2163 
L 1581 569 
L 2384 2988 
L 2825 2988 
L 3506 569 
L 4056 2097 
Q 4100 2216 4128 2323 
Q 4156 2431 4156 2525 
Q 4156 2656 4086 2728 
Q 4016 2800 3847 2834 
L 3847 2988 
L 4938 2988 
L 4938 2834 
Q 4850 2813 4806 2789 
Q 4763 2766 4720 2720 
Q 4678 2675 4626 2579 
Q 4575 2484 4497 2284 
L 3594 -16 
L 3172 -16 
L 2494 2334 
z
" id="Cambria-77" transform="scale(0.015625)"/>
       <path d="M 1147 2469 
L 1191 2459 
Q 1363 2669 1509 2789 
Q 1656 2909 1826 2975 
Q 1997 3041 2213 3041 
Q 2394 3041 2541 3022 
L 2541 2303 
L 2188 2303 
Q 2113 2472 2028 2548 
Q 1944 2625 1797 2625 
Q 1684 2625 1573 2559 
Q 1463 2494 1359 2369 
Q 1256 2244 1217 2134 
Q 1178 2025 1178 1875 
L 1178 781 
Q 1178 497 1212 389 
Q 1247 281 1326 231 
Q 1406 181 1566 153 
L 1566 0 
L 306 0 
L 306 153 
Q 425 191 476 219 
Q 528 247 565 297 
Q 603 347 622 450 
Q 641 553 641 772 
L 641 2134 
Q 641 2334 634 2456 
Q 628 2578 590 2651 
Q 553 2725 476 2761 
Q 400 2797 259 2822 
L 259 2984 
L 991 3016 
L 1181 3016 
L 1147 2469 
z
" id="Cambria-72" transform="scale(0.015625)"/>
      </defs>
      <use xlink:href="#Cambria-52"/>
      <use x="60.359375" xlink:href="#Cambria-65"/>
      <use x="109.138672" xlink:href="#Cambria-61"/>
      <use x="157.966797" xlink:href="#Cambria-6c"/>
      <use x="185.115234" xlink:href="#Cambria-20"/>
      <use x="207.136719" xlink:href="#Cambria-53"/>
      <use x="256.746094" xlink:href="#Cambria-65"/>
      <use x="305.525391" xlink:href="#Cambria-77"/>
      <use x="382.966797" xlink:href="#Cambria-65"/>
      <use x="431.746094" xlink:href="#Cambria-72"/>
     </g>
    </g>
    <g id="patch_59">
     <path d="M 330.409063 71.572 
L 350.409063 71.572 
L 350.409063 64.572 
L 330.409063 64.572 
z
" style="fill:#8fb1c6;"/>
    </g>
    <g id="text_6">
     <!-- SND -->
     <g transform="translate(358.409063 71.572)scale(0.1 -0.1)">
      <defs>
       <path d="M 2888 1691 
Q 3000 1503 3076 1362 
Q 3153 1222 3234 1047 
L 3275 1047 
Q 3259 1238 3246 1805 
Q 3234 2372 3234 2828 
L 3234 3484 
Q 3234 3700 3221 3800 
Q 3209 3900 3176 3953 
Q 3144 4006 3086 4039 
Q 3028 4072 2884 4113 
L 2884 4266 
L 4009 4266 
L 4009 4113 
Q 3869 4075 3811 4044 
Q 3753 4013 3717 3963 
Q 3681 3913 3662 3813 
Q 3644 3713 3644 3484 
L 3644 -19 
L 3253 -19 
L 1513 2900 
Q 1350 3172 1281 3297 
Q 1213 3422 1153 3544 
L 1100 3544 
Q 1122 3303 1131 2673 
Q 1141 2044 1141 1419 
L 1141 781 
Q 1141 572 1155 475 
Q 1169 378 1201 322 
Q 1234 266 1298 228 
Q 1363 191 1506 153 
L 1506 0 
L 366 0 
L 366 153 
Q 559 203 625 264 
Q 691 325 711 437 
Q 731 550 731 781 
L 731 3484 
Q 731 3700 715 3798 
Q 700 3897 664 3951 
Q 628 4006 568 4039 
Q 509 4072 366 4113 
L 366 4266 
L 1344 4266 
L 2888 1691 
z
" id="Cambria-4e" transform="scale(0.015625)"/>
       <path d="M 375 0 
L 375 153 
Q 519 191 581 225 
Q 644 259 678 312 
Q 713 366 728 466 
Q 744 566 744 781 
L 744 3484 
Q 744 3703 728 3801 
Q 713 3900 677 3953 
Q 641 4006 581 4039 
Q 522 4072 375 4113 
L 375 4266 
L 1744 4266 
Q 2334 4266 2711 4136 
Q 3088 4006 3347 3753 
Q 3606 3500 3734 3123 
Q 3863 2747 3863 2225 
Q 3863 1697 3742 1295 
Q 3622 894 3391 622 
Q 3191 384 2900 231 
Q 2659 106 2343 53 
Q 2028 0 1506 0 
L 375 0 
z
M 1328 291 
Q 1453 278 1697 278 
Q 1959 278 2165 322 
Q 2372 366 2540 459 
Q 2709 553 2843 720 
Q 2978 888 3062 1105 
Q 3147 1322 3186 1587 
Q 3225 1853 3225 2169 
Q 3225 2803 3042 3211 
Q 2859 3619 2526 3806 
Q 2194 3994 1731 3994 
Q 1519 3994 1328 3981 
L 1328 291 
z
" id="Cambria-44" transform="scale(0.015625)"/>
      </defs>
      <use xlink:href="#Cambria-53"/>
      <use x="49.609375" xlink:href="#Cambria-4e"/>
      <use x="117.675781" xlink:href="#Cambria-44"/>
     </g>
    </g>
    <g id="patch_60">
     <path d="M 330.409063 85.672 
L 350.409063 85.672 
L 350.409063 78.672 
L 330.409063 78.672 
z
" style="fill:#5f59b1;"/>
    </g>
    <g id="text_7">
     <!-- PBP -->
     <g transform="translate(358.409063 85.672)scale(0.1 -0.1)">
      <defs>
       <path d="M 1328 791 
Q 1328 606 1348 497 
Q 1369 388 1411 323 
Q 1453 259 1525 223 
Q 1597 188 1750 153 
L 1750 0 
L 378 0 
L 378 153 
Q 572 203 637 264 
Q 703 325 723 437 
Q 744 550 744 781 
L 744 3484 
Q 744 3700 728 3798 
Q 713 3897 677 3951 
Q 641 4006 581 4039 
Q 522 4072 378 4113 
L 378 4266 
L 1928 4266 
Q 2659 4266 3017 3986 
Q 3375 3706 3375 3134 
Q 3375 2809 3262 2550 
Q 3150 2291 2944 2125 
Q 2738 1959 2456 1887 
Q 2175 1816 1866 1816 
Q 1519 1816 1328 1828 
L 1328 791 
z
M 1328 2088 
L 1691 2088 
Q 2044 2088 2273 2180 
Q 2503 2272 2625 2486 
Q 2747 2700 2747 3053 
Q 2747 3322 2675 3501 
Q 2603 3681 2476 3790 
Q 2350 3900 2175 3945 
Q 2000 3991 1794 3991 
Q 1484 3991 1328 3978 
L 1328 2088 
z
" id="Cambria-50" transform="scale(0.015625)"/>
       <path d="M 378 0 
L 378 153 
Q 572 203 637 264 
Q 703 325 723 437 
Q 744 550 744 781 
L 744 3484 
Q 744 3700 728 3798 
Q 713 3897 677 3951 
Q 641 4006 581 4039 
Q 522 4072 378 4113 
L 378 4266 
L 2088 4266 
Q 2584 4266 2886 4159 
Q 3188 4053 3334 3845 
Q 3481 3638 3481 3309 
Q 3481 3038 3376 2838 
Q 3272 2638 3103 2506 
Q 2934 2375 2669 2263 
L 2669 2234 
Q 3094 2106 3312 1839 
Q 3531 1572 3531 1203 
Q 3531 778 3342 509 
Q 3153 241 2812 120 
Q 2472 0 1988 0 
L 378 0 
z
M 1875 2353 
Q 2350 2353 2601 2583 
Q 2853 2813 2853 3250 
Q 2853 3466 2783 3608 
Q 2713 3750 2589 3834 
Q 2466 3919 2297 3955 
Q 2128 3991 1931 3991 
Q 1813 3991 1619 3984 
Q 1425 3978 1328 3972 
L 1328 2353 
L 1875 2353 
z
M 1328 297 
Q 1556 275 1838 275 
Q 2247 275 2473 378 
Q 2700 481 2801 682 
Q 2903 884 2903 1188 
Q 2903 1491 2792 1687 
Q 2681 1884 2450 1981 
Q 2219 2078 1813 2078 
L 1328 2078 
L 1328 297 
z
" id="Cambria-42" transform="scale(0.015625)"/>
      </defs>
      <use xlink:href="#Cambria-50"/>
      <use x="56.787109" xlink:href="#Cambria-42"/>
      <use x="117.919922" xlink:href="#Cambria-50"/>
     </g>
    </g>
    <g id="patch_61">
     <path d="M 330.409063 99.772 
L 350.409063 99.772 
L 350.409063 92.772 
L 330.409063 92.772 
z
" style="fill:#ded3d3;"/>
    </g>
    <g id="text_8">
     <!-- UWIM -->
     <g transform="translate(358.409063 99.772)scale(0.1 -0.1)">
      <defs>
       <path d="M 3516 1475 
Q 3516 1134 3453 888 
Q 3394 653 3275 472 
Q 3166 309 3003 195 
Q 2841 81 2609 15 
Q 2378 -50 2066 -50 
Q 1688 -50 1417 34 
Q 1147 119 970 311 
Q 794 503 716 764 
Q 638 1025 638 1428 
L 638 3484 
Q 638 3728 622 3814 
Q 606 3900 576 3950 
Q 547 4000 490 4036 
Q 434 4072 281 4113 
L 281 4266 
L 1594 4266 
L 1594 4113 
Q 1419 4069 1350 4014 
Q 1281 3959 1256 3850 
Q 1231 3741 1231 3484 
L 1231 1272 
Q 1231 969 1295 762 
Q 1359 556 1475 442 
Q 1591 328 1750 276 
Q 1909 225 2147 225 
Q 2366 225 2531 301 
Q 2697 378 2808 534 
Q 2919 691 2959 919 
Q 3000 1147 3000 1531 
L 3000 3484 
Q 3000 3756 2973 3856 
Q 2947 3956 2886 4009 
Q 2825 4063 2634 4113 
L 2634 4266 
L 3881 4266 
L 3881 4113 
Q 3700 4066 3633 4009 
Q 3566 3953 3541 3847 
Q 3516 3741 3516 3484 
L 3516 1475 
z
" id="Cambria-55" transform="scale(0.015625)"/>
       <path d="M 2941 3469 
L 1941 -22 
L 1434 -22 
L 525 3372 
Q 469 3584 422 3718 
Q 375 3853 328 3929 
Q 281 4006 226 4045 
Q 172 4084 69 4113 
L 69 4266 
L 1406 4266 
L 1406 4113 
Q 1213 4075 1136 4000 
Q 1059 3925 1059 3791 
Q 1059 3681 1087 3531 
Q 1116 3381 1166 3191 
L 1794 722 
L 2800 4266 
L 3325 4266 
L 4141 719 
L 4878 3103 
Q 5013 3538 5013 3722 
Q 5013 3913 4933 3997 
Q 4853 4081 4669 4113 
L 4669 4266 
L 5900 4266 
L 5900 4113 
Q 5806 4081 5750 4042 
Q 5694 4003 5642 3936 
Q 5591 3869 5530 3728 
Q 5469 3588 5388 3350 
L 4250 -22 
L 3803 -22 
L 2941 3469 
z
" id="Cambria-57" transform="scale(0.015625)"/>
       <path d="M 1331 781 
Q 1331 572 1345 475 
Q 1359 378 1392 322 
Q 1425 266 1489 228 
Q 1553 191 1697 153 
L 1697 0 
L 378 0 
L 378 153 
Q 572 203 637 264 
Q 703 325 723 437 
Q 744 550 744 781 
L 744 3484 
Q 744 3700 728 3798 
Q 713 3897 677 3951 
Q 641 4006 581 4039 
Q 522 4072 378 4113 
L 378 4266 
L 1697 4266 
L 1697 4113 
Q 1559 4078 1498 4043 
Q 1438 4009 1402 3957 
Q 1366 3906 1348 3803 
Q 1331 3700 1331 3484 
L 1331 781 
z
" id="Cambria-49" transform="scale(0.015625)"/>
       <path d="M 4841 4113 
Q 4703 4078 4642 4043 
Q 4581 4009 4545 3957 
Q 4509 3906 4492 3803 
Q 4475 3700 4475 3484 
L 4475 781 
Q 4475 572 4489 475 
Q 4503 378 4536 322 
Q 4569 266 4633 228 
Q 4697 191 4841 153 
L 4841 0 
L 3538 0 
L 3538 153 
Q 3716 197 3784 253 
Q 3853 309 3878 418 
Q 3903 528 3903 781 
L 3903 1978 
Q 3903 2450 3917 2933 
Q 3931 3416 3950 3594 
L 3897 3594 
L 2659 497 
L 2300 497 
L 1150 3644 
L 1097 3644 
Q 1113 3453 1127 2953 
Q 1141 2453 1141 1925 
L 1141 781 
Q 1141 572 1155 475 
Q 1169 378 1201 322 
Q 1234 266 1298 228 
Q 1363 191 1506 153 
L 1506 0 
L 366 0 
L 366 153 
Q 559 203 625 264 
Q 691 325 711 437 
Q 731 550 731 781 
L 731 3484 
Q 731 3700 715 3798 
Q 700 3897 664 3951 
Q 628 4006 568 4039 
Q 509 4072 366 4113 
L 366 4266 
L 1481 4266 
L 2578 1225 
L 3784 4266 
L 4841 4266 
L 4841 4113 
z
" id="Cambria-4d" transform="scale(0.015625)"/>
      </defs>
      <use xlink:href="#Cambria-55"/>
      <use x="64.794922" xlink:href="#Cambria-57"/>
      <use x="156.933594" xlink:href="#Cambria-49"/>
      <use x="189.355469" xlink:href="#Cambria-4d"/>
     </g>
    </g>
   </g>
  </g>
  <g id="axes_2">
   <g id="patch_62">
    <path d="M 57.6 307.584 
L 414.72 307.584 
L 414.72 186.624 
L 57.6 186.624 
z
" style="fill:#ffffff;"/>
   </g>
   <g id="patch_63">
    <path clip-path="url(#pe3468b78e7)" d="M 73.832727 307.584 
L 77.697662 307.584 
L 77.697662 -938.304 
L 73.832727 -938.304 
z
" style="fill:url(#he0cdfd9e05);stroke:#000000;stroke-linejoin:miter;"/>
   </g>
   <g id="patch_64">
    <path clip-path="url(#pe3468b78e7)" d="M 99.598961 307.584 
L 103.463896 307.584 
L 103.463896 277.344 
L 99.598961 277.344 
z
" style="fill:url(#he0cdfd9e05);stroke:#000000;stroke-linejoin:miter;"/>
   </g>
   <g id="patch_65">
    <path clip-path="url(#pe3468b78e7)" d="M 125.365195 307.584 
L 129.23013 307.584 
L 129.23013 206.28 
L 125.365195 206.28 
z
" style="fill:url(#he0cdfd9e05);stroke:#000000;stroke-linejoin:miter;"/>
   </g>
   <g id="patch_66">
    <path clip-path="url(#pe3468b78e7)" d="M 151.131429 307.584 
L 154.996364 307.584 
L 154.996364 260.712 
L 151.131429 260.712 
z
" style="fill:url(#he0cdfd9e05);stroke:#000000;stroke-linejoin:miter;"/>
   </g>
   <g id="patch_67">
    <path clip-path="url(#pe3468b78e7)" d="M 176.897662 307.584 
L 180.762597 307.584 
L 180.762597 280.368 
L 176.897662 280.368 
z
" style="fill:url(#he0cdfd9e05);stroke:#000000;stroke-linejoin:miter;"/>
   </g>
   <g id="patch_68">
    <path clip-path="url(#pe3468b78e7)" d="M 202.663896 307.584 
L 206.528831 307.584 
L 206.528831 289.44 
L 202.663896 289.44 
z
" style="fill:url(#he0cdfd9e05);stroke:#000000;stroke-linejoin:miter;"/>
   </g>
   <g id="patch_69">
    <path clip-path="url(#pe3468b78e7)" d="M 228.43013 307.584 
L 232.295065 307.584 
L 232.295065 304.56 
L 228.43013 304.56 
z
" style="fill:url(#he0cdfd9e05);stroke:#000000;stroke-linejoin:miter;"/>
   </g>
   <g id="patch_70">
    <path clip-path="url(#pe3468b78e7)" d="M 254.196364 307.584 
L 258.061299 307.584 
L 258.061299 303.048 
L 254.196364 303.048 
z
" style="fill:url(#he0cdfd9e05);stroke:#000000;stroke-linejoin:miter;"/>
   </g>
   <g id="patch_71">
    <path clip-path="url(#pe3468b78e7)" d="M 279.962597 307.584 
L 283.827532 307.584 
L 283.827532 297 
L 279.962597 297 
z
" style="fill:url(#he0cdfd9e05);stroke:#000000;stroke-linejoin:miter;"/>
   </g>
   <g id="patch_72">
    <path clip-path="url(#pe3468b78e7)" d="M 305.728831 307.584 
L 309.593766 307.584 
L 309.593766 295.488 
L 305.728831 295.488 
z
" style="fill:url(#he0cdfd9e05);stroke:#000000;stroke-linejoin:miter;"/>
   </g>
   <g id="patch_73">
    <path clip-path="url(#pe3468b78e7)" d="M 331.495065 307.584 
L 335.36 307.584 
L 335.36 295.488 
L 331.495065 295.488 
z
" style="fill:url(#he0cdfd9e05);stroke:#000000;stroke-linejoin:miter;"/>
   </g>
   <g id="patch_74">
    <path clip-path="url(#pe3468b78e7)" d="M 357.261299 307.584 
L 361.126234 307.584 
L 361.126234 290.952 
L 357.261299 290.952 
z
" style="fill:url(#he0cdfd9e05);stroke:#000000;stroke-linejoin:miter;"/>
   </g>
   <g id="patch_75">
    <path clip-path="url(#pe3468b78e7)" d="M 383.027532 307.584 
L 386.892468 307.584 
L 386.892468 303.048 
L 383.027532 303.048 
z
" style="fill:url(#he0cdfd9e05);stroke:#000000;stroke-linejoin:miter;"/>
   </g>
   <g id="patch_76">
    <path clip-path="url(#pe3468b78e7)" d="M 77.697662 307.584 
L 81.562597 307.584 
L 81.562597 -923.184 
L 77.697662 -923.184 
z
" style="fill:#8fb1c6;"/>
   </g>
   <g id="patch_77">
    <path clip-path="url(#pe3468b78e7)" d="M 103.463896 307.584 
L 107.328831 307.584 
L 107.328831 247.104 
L 103.463896 247.104 
z
" style="fill:#8fb1c6;"/>
   </g>
   <g id="patch_78">
    <path clip-path="url(#pe3468b78e7)" d="M 129.23013 307.584 
L 133.095065 307.584 
L 133.095065 194.184 
L 129.23013 194.184 
z
" style="fill:#8fb1c6;"/>
   </g>
   <g id="patch_79">
    <path clip-path="url(#pe3468b78e7)" d="M 154.996364 307.584 
L 158.861299 307.584 
L 158.861299 271.296 
L 154.996364 271.296 
z
" style="fill:#8fb1c6;"/>
   </g>
   <g id="patch_80">
    <path clip-path="url(#pe3468b78e7)" d="M 180.762597 307.584 
L 184.627532 307.584 
L 184.627532 293.976 
L 180.762597 293.976 
z
" style="fill:#8fb1c6;"/>
   </g>
   <g id="patch_81">
    <path clip-path="url(#pe3468b78e7)" d="M 206.528831 307.584 
L 210.393766 307.584 
L 210.393766 297 
L 206.528831 297 
z
" style="fill:#8fb1c6;"/>
   </g>
   <g id="patch_82">
    <path clip-path="url(#pe3468b78e7)" d="M 232.295065 307.584 
L 236.16 307.584 
L 236.16 306.072 
L 232.295065 306.072 
z
" style="fill:#8fb1c6;"/>
   </g>
   <g id="patch_83">
    <path clip-path="url(#pe3468b78e7)" d="M 258.061299 307.584 
L 261.926234 307.584 
L 261.926234 301.536 
L 258.061299 301.536 
z
" style="fill:#8fb1c6;"/>
   </g>
   <g id="patch_84">
    <path clip-path="url(#pe3468b78e7)" d="M 283.827532 307.584 
L 287.692468 307.584 
L 287.692468 307.584 
L 283.827532 307.584 
z
" style="fill:#8fb1c6;"/>
   </g>
   <g id="patch_85">
    <path clip-path="url(#pe3468b78e7)" d="M 309.593766 307.584 
L 313.458701 307.584 
L 313.458701 303.048 
L 309.593766 303.048 
z
" style="fill:#8fb1c6;"/>
   </g>
   <g id="patch_86">
    <path clip-path="url(#pe3468b78e7)" d="M 335.36 307.584 
L 339.224935 307.584 
L 339.224935 301.536 
L 335.36 301.536 
z
" style="fill:#8fb1c6;"/>
   </g>
   <g id="patch_87">
    <path clip-path="url(#pe3468b78e7)" d="M 361.126234 307.584 
L 364.991169 307.584 
L 364.991169 260.712 
L 361.126234 260.712 
z
" style="fill:#8fb1c6;"/>
   </g>
   <g id="patch_88">
    <path clip-path="url(#pe3468b78e7)" d="M 386.892468 307.584 
L 390.757403 307.584 
L 390.757403 300.024 
L 386.892468 300.024 
z
" style="fill:#8fb1c6;"/>
   </g>
   <g id="patch_89">
    <path clip-path="url(#pe3468b78e7)" d="M 81.562597 307.584 
L 85.427532 307.584 
L 85.427532 -996.543352 
L 81.562597 -996.543352 
z
" style="fill:#5f59b1;"/>
   </g>
   <g id="patch_90">
    <path clip-path="url(#pe3468b78e7)" d="M 107.328831 307.584 
L 111.193766 307.584 
L 111.193766 307.584 
L 107.328831 307.584 
z
" style="fill:#5f59b1;"/>
   </g>
   <g id="patch_91">
    <path clip-path="url(#pe3468b78e7)" d="M 133.095065 307.584 
L 136.96 307.584 
L 136.96 217.870541 
L 133.095065 217.870541 
z
" style="fill:#5f59b1;"/>
   </g>
   <g id="patch_92">
    <path clip-path="url(#pe3468b78e7)" d="M 158.861299 307.584 
L 162.726234 307.584 
L 162.726234 296.643334 
L 158.861299 296.643334 
z
" style="fill:#5f59b1;"/>
   </g>
   <g id="patch_93">
    <path clip-path="url(#pe3468b78e7)" d="M 184.627532 307.584 
L 188.492468 307.584 
L 188.492468 257.256938 
L 184.627532 257.256938 
z
" style="fill:#5f59b1;"/>
   </g>
   <g id="patch_94">
    <path clip-path="url(#pe3468b78e7)" d="M 210.393766 307.584 
L 214.258701 307.584 
L 214.258701 296.643334 
L 210.393766 296.643334 
z
" style="fill:#5f59b1;"/>
   </g>
   <g id="patch_95">
    <path clip-path="url(#pe3468b78e7)" d="M 236.16 307.584 
L 240.024935 307.584 
L 240.024935 292.267068 
L 236.16 292.267068 
z
" style="fill:#5f59b1;"/>
   </g>
   <g id="patch_96">
    <path clip-path="url(#pe3468b78e7)" d="M 261.926234 307.584 
L 265.791169 307.584 
L 265.791169 301.019601 
L 261.926234 301.019601 
z
" style="fill:#5f59b1;"/>
   </g>
   <g id="patch_97">
    <path clip-path="url(#pe3468b78e7)" d="M 287.692468 307.584 
L 291.557403 307.584 
L 291.557403 301.019601 
L 287.692468 301.019601 
z
" style="fill:#5f59b1;"/>
   </g>
   <g id="patch_98">
    <path clip-path="url(#pe3468b78e7)" d="M 313.458701 307.584 
L 317.323636 307.584 
L 317.323636 292.267068 
L 313.458701 292.267068 
z
" style="fill:#5f59b1;"/>
   </g>
   <g id="patch_99">
    <path clip-path="url(#pe3468b78e7)" d="M 339.224935 307.584 
L 343.08987 307.584 
L 343.08987 307.584 
L 339.224935 307.584 
z
" style="fill:#5f59b1;"/>
   </g>
   <g id="patch_100">
    <path clip-path="url(#pe3468b78e7)" d="M 364.991169 307.584 
L 368.856104 307.584 
L 368.856104 307.584 
L 364.991169 307.584 
z
" style="fill:#5f59b1;"/>
   </g>
   <g id="patch_101">
    <path clip-path="url(#pe3468b78e7)" d="M 390.757403 307.584 
L 394.622338 307.584 
L 394.622338 305.395867 
L 390.757403 305.395867 
z
" style="fill:#5f59b1;"/>
   </g>
   <g id="patch_102">
    <path clip-path="url(#pe3468b78e7)" d="M 85.427532 307.584 
L 89.292468 307.584 
L 89.292468 -931.4244 
L 85.427532 -931.4244 
z
" style="fill:#ded3d3;"/>
   </g>
   <g id="patch_103">
    <path clip-path="url(#pe3468b78e7)" d="M 111.193766 307.584 
L 115.058701 307.584 
L 115.058701 307.584 
L 111.193766 307.584 
z
" style="fill:#ded3d3;"/>
   </g>
   <g id="patch_104">
    <path clip-path="url(#pe3468b78e7)" d="M 136.96 307.584 
L 140.824935 307.584 
L 140.824935 303.6528 
L 136.96 303.6528 
z
" style="fill:#ded3d3;"/>
   </g>
   <g id="patch_105">
    <path clip-path="url(#pe3468b78e7)" d="M 162.726234 307.584 
L 166.591169 307.584 
L 166.591169 304.6356 
L 162.726234 304.6356 
z
" style="fill:#ded3d3;"/>
   </g>
   <g id="patch_106">
    <path clip-path="url(#pe3468b78e7)" d="M 188.492468 307.584 
L 192.357403 307.584 
L 192.357403 299.7216 
L 188.492468 299.7216 
z
" style="fill:#ded3d3;"/>
   </g>
   <g id="patch_107">
    <path clip-path="url(#pe3468b78e7)" d="M 214.258701 307.584 
L 218.123636 307.584 
L 218.123636 296.78832 
L 214.258701 296.78832 
z
" style="fill:#ded3d3;"/>
   </g>
   <g id="patch_108">
    <path clip-path="url(#pe3468b78e7)" d="M 240.024935 307.584 
L 243.88987 307.584 
L 243.88987 275.18184 
L 240.024935 275.18184 
z
" style="fill:#ded3d3;"/>
   </g>
   <g id="patch_109">
    <path clip-path="url(#pe3468b78e7)" d="M 265.791169 307.584 
L 269.656104 307.584 
L 269.656104 257.50656 
L 265.791169 257.50656 
z
" style="fill:#ded3d3;"/>
   </g>
   <g id="patch_110">
    <path clip-path="url(#pe3468b78e7)" d="M 291.557403 307.584 
L 295.422338 307.584 
L 295.422338 238.84848 
L 291.557403 238.84848 
z
" style="fill:#ded3d3;"/>
   </g>
   <g id="patch_111">
    <path clip-path="url(#pe3468b78e7)" d="M 317.323636 307.584 
L 321.188571 307.584 
L 321.188571 211.3452 
L 317.323636 211.3452 
z
" style="fill:#ded3d3;"/>
   </g>
   <g id="patch_112">
    <path clip-path="url(#pe3468b78e7)" d="M 343.08987 307.584 
L 346.954805 307.584 
L 346.954805 307.584 
L 343.08987 307.584 
z
" style="fill:#ded3d3;"/>
   </g>
   <g id="patch_113">
    <path clip-path="url(#pe3468b78e7)" d="M 368.856104 307.584 
L 372.721039 307.584 
L 372.721039 307.584 
L 368.856104 307.584 
z
" style="fill:#ded3d3;"/>
   </g>
   <g id="patch_114">
    <path clip-path="url(#pe3468b78e7)" d="M 394.622338 307.584 
L 398.487273 307.584 
L 398.487273 307.584 
L 394.622338 307.584 
z
" style="fill:#ded3d3;"/>
   </g>
   <g id="matplotlib.axis_3">
    <g id="xtick_14">
     <g id="line2d_7">
      <defs>
       <path d="M 0 0 
L 0 3.5 
" id="md88a1532cb" style="stroke:#000000;stroke-width:0.8;"/>
      </defs>
      <g>
       <use style="stroke:#000000;stroke-width:0.8;" x="81.562597" xlink:href="#md88a1532cb" y="307.584"/>
      </g>
     </g>
     <g id="text_9">
      <!-- 0.23 -->
      <g transform="translate(72.230566 321.5715)scale(0.1 -0.1)">
       <defs>
        <path d="M 2194 500 
Q 2347 500 2440 519 
Q 2534 538 2590 581 
Q 2647 625 2680 695 
Q 2713 766 2763 913 
L 3028 913 
L 2975 0 
L 403 0 
L 403 150 
Q 538 478 766 822 
Q 994 1166 1413 1631 
Q 1775 2031 1934 2238 
Q 2109 2463 2195 2627 
Q 2281 2791 2318 2936 
Q 2356 3081 2356 3228 
Q 2356 3463 2281 3642 
Q 2206 3822 2051 3925 
Q 1897 4028 1663 4028 
Q 1078 4028 875 3378 
L 497 3378 
L 497 3978 
Q 875 4156 1204 4236 
Q 1534 4316 1797 4316 
Q 2378 4316 2675 4061 
Q 2972 3806 2972 3322 
Q 2972 3156 2939 3017 
Q 2906 2878 2836 2742 
Q 2766 2606 2647 2450 
Q 2528 2294 2384 2133 
Q 2241 1972 1888 1597 
Q 1294 969 1016 500 
L 2194 500 
z
" id="Cambria-32" transform="scale(0.015625)"/>
        <path d="M 497 3381 
L 497 3975 
Q 859 4147 1175 4231 
Q 1491 4316 1784 4316 
Q 2138 4316 2403 4206 
Q 2669 4097 2809 3892 
Q 2950 3688 2950 3403 
Q 2950 3138 2844 2936 
Q 2738 2734 2545 2584 
Q 2353 2434 2047 2291 
L 2047 2263 
Q 2238 2228 2414 2145 
Q 2591 2063 2728 1931 
Q 2866 1800 2948 1617 
Q 3031 1434 3031 1200 
Q 3031 838 2873 556 
Q 2716 275 2391 112 
Q 2066 -50 1600 -50 
Q 1331 -50 1020 11 
Q 709 72 450 172 
L 450 834 
L 825 834 
Q 934 509 1114 362 
Q 1294 216 1603 216 
Q 2009 216 2217 437 
Q 2425 659 2425 1094 
Q 2425 1550 2150 1790 
Q 1875 2031 1344 2031 
L 1063 2031 
L 1063 2306 
Q 1484 2331 1773 2468 
Q 2063 2606 2203 2822 
Q 2344 3038 2344 3306 
Q 2344 3653 2159 3840 
Q 1975 4028 1622 4028 
Q 1328 4028 1143 3868 
Q 959 3709 872 3381 
L 497 3381 
z
" id="Cambria-33" transform="scale(0.015625)"/>
       </defs>
       <use xlink:href="#Cambria-30"/>
       <use x="55.371094" xlink:href="#Cambria-2e"/>
       <use x="75.878906" xlink:href="#Cambria-32"/>
       <use x="131.25" xlink:href="#Cambria-33"/>
      </g>
     </g>
    </g>
    <g id="xtick_15">
     <g id="line2d_8">
      <g>
       <use style="stroke:#000000;stroke-width:0.8;" x="107.328831" xlink:href="#md88a1532cb" y="307.584"/>
      </g>
     </g>
     <g id="text_10">
      <!-- 0.25 -->
      <g transform="translate(97.9968 321.5715)scale(0.1 -0.1)">
       <defs>
        <path d="M 469 172 
L 469 834 
L 847 834 
Q 941 516 1130 366 
Q 1319 216 1619 216 
Q 2034 216 2246 466 
Q 2459 716 2459 1213 
Q 2459 1544 2346 1761 
Q 2234 1978 2043 2075 
Q 1853 2172 1600 2172 
Q 1388 2172 1234 2145 
Q 1081 2119 906 2063 
L 656 2209 
L 656 4266 
L 2378 4266 
Q 2484 4266 2531 4283 
Q 2578 4300 2606 4336 
Q 2634 4372 2672 4472 
L 2916 4472 
L 2869 3747 
L 1072 3747 
L 1072 2375 
Q 1234 2444 1425 2478 
Q 1616 2513 1806 2513 
Q 2178 2513 2465 2361 
Q 2753 2209 2909 1929 
Q 3066 1650 3066 1281 
Q 3066 863 2891 563 
Q 2716 263 2384 106 
Q 2053 -50 1600 -50 
Q 1059 -50 469 172 
z
" id="Cambria-35" transform="scale(0.015625)"/>
       </defs>
       <use xlink:href="#Cambria-30"/>
       <use x="55.371094" xlink:href="#Cambria-2e"/>
       <use x="75.878906" xlink:href="#Cambria-32"/>
       <use x="131.25" xlink:href="#Cambria-35"/>
      </g>
     </g>
    </g>
    <g id="xtick_16">
     <g id="line2d_9">
      <g>
       <use style="stroke:#000000;stroke-width:0.8;" x="133.095065" xlink:href="#md88a1532cb" y="307.584"/>
      </g>
     </g>
     <g id="text_11">
      <!-- 0.35 -->
      <g transform="translate(123.763034 321.5715)scale(0.1 -0.1)">
       <use xlink:href="#Cambria-30"/>
       <use x="55.371094" xlink:href="#Cambria-2e"/>
       <use x="75.878906" xlink:href="#Cambria-33"/>
       <use x="131.25" xlink:href="#Cambria-35"/>
      </g>
     </g>
    </g>
    <g id="xtick_17">
     <g id="line2d_10">
      <g>
       <use style="stroke:#000000;stroke-width:0.8;" x="158.861299" xlink:href="#md88a1532cb" y="307.584"/>
      </g>
     </g>
     <g id="text_12">
      <!-- 0.40 -->
      <g transform="translate(149.529267 321.5715)scale(0.1 -0.1)">
       <defs>
        <path d="M 1613 153 
Q 1806 203 1872 264 
Q 1938 325 1958 437 
Q 1978 550 1978 781 
L 1978 1294 
L 241 1294 
L 241 1528 
L 2069 4288 
L 2516 4288 
L 2516 1597 
L 2581 1597 
Q 2763 1597 2841 1623 
Q 2919 1650 2970 1717 
Q 3022 1784 3066 1938 
L 3303 1938 
L 3266 1294 
L 2516 1294 
L 2516 781 
Q 2516 572 2530 475 
Q 2544 378 2576 322 
Q 2609 266 2673 228 
Q 2738 191 2881 153 
L 2881 0 
L 1613 0 
L 1613 153 
z
M 756 1597 
L 1978 1597 
L 1978 2375 
Q 1978 2669 1987 3033 
Q 1997 3397 2009 3581 
L 1978 3581 
L 756 1641 
L 756 1597 
z
" id="Cambria-34" transform="scale(0.015625)"/>
       </defs>
       <use xlink:href="#Cambria-30"/>
       <use x="55.371094" xlink:href="#Cambria-2e"/>
       <use x="75.878906" xlink:href="#Cambria-34"/>
       <use x="131.25" xlink:href="#Cambria-30"/>
      </g>
     </g>
    </g>
    <g id="xtick_18">
     <g id="line2d_11">
      <g>
       <use style="stroke:#000000;stroke-width:0.8;" x="184.627532" xlink:href="#md88a1532cb" y="307.584"/>
      </g>
     </g>
     <g id="text_13">
      <!-- 0.50 -->
      <g transform="translate(175.295501 321.5715)scale(0.1 -0.1)">
       <use xlink:href="#Cambria-30"/>
       <use x="55.371094" xlink:href="#Cambria-2e"/>
       <use x="75.878906" xlink:href="#Cambria-35"/>
       <use x="131.25" xlink:href="#Cambria-30"/>
      </g>
     </g>
    </g>
    <g id="xtick_19">
     <g id="line2d_12">
      <g>
       <use style="stroke:#000000;stroke-width:0.8;" x="210.393766" xlink:href="#md88a1532cb" y="307.584"/>
      </g>
     </g>
     <g id="text_14">
      <!-- 0.60 -->
      <g transform="translate(201.061735 321.5715)scale(0.1 -0.1)">
       <use xlink:href="#Cambria-30"/>
       <use x="55.371094" xlink:href="#Cambria-2e"/>
       <use x="75.878906" xlink:href="#Cambria-36"/>
       <use x="131.25" xlink:href="#Cambria-30"/>
      </g>
     </g>
    </g>
    <g id="xtick_20">
     <g id="line2d_13">
      <g>
       <use style="stroke:#000000;stroke-width:0.8;" x="236.16" xlink:href="#md88a1532cb" y="307.584"/>
      </g>
     </g>
     <g id="text_15">
      <!-- 0.80 -->
      <g transform="translate(226.827969 321.5715)scale(0.1 -0.1)">
       <use xlink:href="#Cambria-30"/>
       <use x="55.371094" xlink:href="#Cambria-2e"/>
       <use x="75.878906" xlink:href="#Cambria-38"/>
       <use x="131.25" xlink:href="#Cambria-30"/>
      </g>
     </g>
    </g>
    <g id="xtick_21">
     <g id="line2d_14">
      <g>
       <use style="stroke:#000000;stroke-width:0.8;" x="261.926234" xlink:href="#md88a1532cb" y="307.584"/>
      </g>
     </g>
     <g id="text_16">
      <!-- 1.00 -->
      <g transform="translate(252.594203 321.5715)scale(0.1 -0.1)">
       <defs>
        <path d="M 2172 816 
Q 2172 634 2192 542 
Q 2213 450 2264 392 
Q 2316 334 2412 301 
Q 2509 269 2656 251 
Q 2803 234 3044 228 
L 3044 0 
L 734 0 
L 734 228 
Q 1081 244 1229 270 
Q 1378 297 1456 350 
Q 1534 403 1570 500 
Q 1606 597 1606 816 
L 1606 3350 
Q 1606 3475 1562 3533 
Q 1519 3591 1434 3591 
Q 1334 3591 1150 3487 
Q 966 3384 694 3203 
L 556 3444 
L 2019 4316 
L 2191 4316 
Q 2172 4016 2172 3484 
L 2172 816 
z
" id="Cambria-31" transform="scale(0.015625)"/>
       </defs>
       <use xlink:href="#Cambria-31"/>
       <use x="55.371094" xlink:href="#Cambria-2e"/>
       <use x="75.878906" xlink:href="#Cambria-30"/>
       <use x="131.25" xlink:href="#Cambria-30"/>
      </g>
     </g>
    </g>
    <g id="xtick_22">
     <g id="line2d_15">
      <g>
       <use style="stroke:#000000;stroke-width:0.8;" x="287.692468" xlink:href="#md88a1532cb" y="307.584"/>
      </g>
     </g>
     <g id="text_17">
      <!-- 1.20 -->
      <g transform="translate(278.360436 321.5715)scale(0.1 -0.1)">
       <use xlink:href="#Cambria-31"/>
       <use x="55.371094" xlink:href="#Cambria-2e"/>
       <use x="75.878906" xlink:href="#Cambria-32"/>
       <use x="131.25" xlink:href="#Cambria-30"/>
      </g>
     </g>
    </g>
    <g id="xtick_23">
     <g id="line2d_16">
      <g>
       <use style="stroke:#000000;stroke-width:0.8;" x="313.458701" xlink:href="#md88a1532cb" y="307.584"/>
      </g>
     </g>
     <g id="text_18">
      <!-- 1.50 -->
      <g transform="translate(304.12667 321.5715)scale(0.1 -0.1)">
       <use xlink:href="#Cambria-31"/>
       <use x="55.371094" xlink:href="#Cambria-2e"/>
       <use x="75.878906" xlink:href="#Cambria-35"/>
       <use x="131.25" xlink:href="#Cambria-30"/>
      </g>
     </g>
    </g>
    <g id="xtick_24">
     <g id="line2d_17">
      <g>
       <use style="stroke:#000000;stroke-width:0.8;" x="339.224935" xlink:href="#md88a1532cb" y="307.584"/>
      </g>
     </g>
     <g id="text_19">
      <!-- 2.00 -->
      <g transform="translate(329.892904 321.5715)scale(0.1 -0.1)">
       <use xlink:href="#Cambria-32"/>
       <use x="55.371094" xlink:href="#Cambria-2e"/>
       <use x="75.878906" xlink:href="#Cambria-30"/>
       <use x="131.25" xlink:href="#Cambria-30"/>
      </g>
     </g>
    </g>
    <g id="xtick_25">
     <g id="line2d_18">
      <g>
       <use style="stroke:#000000;stroke-width:0.8;" x="364.991169" xlink:href="#md88a1532cb" y="307.584"/>
      </g>
     </g>
     <g id="text_20">
      <!-- 2.50 -->
      <g transform="translate(355.659138 321.5715)scale(0.1 -0.1)">
       <use xlink:href="#Cambria-32"/>
       <use x="55.371094" xlink:href="#Cambria-2e"/>
       <use x="75.878906" xlink:href="#Cambria-35"/>
       <use x="131.25" xlink:href="#Cambria-30"/>
      </g>
     </g>
    </g>
    <g id="xtick_26">
     <g id="line2d_19">
      <g>
       <use style="stroke:#000000;stroke-width:0.8;" x="390.757403" xlink:href="#md88a1532cb" y="307.584"/>
      </g>
     </g>
     <g id="text_21">
      <!-- 3.00 -->
      <g transform="translate(381.425371 321.5715)scale(0.1 -0.1)">
       <use xlink:href="#Cambria-33"/>
       <use x="55.371094" xlink:href="#Cambria-2e"/>
       <use x="75.878906" xlink:href="#Cambria-30"/>
       <use x="131.25" xlink:href="#Cambria-30"/>
      </g>
     </g>
    </g>
    <g id="text_22">
     <!-- Diameter [m] -->
     <g transform="translate(190.24125 338.8515)scale(0.16 -0.16)">
      <defs>
       <path d="M 1197 4213 
L 1197 3606 
L 622 3606 
L 622 4213 
L 1197 4213 
z
M 303 153 
Q 425 191 476 219 
Q 528 247 564 297 
Q 600 347 620 450 
Q 641 553 641 772 
L 641 2134 
Q 641 2334 634 2456 
Q 628 2578 590 2651 
Q 553 2725 476 2761 
Q 400 2797 259 2822 
L 259 2988 
L 988 3016 
L 1178 3016 
L 1178 781 
Q 1178 513 1203 408 
Q 1228 303 1298 248 
Q 1369 194 1528 153 
L 1528 0 
L 303 0 
L 303 153 
z
" id="Cambria-69" transform="scale(0.015625)"/>
       <path d="M 1147 2506 
L 1191 2494 
Q 1378 2681 1498 2776 
Q 1619 2872 1731 2930 
Q 1844 2988 1942 3013 
Q 2041 3038 2144 3038 
Q 2456 3038 2653 2894 
Q 2850 2750 2925 2453 
Q 3159 2691 3304 2803 
Q 3450 2916 3601 2977 
Q 3753 3038 3928 3038 
Q 4138 3038 4289 2977 
Q 4441 2916 4545 2789 
Q 4650 2663 4698 2472 
Q 4747 2281 4747 1959 
L 4747 781 
Q 4747 544 4762 453 
Q 4778 363 4808 313 
Q 4838 263 4897 227 
Q 4956 191 5097 153 
L 5097 0 
L 3869 0 
L 3869 153 
Q 3991 191 4044 219 
Q 4097 247 4133 297 
Q 4169 347 4189 451 
Q 4209 556 4209 769 
L 4209 1588 
Q 4209 1853 4195 2026 
Q 4181 2200 4151 2303 
Q 4122 2406 4080 2465 
Q 4038 2525 3984 2569 
Q 3931 2613 3859 2638 
Q 3788 2663 3669 2663 
Q 3544 2663 3436 2613 
Q 3328 2563 3201 2444 
Q 3075 2325 3019 2204 
Q 2963 2084 2963 1922 
L 2963 781 
Q 2963 544 2978 453 
Q 2994 363 3023 313 
Q 3053 263 3112 227 
Q 3172 191 3313 153 
L 3313 0 
L 2084 0 
L 2084 153 
Q 2206 191 2259 219 
Q 2313 247 2348 297 
Q 2384 347 2404 451 
Q 2425 556 2425 769 
L 2425 1588 
Q 2425 1866 2409 2041 
Q 2394 2216 2361 2322 
Q 2328 2428 2276 2493 
Q 2225 2559 2172 2593 
Q 2119 2628 2047 2645 
Q 1975 2663 1884 2663 
Q 1756 2663 1643 2605 
Q 1531 2547 1414 2437 
Q 1297 2328 1237 2209 
Q 1178 2091 1178 1953 
L 1178 781 
Q 1178 603 1187 509 
Q 1197 416 1217 362 
Q 1238 309 1269 276 
Q 1300 244 1358 214 
Q 1416 184 1531 153 
L 1531 0 
L 306 0 
L 306 153 
Q 425 191 476 219 
Q 528 247 565 297 
Q 603 347 622 450 
Q 641 553 641 772 
L 641 2134 
Q 641 2334 634 2456 
Q 628 2578 590 2651 
Q 553 2725 476 2761 
Q 400 2797 259 2822 
L 259 2988 
L 991 3016 
L 1181 3016 
L 1147 2506 
z
" id="Cambria-6d" transform="scale(0.015625)"/>
       <path d="M 116 2831 
Q 272 2856 369 2918 
Q 466 2981 520 3079 
Q 575 3178 606 3326 
Q 638 3475 672 3759 
L 1116 3759 
L 1116 2988 
L 2125 2988 
L 2125 2672 
L 1116 2672 
L 1116 1281 
Q 1116 978 1141 798 
Q 1166 619 1234 517 
Q 1303 416 1390 372 
Q 1478 328 1616 328 
Q 1741 328 1850 379 
Q 1959 431 2066 528 
L 2206 359 
Q 1984 144 1786 47 
Q 1588 -50 1375 -50 
Q 972 -50 775 189 
Q 578 428 578 938 
L 578 2672 
L 116 2672 
L 116 2831 
z
" id="Cambria-74" transform="scale(0.015625)"/>
       <path d="M 2106 -1344 
L 713 -1344 
L 713 4472 
L 2106 4472 
L 2106 4216 
L 1263 4216 
L 1263 -1088 
L 2106 -1088 
L 2106 -1344 
z
" id="Cambria-5b" transform="scale(0.015625)"/>
       <path d="M 1528 -1344 
L 134 -1344 
L 134 -1088 
L 978 -1088 
L 978 4216 
L 134 4216 
L 134 4472 
L 1528 4472 
L 1528 -1344 
z
" id="Cambria-5d" transform="scale(0.015625)"/>
      </defs>
      <use xlink:href="#Cambria-44"/>
      <use x="66.162109" xlink:href="#Cambria-69"/>
      <use x="93.945312" xlink:href="#Cambria-61"/>
      <use x="142.773438" xlink:href="#Cambria-6d"/>
      <use x="225.976562" xlink:href="#Cambria-65"/>
      <use x="274.755859" xlink:href="#Cambria-74"/>
      <use x="308.59375" xlink:href="#Cambria-65"/>
      <use x="357.373047" xlink:href="#Cambria-72"/>
      <use x="398.730469" xlink:href="#Cambria-20"/>
      <use x="420.751953" xlink:href="#Cambria-5b"/>
      <use x="455.761719" xlink:href="#Cambria-6d"/>
      <use x="538.964844" xlink:href="#Cambria-5d"/>
     </g>
    </g>
   </g>
   <g id="matplotlib.axis_4">
    <g id="ytick_5">
     <g id="line2d_20">
      <g>
       <use style="stroke:#000000;stroke-width:0.8;" x="57.6" xlink:href="#m33d67c0ca7" y="307.584"/>
      </g>
     </g>
     <g id="text_23">
      <!-- 0.00 -->
      <g transform="translate(31.935938 311.07775)scale(0.1 -0.1)">
       <use xlink:href="#Cambria-30"/>
       <use x="55.371094" xlink:href="#Cambria-2e"/>
       <use x="75.878906" xlink:href="#Cambria-30"/>
       <use x="131.25" xlink:href="#Cambria-30"/>
      </g>
     </g>
    </g>
    <g id="ytick_6">
     <g id="line2d_21">
      <g>
       <use style="stroke:#000000;stroke-width:0.8;" x="57.6" xlink:href="#m33d67c0ca7" y="277.344"/>
      </g>
     </g>
     <g id="text_24">
      <!-- 0.02 -->
      <g transform="translate(31.935938 280.83775)scale(0.1 -0.1)">
       <use xlink:href="#Cambria-30"/>
       <use x="55.371094" xlink:href="#Cambria-2e"/>
       <use x="75.878906" xlink:href="#Cambria-30"/>
       <use x="131.25" xlink:href="#Cambria-32"/>
      </g>
     </g>
    </g>
    <g id="ytick_7">
     <g id="line2d_22">
      <g>
       <use style="stroke:#000000;stroke-width:0.8;" x="57.6" xlink:href="#m33d67c0ca7" y="247.104"/>
      </g>
     </g>
     <g id="text_25">
      <!-- 0.04 -->
      <g transform="translate(31.935938 250.59775)scale(0.1 -0.1)">
       <use xlink:href="#Cambria-30"/>
       <use x="55.371094" xlink:href="#Cambria-2e"/>
       <use x="75.878906" xlink:href="#Cambria-30"/>
       <use x="131.25" xlink:href="#Cambria-34"/>
      </g>
     </g>
    </g>
    <g id="ytick_8">
     <g id="line2d_23">
      <g>
       <use style="stroke:#000000;stroke-width:0.8;" x="57.6" xlink:href="#m33d67c0ca7" y="216.864"/>
      </g>
     </g>
     <g id="text_26">
      <!-- 0.06 -->
      <g transform="translate(31.935938 220.35775)scale(0.1 -0.1)">
       <use xlink:href="#Cambria-30"/>
       <use x="55.371094" xlink:href="#Cambria-2e"/>
       <use x="75.878906" xlink:href="#Cambria-30"/>
       <use x="131.25" xlink:href="#Cambria-36"/>
      </g>
     </g>
    </g>
    <g id="ytick_9">
     <g id="line2d_24">
      <g>
       <use style="stroke:#000000;stroke-width:0.8;" x="57.6" xlink:href="#m33d67c0ca7" y="186.624"/>
      </g>
     </g>
     <g id="text_27">
      <!-- 0.08 -->
      <g transform="translate(31.935938 190.11775)scale(0.1 -0.1)">
       <use xlink:href="#Cambria-30"/>
       <use x="55.371094" xlink:href="#Cambria-2e"/>
       <use x="75.878906" xlink:href="#Cambria-30"/>
       <use x="131.25" xlink:href="#Cambria-38"/>
      </g>
     </g>
    </g>
    <g id="text_28">
     <!-- Proportion [%] -->
     <g transform="translate(24.575937 238.84775)rotate(-90)scale(0.16 -0.16)">
      <defs>
       <path d="M 1663 -50 
Q 1013 -50 670 333 
Q 328 716 328 1466 
Q 328 1981 508 2337 
Q 688 2694 1000 2867 
Q 1313 3041 1713 3041 
Q 2381 3041 2725 2652 
Q 3069 2263 3069 1534 
Q 3069 1016 2897 659 
Q 2725 303 2409 126 
Q 2094 -50 1663 -50 
z
M 919 1531 
Q 919 888 1123 542 
Q 1328 197 1709 197 
Q 1919 197 2066 298 
Q 2213 400 2305 572 
Q 2397 744 2437 970 
Q 2478 1197 2478 1444 
Q 2478 1903 2376 2206 
Q 2275 2509 2100 2651 
Q 1925 2794 1700 2794 
Q 1322 2794 1120 2466 
Q 919 2138 919 1531 
z
" id="Cambria-6f" transform="scale(0.015625)"/>
       <path d="M 1150 94 
L 1150 -566 
Q 1150 -769 1164 -869 
Q 1178 -969 1214 -1026 
Q 1250 -1084 1317 -1121 
Q 1384 -1159 1534 -1191 
L 1534 -1344 
L 259 -1344 
L 259 -1191 
Q 372 -1159 442 -1126 
Q 513 -1094 550 -1030 
Q 588 -966 600 -856 
Q 613 -747 613 -566 
L 613 2116 
Q 613 2341 606 2436 
Q 600 2531 581 2593 
Q 563 2656 527 2697 
Q 491 2738 430 2766 
Q 369 2794 228 2822 
L 228 2988 
L 963 3016 
L 1153 3016 
L 1113 2506 
L 1159 2494 
Q 1353 2691 1465 2780 
Q 1578 2869 1698 2928 
Q 1819 2988 1930 3013 
Q 2041 3038 2166 3038 
Q 2681 3038 2957 2652 
Q 3234 2266 3234 1522 
Q 3234 1006 3078 654 
Q 2922 303 2623 126 
Q 2325 -50 1913 -50 
Q 1681 -50 1493 -11 
Q 1306 28 1150 94 
z
M 1150 1125 
Q 1150 825 1187 662 
Q 1225 500 1320 398 
Q 1416 297 1545 247 
Q 1675 197 1888 197 
Q 2266 197 2456 511 
Q 2647 825 2647 1438 
Q 2647 2663 1931 2663 
Q 1756 2663 1629 2608 
Q 1503 2553 1378 2431 
Q 1253 2309 1201 2195 
Q 1150 2081 1150 1950 
L 1150 1125 
z
" id="Cambria-70" transform="scale(0.015625)"/>
       <path d="M 3347 0 
L 2116 0 
L 2116 153 
Q 2238 191 2291 219 
Q 2344 247 2380 297 
Q 2416 347 2436 451 
Q 2456 556 2456 769 
L 2456 1588 
Q 2456 1806 2443 1984 
Q 2431 2163 2401 2277 
Q 2372 2391 2330 2455 
Q 2288 2519 2230 2564 
Q 2172 2609 2097 2636 
Q 2022 2663 1900 2663 
Q 1778 2663 1668 2614 
Q 1559 2566 1428 2447 
Q 1297 2328 1237 2212 
Q 1178 2097 1178 1947 
L 1178 781 
Q 1178 513 1203 408 
Q 1228 303 1298 248 
Q 1369 194 1528 153 
L 1528 0 
L 303 0 
L 303 153 
Q 425 191 476 219 
Q 528 247 564 297 
Q 600 347 620 450 
Q 641 553 641 772 
L 641 2134 
Q 641 2334 634 2456 
Q 628 2578 590 2651 
Q 553 2725 476 2761 
Q 400 2797 259 2822 
L 259 2988 
L 991 3016 
L 1181 3016 
L 1147 2506 
L 1191 2494 
Q 1422 2728 1564 2828 
Q 1706 2928 1851 2983 
Q 1997 3038 2159 3038 
Q 2328 3038 2461 2998 
Q 2594 2959 2695 2878 
Q 2797 2797 2862 2676 
Q 2928 2556 2961 2387 
Q 2994 2219 2994 1959 
L 2994 781 
Q 2994 566 3006 469 
Q 3019 372 3050 319 
Q 3081 266 3140 230 
Q 3200 194 3347 153 
L 3347 0 
z
" id="Cambria-6e" transform="scale(0.015625)"/>
       <path d="M 1278 1616 
Q 800 1616 564 1947 
Q 328 2278 328 2944 
Q 328 3406 454 3714 
Q 581 4022 801 4169 
Q 1022 4316 1313 4316 
Q 1584 4316 1768 4219 
Q 1953 4122 2067 3948 
Q 2181 3775 2229 3533 
Q 2278 3291 2278 3000 
Q 2278 2316 2020 1966 
Q 1763 1616 1278 1616 
z
M 791 2997 
Q 791 2391 916 2116 
Q 1041 1841 1313 1841 
Q 1569 1841 1692 2097 
Q 1816 2353 1816 2916 
Q 1816 3516 1692 3803 
Q 1569 4091 1309 4091 
Q 1113 4091 998 3959 
Q 884 3828 837 3589 
Q 791 3350 791 2997 
z
M 4456 4266 
L 1700 -300 
L 1241 -300 
L 4003 4266 
L 4456 4266 
z
M 4366 -350 
Q 3888 -350 3652 -18 
Q 3416 313 3416 978 
Q 3416 1441 3542 1748 
Q 3669 2056 3889 2203 
Q 4109 2350 4400 2350 
Q 4672 2350 4856 2253 
Q 5041 2156 5155 1982 
Q 5269 1809 5317 1567 
Q 5366 1325 5366 1034 
Q 5366 350 5108 0 
Q 4850 -350 4366 -350 
z
M 3878 1031 
Q 3878 425 4003 150 
Q 4128 -125 4400 -125 
Q 4656 -125 4779 131 
Q 4903 388 4903 950 
Q 4903 1550 4779 1837 
Q 4656 2125 4397 2125 
Q 4200 2125 4086 1994 
Q 3972 1863 3925 1623 
Q 3878 1384 3878 1031 
z
" id="Cambria-25" transform="scale(0.015625)"/>
      </defs>
      <use xlink:href="#Cambria-50"/>
      <use x="56.787109" xlink:href="#Cambria-72"/>
      <use x="98.144531" xlink:href="#Cambria-6f"/>
      <use x="151.220703" xlink:href="#Cambria-70"/>
      <use x="206.835938" xlink:href="#Cambria-6f"/>
      <use x="259.912109" xlink:href="#Cambria-72"/>
      <use x="301.269531" xlink:href="#Cambria-74"/>
      <use x="335.107422" xlink:href="#Cambria-69"/>
      <use x="362.890625" xlink:href="#Cambria-6f"/>
      <use x="415.966797" xlink:href="#Cambria-6e"/>
      <use x="471.777344" xlink:href="#Cambria-20"/>
      <use x="493.798828" xlink:href="#Cambria-5b"/>
      <use x="528.808594" xlink:href="#Cambria-25"/>
      <use x="617.773438" xlink:href="#Cambria-5d"/>
     </g>
    </g>
   </g>
   <g id="line2d_25">
    <path d="M 55.8144 187.2288 
L 59.3856 186.0192 
" style="fill:none;stroke:#000000;stroke-linecap:square;stroke-width:1.5;"/>
   </g>
   <g id="line2d_26">
    <path d="M 412.9344 187.2288 
L 416.5056 186.0192 
" style="fill:none;stroke:#000000;stroke-linecap:square;stroke-width:1.5;"/>
   </g>
   <g id="patch_115">
    <path d="M 57.6 307.584 
L 57.6 186.624 
" style="fill:none;stroke:#000000;stroke-linecap:square;stroke-linejoin:miter;stroke-width:0.8;"/>
   </g>
   <g id="patch_116">
    <path d="M 414.72 307.584 
L 414.72 186.624 
" style="fill:none;stroke:#000000;stroke-linecap:square;stroke-linejoin:miter;stroke-width:0.8;"/>
   </g>
   <g id="patch_117">
    <path d="M 57.6 307.584 
L 414.72 307.584 
" style="fill:none;stroke:#000000;stroke-linecap:square;stroke-linejoin:miter;stroke-width:0.8;"/>
   </g>
  </g>
 </g>
 <defs>
  <clipPath id="p7f6e73b0cb">
   <rect height="120.96" width="357.12" x="57.6" y="41.472"/>
  </clipPath>
  <clipPath id="pe3468b78e7">
   <rect height="120.96" width="357.12" x="57.6" y="186.624"/>
  </clipPath>
 </defs>
 <defs>
  <pattern height="72" id="he0cdfd9e05" patternUnits="userSpaceOnUse" width="72" x="0" y="0">
   <rect fill="none" height="73" width="73" x="0" y="0"/>
   <path d="M -36 36 
L 36 -36 
M -32 40 
L 40 -32 
M -28 44 
L 44 -28 
M -24 48 
L 48 -24 
M -20 52 
L 52 -20 
M -16 56 
L 56 -16 
M -12 60 
L 60 -12 
M -8 64 
L 64 -8 
M -4 68 
L 68 -4 
M 0 72 
L 72 0 
M 4 76 
L 76 4 
M 8 80 
L 80 8 
M 12 84 
L 84 12 
M 16 88 
L 88 16 
M 20 92 
L 92 20 
M 24 96 
L 96 24 
M 28 100 
L 100 28 
M 32 104 
L 104 32 
M 36 108 
L 108 36 
" style="fill:#000000;stroke:#000000;stroke-linecap:butt;stroke-linejoin:miter;stroke-width:1.0;"/>
  </pattern>
 </defs>
</svg>
