;BlockID;BasinID;CentreX;CentreY;Neighbours;Active;pLU_RES;pLU_COM;pLU_ORC;pLU_LI;pLU_HI;pLU_CIV;pLU_SVU;pLU_RD;pLU_TR;pLU_PG;pLU_REF;pLU_UND;pLU_NA;pLU_WAT;pLU_FOR;pLU_AGR;Population;AvgElev;MaxElev;MinElev;Slope_PCT;Slope_DEG;Aspect_DEG;HasRiver;RiverNames;HasLake;LakeNames;MiscAtot;MiscAimp;MiscThresh;UND_Type;UND_av;OpenSpace;AGreenOS;ASquare;PG_av;REF_av;ANonW_Util;SVU_avWS;SVU_avWW;SVU_avSW;SVU_avOTH;RoadTIA;ParkBuffer;RD_av;HouseOccup;ResParcels;ResFrontT;avSt_RES;WResNstrip;ResAllots;ResDWpLot;ResHouses;ResLotArea;ResRoof;avLt_RES;ResHFloors;ResLotTIA;ResLotEIA;ResGarden;ResRoofCon;ResLotALS;ResLotARS;HDRFlats;HDRRoofA;HDROccup;HDR_TIA;HDR_EIA;HDRFloors;av_HDRes;HDRGarden;HDRCarPark;LIjobs;LIestates;avSt_LI;LIAfront;LIAfrEIA;LIAestate;LIAeBldg;LIFloors;LIAeLoad;LIAeCPark;avLt_LI;LIAeLgrey;LIAeEIA;LIAeTIA;HIjobs;HIestates;avSt_HI;HIAfront;HIAfrEIA;HIAestate;HIAeBldg;HIFloors;HIAeLoad;HIAeCPark;avLt_HI;HIAeLgrey;HIAeEIA;HIAeTIA;COMjobs;COMestates;avSt_COM;COMAfront;COMAfrEIA;COMAestate;COMAeBldg;COMFloors;COMAeLoad;COMAeCPark;avLt_COM;COMAeLgrey;COMAeEIA;COMAeTIA;ORCjobs;ORCestates;avSt_ORC;ORCAfront;ORCAfrEIA;ORCAestate;ORCAeBldg;ORCFloors;ORCAeLoad;ORCAeCPark;avLt_ORC;ORCAeLgrey;ORCAeEIA;ORCAeTIA;Total_jobs;Blk_TIA;Blk_EIA;Blk_EIF;Blk_TIF;Blk_RoofsA;WD_HHIn;WD_HHHot;WD_HHNonPo;HH_GreyW;HH_BlackW;WD_In;WD_Out;WD_Hot;WW_ResG;WW_ResB;WD_COM;WD_HotCOM;WD_Office;WD_HotOff;WD_LI;WD_HotLI;WD_HI;WD_HotHI;WD_NRes;WD_HotNRes;WD_NResIrr;WW_ComG;WW_ComB;WW_IndG;WW_IndB;WD_POSIrr;Blk_WD;Blk_WDIrr;Blk_WDHot;Blk_WW;Blk_WWG;Blk_WWB;Blk_Loss;HasSWW;HasWWTP;HasCarved;SwwID_down;ModAvgElev;DEM_sink;SwwType;DesgFlow;dem_sink_1;blk_elev;edge;carved;has_ww;has_infra;has_pipe;has_wwtp;id_up;id_down;has_outlet;pipe_loc;type_sewer;basin_id;horiz_dist;elev_drop;terr_slope;near_wwtp;near_river;ww_inflow;peak_flow;PE;desg_flow;up_ids;down_ids;built_year;PE_blk;PE_proj;PE_ha;PE_total;pop_D;ww_D;infra_D;wwtp_D;outlet_D;pk_flow_D;PE_D;PE_Tot_D;des_flow_D;id;x;y;z;outlet;type;diameter;slope;sww_length;fill_ratio;y_max;y_n;angle;perimeter;top_width;h_radius;area;velocity;shear;froude;exact_flow;max_flow;min_flow;tau;tElev_up;tElev_down;terrain_sl;up_elevati;down_eleva;up_depth;down_depth;avg_depth;pump;drop;age;p_fail;failed;age_wwtp;p_fail_wwt;fail_wwtp
0;471;;3900.0;2300.0;[470, 472, 511, 512, 513];1.0;0.25;0.0;0.0;0.0;0.0;0.0;0.0;0.0;0.0;0.0;0.0;0.0;0.0;0.0;0.0;0.75;80.0;446.453125;450.0;442.0;;;;0;;0;;0.0;0.0;999.9;NA;0.0;0.0;0.0;0.0;0.0;0.0;0.0;0.0;0.0;0.0;0.0;0.0;0;0.0;2.383127299990112;1.0;2465.76;;1.9;2.0;1.0;2.0;3767.12;220.20096251908637;3411.421005396944;1.0;254.1809625190864;228.76286626717777;3512.9390374809136;Direct;2448.628;94.178;;;;;;;;;;;;;;;;;;;;;;;;;;;;;;;;;;;;;;;;;;;;;;;;;;;;;;;;;;;;;;;;;;0.0;2264.281925038173;2037.853732534356;0.050946343313359;0.056607048125954;440.40192503817275;476.62545999802245;142.98763799940673;285.97527599881346;238.31272999901122;238.31272999901122;0.953250919996045;0.0;0.285975275998813;0.476625459998022;0.476625459998022;0.0;0.0;0.0;0.0;0.0;0.0;0.0;0.0;0.0;0.0;0.0;0.0;0.0;0.0;0.0;0.0;0.347936585798556;0.0;0.104380975739567;6.958731715971121;0.173968292899278;0.173968292899278;0.034793658579856;1.0;0.0;-1.0;510.0;446.453125;0;2;0.050125005691078;0.0;446.453125;1;0.0;1.0;1.0;2.0;0.0;471.0;550.0;1.0;external;trunk;3.0;721.1102550927978;4.90625;0.006803744594325;671.0;0.0;0.0;0.000264791922221;0.0;0.000264791922221;[];[550, 671];2018.0;80.0;102.5945596013787;25.648639900344676;102.5945596013787;0.0;0.0;0.0;0.0;0.0;0.0;0.0;0.0;0.0;471;3900.0;2300.0;446.453125;0.0;external;0.125;0.048903744594325;721.9720352218502;0.07;0.0;0.0083;1.0457;0.0;0.0;0.0054;0.0004;0.7555;0.0;0.0;0.0003;0.0299;;2.586592981822367;446.453125;441.546875;0.006803744594325;445.328125;410.0631332605932;1.125;31.48374173940681;16.304370869703405;0.0;0.0;25;0.015294218783584675;0;0;0.0;0
1;510;;3500.0;2500.0;[468, 469, 470, 509, 511, 550, 551, 552];1.0;0.25;0.0;0.0;0.0;0.0;0.0;0.0;0.0;0.0;0.0;0.0;0.0;0.0;0.0;0.0;0.75;80.0;443.4375;445.0;442.0;;;;0;;0;;0.0;0.0;999.9;NA;0.0;0.0;0.0;0.0;0.0;0.0;0.0;0.0;0.0;0.0;0.0;0.0;0;0.0;2.332546105668701;1.0;2808.96;;1.3;2.0;1.0;2.0;3595.52;215.527260163788;3233.862372704064;1.0;262.76726016378797;236.49053414740916;3332.752739836212;Direct;2337.088;89.888;;;;;;;;;;;;;;;;;;;;;;;;;;;;;;;;;;;;;;;;;;;;;;;;;;;;;;;;;;;;;;;;;;0.0;2854.014520327576;2568.6130682948183;0.06421532670737;0.071350363008189;431.054520327576;466.5092211337402;139.95276634012205;279.9055326802441;233.2546105668701;233.2546105668701;0.93301844226748;0.0;0.279905532680244;0.46650922113374;0.46650922113374;0.0;0.0;0.0;0.0;0.0;0.0;0.0;0.0;0.0;0.0;0.0;0.0;0.0;0.0;0.0;0.0;0.34055173142763;0.0;0.102165519428289;6.8110346285526;0.170275865713815;0.170275865713815;0.034055173142763;1.0;0.0;-1.0;550.0;443.4375;0;2;0.050137964280554;0.0;443.4375;0;0.0;1.0;1.0;1.0;0.0;510.0;550.0;0.0;internal;collection;2.0;282.842712474619;1.890625;0.006684368790904;671.0;0.0;0.440065003846875;0.000259171789519;0.0;0.440324175636393;[511, 552, 512, 553, 594, 513, 554, 595, 514, 555, 596, 637, 515, 556, 597, 638, 677, 678, 679, 598, 639, 680, 676, 717, 718, 719, 720, 721, 760, 761, 762, 800, 801, 802, 803, 840, 841, 842, 844, 843];[550, 671];2018.0;80.0;102.5945596013787;25.648639900344676;203905.66126214416;0.0;0.0;0.0;0.0;0.0;0.0;0.0;0.0;0.0;510;3500.0;2500.0;443.4375;0.0;internal;0.4;0.048889804792976;283.1805378923764;0.59;0.0;0.2377;3.5208;0.0;0.0;0.1105;0.0778;5.6578;0.0;0.0065;0.4404;0.6651;;53.003764406394154;443.4375;441.546875;0.006684368790904;442.0375;428.2093750000001;1.4;13.33749999999992;7.36874999999996;6.356085958595202;0.0;25;0.015294218783584675;0;0;0.0;0
2;511;;3700.0;2500.0;[469, 470, 471, 510, 512, 551, 552, 553];1.0;0.75;0.0;0.0;0.0;0.0;0.0;0.0;0.0;0.0;0.0;0.0;0.0;0.0;0.0;0.0;0.25;3060.0;446.859375;450.0;444.0;;;;0;;0;;0.0;0.0;999.9;NA;0.0;0.0;0.0;0.0;0.0;0.0;0.0;0.0;0.0;0.0;0.0;0.0;0;0.0;2.808150598153793;1.0;6730.24;;2.8;56.0;1.0;56.0;415.5314285714286;129.73655763470526;156.0965435971448;2.0;177.49655763470525;159.74690187123474;238.03487093672334;Direct;166.21257142857144;27.009542857142858;;;;;;;;;;;;;;;;;;;;;;;;;;;;;;;;;;;;;;;;;;;;;;;;;;;;;;;;;;;;;;;;;;0.0;14528.607227543493;13075.746504789146;0.326893662619729;0.363215180688587;7265.247227543495;561.6301196307586;168.4890358892276;336.9780717784552;280.8150598153793;280.8150598153793;31.45128669932248;0.0;9.435386009796746;15.72564334966124;15.72564334966124;0.0;0.0;0.0;0.0;0.0;0.0;0.0;0.0;0.0;0.0;0.0;0.0;0.0;0.0;0.0;0.0;11.479719645252706;0.0;3.443915893575812;229.59439290505412;5.739859822626353;5.739859822626353;1.147971964525271;1.0;0.0;-1.0;551.0;446.859375;0;1;0.000436823426379;0.0;446.859375;0;0.0;1.0;1.0;1.0;0.0;511.0;510.0;0.0;internal;collection;2.0;200.0;3.421875;0.017109375;671.0;0.0;0.409467424208174;0.00873646852759;0.0;0.418203892735764;[512, 553, 513, 554, 595, 514, 555, 596, 637, 515, 556, 597, 638, 677, 678, 679, 598, 639, 680, 676, 717, 718, 719, 720, 721, 760, 761, 762, 800, 801, 802, 803, 840, 841, 842, 844, 843];[510, 550, 671];2018.0;3060.0;3924.2419047527355;981.0604761881839;192377.11059973727;0.0;0.0;0.0;0.0;0.0;0.0;0.0;0.0;0.0;511;3700.0;2500.0;446.859375;0.0;internal;0.4;0.048889804792976;200.23887864375342;0.57;0.0;0.23;3.4423;0.0;0.0;0.1086;0.0748;5.5924;0.0;0.0063;0.418;0.6651;;52.08815138388774;446.859375;443.4375;0.017109375;445.459375;435.6814140414048;1.4;7.756085958595179;4.57804297929759;12.187499999999943;0.0;25;0.015294218783584675;0;0;0.0;0
3;512;;3900.0;2500.0;[470, 471, 472, 511, 513, 552, 553, 554];1.0;0.75;0.25;0.0;0.0;0.0;0.0;0.0;0.0;0.0;0.0;0.0;0.0;0.0;0.0;0.0;0.0;2320.0;449.828125;450.0;447.0;;;;0;;0;;0.0;0.0;999.9;NA;0.0;0.0;0.0;0.0;0.0;0.0;0.0;0.0;0.0;0.0;0.0;0.0;0;0.0;2.45358188551161;1.0;5255.04;;1.5;48.0;1.0;48.0;515.52;226.71096622127274;122.04077637113741;1.0;266.67096622127275;240.00386959914547;248.84903377872723;Direct;216.51839999999999;28.86912;;;;;;;;;;;;;;;;;;;;;;;;;;;;;;;;;;;;;;100.0;1.0;557.38;1499.1599999999999;941.7799999999999;10000.0;7333.333333333333;3.0;1167.5066666666671;0.0;0.0;0.0;7650.756;8500.84;;;;;;;;;;;;;;;100.0;26338.666378621092;23704.799740758983;0.592619993518975;0.658466659465527;18215.459711954423;490.7163771023219;147.21491313069657;294.42982626139315;245.35818855116096;245.35818855116096;23.55438610091145;0.0;7.066315830273435;11.777193050455725;11.777193050455725;0.8;0.16;0.0;0.0;0.0;0.0;0.0;0.0;0.8;0.16;0.0;0.4;0.4;0.0;0.0;0.0;8.88935092683268;0.0;2.637605278049804;177.7870185366536;4.44467546341634;4.44467546341634;0.888935092683268;1.0;0.0;-1.0;552.0;449.828125;0;1;0.000338255362513;0.0;449.828125;0;0.0;1.0;1.0;1.0;0.0;512.0;511.0;0.0;external;collection;2.0;200.0;2.96875;0.01484375;671.0;0.0;0.0;0.006765107250253;0.0;0.006765107250253;[];[511, 510, 550, 671];2018.0;2331.2;2989.6054667841754;747.4013666960439;2989.6054667841754;0.0;0.0;0.0;0.0;0.0;0.0;0.0;0.0;0.0;512;3900.0;2500.0;449.828125;0.0;external;0.125;0.01484375;200.02203247783106;0.45;0.0;0.0558;2.9271;0.0;0.0;0.029;0.0053;1.2771;0.0;0.0005;0.0068;0.0165;;4.219664438624464;449.828125;446.859375;0.01484375;448.703125;445.734375;1.125;1.125;1.125;0.0;0.0;25;0.015294218783584675;0;0;0.0;0
4;513;;4100.0;2500.0;[471, 472, 473, 512, 514, 553, 554, 555];1.0;0.75;0.0;0.0;0.0;0.0;0.0;0.0;0.0;0.0;0.0;0.0;0.0;0.0;0.0;0.0;0.25;6320.0;450.015625;451.0;449.0;;;;0;;0;;0.0;0.0;999.9;NA;0.0;0.0;0.0;0.0;0.0;0.0;0.0;0.0;0.0;0.0;0.0;0.0;0;0.0;;;;;;;;;;;;;;;;;;;211.0;29198.4;1.5;29309.17967697245;26378.261709275204;1.0;0.0;690.8203230275503;110.77967697244821;;;;;;;;;;;;;;;;;;;;;;;;;;;;;;;;;;;;;;;;;;;;;;;;;;;;;;;;;0.0;29309.17967697245;26378.261709275204;0.65945654273188;0.732729491924311;29198.4;300.0;90.0;180.0;150.0;150.0;63.3;0.0;18.99;31.65;31.65;0.0;0.0;0.0;0.0;0.0;0.0;0.0;0.0;0.0;0.0;0.0;0.0;0.0;0.0;0.0;0.0;23.104499999999998;0.0;6.93135;462.09;11.552249999999999;11.552249999999999;2.31045;1.0;0.0;-1.0;553.0;450.015625;0;1;0.000879166666667;0.0;450.015625;0;0.0;1.0;1.0;1.0;0.0;513.0;553.0;0.0;external;collection;2.0;282.842712474619;1.515625;0.005358543576179;671.0;0.0;0.0;0.017583333333333;0.0;0.017583333333333;[];[553, 511, 510, 550, 671];2018.0;6320.0;8104.9702085089175;2026.2425521272294;8104.9702085089175;0.0;0.0;0.0;0.0;0.0;0.0;0.0;0.0;0.0;513;4100.0;2500.0;450.015625;0.0;external;0.16;0.005358543576179;282.846773216773;0.76;0.0;0.1208;4.2132;0.0;0.0;0.0483;0.0163;1.0793;0.0;0.0019;0.0176;0.0191;;2.540868369210479;450.015625;448.5;0.005358543576179;448.85562499999986;447.34;1.160000000000139;1.160000000000025;1.160000000000082;0.0;1.14e-13;25;0.015294218783584675;0;0;0.0;0
5;514;;4300.0;2500.0;[472, 473, 474, 513, 515, 554, 555, 556];1.0;0.5;0.0;0.0;0.0;0.0;0.0;0.0;0.0;0.0;0.0;0.0;0.0;0.0;0.0;0.0;0.5;1760.0;450.859375;453.0;449.0;;;;0;;0;;0.0;0.0;999.9;NA;0.0;0.0;0.0;0.0;0.0;0.0;0.0;0.0;0.0;0.0;0.0;0.0;0;0.0;2.467985948379962;1.0;4597.56;;1.7;36.0;1.0;36.0;427.8455555555555;114.02095081515424;194.37980007793755;2.0;163.86095081515424;147.47485573363883;263.98460474040127;Direct;171.13822222222223;26.52642444444444;;;;;;;;;;;;;;;;;;;;;;;;;;;;;;;;;;;;;;;;;;;;;;;;;;;;;;;;;;;;;;;;;;0.0;9531.634229345553;8578.470806410998;0.214461770160275;0.238290855733639;4104.754229345553;493.59718967599235;148.0791569027977;296.1583138055954;246.79859483799618;246.79859483799618;17.769498828335724;0.0;5.330849648500717;8.884749414167862;8.884749414167862;0.0;0.0;0.0;0.0;0.0;0.0;0.0;0.0;0.0;0.0;0.0;0.0;0.0;0.0;0.0;0.0;6.48586707234254;0.0;1.945760121702762;129.7173414468508;3.24293353617127;3.24293353617127;0.648586707234254;1.0;0.0;-1.0;554.0;450.859375;0;1;0.000246798594838;0.0;450.859375;0;0.0;1.0;1.0;1.0;0.0;514.0;554.0;0.0;internal;collection;2.0;282.842712474619;0.953125;0.003369805754092;671.0;0.0;0.007420320867433;0.00493597189676;0.0;0.012356292764193;[515, 556];[554, 553, 511, 510, 550, 671];2018.0;1760.0;2257.0803112303315;564.2700778075829;5565.754858374795;0.0;0.0;0.0;0.0;0.0;0.0;0.0;0.0;0.0;514;4300.0;2500.0;450.859375;0.0;internal;0.125;0.038504173944299;283.052302080182;0.48;0.0;0.0599;3.0588;0.0;0.0;0.0304;0.0058;2.1239;0.0;0.0005;0.0123;0.0265;;11.484631191508795;450.859375;449.90625;0.003369805754092;449.73437499999994;438.8437499999999;1.125000000000057;11.062500000000114;6.093750000000085;0.0;0.0;25;0.015294218783584675;0;0;0.0;0
6;515;;4500.0;2500.0;[473, 474, 475, 514, 516, 555, 556, 557];1.0;0.25;0.0;0.0;0.0;0.0;0.0;0.0;0.0;0.0;0.25;0.0;0.0;0.25;0.0;0.0;0.25;1360.0;454.078125;462.0;450.0;;;;0;;0;;0.0;0.0;999.9;GF;0.0;10000.0;10000.0;0.0;4000.0;0.0;0.0;0.0;0.0;0.0;0.0;0.0;0;0.0;;;;;;;;;;;;;;;;;;;46.0;6283.2;1.5;9015.96;8114.364;1.0;0.0;984.04;2732.76;;;;;;;;;;;;;;;;;;;;;;;;;;;;;;;;;;;;;;;;;;;;;;;;;;;;;;;;;0.0;9015.96;8114.364;0.2028591;0.225399;6283.2;300.0;90.0;180.0;150.0;150.0;13.8;0.0;4.14;6.9;6.9;0.0;0.0;0.0;0.0;0.0;0.0;0.0;0.0;0.0;0.0;0.0;0.0;0.0;0.0;0.0;0.0;5.037000000000001;0.0;1.5111;100.74000000000001;2.5185;2.5185;0.5037;1.0;0.0;-1.0;555.0;454.078125;0;1;0.000191666666667;0.0;454.078125;0;0.0;1.0;1.0;1.0;0.0;515.0;514.0;0.0;external;collection;2.0;200.0;3.21875;0.01609375;671.0;0.0;0.0;0.003833333333333;0.0;0.003833333333333;[];[514, 554, 553, 511, 510, 550, 671];2018.0;1360.0;1744.107513223438;436.0268783058595;1744.107513223438;0.0;0.0;0.0;0.0;0.0;0.0;0.0;0.0;0.0;515;4500.0;2500.0;454.078125;0.0;external;0.125;0.01609375;200.0258992019846;0.32;0.0;0.0402;2.4114;0.0;0.0;0.0226;0.0034;1.127;0.0;0.0004;0.0038;0.0172;;3.569062793792622;454.078125;450.859375;0.01609375;452.953125;449.734375;1.125;1.125;1.125;0.0;0.0;25;0.015294218783584675;0;0;0.0;0
7;550;;3300.0;2700.0;[508, 509, 510, 549, 551, 590, 591, 592];1.0;0.0;0.25;0.0;0.0;0.0;0.0;0.0;0.0;0.0;0.0;0.0;0.0;0.0;0.0;0.0;0.75;600.0;441.546875;443.0;440.0;;;;0;;0;;0.0;0.0;999.9;NA;0.0;0.0;0.0;0.0;0.0;0.0;0.0;0.0;0.0;0.0;0.0;0.0;0;0.0;;;;;;;;;;;;;;;;;;;;;;;;;;;;;;;;;;;;;;;;;;;;;;;;;;;;;;;;100.0;1.0;269.21999999999997;1480.71;1211.49;10000.0;7333.333333333333;3.0;1185.9566666666678;0.0;0.0;0.0;7667.361000000001;8519.29;;;;;;;;;;;;;;;100.0;9730.78;8757.702000000001;0.21894255;0.2432695;7333.333333333333;0.0;0.0;0.0;0.0;0.0;0.0;0.0;0.0;0.0;0.0;0.8;0.16;0.0;0.0;0.0;0.0;0.0;0.0;0.8;0.16;0.0;0.4;0.4;0.0;0.0;0.0;0.292;0.0;0.0584;5.84;0.146;0.146;0.0292;1.0;0.0;-1.0;591.0;441.546875;0;2;0.050149075391665;0.0;441.546875;0;0.0;1.0;1.0;2.0;0.0;550.0;671.0;1.0;internal;trunk;3.0;721.1102550927978;5.8125;0.008060487226398;671.0;0.0;0.482371436223091;0.000222222222222;0.0;0.482593658445313;[471, 510, 591, 511, 552, 551, 592, 633, 512, 553, 594, 593, 634, 513, 554, 595, 514, 555, 596, 637, 515, 556, 597, 638, 677, 678, 679, 598, 639, 680, 676, 717, 718, 719, 720, 721, 760, 761, 762, 800, 801, 802, 803, 840, 841, 842, 844, 843];[671];2018.0;611.2;783.8224353545334;195.95560883863334;223063.1433765096;0.0;0.0;0.0;0.0;0.0;0.0;0.0;0.0;0.0;550;3300.0;2700.0;441.546875;0.0;internal;0.4;0.048889804792976;721.9715442914642;0.63;0.0;0.2526;3.674;0.0;0.0;0.1138;0.0836;5.7699;0.0;0.0069;0.4824;0.6651;;54.58759279057288;441.546875;435.734375;0.008060487226398;440.146875;404.8919353943;1.4;30.842439605700008;16.121219802850003;30.083741739406832;0.0;25;0.015294218783584675;0;0;0.0;0
8;551;;3500.0;2700.0;[509, 510, 511, 550, 552, 591, 592, 593];1.0;1.0;0.0;0.0;0.0;0.0;0.0;0.0;0.0;0.0;0.0;0.0;0.0;0.0;0.0;0.0;0.0;2760.0;444.5625;451.0;443.0;;;;1;Aa (Uster);0;;0.0;0.0;999.9;NA;0.0;0.0;0.0;0.0;0.0;0.0;0.0;0.0;0.0;0.0;0.0;0.0;0;0.0;2.764824097614067;2.0;8657.92;;1.9;50.0;1.0;50.0;626.8416000000001;255.46974661953985;248.6596969291468;1.0;289.18974661953985;260.27077195758585;337.65185338046024;Direct;269.54188800000003;34.476288000000004;;;;;;;;;;;;;;;;;;;;;;;;;;;;;;;;;;;;;;;;;;;;;;;;;;;;;;;;;;;;;;;;;;0.0;20952.927330976992;18857.634597879292;0.471440864946982;0.523823183274425;12773.487330976992;552.9648195228135;165.88944585684408;331.77889171368815;276.48240976140676;276.48240976140676;27.648240976140674;0.0;8.294472292842203;13.824120488070337;13.824120488070337;0.0;0.0;0.0;0.0;0.0;0.0;0.0;0.0;0.0;0.0;0.0;0.0;0.0;0.0;0.0;0.0;10.091607956291346;0.0;3.027482386887404;201.83215912582693;5.045803978145673;5.045803978145673;1.009160795629135;1.0;0.0;-1.0;591.0;444.5625;0;2;0.03214845441076;0.0;444.5625;0;0.0;1.0;1.0;1.0;0.0;551.0;591.0;0.0;internal;collection;2.0;282.842712474619;2.15625;0.007623494984667;671.0;0.0;0.009722222222222;0.007680066937817;0.0;0.017402289160039;[593];[591, 550, 671];2018.0;2760.0;3539.5123062475654;884.8780765618914;7649.450363878797;0.0;0.0;0.0;0.0;0.0;0.0;0.0;0.0;0.0;551;3500.0;2700.0;444.5625;0.0;internal;0.125;0.036239222535811;283.02837755249914;0.6;0.0;0.0752;3.5523;0.0;0.0;0.0348;0.0077;2.253;0.0;0.0006;0.0174;0.0258;;12.358203043683067;444.5625;442.40625;0.007623494984667;443.4374999999999;433.1874999999998;1.125000000000114;9.218750000000227;5.171875000000171;0.0;0.0;25;0.015294218783584675;0;0;0.0;0
9;552;;3700.0;2700.0;[510, 511, 512, 551, 553, 592, 593, 594];1.0;1.0;0.0;0.0;0.0;0.0;0.0;0.0;0.0;0.0;0.0;0.0;0.0;0.0;0.0;0.0;0.0;7220.0;447.296875;452.0;445.0;;;;1;,Aa (Uster);0;;0.0;0.0;999.9;NA;0.0;0.0;0.0;0.0;0.0;0.0;0.0;0.0;0.0;0.0;0.0;0.0;0;0.0;;;;;;;;;;;;;;;;;;;241.0;33356.4;1.5;36653.6178;32988.25602;1.0;0.0;3346.3822;3297.2177999999985;;;;;;;;;;;;;;;;;;;;;;;;;;;;;;;;;;;;;;;;;;;;;;;;;;;;;;;;;0.0;36653.6178;32988.25602;0.8247064005;0.916340445;33356.4;300.0;90.0;180.0;150.0;150.0;72.3;0.0;21.69;36.15;36.15;0.0;0.0;0.0;0.0;0.0;0.0;0.0;0.0;0.0;0.0;0.0;0.0;0.0;0.0;0.0;0.0;26.3895;0.0;7.91685;527.7900000000001;13.19475;13.19475;2.63895;1.0;0.0;-1.0;551.0;447.296875;0;2;0.030841516526379;0.0;447.296875;0;0.0;1.0;1.0;1.0;0.0;552.0;510.0;0.0;internal;collection;2.0;282.842712474619;3.859375;0.013644951168209;671.0;0.0;0.001777777777778;0.020083333333333;0.0;0.021861111111111;[594];[510, 550, 671];2018.0;7220.0;9259.159004024428;2314.789751006107;11425.956102805547;0.0;0.0;0.0;0.0;0.0;0.0;0.0;0.0;0.0;552;3700.0;2700.0;447.296875;0.0;internal;0.16;0.020218834524553;282.9005197972646;0.55;0.0;0.0882;3.3474;0.0;0.0;0.0424;0.0114;1.9224;0.0;0.001;0.0218;0.0372;;8.418283978238954;447.296875;443.4375;0.013644951168209;446.136875;440.4181249999999;1.160000000000025;3.019375000000082;2.089687500000053;0.0;0.034999999999968;25;0.015294218783584675;0;0;0.0;0
10;553;;3900.0;2700.0;[511, 512, 513, 552, 554, 593, 594, 595];1.0;0.75;0.0;0.0;0.25;0.0;0.0;0.0;0.0;0.0;0.0;0.0;0.0;0.0;0.0;0.0;0.0;5460.0;448.5;450.0;446.0;;;;1;,Aa (Uster);0;;0.0;0.0;999.9;NA;0.0;0.0;0.0;0.0;0.0;0.0;0.0;0.0;0.0;0.0;0.0;0.0;0;0.0;;;;;;;;;;;;;;;;;;;183.0;25225.2;1.5;27374.10107697245;24636.690969275205;1.0;0.0;2625.89892302755;2148.901076972449;100.0;1.0;421.3;1627.75;1206.45;10000.0;3500.0;2.0;1890.0;1196.0;1786.25;0.0;5927.400000000001;6586.0;;;;;;;;;;;;;;;;;;;;;;;;;;;;;;;;;;;;;;;;;;;100.0;35166.55107697245;31649.895969275207;0.79124739923188;0.879163776924311;28725.2;300.0;90.0;180.0;150.0;150.0;54.9;0.0;16.47;27.45;27.45;0.0;0.0;0.0;0.0;1.6;0.32;0.0;0.0;1.6;0.32;0.0;0.0;0.0;0.8;0.8;0.0;20.622500000000002;0.0;6.12835;412.45000000000005;10.311250000000001;10.311250000000001;2.06225;1.0;0.0;-1.0;552.0;448.5;0;2;0.02941020560831;0.0;448.5;0;0.0;1.0;1.0;1.0;0.0;553.0;511.0;0.0;internal;collection;2.0;282.842712474619;1.640625;0.005800485314421;671.0;0.0;0.387007872513476;0.015694444444444;0.0;0.402702316957921;[513, 554, 595, 514, 555, 596, 637, 515, 556, 597, 638, 677, 678, 679, 598, 639, 680, 676, 717, 718, 719, 720, 721, 760, 761, 762, 800, 801, 802, 803, 840, 841, 842, 844, 843];[511, 510, 550, 671];2018.0;5482.4;7030.805169482483;1757.7012923706206;185463.26322820032;0.0;0.0;0.0;0.0;0.0;0.0;0.0;0.0;0.0;553;3900.0;2700.0;448.5;0.0;internal;0.4;0.048889804792976;283.1805378923764;0.56;0.0;0.2246;3.3879;0.0;0.0;0.1072;0.0726;5.544;0.0;0.0062;0.4028;0.6651;;51.41283512552805;448.5;446.859375;0.005800485314421;447.1;433.2718750000001;1.399999999999977;13.58749999999992;7.493749999999949;10.368124999999964;0.0;25;0.015294218783584675;0;0;0.0;0
11;554;;4100.0;2700.0;[512, 513, 514, 553, 555, 594, 595, 596];1.0;0.75;0.0;0.0;0.25;0.0;0.0;0.0;0.0;0.0;0.0;0.0;0.0;0.0;0.0;0.0;0.0;6680.0;449.90625;451.0;448.0;;;;1;Aa (Uster);0;;0.0;0.0;999.9;NA;0.0;0.0;0.0;0.0;0.0;0.0;0.0;0.0;0.0;0.0;0.0;0.0;0;0.0;;;;;;;;;;;;;;;;;;;223.0;15430.8;1.5;26894.312676972448;24204.881409275204;2.0;0.0;3105.6873230275505;11463.51267697245;100.0;1.0;404.6700000000001;1406.71;1002.04;10000.0;3500.0;2.0;1890.0;1196.0;2007.2900000000009;0.0;5927.400000000001;6586.0;;;;;;;;;;;;;;;;;;;;;;;;;;;;;;;;;;;;;;;;;;;100.0;34482.35267697245;31034.117409275204;0.77585293523188;0.862058816924311;18930.8;300.0;90.0;180.0;150.0;150.0;66.9;0.0;20.07;33.45;33.45;0.0;0.0;0.0;0.0;1.6;0.32;0.0;0.0;1.6;0.32;0.0;0.0;0.0;0.8;0.8;0.0;25.0025;0.0;7.44235;500.05;12.50125;12.50125;2.50025;1.0;0.0;-1.0;553.0;449.90625;0;2;0.027679650052755;0.0;449.90625;0;0.0;1.0;1.0;1.0;0.0;554.0;553.0;0.0;internal;collection;2.0;200.0;1.40625;0.00703125;671.0;0.0;0.105606292764193;0.019027777777778;0.0;0.124634070541971;[514, 555, 596, 515, 556, 597, 638, 598, 639, 680];[553, 511, 510, 550, 671];2018.0;6702.4;8595.372203403507;2148.843050850877;59014.44257390506;0.0;0.0;0.0;0.0;0.0;0.0;0.0;0.0;0.0;554;4100.0;2700.0;449.90625;0.0;internal;0.315;0.010496116283238;200.01101654229262;0.65;0.0;0.2063;3.7719;0.0;0.0;0.0911;0.0541;2.304;0.0;0.0062;0.1246;0.163;;9.375686576676712;449.90625;448.5;0.00703125;448.59125;446.4920267433524;1.314999999999998;2.007973256647574;1.661486628323786;9.747500000000116;0.0;25;0.015294218783584675;0;0;0.0;0
12;555;;4300.0;2700.0;[513, 514, 515, 554, 556, 595, 596, 597];1.0;1.0;0.0;0.0;0.0;0.0;0.0;0.0;0.0;0.0;0.0;0.0;0.0;0.0;0.0;0.0;0.0;7740.0;452.625;455.0;449.0;;;;1;Aa (Uster);0;;0.0;0.0;999.9;NA;0.0;0.0;0.0;0.0;0.0;0.0;0.0;0.0;0.0;0.0;0.0;0.0;0;0.0;;;;;;;;;;;;;;;;;;;259.0;35758.8;1.5;36232.306;32609.075399999998;1.0;0.0;3767.6940000000004;473.5059999999967;;;;;;;;;;;;;;;;;;;;;;;;;;;;;;;;;;;;;;;;;;;;;;;;;;;;;;;;;0.0;36232.306;32609.075399999998;0.815226885;0.90580765;35758.8;300.0;90.0;180.0;150.0;150.0;77.7;0.0;23.31;38.85;38.85;0.0;0.0;0.0;0.0;0.0;0.0;0.0;0.0;0.0;0.0;0.0;0.0;0.0;0.0;0.0;0.0;28.360500000000002;0.0;8.508149999999999;567.21;14.180250000000001;14.180250000000001;2.83605;1.0;0.0;-1.0;554.0;452.625;0;2;0.001270833333333;0.0;452.625;0;0.0;1.0;1.0;1.0;0.0;555.0;554.0;0.0;external;collection;2.0;200.0;2.71875;0.01359375;671.0;0.0;0.0;0.021583333333333;0.0;0.021583333333333;[];[554, 553, 511, 510, 550, 671];2018.0;7740.0;9926.02364143339;2481.5059103583476;9926.02364143339;0.0;0.0;0.0;0.0;0.0;0.0;0.0;0.0;0.0;555;4300.0;2700.0;452.625;0.0;external;0.16;0.01359375;200.01847815030115;0.62;0.0;0.0994;3.6316;0.0;0.0;0.0452;0.0131;1.6434;0.0;0.0013;0.0216;0.0305;;6.025505998799883;452.625;449.90625;0.01359375;451.465;448.74625;1.160000000000025;1.160000000000025;1.160000000000025;0.0;0.0;25;0.015294218783584675;0;0;0.0;0
13;556;;4500.0;2700.0;[514, 515, 516, 555, 557, 596, 597, 598];1.0;0.75;0.0;0.0;0.0;0.0;0.0;0.0;0.0;0.0;0.25;0.0;0.0;0.0;0.0;0.0;0.0;1220.0;461.75;466.0;454.0;;;;0;;0;;0.0;0.0;999.9;NA;0.0;10000.0;10000.0;0.0;4000.0;0.0;0.0;0.0;0.0;0.0;0.0;0.0;0;0.0;1.898993400405872;1.0;6657.24;;2.1;34.0;1.0;34.0;686.5517647058824;175.46699019750253;413.50820152519617;1.0;208.6669901975025;187.80029117775226;477.8847745083799;Direct;329.54484705882356;28.835174117647064;;;;;;;;;;;;;;;;;;;;;;;;;;;;;;;;;;;;;;;;;;;;;;;;;;;;;;;;;;;;;;;;;;0.0;12144.997666715084;10930.497900043578;0.273262447501089;0.303624941667877;5965.877666715086;379.7986800811743;113.9396040243523;227.8792080487046;189.89934004058716;189.89934004058716;12.913155122759926;0.0;3.873946536827979;6.456577561379963;6.456577561379963;0.0;0.0;0.0;0.0;0.0;0.0;0.0;0.0;0.0;0.0;0.0;0.0;0.0;0.0;0.0;0.0;4.713301619807373;0.0;1.413990485942212;94.26603239614747;2.356650809903686;2.356650809903686;0.471330161980737;1.0;0.0;-1.0;596.0;461.75;0;1;0.000179349376705;0.0;461.75;0;0.0;1.0;1.0;1.0;0.0;556.0;514.0;0.0;external;collection;2.0;282.842712474619;10.890625;0.038504173944299;671.0;0.0;0.0;0.0035869875341;0.0;0.0035869875341;[];[514, 554, 553, 511, 510, 550, 671];2018.0;1220.0;1564.5670339210253;391.1417584802563;1564.5670339210253;0.0;0.0;0.0;0.0;0.0;0.0;0.0;0.0;0.0;556;4500.0;2700.0;461.75;0.0;external;0.125;0.038504173944299;283.052302080182;0.25;0.0;0.031;2.0854;0.0;0.0;0.0182;0.0024;1.5088;0.0;0.0002;0.0036;0.0265;;6.876541218026569;461.75;450.859375;0.038504173944299;460.625;449.73437499999994;1.125;1.125000000000057;1.125000000000028;0.0;0.0;25;0.015294218783584675;0;0;0.0;0
14;591;;3300.0;2900.0;[549, 550, 551, 590, 592, 631, 632, 633];1.0;0.75;0.0;0.0;0.0;0.0;0.0;0.0;0.0;0.0;0.0;0.0;0.0;0.0;0.0;0.0;0.25;680.0;442.40625;452.0;440.0;;;;1;Aa (Uster);0;;0.0;0.0;999.9;NA;0.0;0.0;0.0;0.0;0.0;0.0;0.0;0.0;0.0;0.0;0.0;0.0;0;0.0;2.712266082721051;1.0;6217.5599999999995;;2.1;14.0;1.0;14.0;1698.7457142857145;250.61338604342515;1331.5511540580603;1.0;290.31338604342517;261.28204743908265;1408.4323282422893;Direct;900.3352285714287;50.96237142857143;;;;;;;;;;;;;;;;;;;;;;;;;;;;;;;;;;;;;;;;;;;;;;;;;;;;;;;;;;;;;;;;;;0.0;8669.987404607951;7802.988664147157;0.195074716603679;0.216749685115199;3508.587404607952;542.4532165442102;162.73596496326306;325.4719299265261;271.2266082721051;271.2266082721051;7.594345031618944;0.0;2.278303509485683;3.797172515809472;3.797172515809472;0.0;0.0;0.0;0.0;0.0;0.0;0.0;0.0;0.0;0.0;0.0;0.0;0.0;0.0;0.0;0.0;2.771935936540914;0.0;0.831580780962274;55.43871873081828;1.385967968270457;1.385967968270457;0.277193593654091;1.0;0.0;-1.0;672.0;442.40625;0;2;0.083516538777647;0.0;442.40625;0;0.0;1.0;1.0;1.0;0.0;591.0;550.0;0.0;internal;collection;2.0;200.0;0.859375;0.004296875;671.0;0.0;0.039672928377916;0.002109540286561;0.0;0.041782468664476;[551, 592, 633, 593, 634];[550, 671];2018.0;680.0;872.053756611719;218.01343915292975;18271.065119409537;0.0;0.0;0.0;0.0;0.0;0.0;0.0;0.0;0.0;591;3300.0;2900.0;442.40625;0.0;internal;0.16;0.034305727431004;200.11765368748158;0.72;0.0;0.1147;4.0394;0.0;0.0;0.0477;0.0154;2.7084;0.0;0.0011;0.0418;0.0484;;16.067527645350648;442.40625;441.546875;0.004296875;441.24625;434.38510451379915;1.160000000000025;7.161770486200851;4.160885243100438;8.058750000000202;0.0;25;0.015294218783584675;0;0;0.0;0
15;592;;3500.0;2900.0;[550, 551, 552, 591, 593, 632, 633, 634];1.0;0.75;0.0;0.0;0.25;0.0;0.0;0.0;0.0;0.0;0.0;0.0;0.0;0.0;0.0;0.0;0.0;2180.0;451.625;457.0;443.0;;;;1;Aa (Uster);0;;0.0;0.0;999.9;NA;0.0;0.0;0.0;0.0;0.0;0.0;0.0;0.0;0.0;0.0;0.0;0.0;0;0.0;2.723996668240054;1.0;5626.84;;1.7;42.0;1.0;42.0;580.3133333333333;251.69729214538106;151.96664669443032;1.0;298.15729214538106;268.34156293084294;282.1560411879522;Direct;243.73159999999996;32.497546666666665;;;;;;;;;;100.0;1.0;365.18;1499.1599999999999;1133.9799999999998;10000.0;3500.0;2.0;1890.0;1196.0;1914.8400000000001;0.0;5927.400000000001;6586.0;;;;;;;;;;;;;;;;;;;;;;;;;;;;;;;;;;;;;;;;;;;100.0;24559.066270106003;22103.1596430954;0.552578991077385;0.61397665675265;14071.286270106004;544.7993336480109;163.43980009440327;326.87960018880653;272.39966682400546;272.39966682400546;22.88157201321646;0.0;6.864471603964938;11.44078600660823;11.44078600660823;0.0;0.0;0.0;0.0;1.6;0.32;0.0;0.0;1.6;0.32;0.0;0.0;0.0;0.8;0.8;0.0;8.935773784824008;0.0;2.622332135447202;178.71547569648015;4.467886892412004;4.467886892412004;0.893577378482401;1.0;0.0;-1.0;591.0;451.625;0;2;0.000561281675806;0.0;451.625;0;0.0;1.0;1.0;1.0;0.0;592.0;591.0;0.0;internal;collection;2.0;200.0;9.21875;0.04609375;671.0;0.0;0.004425196845786;0.006800436670338;0.0;0.011225633516124;[634];[591, 550, 671];2018.0;2202.4;2824.428225825956;706.107056456489;4722.427578451462;0.0;0.0;0.0;0.0;0.0;0.0;0.0;0.0;0.0;592;3500.0;2900.0;451.625;0.0;internal;0.125;0.034305727431004;200.11765368748158;0.47;0.0;0.0586;3.0181;0.0;0.0;0.03;0.0057;1.9858;0.0;0.0005;0.0112;0.0251;;10.087536826286309;451.625;442.40625;0.04609375;448.1423954862008;441.28125;3.482604513799174;1.125;2.303802256899587;0.0;2.35760451379906;25;0.015294218783584675;0;0;0.0;0
16;593;;3700.0;2900.0;[551, 552, 553, 592, 594, 633, 634, 635];1.0;0.5;0.0;0.0;0.5;0.0;0.0;0.0;0.0;0.0;0.0;0.0;0.0;0.0;0.0;0.0;0.0;3160.0;454.8125;459.0;451.0;;;;0;;0;;0.0;0.0;999.9;NA;0.0;0.0;0.0;0.0;0.0;0.0;0.0;0.0;0.0;0.0;0.0;0.0;0;0.0;;;;;;;;;;;;;;;;;;;106.0;14599.2;1.5;18099.37897505076;16289.441077545685;1.0;0.0;1900.6210249492387;3500.1789750507605;200.0;1.0;631.9082386916236;2225.4159710444137;1593.50773235279;20000.0;7000.0;2.0;3780.0;2392.0;4602.5840289555845;0.0;11854.800000000001;13172.0;;;;;;;;;;;;;;;;;;;;;;;;;;;;;;;;;;;;;;;;;;;200.0;32864.88670740355;29578.3980366632;0.73945995091658;0.821622167685089;21599.2;300.0;90.0;180.0;150.0;150.0;31.8;0.0;9.54;15.9;15.9;0.0;0.0;0.0;0.0;3.2;0.64;0.0;0.0;3.2;0.64;0.0;0.0;0.0;1.6;1.6;0.0;12.775;0.0;3.7157;255.5;6.3875;6.3875;1.2775;1.0;0.0;-1.0;551.0;454.8125;0;1;0.000486111111111;0.0;454.8125;0;0.0;1.0;1.0;1.0;0.0;593.0;551.0;0.0;external;collection;2.0;282.842712474619;10.25;0.036239222535811;671.0;0.0;0.0;0.009722222222222;0.0;0.009722222222222;[];[551, 591, 550, 671];2018.0;3204.8;4109.9380576312315;1027.4845144078079;4109.9380576312315;0.0;0.0;0.0;0.0;0.0;0.0;0.0;0.0;0.0;593;3700.0;2900.0;454.8125;0.0;external;0.125;0.036239222535811;283.02837755249914;0.43;0.0;0.0533;2.8452;0.0;0.0;0.028;0.005;1.9523;0.0;0.0004;0.0097;0.0258;;9.969124751312691;454.8125;444.5625;0.036239222535811;453.6875;443.4374999999999;1.125;1.125000000000114;1.125000000000057;0.0;0.0;25;0.015294218783584675;0;0;0.0;0
17;594;;3900.0;2900.0;[552, 553, 554, 593, 595, 634, 635, 636];1.0;0.0;0.0;0.0;1.0;0.0;0.0;0.0;0.0;0.0;0.0;0.0;0.0;0.0;0.0;0.0;0.0;1600.0;453.015625;457.0;449.0;;;;1;;0;;0.0;0.0;999.9;NA;0.0;0.0;0.0;0.0;0.0;0.0;0.0;0.0;0.0;0.0;0.0;0.0;0;0.0;;;;;;;;;;;;;;;;;;;;;;;;;;;;400.0;1.0;899.9899999999999;3404.3099999999995;2504.3199999999997;40000.0;14000.0;2.0;7560.0;4784.0;10251.690000000002;0.0;23709.600000000002;26344.0;;;;;;;;;;;;;;;;;;;;;;;;;;;;;;;;;;;;;;;;;;;400.0;28848.32;25963.488;0.6490872;0.721208;14000.0;0.0;0.0;0.0;0.0;0.0;0.0;0.0;0.0;0.0;0.0;0.0;0.0;0.0;0.0;6.4;1.28;0.0;0.0;6.4;1.28;0.0;0.0;0.0;3.2;3.2;0.0;2.336;0.0;0.4672;46.72;1.168;1.168;0.2336;1.0;0.0;-1.0;552.0;453.015625;0;1;8.8888888889e-05;0.0;453.015625;0;0.0;1.0;1.0;1.0;0.0;594.0;552.0;0.0;external;collection;2.0;282.842712474619;5.71875;0.020218834524553;671.0;0.0;0.0;0.001777777777778;0.0;0.001777777777778;[];[552, 510, 550, 671];2018.0;1689.6;2166.797098781118;541.6992746952795;2166.797098781118;0.0;0.0;0.0;0.0;0.0;0.0;0.0;0.0;0.0;594;3900.0;2900.0;453.015625;0.0;external;0.125;0.020218834524553;282.9005197972646;0.21;0.0;0.0256;1.8799;0.0;0.0;0.0154;0.0018;0.9785;0.0;0.0002;0.0018;0.0192;;3.057335657511084;453.015625;447.296875;0.020218834524553;451.890625;446.17187499999994;1.125;1.125000000000057;1.125000000000028;0.0;0.0;25;0.015294218783584675;0;0;0.0;0
18;595;;4100.0;2900.0;[553, 554, 555, 594, 596, 635, 636, 637];1.0;0.0;0.0;0.0;0.75;0.0;0.0;0.0;0.0;0.0;0.0;0.0;0.0;0.0;0.25;0.0;0.0;1200.0;451.875;454.0;450.0;;;;0;;0;;0.0;0.0;999.9;NA;0.0;0.0;0.0;0.0;0.0;0.0;0.0;0.0;0.0;0.0;0.0;0.0;0;0.0;;;;;;;;;;;;;;;;;;;;;;;;;;;;300.0;1.0;507.6152422706632;2707.2812921102036;2199.6660498395404;30000.0;10500.0;2.0;5670.0;3587.9999999999995;7534.718707889796;0.0;17782.2;19758.0;;;;;;;;;;;;;;;;;;;;;;;;;;;;;;;;;;;;;;;;;;;300.0;21957.66604983954;19761.899444855586;0.49404748612139;0.548941651245988;10500.0;0.0;0.0;0.0;0.0;0.0;0.0;0.0;0.0;0.0;0.0;0.0;0.0;0.0;0.0;4.8;0.96;0.0;0.0;4.8;0.96;0.0;0.0;0.0;2.4;2.4;0.0;1.752;0.0;0.3504;35.04;0.876;0.876;0.1752;1.0;0.0;-1.0;553.0;451.875;0;1;6.6666666667e-05;0.0;451.875;0;0.0;1.0;1.0;1.0;0.0;595.0;553.0;0.0;internal;collection;2.0;282.842712474619;3.375;0.011932426932523;671.0;0.0;0.243457135304839;0.001333333333333;0.0;0.244790468638172;[637, 677, 678, 679, 676, 717, 718, 719, 720, 721, 760, 761, 762, 800, 801, 802, 803, 840, 841, 842, 844, 843];[553, 511, 510, 550, 671];2018.0;1267.2;1625.0978240858387;406.2744560214597;111313.04527630385;0.0;0.0;0.0;0.0;0.0;0.0;0.0;0.0;0.0;595;4100.0;2900.0;451.875;0.0;internal;0.315;0.048889804792976;283.1805378923764;0.61;0.0;0.1935;3.6023;0.0;0.0;0.0885;0.0502;4.8778;0.0;0.004;0.2449;0.3518;;42.430509959705255;451.875;448.5;0.011932426932523;450.56;436.73187500000006;1.315;11.76812499999994;6.54156249999997;11.343749999999943;0.0;25;0.015294218783584675;0;0;0.0;0
19;596;;4300.0;2900.0;[554, 555, 556, 595, 597, 636, 637, 638];1.0;0.75;0.0;0.0;0.25;0.0;0.0;0.0;0.0;0.0;0.0;0.0;0.0;0.0;0.0;0.0;0.0;5640.0;452.3125;454.0;449.0;;;;1;Aa (Uster);0;;0.0;0.0;999.9;NA;0.0;0.0;0.0;0.0;0.0;0.0;0.0;0.0;0.0;0.0;0.0;0.0;0;0.0;;;;;;;;;;;;;;;;;;;189.0;26056.8;1.5;27310.65587697245;24579.590289275206;1.0;0.0;2689.3441230275503;1253.8558769724502;100.0;1.0;325.03999999999996;1682.5600000000002;1357.5200000000002;10000.0;3500.0;2.0;1890.0;1196.0;1731.4400000000005;0.0;5927.400000000001;6586.0;;;;;;;;;;;;;;;;;;;;;;;;;;;;;;;;;;;;;;;;;;;100.0;35254.175876972455;31728.758289275207;0.79321895723188;0.881354396924311;29556.8;300.0;90.0;180.0;150.0;150.0;56.7;0.0;17.01;28.35;28.35;0.0;0.0;0.0;0.0;1.6;0.32;0.0;0.0;1.6;0.32;0.0;0.0;0.0;0.8;0.8;0.0;21.279500000000002;0.0;6.325450000000001;425.59000000000003;10.639750000000001;10.639750000000001;2.12795;1.0;0.0;-1.0;554.0;452.3125;0;2;0.025210629235695;0.0;452.3125;0;0.0;1.0;1.0;1.0;0.0;596.0;554.0;0.0;internal;collection;2.0;282.842712474619;2.40625;0.008507378461151;671.0;0.0;0.055472222222222;0.016194444444444;0.0;0.071666666666667;[597, 638, 598, 639, 680];[554, 553, 511, 510, 550, 671];2018.0;5662.4;7261.642928585585;1815.4107321463962;34927.29187069337;0.0;0.0;0.0;0.0;0.0;0.0;0.0;0.0;0.0;596;4300.0;2900.0;452.3125;0.0;internal;0.25;0.010496116283238;282.8582922181397;0.69;0.0;0.1713;3.9011;0.0;0.0;0.0735;0.0359;1.998;0.0;0.0039;0.0717;0.088;;7.571340369900144;452.3125;449.90625;0.008507378461151;451.0625;448.09374999999994;1.25;1.812500000000057;1.531250000000028;0.0;0.050000000000011;5;0.00042629679364358797;0;0;0.0;0
20;597;;4500.0;2900.0;[555, 556, 557, 596, 598, 637, 638, 639];1.0;1.0;0.0;0.0;0.0;0.0;0.0;0.0;0.0;0.0;0.0;0.0;0.0;0.0;0.0;0.0;0.0;5740.0;456.328125;462.0;454.0;;;;1;Aa (Uster);0;;0.0;0.0;999.9;NA;0.0;0.0;0.0;0.0;0.0;0.0;0.0;0.0;0.0;0.0;0.0;0.0;0;0.0;;;;;;;;;;;;;;;;;;;192.0;26518.8;1.5;36755.92;33080.328;1.0;0.0;3244.08;10237.12;;;;;;;;;;;;;;;;;;;;;;;;;;;;;;;;;;;;;;;;;;;;;;;;;;;;;;;;;0.0;36755.92;33080.328;0.8270082;0.918898;26518.8;300.0;90.0;180.0;150.0;150.0;57.6;0.0;17.28;28.8;28.8;0.0;0.0;0.0;0.0;0.0;0.0;0.0;0.0;0.0;0.0;0.0;0.0;0.0;0.0;0.0;0.0;21.024;0.0;6.3072;420.48;10.512;10.512;2.1024;1.0;0.0;-1.0;596.0;456.328125;0;1;0.0008;0.0;456.328125;0;0.0;1.0;1.0;1.0;0.0;597.0;596.0;0.0;external;collection;2.0;200.0;4.015625;0.020078125;671.0;0.0;0.0;0.016;0.0;0.016;[];[596, 554, 553, 511, 510, 550, 671];2018.0;5740.0;7361.1596513989225;1840.2899128497306;7361.1596513989225;0.0;0.0;0.0;0.0;0.0;0.0;0.0;0.0;0.0;597;4500.0;2900.0;456.328125;0.0;external;0.125;0.020078125;200.04030904830313;0.7;0.0;0.0873;3.9561;0.0;0.0;0.037;0.0091;1.7481;0.0;0.0007;0.016;0.0192;;7.286932863679681;456.328125;452.3125;0.020078125;455.203125;451.1875;1.125;1.125;1.125;0.0;0.0;5;0.00042629679364358797;0;0;0.0;0
21;598;;4700.0;2900.0;[556, 557, 597, 638, 639];1.0;1.0;0.0;0.0;0.0;0.0;0.0;0.0;0.0;0.0;0.0;0.0;0.0;0.0;0.0;0.0;0.0;5820.0;459.96875;464.0;457.0;;;;0;;0;;0.0;0.0;999.9;NA;0.0;0.0;0.0;0.0;0.0;0.0;0.0;0.0;0.0;0.0;0.0;0.0;0;0.0;;;;;;;;;;;;;;;;;;;195.0;26888.4;1.5;36717.7;33045.93;1.0;0.0;3282.2999999999993;9829.3;;;;;;;;;;;;;;;;;;;;;;;;;;;;;;;;;;;;;;;;;;;;;;;;;;;;;;;;;0.0;36717.7;33045.93;0.82614825;0.9179425;26888.4;300.0;90.0;180.0;150.0;150.0;58.5;0.0;17.55;29.25;29.25;0.0;0.0;0.0;0.0;0.0;0.0;0.0;0.0;0.0;0.0;0.0;0.0;0.0;0.0;0.0;0.0;21.352500000000003;0.0;6.40575;427.05000000000007;10.676250000000001;10.676250000000001;2.13525;1.0;0.0;-1.0;638.0;459.96875;0;1;0.0008125;0.0;459.96875;1;0.0;1.0;1.0;1.0;0.0;598.0;638.0;0.0;external;collection;2.0;282.842712474619;4.109375;0.014528834644692;671.0;0.0;0.0;0.01625;0.0;0.01625;[];[638, 596, 554, 553, 511, 510, 550, 671];2018.0;5820.0;7463.7542110003005;1865.9385527500751;7463.7542110003005;0.0;0.0;0.0;0.0;0.0;0.0;0.0;0.0;0.0;598;4700.0;2900.0;459.96875;0.0;external;0.16;0.014528834644692;282.8725631143654;0.51;0.0;0.0815;3.1799;0.0;0.0;0.0405;0.0103;1.579;0.0;0.001;0.0163;0.0315;;5.769735566077818;459.96875;455.859375;0.014528834644692;458.80874999999986;454.699375;1.160000000000139;1.160000000000025;1.160000000000082;0.0;1.14e-13;25;0.015294218783584675;0;0;0.0;0
22;632;;3300.0;3100.0;[590, 591, 592, 631, 633, 672, 673, 674];1.0;0.75;0.0;0.0;0.25;0.0;0.0;0.0;0.0;0.0;0.0;0.0;0.0;0.0;0.0;0.0;0.0;600.0;445.015625;453.0;440.0;;;;1;Aa (Uster);0;;0.0;0.0;999.9;NA;0.0;0.0;0.0;0.0;0.0;0.0;0.0;0.0;0.0;0.0;0.0;0.0;0;0.0;3.204523647418934;1.0;6291.04;;1.8;10.0;1.0;10.0;2370.8959999999997;296.0979850215096;1943.1660228542278;1.0;343.5979850215096;309.23818651935863;2027.29801497849;Direct;1303.9928;68.755984;;;;;;;;;;100.0;1.0;499.98;1480.71;980.73;10000.0;3500.0;2.0;1890.0;1196.0;1933.2900000000009;0.0;5927.400000000001;6586.0;;;;;;;;;;;;;;;;;;;;;;;;;;;;;;;;;;;;;;;;;;;100.0;15912.789850215095;14321.510865193588;0.35803777162984;0.397819746255377;6460.979850215096;640.9047294837869;192.27141884513605;384.5428376902721;320.45236474189346;320.45236474189346;6.409047294837869;0.0;1.922714188451361;3.204523647418934;3.204523647418934;0.0;0.0;0.0;0.0;1.6;0.32;0.0;0.0;1.6;0.32;0.0;0.0;0.0;0.8;0.8;0.0;2.923302262615822;0.0;0.818590678784747;58.46604525231644;1.461651131307911;1.461651131307911;0.292330226261582;1.0;0.0;-1.0;672.0;445.015625;0;2;0.001918183706668;0.0;445.015625;0;0.0;1.0;1.0;1.0;0.0;632.0;672.0;0.0;internal;collection;3.0;282.842712474619;4.84375;0.017125242356862;671.0;0.0;0.03613893877369;0.002224735359677;0.0;0.038363674133367;[674, 675, 716];[672, 671];2018.0;622.4;798.1856736987263;199.54641842468158;17367.207049321387;0.0;0.0;0.0;0.0;0.0;0.0;0.0;0.0;0.0;632;3300.0;3100.0;445.015625;0.0;internal;0.16;0.022759999519442;282.91596173819886;0.8;0.0;0.1274;4.4101;0.0;0.0;0.0487;0.0172;2.2342;0.0;0.0013;0.0384;0.0394;;10.864329679072675;445.015625;440.171875;0.017125242356862;443.855625;437.418125;1.160000000000025;2.753750000000025;1.956875000000025;0.0;0.0;25;0.015294218783584675;0;0;0.0;0
23;633;;3500.0;3100.0;[591, 592, 593, 632, 634, 673, 674, 675];1.0;1.0;0.0;0.0;0.0;0.0;0.0;0.0;0.0;0.0;0.0;0.0;0.0;0.0;0.0;0.0;0.0;3920.0;456.859375;460.0;453.0;;;;0;;0;;0.0;0.0;999.9;NA;0.0;0.0;0.0;0.0;0.0;0.0;0.0;0.0;0.0;0.0;0.0;0.0;0;0.0;2.366786936089826;2.0;9834.48;;1.8;42.0;2.0;84.0;718.2266666666667;218.69111289469998;349.9231301478237;2.0;260.4711128947;234.42400160523002;457.7555537719667;Direct;287.2906666666667;46.684733333333334;;;;;;;;;;;;;;;;;;;;;;;;;;;;;;;;;;;;;;;;;;;;;;;;;;;;;;;;;;;;;;;;;;0.0;18739.5467415774;16865.59206741966;0.421639801685492;0.468488668539435;9185.0267415774;473.35738721796525;142.0072161653896;284.0144323307792;236.67869360898263;236.67869360898263;39.76202052630908;0.0;11.928606157892725;19.88101026315454;19.88101026315454;0.0;0.0;0.0;0.0;0.0;0.0;0.0;0.0;0.0;0.0;0.0;0.0;0.0;0.0;0.0;0.0;14.513137492102814;0.0;4.353941247630845;290.2627498420563;7.256568746051407;7.256568746051407;1.451313749210281;1.0;0.0;-1.0;591.0;456.859375;0;1;0.000552250285088;0.0;456.859375;0;0.0;1.0;1.0;1.0;0.0;633.0;591.0;0.0;external;collection;2.0;282.842712474619;14.453125;0.051099513484184;671.0;0.0;0.0;0.011045005701753;0.0;0.011045005701753;[];[591, 550, 671];2018.0;3920.0;5027.133420467557;1256.7833551168892;5027.133420467557;0.0;0.0;0.0;0.0;0.0;0.0;0.0;0.0;0.0;633;3500.0;3100.0;456.859375;0.0;external;0.125;0.051099513484184;283.2117455584525;0.42;0.0;0.0519;2.8009;0.0;0.0;0.0275;0.0048;2.2896;0.0;0.0004;0.011;0.0306;;13.796286712387298;456.859375;442.40625;0.051099513484184;455.734375;441.28125;1.125;1.125;1.125;0.0;0.0;25;0.015294218783584675;0;0;0.0;0
24;634;;3700.0;3100.0;[592, 593, 594, 633, 635, 674, 675, 676];1.0;0.75;0.0;0.0;0.0;0.0;0.0;0.0;0.0;0.0;0.0;0.0;0.0;0.25;0.0;0.0;0.0;1480.0;461.328125;466.0;456.0;;;;0;;0;;0.0;0.0;999.9;GF;0.0;0.0;0.0;0.0;0.0;0.0;0.0;0.0;0.0;0.0;0.0;0.0;0;0.0;3.063597816313413;1.0;5255.040000000001;;1.6;26.0;1.0;26.0;951.7292307692308;283.07643822735946;522.8611890406753;1.0;329.7964382273595;296.8167944046235;621.9327925418713;Direct;437.79544615384617;43.779544615384616;;;;;;;;;;;;;;;;;;;;;;;;;;;;;;;;;;;;;;;;;;;;;;;;;;;;;;;;;;;;;;;;;;0.0;12593.267393911348;11333.940654520211;0.283348516363005;0.314831684847784;7359.987393911346;612.7195632626826;183.8158689788048;367.6317379576096;306.3597816313413;306.3597816313413;15.930708644829748;0.0;4.779212593448924;7.965354322414874;7.965354322414874;0.0;0.0;0.0;0.0;0.0;0.0;0.0;0.0;0.0;0.0;0.0;0.0;0.0;0.0;0.0;0.0;5.814708655362858;0.0;1.744412596608857;116.29417310725715;2.907354327681429;2.907354327681429;0.581470865536286;1.0;0.0;-1.0;592.0;461.328125;0;1;0.000221259842289;0.0;461.328125;0;0.0;1.0;1.0;1.0;0.0;634.0;592.0;0.0;external;collection;2.0;282.842712474619;9.703125;0.034305727431004;671.0;0.0;0.0;0.004425196845786;0.0;0.004425196845786;[];[592, 591, 550, 671];2018.0;1480.0;1897.9993526255062;474.49983815637654;1897.9993526255062;0.0;0.0;0.0;0.0;0.0;0.0;0.0;0.0;0.0;634;3700.0;3100.0;461.328125;0.0;external;0.125;0.034305727431004;283.00909991511867;0.28;0.0;0.0356;2.2516;0.0;0.0;0.0205;0.0029;1.5397;0.0;0.0002;0.0044;0.0251;;6.887155044165261;461.328125;451.625;0.034305727431004;460.203125;450.4999999999999;1.125;1.125000000000114;1.125000000000057;0.0;0.0;25;0.015294218783584675;0;0;0.0;0
25;637;;4300.0;3100.0;[595, 596, 597, 636, 638, 677, 678, 679];1.0;0.5;0.0;0.0;0.0;0.0;0.0;0.0;0.0;0.0;0.0;0.0;0.0;0.5;0.0;0.0;0.0;2540.0;454.359375;455.0;453.0;;;;0;;0;;20000.0;10000.0;999.9;NA;0.0;0.0;0.0;0.0;0.0;0.0;0.0;0.0;0.0;0.0;0.0;0.0;0;0.0;;;;;;;;;;;;;;;;;;;85.0;11734.8;1.5;18245.12457505076;16420.612117545683;1.0;0.0;1754.8754249492395;6510.324575050761;;;;;;;;;;;;;;;;;;;;;;;;;;;;;;;;;;;;;;;;;;;;;;;;;;;;;;;;;0.0;28245.12457505076;26420.612117545683;0.660515302938642;0.706128114376269;11734.8;300.0;90.0;180.0;150.0;150.0;25.5;0.0;7.65;12.75;12.75;0.0;0.0;0.0;0.0;0.0;0.0;0.0;0.0;0.0;0.0;0.0;0.0;0.0;0.0;0.0;0.0;9.3075;0.0;2.79225;186.14999999999998;4.65375;4.65375;0.93075;1.0;0.0;-1.0;596.0;454.359375;0;2;0.00508744375725;0.0;454.359375;0;0.0;1.0;1.0;1.0;0.0;637.0;595.0;0.0;internal;collection;2.0;282.842712474619;2.484375;0.008783592047552;671.0;0.0;0.236373801971505;0.007083333333333;0.0;0.243457135304839;[677, 678, 679, 676, 717, 718, 719, 720, 721, 760, 761, 762, 800, 801, 802, 803, 840, 841, 842, 844, 843];[595, 553, 511, 510, 550, 671];2018.0;2540.0;3257.377267343774;814.3443168359435;109687.94745221801;0.0;0.0;0.0;0.0;0.0;0.0;0.0;0.0;0.0;637;4300.0;3100.0;454.359375;0.0;internal;0.315;0.048889804792976;283.1805378923764;0.61;0.0;0.1927;3.5927;0.0;0.0;0.0883;0.05;4.8718;0.0;0.004;0.2435;0.3518;;42.35215489927286;454.359375;451.875;0.008783592047552;453.044375;439.21625000000006;1.314999999999998;12.65874999999994;6.986874999999969;12.919374999999945;0.0;25;0.015294218783584675;0;0;0.0;0
26;638;;4500.0;3100.0;[596, 597, 598, 637, 639, 678, 679, 680];1.0;0.5;0.25;0.0;0.0;0.0;0.0;0.0;0.0;0.0;0.25;0.0;0.0;0.0;0.0;0.0;0.0;4460.0;455.859375;457.0;454.0;;;;1;Aa (Uster);0;;0.0;0.0;999.9;NA;0.0;10000.0;10000.0;0.0;4000.0;0.0;0.0;0.0;0.0;0.0;0.0;0.0;0;0.0;;;;;;;;;;;;;;;;;;;149.0;10302.6;1.5;17822.79357505076;16040.514217545684;2.0;0.0;2177.2064249492387;7520.193575050761;;;;;;;;;;;;;;;;;;;;;;;;;;;;;100.0;1.0;270.34;1332.3899999999999;1062.05;10000.0;7333.333333333333;3.0;1334.2766666666676;0.0;0.0;0.0;7800.849000000001;8667.61;;;;;;;;;;;;;;;100.0;27552.45357505076;24797.208217545685;0.619930205438642;0.688811339376269;17635.933333333334;300.0;90.0;180.0;150.0;150.0;44.7;0.0;13.41;22.35;22.35;0.8;0.16;0.0;0.0;0.0;0.0;0.0;0.0;0.8;0.16;0.0;0.4;0.4;0.0;0.0;0.0;16.607499999999998;0.0;4.95305;332.15;8.303749999999999;8.303749999999999;1.66075;1.0;0.0;-1.0;596.0;455.859375;0;2;0.018334113879518;0.0;455.859375;0;0.0;1.0;1.0;1.0;0.0;638.0;596.0;0.0;internal;collection;2.0;282.842712474619;3.546875;0.012540096822605;671.0;0.0;0.026833333333333;0.012638888888889;0.0;0.039472222222222;[598, 639, 680];[596, 554, 553, 511, 510, 550, 671];2018.0;4471.2;5734.009936121056;1433.502484030264;20304.489290708858;0.0;0.0;0.0;0.0;0.0;0.0;0.0;0.0;0.0;638;4500.0;3100.0;455.859375;0.0;internal;0.2;0.010496116283238;282.8582922181397;0.68;0.0;0.137;3.8994;0.0;0.0;0.0588;0.0229;1.7216;0.0;0.0024;0.0395;0.0485;;6.055852559672239;455.859375;452.3125;0.012540096822605;454.08125000000007;451.1125;1.778124999999932;1.199999999999989;1.48906249999996;0.0;0.578124999999943;25;0.015294218783584675;0;0;0.0;0
27;639;;4700.0;3100.0;[597, 598, 638, 679, 680];1.0;0.25;0.25;0.25;0.0;0.0;0.0;0.0;0.0;0.0;0.0;0.0;0.0;0.25;0.0;0.0;0.0;2340.0;458.21875;460.0;457.0;;;;1;Aa (Uster);0;;0.0;0.0;999.9;GF;0.0;0.0;0.0;0.0;0.0;0.0;0.0;0.0;0.0;0.0;0.0;0.0;0;0.0;;;;;;;;;;;;;;;;;;;79.0;5405.4;1.5;8746.509;7871.8581;2.0;0.0;1253.491;3341.1090000000004;;;;;;;;;;;;;;;;;;;;;;;;;;;;;100.0;1.0;213.84;1088.64;874.8000000000001;10000.0;7333.333333333333;3.0;1578.0266666666676;0.0;0.0;0.0;8020.224000000001;8911.36;400.0;1.0;213.84;1088.64;874.8000000000001;10000.0;7333.333333333333;6.0;1578.0266666666676;0.0;0.0;0.0;8020.224000000001;8911.36;500.0;28318.829;25486.946100000005;0.6371736525;0.707970725;20072.066666666666;300.0;90.0;180.0;150.0;150.0;23.7;0.0;7.11;11.85;11.85;0.8;0.16;3.2;0.64;0.0;0.0;0.0;0.0;4.0;0.8;0.0;2.0;2.0;0.0;0.0;0.0;10.1105;0.0;2.88715;202.21;5.05525;5.05525;1.01105;1.0;0.0;-1.0;638.0;458.21875;0;2;0.013003114728305;0.0;458.21875;1;0.0;1.0;1.0;1.0;0.0;639.0;638.0;0.0;external;collection;2.0;200.0;2.359375;0.011796875;671.0;0.0;0.0;0.007694444444444;0.0;0.007694444444444;[];[638, 596, 554, 553, 511, 510, 550, 671];2018.0;2396.0;3072.7070600612924;768.1767650153231;3072.7070600612924;0.0;0.0;0.0;0.0;0.0;0.0;0.0;0.0;0.0;639;4700.0;3100.0;458.21875;0.0;external;0.125;0.011796875;200.01391614182904;0.51;0.0;0.0642;3.1963;0.0;0.0;0.0318;0.0063;1.2109;0.0;0.0007;0.0077;0.0147;;3.678333222308871;458.21875;455.859375;0.011796875;457.09375;454.734375;1.125;1.125;1.125;0.0;0.0;25;0.015294218783584675;0;0;0.0;0
28;672;;3100.0;3300.0;[630, 631, 632, 671, 673, 712, 713, 714];1.0;0.0;0.5;0.0;0.0;0.0;0.0;0.0;0.0;0.0;0.0;0.0;0.0;0.0;0.0;0.25;0.25;1200.0;440.171875;450.0;437.0;;;;1;,Aa (Uster);0;;0.0;0.0;999.9;NA;0.0;0.0;0.0;0.0;0.0;0.0;0.0;0.0;0.0;0.0;0.0;0.0;0;0.0;;;;;;;;;;;;;;;;;;;;;;;;;;;;;;;;;;;;;;;;;;;;;;;;;;;;;;;;200.0;1.0;469.61261120685236;1823.2019023324856;1353.5892911256333;20000.0;14666.666666666666;3.0;3510.1314310008474;0.0;0.0;0.0;16359.118287900763;18176.798097667514;;;;;;;;;;;;;;;200.0;19530.387388793148;17577.348649913834;0.439433716247846;0.488259684719829;14666.666666666666;0.0;0.0;0.0;0.0;0.0;0.0;0.0;0.0;0.0;0.0;1.6;0.32;0.0;0.0;0.0;0.0;0.0;0.0;1.6;0.32;0.0;0.8;0.8;0.0;0.0;0.0;0.584;0.0;0.1168;11.68;0.292;0.292;0.0584;1.0;1.0;-1.0;-1.0;440.171875;0;-1;0.085773585406998;0.0;440.171875;0;0.0;1.0;1.0;1.0;0.0;672.0;671.0;0.0;internal;collection;3.0;200.0;4.4375;0.0221875;671.0;0.0;0.044474265920355;0.000444444444444;0.0;0.0449187103648;[632, 673, 674, 675, 716];[671];2018.0;1222.4;1567.6448707090667;391.9112176772667;21730.553669168024;0.0;0.0;0.0;0.0;0.0;0.0;0.0;0.0;0.0;672;3100.0;3300.0;440.171875;0.0;internal;0.2;0.022759999519442;200.05179505099423;0.57;0.0;0.115;3.4419;0.0;0.0;0.0543;0.0187;2.4036;0.0;0.0017;0.0449;0.0715;;12.123359949581038;440.171875;435.734375;0.0221875;437.418125;432.8661250961116;2.753750000000025;2.868249903888398;2.810999951944211;0.0;0.0;25;0.015294218783584675;0;0;0.0;0
29;673;;3300.0;3300.0;[631, 632, 633, 672, 674, 713, 714, 715];1.0;1.0;0.0;0.0;0.0;0.0;0.0;0.0;0.0;0.0;0.0;0.0;0.0;0.0;0.0;0.0;0.0;2180.0;447.09375;454.0;440.0;;;;0;;0;;0.0;0.0;999.9;NA;0.0;0.0;0.0;0.0;0.0;0.0;0.0;0.0;0.0;0.0;0.0;0.0;0;0.0;3.437207880181089;2.0;10991.679999999998;;2.4;32.0;1.0;32.0;906.51;317.5980081287327;449.5853137700823;1.0;353.3980081287327;318.0582073158595;553.1119918712673;Direct;407.9295;47.13852;;;;;;;;;;;;;;;;;;;;;;;;;;;;;;;;;;;;;;;;;;;;;;;;;;;;;;;;;;;;;;;;;;0.0;19608.576260119444;17647.7186341075;0.441192965852687;0.490214406502986;10163.136260119447;687.4415760362178;206.23247281086537;412.46494562173075;343.7207880181089;343.7207880181089;21.99813043315897;0.0;6.599439129947692;10.999065216579485;10.999065216579485;0.0;0.0;0.0;0.0;0.0;0.0;0.0;0.0;0.0;0.0;0.0;0.0;0.0;0.0;0.0;0.0;8.029317608103023;0.0;2.408795282430908;160.58635216206045;4.014658804051511;4.014658804051511;0.802931760810302;1.0;0.0;-1.0;672.0;447.09375;0;1;0.000305529589349;0.0;447.09375;0;0.0;1.0;1.0;1.0;0.0;673.0;672.0;0.0;external;collection;3.0;200.0;6.921875;0.034609375;671.0;0.0;0.0;0.006110591786989;0.0;0.006110591786989;[];[672, 671];2018.0;2180.0;2795.7017491375695;698.9254372843924;2795.7017491375695;0.0;0.0;0.0;0.0;0.0;0.0;0.0;0.0;0.0;673;3300.0;3300.0;447.09375;0.0;external;0.125;0.034609375;200.11974503660457;0.34;0.0;0.0419;2.4713;0.0;0.0;0.0234;0.0036;1.6908;0.0;0.0003;0.0061;0.0252;;7.942907175487315;447.09375;440.171875;0.034609375;445.96875;439.046875;1.125;1.125;1.125;0.0;0.0;25;0.015294218783584675;0;0;0.0;0
30;674;;3500.0;3300.0;[632, 633, 634, 673, 675, 714, 715, 716];1.0;1.0;0.0;0.0;0.0;0.0;0.0;0.0;0.0;0.0;0.0;0.0;0.0;0.0;0.0;0.0;0.0;5880.0;454.625;459.0;450.0;;;;0;;0;;0.0;0.0;999.9;NA;0.0;0.0;0.0;0.0;0.0;0.0;0.0;0.0;0.0;0.0;0.0;0.0;0;0.0;;;;;;;;;;;;;;;;;;;197.0;27165.6;1.5;36692.22;33022.998;1.0;0.0;3307.7800000000007;9526.62;;;;;;;;;;;;;;;;;;;;;;;;;;;;;;;;;;;;;;;;;;;;;;;;;;;;;;;;;0.0;36692.22;33022.998;0.82557495;0.9173055;27165.6;300.0;90.0;180.0;150.0;150.0;59.1;0.0;17.73;29.55;29.55;0.0;0.0;0.0;0.0;0.0;0.0;0.0;0.0;0.0;0.0;0.0;0.0;0.0;0.0;0.0;0.0;21.5715;0.0;6.47145;431.43;10.78575;10.78575;2.15715;1.0;0.0;-1.0;632.0;454.625;0;2;0.001806946938684;0.0;454.625;0;0.0;1.0;1.0;1.0;0.0;674.0;632.0;0.0;internal;collection;3.0;282.842712474619;9.609375;0.033974271127322;671.0;0.0;0.019722272107023;0.016416666666667;0.0;0.03613893877369;[675, 716];[632, 672, 671];2018.0;5880.0;7540.700130701335;1885.1750326753338;16569.021375622662;0.0;0.0;0.0;0.0;0.0;0.0;0.0;0.0;0.0;674;3500.0;3300.0;454.625;0.0;internal;0.16;0.022759999519442;282.91596173819886;0.75;0.0;0.1205;4.2042;0.0;0.0;0.0483;0.0162;2.2235;0.0;0.0013;0.0361;0.0394;;10.786855192408844;454.625;445.015625;0.033974271127322;450.293125;443.855625;4.331875000000025;1.160000000000025;2.745937500000025;0.0;3.171875;25;0.015294218783584675;0;0;0.0;0
31;675;;3700.0;3300.0;[633, 634, 635, 674, 676, 715, 716, 717];1.0;1.0;0.0;0.0;0.0;0.0;0.0;0.0;0.0;0.0;0.0;0.0;0.0;0.0;0.0;0.0;0.0;3740.0;460.46875;463.0;458.0;;;;0;;0;;0.0;0.0;999.9;NA;0.0;0.0;0.0;0.0;0.0;0.0;0.0;0.0;0.0;0.0;0.0;0.0;0;0.0;3.026921614834124;2.0;9195.119999999999;;1.4;62.0;1.0;62.0;496.8529032258065;139.84377860533652;252.0586473208893;2.0;178.50377860533652;160.65340074480287;318.34912462047;Direct;198.7411612903226;30.80488;;;;;;;;;;;;;;;;;;;;;;;;;;;;;;;;;;;;;;;;;;;;;;;;;;;;;;;;;;;;;;;;;;0.0;18673.074273530863;16805.76684617778;0.420144171154444;0.466826856838272;8670.314273530865;605.3843229668248;181.61529689004743;363.23059378009486;302.6921614834124;302.6921614834124;37.533828023943144;0.0;11.26014840718294;18.766914011971572;18.766914011971572;0.0;0.0;0.0;0.0;0.0;0.0;0.0;0.0;0.0;0.0;0.0;0.0;0.0;0.0;0.0;0.0;13.699847228739248;0.0;4.109954168621774;273.99694457478495;6.849923614369624;6.849923614369624;1.369984722873925;1.0;0.0;-1.0;674.0;460.46875;0;1;0.000521303166999;0.0;460.46875;0;0.0;1.0;1.0;1.0;0.0;675.0;674.0;0.0;external;collection;3.0;200.0;5.84375;0.02921875;671.0;0.0;0.0;0.010426063339984;0.0;0.010426063339984;[];[674, 632, 672, 671];2018.0;3740.0;4796.295661364455;1199.0739153411137;4796.295661364455;0.0;0.0;0.0;0.0;0.0;0.0;0.0;0.0;0.0;675;3700.0;3300.0;460.46875;0.0;external;0.125;0.02921875;200.08535532132905;0.47;0.0;0.0588;3.0243;0.0;0.0;0.03;0.0057;1.8354;0.0;0.0005;0.0104;0.0231;;8.610887736517986;460.46875;454.625;0.02921875;459.34375;453.5;1.125;1.125;1.125;0.0;0.0;25;0.015294218783584675;0;0;0.0;0
32;676;;3900.0;3300.0;[634, 635, 636, 675, 677, 716, 717, 718];1.0;0.25;0.0;0.0;0.0;0.0;0.0;0.0;0.0;0.0;0.0;0.0;0.0;0.75;0.0;0.0;0.0;1740.0;456.359375;461.0;454.0;;;;0;;0;;30000.0;15000.0;999.9;NA;0.0;0.0;0.0;0.0;0.0;0.0;0.0;0.0;0.0;0.0;0.0;0.0;0;0.0;;;;;;;;;;;;;;;;;;;59.0;8038.8;1.5;8880.4064;7992.36576;1.0;0.0;1119.5936000000002;841.6063999999997;;;;;;;;;;;;;;;;;;;;;;;;;;;;;;;;;;;;;;;;;;;;;;;;;;;;;;;;;0.0;23880.4064;22992.36576;0.574809144;0.59701016;8038.8;300.0;90.0;180.0;150.0;150.0;17.7;0.0;5.31;8.85;8.85;0.0;0.0;0.0;0.0;0.0;0.0;0.0;0.0;0.0;0.0;0.0;0.0;0.0;0.0;0.0;0.0;6.460500000000001;0.0;1.93815;129.21;3.23025;3.23025;0.64605;1.0;0.0;-1.0;677.0;456.359375;0;1;0.000245833333333;0.0;456.359375;0;0.0;1.0;1.0;1.0;0.0;676.0;677.0;0.0;external;collection;2.0;200.0;1.15625;0.00578125;671.0;0.0;0.0;0.004916666666667;0.0;0.004916666666667;[];[677, 637, 595, 553, 511, 510, 550, 671];2018.0;1740.0;2231.431671329987;557.8579178324967;2231.431671329987;0.0;0.0;0.0;0.0;0.0;0.0;0.0;0.0;0.0;676;3900.0;3300.0;456.359375;0.0;external;0.125;0.00578125;200.00334225722955;0.49;0.0;0.0609;3.09;0.0;0.0;0.0307;0.0059;0.8288;0.0;0.0007;0.0049;0.0103;;1.742750095247901;456.359375;455.203125;0.00578125;455.234375;454.078125;1.125;1.125;1.125;0.0;0.0;25;0.015294218783584675;0;0;0.0;0
33;677;;4100.0;3300.0;[635, 636, 637, 676, 678, 717, 718, 719];1.0;0.75;0.0;0.0;0.0;0.0;0.0;0.0;0.0;0.0;0.0;0.0;0.0;0.25;0.0;0.0;0.0;3400.0;455.203125;457.0;454.0;;;;0;;0;;0.0;0.0;999.9;GF;0.0;0.0;0.0;0.0;0.0;0.0;0.0;0.0;0.0;0.0;0.0;0.0;0;0.0;2.9187353097518;1.0;5848.96;;1.2;30.0;2.0;60.0;805.0346666666667;269.6911426210663;376.48911700404;2.0;304.7111426210663;274.2400283589597;500.3235240456004;Direct;322.0138666666667;56.35242666666667;;;;;;;;;;;;;;;;;;;;;;;;;;;;;;;;;;;;;;;;;;;;;;;;;;;;;;;;;;;;;;;;;;0.0;14066.774278631987;12660.09685076879;0.31650242126922;0.3516693569658;8090.73427863199;583.74706195036;175.12411858510802;350.24823717021604;291.87353097518;291.87353097518;35.024823717021604;0.0;10.507447115106482;17.512411858510802;17.512411858510802;0.0;0.0;0.0;0.0;0.0;0.0;0.0;0.0;0.0;0.0;0.0;0.0;0.0;0.0;0.0;0.0;12.784060656712885;0.0;3.835218197013865;255.6812131342577;6.392030328356443;6.392030328356443;1.278406065671289;1.0;0.0;-1.0;637.0;455.203125;0;2;0.004733277090583;0.0;455.203125;0;0.0;1.0;1.0;1.0;0.0;677.0;637.0;0.0;internal;collection;2.0;282.842712474619;0.84375;0.002983106733131;671.0;0.0;0.162589128716777;0.009729117699173;0.0;0.17231824641595;[676, 717, 718, 719, 760, 761, 800, 801, 802, 803, 840, 841, 842, 844, 843];[637, 595, 553, 511, 510, 550, 671];2018.0;3400.0;4360.268783058595;1090.0671957646487;79721.10253825132;0.0;0.0;0.0;0.0;0.0;0.0;0.0;0.0;0.0;677;4100.0;3300.0;455.203125;0.0;internal;0.25;0.048889804792976;283.1805378923764;0.75;0.0;0.1867;4.1735;0.0;0.0;0.0754;0.0393;4.383;0.0;0.0028;0.1722;0.1899;;36.14000274218552;455.203125;454.359375;0.002983106733131;453.953125;440.12500000000006;1.25;14.234374999999943;7.742187499999972;13.456124999999929;0.0;25;0.015294218783584675;0;0;0.0;0
34;678;;4300.0;3300.0;[636, 637, 638, 677, 679, 718, 719, 720];1.0;1.0;0.0;0.0;0.0;0.0;0.0;0.0;0.0;0.0;0.0;0.0;0.0;0.0;0.0;0.0;0.0;5180.0;455.203125;456.0;454.0;;;;0;;0;;0.0;0.0;999.9;NA;0.0;0.0;0.0;0.0;0.0;0.0;0.0;0.0;0.0;0.0;0.0;0.0;0;0.0;;;;;;;;;;;;;;;;;;;173.0;23931.6;1.5;36777.578;33099.8202;1.0;0.0;3222.4220000000005;12845.978000000001;;;;;;;;;;;;;;;;;;;;;;;;;;;;;;;;;;;;;;;;;;;;;;;;;;;;;;;;;0.0;36777.578;33099.8202;0.827495505;0.91943945;23931.6;300.0;90.0;180.0;150.0;150.0;51.9;0.0;15.57;25.95;25.95;0.0;0.0;0.0;0.0;0.0;0.0;0.0;0.0;0.0;0.0;0.0;0.0;0.0;0.0;0.0;0.0;18.9435;0.0;5.683050000000001;378.87;9.47175;9.47175;1.89435;1.0;0.0;-1.0;517.0;455.203125;0;2;0.027578645898196;0.0;455.203125;0;0.0;1.0;1.0;1.0;0.0;678.0;637.0;0.0;internal;collection;2.0;200.0;0.84375;0.00421875;671.0;0.0;0.022222222222222;0.014416666666667;0.0;0.036638888888889;[720, 762];[637, 595, 553, 511, 510, 550, 671];2018.0;5180.0;6642.997734189271;1660.7494335473177;15968.843201954594;0.0;0.0;0.0;0.0;0.0;0.0;0.0;0.0;0.0;678;4300.0;3300.0;455.203125;0.0;internal;0.2;0.008728349330271;200.0076182631083;0.69;0.0;0.1388;3.9383;0.0;0.0;0.0591;0.0233;1.5746;0.0;0.0025;0.0366;0.0443;;5.058569080296899;455.203125;454.359375;0.00421875;454.003125;452.2574551339458;1.199999999999989;2.101919866054175;1.650959933027082;0.0;0.039999999999964;25;0.015294218783584675;0;0;0.0;0
35;679;;4500.0;3300.0;[637, 638, 639, 678, 680, 719, 720, 721];1.0;0.25;0.25;0.5;0.0;0.0;0.0;0.0;0.0;0.0;0.0;0.0;0.0;0.0;0.0;0.0;0.0;4140.0;456.96875;458.0;456.0;;;;0;;0;;0.0;0.0;999.9;NA;0.0;0.0;0.0;0.0;0.0;0.0;0.0;0.0;0.0;0.0;0.0;0.0;0;0.0;;;;;;;;;;;;;;;;;;;139.0;6831.0;1.5;8238.4378;7414.59402;2.0;0.0;1761.5622000000003;1407.4377999999997;;;;;;;;;;;;;;;;;;;;;;;;;;;;;100.0;1.0;268.38;1591.1100000000001;1322.73;10000.0;7333.333333333333;3.0;1075.5566666666664;0.0;0.0;0.0;7568.000999999999;8408.89;800.0;1.0;384.3597974644667;2278.704513539338;1894.3447160748715;20000.0;14666.666666666666;6.0;3054.6288197939957;0.0;0.0;0.0;15949.165937814596;17721.29548646066;900.0;37585.69800253553;33827.12820228198;0.845678205057049;0.939642450063388;28831.0;300.0;90.0;180.0;150.0;150.0;41.7;0.0;12.51;20.85;20.85;0.8;0.16;6.4;1.28;0.0;0.0;0.0;0.0;7.2;1.44;0.0;3.6;3.6;0.0;0.0;0.0;17.8485;0.0;5.091749999999999;356.97;8.92425;8.92425;1.78485;1.0;0.0;-1.0;638.0;456.96875;0;2;0.002555025367795;0.0;456.96875;0;0.0;1.0;1.0;1.0;0.0;679.0;637.0;0.0;internal;collection;2.0;282.842712474619;2.609375;0.009225533785793;671.0;0.0;0.013833333333333;0.013583333333333;0.0;0.027416666666667;[721];[637, 595, 553, 511, 510, 550, 671];2018.0;4240.8;5438.537604469086;1359.6344011172714;10740.624444668338;0.0;0.0;0.0;0.0;0.0;0.0;0.0;0.0;0.0;679;4500.0;3300.0;456.96875;0.0;internal;0.2;0.007513009550107;282.85069493462447;0.6;0.0;0.1195;3.5339;0.0;0.0;0.0554;0.0196;1.3998;0.0;0.0023;0.0274;0.0411;;4.083854941001418;456.96875;454.359375;0.009225533785793;455.284375;453.159375;1.684374999999989;1.199999999999989;1.442187499999989;0.0;0.484375;25;0.015294218783584675;0;0;0.0;0
36;680;;4700.0;3300.0;[638, 639, 679, 720, 721];1.0;0.0;0.25;0.75;0.0;0.0;0.0;0.0;0.0;0.0;0.0;0.0;0.0;0.0;0.0;0.0;0.0;3000.0;458.828125;460.0;458.0;;;;0;;0;;0.0;0.0;999.9;NA;0.0;0.0;0.0;0.0;0.0;0.0;0.0;0.0;0.0;0.0;0.0;0.0;0;0.0;;;;;;;;;;;;;;;;;;;;;;;;;;;;;;;;;;;;;;;;;;;;;;;;;;;;;;;;100.0;1.0;213.18;1201.56;988.3799999999999;10000.0;7333.333333333333;3.0;1465.1066666666675;0.0;0.0;0.0;7918.5960000000005;8798.44;1200.0;1.0;374.231177665153;2109.3030013854077;1735.0718237202548;30000.0;26400.0;5.0;1490.6969986145923;0.0;0.0;0.0;25101.627298753134;27890.696998614592;1300.0;39412.588822334845;35471.329940101365;0.886783248502534;0.985314720558371;33733.333333333336;0.0;0.0;0.0;0.0;0.0;0.0;0.0;0.0;0.0;0.0;0.8;0.16;9.6;1.92;0.0;0.0;0.0;0.0;10.4;2.08;0.0;5.2;5.2;0.0;0.0;0.0;3.796;0.0;0.7592;75.92;1.898;1.898;0.3796;1.0;0.0;-1.0;638.0;458.828125;0;2;0.001331529338973;0.0;458.828125;1;0.0;1.0;1.0;1.0;0.0;680.0;638.0;0.0;external;collection;2.0;282.842712474619;2.96875;0.010496116283238;671.0;0.0;0.0;0.002888888888889;0.0;0.002888888888889;[];[638, 596, 554, 553, 511, 510, 550, 671];2018.0;3145.6;4034.0180835262104;1008.5045208815526;4034.0180835262104;0.0;0.0;0.0;0.0;0.0;0.0;0.0;0.0;0.0;680;4700.0;3300.0;458.828125;0.0;external;0.125;0.010496116283238;282.8582922181397;0.31;0.0;0.0387;2.361;0.0;0.0;0.0219;0.0032;0.892;0.0;0.0004;0.0029;0.0139;;2.258650612751139;458.828125;455.859375;0.010496116283238;457.703125;454.73437499999994;1.125;1.125000000000057;1.125000000000028;0.0;0.0;25;0.015294218783584675;0;0;0.0;0
37;716;;3700.0;3500.0;[674, 675, 676, 715, 717, 756, 757, 758];1.0;0.75;0.0;0.0;0.0;0.0;0.0;0.0;0.0;0.0;0.0;0.0;0.0;0.25;0.0;0.0;0.0;3300.0;461.0625;464.0;458.0;;;;0;;0;;0.0;0.0;999.9;GF;0.0;0.0;0.0;0.0;0.0;0.0;0.0;0.0;0.0;0.0;0.0;0.0;0;0.0;2.788862630111618;1.0;7094.04;;2.9;30.0;2.0;60.0;763.5319999999999;257.6909070223136;375.1831480824222;2.0;304.1509070223136;273.7358163200823;459.3810929776863;Direct;305.4128;53.44724;;;;;;;;;;;;;;;;;;;;;;;;;;;;;;;;;;;;;;;;;;;;;;;;;;;;;;;;;;;;;;;;;;0.0;14006.447210669408;12605.802489602469;0.315145062240062;0.350161180266735;7730.727210669407;557.7725260223236;167.33175780669708;334.66351561339417;278.8862630111618;278.8862630111618;33.46635156133942;0.0;10.039905468401825;16.73317578066971;16.73317578066971;0.0;0.0;0.0;0.0;0.0;0.0;0.0;0.0;0.0;0.0;0.0;0.0;0.0;0.0;0.0;0.0;12.21521831988889;0.0;3.664565495966666;244.3043663977778;6.107609159944445;6.107609159944445;1.221521831988889;1.0;0.0;-1.0;674.0;461.0625;0;1;0.000464810438352;0.0;461.0625;0;0.0;1.0;1.0;1.0;0.0;716.0;674.0;0.0;external;collection;3.0;282.842712474619;6.4375;0.022759999519442;671.0;0.0;0.0;0.009296208767039;0.0;0.009296208767039;[];[674, 632, 672, 671];2018.0;3300.0;4232.025583556871;1058.0063958892179;4232.025583556871;0.0;0.0;0.0;0.0;0.0;0.0;0.0;0.0;0.0;716;3700.0;3500.0;461.0625;0.0;external;0.125;0.022759999519442;282.91596173819886;0.47;0.0;0.0592;3.0369;0.0;0.0;0.0302;0.0057;1.6247;0.0;0.0005;0.0093;0.0204;;6.737166252848032;461.0625;454.625;0.022759999519442;459.9375;453.5;1.125;1.125;1.125;0.0;0.0;25;0.015294218783584675;0;0;0.0;0
38;717;;3900.0;3500.0;[675, 676, 677, 716, 718, 757, 758, 759];1.0;0.5;0.0;0.0;0.0;0.0;0.0;0.0;0.0;0.0;0.0;0.0;0.0;0.5;0.0;0.0;0.0;3180.0;457.09375;459.0;455.0;;;;0;;0;;20000.0;10000.0;999.9;NA;0.0;0.0;0.0;0.0;0.0;0.0;0.0;0.0;0.0;0.0;0.0;0.0;0;0.0;;;;;;;;;;;;;;;;;;;107.0;14691.6;1.5;18086.76637505076;16278.089737545684;1.0;0.0;1913.2336249492391;3395.1663750507605;;;;;;;;;;;;;;;;;;;;;;;;;;;;;;;;;;;;;;;;;;;;;;;;;;;;;;;;;0.0;28086.76637505076;26278.089737545684;0.656952243438642;0.702169159376269;14691.6;300.0;90.0;180.0;150.0;150.0;32.1;0.0;9.63;16.05;16.05;0.0;0.0;0.0;0.0;0.0;0.0;0.0;0.0;0.0;0.0;0.0;0.0;0.0;0.0;0.0;0.0;11.716500000000002;0.0;3.514950000000001;234.33000000000004;5.858250000000001;5.858250000000001;1.17165;1.0;0.0;-1.0;677.0;457.09375;0;1;0.000445833333333;0.0;457.09375;0;0.0;1.0;1.0;1.0;0.0;717.0;677.0;0.0;external;collection;2.0;282.842712474619;1.890625;0.006684368790904;671.0;0.0;0.0;0.008916666666667;0.0;0.008916666666667;[];[677, 637, 595, 553, 511, 510, 550, 671];2018.0;3180.0;4078.1337441548035;1019.5334360387009;4078.1337441548035;0.0;0.0;0.0;0.0;0.0;0.0;0.0;0.0;0.0;717;3900.0;3500.0;457.09375;0.0;external;0.125;0.006684368790904;282.8490312214108;0.68;0.0;0.085;3.8785;0.0;0.0;0.0367;0.0089;1.0026;0.0;0.001;0.0089;0.0111;;2.404212529184363;457.09375;455.203125;0.006684368790904;455.96875;454.078125;1.125;1.125;1.125;0.0;0.0;25;0.015294218783584675;0;0;0.0;0
39;718;;4100.0;3500.0;[676, 677, 678, 717, 719, 758, 759, 760];1.0;0.25;0.25;0.0;0.0;0.0;0.0;0.0;0.0;0.0;0.0;0.0;0.0;0.5;0.0;0.0;0.0;2120.0;457.484375;459.0;456.0;;;;0;;0;;20000.0;10000.0;999.9;NA;0.0;0.0;0.0;0.0;0.0;0.0;0.0;0.0;0.0;0.0;0.0;0.0;0;0.0;;;;;;;;;;;;;;;;;;;71.0;4897.2;1.5;8833.141;7949.8269;2.0;0.0;1166.859;3935.9410000000003;;;;;;;;;;;;;;;;;;;;;;;;;;;;;100.0;1.0;496.6;1719.0;1222.4;10000.0;7333.333333333333;3.0;947.666666666667;0.0;0.0;0.0;7452.900000000001;8281.0;;;;;;;;;;;;;;;100.0;28336.540999999997;26502.8869;0.6625721725;0.708413525;12230.533333333333;300.0;90.0;180.0;150.0;150.0;21.3;0.0;6.39;10.65;10.65;0.8;0.16;0.0;0.0;0.0;0.0;0.0;0.0;0.8;0.16;0.0;0.4;0.4;0.0;0.0;0.0;8.066500000000001;0.0;2.39075;161.33000000000004;4.033250000000001;4.033250000000001;0.80665;1.0;0.0;-1.0;677.0;457.484375;0;1;0.000306944444444;0.0;457.484375;0;0.0;1.0;1.0;1.0;0.0;718.0;677.0;0.0;external;collection;2.0;200.0;2.28125;0.01140625;671.0;0.0;0.0;0.006138888888889;0.0;0.006138888888889;[];[677, 637, 595, 553, 511, 510, 550, 671];2018.0;2131.2;2733.1190677807285;683.2797669451821;2733.1190677807285;0.0;0.0;0.0;0.0;0.0;0.0;0.0;0.0;0.0;718;4100.0;3500.0;457.484375;0.0;external;0.125;0.01140625;200.013009830767;0.46;0.0;0.0569;2.9617;0.0;0.0;0.0294;0.0054;1.1294;0.0;0.0006;0.0061;0.0144;;3.285435906060987;457.484375;455.203125;0.01140625;456.359375;454.078125;1.125;1.125;1.125;0.0;0.0;25;0.015294218783584675;0;0;0.0;0
40;719;;4300.0;3500.0;[677, 678, 679, 718, 720, 759, 760, 761];1.0;0.75;0.25;0.0;0.0;0.0;0.0;0.0;0.0;0.0;0.0;0.0;0.0;0.0;0.0;0.0;0.0;2480.0;456.703125;458.0;455.0;;;;0;;0;;0.0;0.0;999.9;NA;0.0;0.0;0.0;0.0;0.0;0.0;0.0;0.0;0.0;0.0;0.0;0.0;0;0.0;3.06118746495363;1.0;6876.0;;2.8;42.0;1.0;42.0;550.5714285714286;141.4268608808577;275.4474400755724;2.0;189.1868608808577;170.26817479277193;361.38456769057086;Direct;225.7342857142857;34.13542857142857;;;;;;;;;;;;;;;;;;;;;;;;;;;;;;;;;;;;;;100.0;1.0;252.20000000000002;1164.0;911.8;10000.0;7333.333333333333;3.0;1502.666666666667;0.0;0.0;0.0;7952.400000000001;8836.0;;;;;;;;;;;;;;;100.0;22430.448156996023;20187.40334129642;0.50468508353241;0.560761203924901;13273.261490329358;612.2374929907261;183.67124789721782;367.34249579443565;306.11874649536304;306.11874649536304;25.713974705610497;0.0;7.714192411683149;12.856987352805248;12.856987352805248;0.8;0.16;0.0;0.0;0.0;0.0;0.0;0.0;0.8;0.16;0.0;0.4;0.4;0.0;0.0;0.0;9.677600767547831;0.0;2.874080230264349;193.55201535095662;4.838800383773916;4.838800383773916;0.967760076754783;1.0;0.0;-1.0;677.0;456.703125;0;2;0.003248210094513;0.0;455.575125;0;3.0;1.0;1.0;1.0;0.0;719.0;677.0;0.0;internal;collection;2.0;282.842712474619;0.372000000000014;0.001315218613007;671.0;0.0;0.135251913520774;0.007364992973781;0.0;0.142616906494555;[760, 761, 800, 801, 802, 803, 840, 841, 842, 844, 843];[677, 637, 595, 553, 511, 510, 550, 671];2018.0;2491.2;3194.794585986933;798.6986464967332;66318.1492719272;0.0;0.0;0.0;0.0;0.0;0.0;0.0;0.0;0.0;719;4300.0;3500.0;455.575125;0.0;internal;0.25;0.048889804792976;283.1805378923764;0.65;0.0;0.1617;3.7371;0.0;0.0;0.0719;0.0336;4.2473;0.0;0.0025;0.1426;0.1899;;34.47465393900451;455.575125;455.203125;0.001315218613007;454.325125;440.49700000000007;1.25;14.706124999999929;7.978062499999965;9.726960958595214;0.0;25;0.015294218783584675;0;0;0.0;0
41;720;;4500.0;3500.0;[678, 679, 680, 719, 721, 760, 761, 762];1.0;0.5;0.0;0.5;0.0;0.0;0.0;0.0;0.0;0.0;0.0;0.0;0.0;0.0;0.0;0.0;0.0;3640.0;458.171875;459.0;457.0;;;;0;;0;;0.0;0.0;999.9;NA;0.0;0.0;0.0;0.0;0.0;0.0;0.0;0.0;0.0;0.0;0.0;0.0;0;0.0;;;;;;;;;;;;;;;;;;;122.0;16816.8;1.5;18146.26217505076;16331.635957545685;1.0;0.0;1853.737824949239;1329.4621750507617;;;;;;;;;;;;;;;;;;;;;;;;;;;;;;;;;;;;;;;;;;;800.0;1.0;413.61406871192855;1957.773258569795;1544.1591898578663;20000.0;14666.666666666666;6.0;3375.560074763538;0.0;0.0;0.0;16238.004067287184;18042.226741430204;800.0;37732.648106338835;33959.383295704945;0.848984582392624;0.943316202658471;31483.466666666667;300.0;90.0;180.0;150.0;150.0;36.6;0.0;10.98;18.3;18.3;0.0;0.0;6.4;1.28;0.0;0.0;0.0;0.0;6.4;1.28;0.0;3.2;3.2;0.0;0.0;0.0;15.694999999999999;0.0;4.474900000000001;313.9;7.847499999999999;7.847499999999999;1.5695;1.0;0.0;-1.0;678.0;458.171875;0;2;0.001440277777778;0.0;458.171875;0;0.0;1.0;1.0;1.0;0.0;720.0;678.0;0.0;internal;collection;2.0;282.842712474619;2.96875;0.010496116283238;671.0;0.0;0.010277777777778;0.011944444444444;0.0;0.022222222222222;[762];[678, 637, 595, 553, 511, 510, 550, 671];2018.0;3729.6;4782.958368616275;1195.7395921540688;9325.845467765324;0.0;0.0;0.0;0.0;0.0;0.0;0.0;0.0;0.0;720;4500.0;3500.0;458.171875;0.0;internal;0.16;0.008728349330271;282.85348632562847;0.75;0.0;0.1198;4.1843;0.0;0.0;0.0483;0.0162;1.3759;0.0;0.0016;0.0222;0.0244;;4.132029014523467;458.171875;455.203125;0.010496116283238;456.51187499999986;454.043125;1.660000000000139;1.160000000000025;1.410000000000082;0.0;0.500000000000114;10;0.0023774244890711694;0;0;0.0;0
42;721;;4700.0;3500.0;[679, 680, 720, 761, 762];1.0;0.25;0.0;0.75;0.0;0.0;0.0;0.0;0.0;0.0;0.0;0.0;0.0;0.0;0.0;0.0;0.0;4000.0;459.09375;460.0;458.0;;;;0;;0;;0.0;0.0;999.9;NA;0.0;0.0;0.0;0.0;0.0;0.0;0.0;0.0;0.0;0.0;0.0;0.0;0;0.0;;;;;;;;;;;;;;;;;;;134.0;6600.0;1.5;8253.3436;7428.00924;2.0;0.0;1746.6564;1653.3436;;;;;;;;;;;;;;;;;;;;;;;;;;;;;;;;;;;;;;;;;;;1200.0;1.0;406.3321938165305;2641.1592598074485;2234.827065990918;30000.0;26400.0;5.0;958.8407401925506;0.0;0.0;0.0;24622.956666173297;27358.84074019255;1200.0;37847.01140618347;34062.310265565124;0.851557756639128;0.946175285154587;33000.0;300.0;90.0;180.0;150.0;150.0;40.2;0.0;12.06;20.1;20.1;0.0;0.0;9.6;1.92;0.0;0.0;0.0;0.0;9.6;1.92;0.0;4.8;4.8;0.0;0.0;0.0;18.177000000000003;0.0;5.1027;363.5400000000001;9.088500000000002;9.088500000000002;1.8177;1.0;0.0;-1.0;679.0;459.09375;0;2;0.001875858701128;0.0;459.09375;1;0.0;1.0;1.0;1.0;0.0;721.0;679.0;0.0;external;collection;2.0;282.842712474619;2.125;0.007513009550107;671.0;0.0;0.0;0.013833333333333;0.0;0.013833333333333;[];[679, 637, 595, 553, 511, 510, 550, 671];2018.0;4134.4;5302.086840199251;1325.5217100498128;5302.086840199251;0.0;0.0;0.0;0.0;0.0;0.0;0.0;0.0;0.0;721;4700.0;3500.0;459.09375;0.0;external;0.16;0.007513009550107;282.85069493462447;0.56;0.0;0.0903;3.4009;0.0;0.0;0.043;0.0117;1.1824;0.0;0.0014;0.0138;0.0226;;3.170387120466289;459.09375;456.96875;0.007513009550107;457.93375;455.80875;1.160000000000025;1.160000000000025;1.160000000000025;0.0;0.0;25;0.015294218783584675;0;0;0.0;0
43;760;;4300.0;3700.0;[718, 719, 720, 759, 761, 800, 801, 802];1.0;1.0;0.0;0.0;0.0;0.0;0.0;0.0;0.0;0.0;0.0;0.0;0.0;0.0;0.0;0.0;0.0;4740.0;458.203125;459.0;457.0;;;;0;;0;;0.0;0.0;999.9;NA;0.0;0.0;0.0;0.0;0.0;0.0;0.0;0.0;0.0;0.0;0.0;0.0;0;0.0;2.893728786546412;2.0;7899.120000000001;;1.3;41.0;2.0;82.0;782.9482926829268;267.38053987688846;369.09004436541767;2.0;301.88053987688846;271.69248588919965;481.0677528060383;Direct;313.17931707317075;54.80638048780488;;;;;;;;;;;;;;;;;;;;;;;;;;;;;;;;;;;;;;;;;;;;;;;;;;;;;;;;;;;;;;;;;;0.0;18787.982134952428;16909.18392145719;0.42272959803643;0.469699553373811;10962.602134952427;578.7457573092823;173.6237271927847;347.2474543855694;289.37287865464117;289.37287865464117;47.457152099361146;0.0;14.237145629808346;23.728576049680573;23.728576049680573;0.0;0.0;0.0;0.0;0.0;0.0;0.0;0.0;0.0;0.0;0.0;0.0;0.0;0.0;0.0;0.0;17.321860516266817;0.0;5.196558154880046;346.4372103253363;8.660930258133408;8.660930258133408;1.732186051626682;1.0;0.0;-1.0;719.0;458.203125;0;1;0.000659127112491;0.0;455.576125;0;2.0;1.0;1.0;1.0;0.0;760.0;719.0;0.0;internal;collection;2.0;200.0;0.000999999999976;5e-06;671.0;0.0;0.077652704604285;0.013182542249823;0.0;0.090835246854108;[800, 801, 802, 840, 841, 842, 844, 843];[719, 677, 637, 595, 553, 511, 510, 550, 671];2018.0;4740.0;6078.727656381689;1519.6819140954221;42681.38868536557;0.0;0.0;0.0;0.0;0.0;0.0;0.0;0.0;0.0;760;4300.0;3700.0;455.576125;0.0;internal;0.2;0.048889804792976;200.23887864375342;0.72;0.0;0.1439;4.0498;0.0;0.0;0.0597;0.0242;3.7542;0.0;0.0017;0.0908;0.1048;;28.648969577175198;455.576125;455.575125;5e-06;454.376125;444.5981640414048;1.199999999999989;10.976960958595214;6.088480479297601;9.282374999999945;0.0;25;0.015294218783584675;0;0;0.0;0
44;761;;4500.0;3700.0;[719, 720, 721, 760, 762, 801, 802, 803];1.0;1.0;0.0;0.0;0.0;0.0;0.0;0.0;0.0;0.0;0.0;0.0;0.0;0.0;0.0;0.0;0.0;9720.0;459.53125;461.0;459.0;;;;0;;0;;0.0;0.0;999.9;NA;0.0;0.0;0.0;0.0;0.0;0.0;0.0;0.0;0.0;0.0;0.0;0.0;0;0.0;;;;;;;;;;;;;;;;;;;325.0;22453.2;1.5;35765.385;32188.846500000003;2.0;0.0;4234.615;13312.185;;;;;;;;;;;;;;;;;;;;;;;;;;;;;;;;;;;;;;;;;;;;;;;;;;;;;;;;;0.0;35765.385;32188.846500000003;0.8047211625;0.894134625;22453.2;300.0;90.0;180.0;150.0;150.0;97.5;0.0;29.25;48.75;48.75;0.0;0.0;0.0;0.0;0.0;0.0;0.0;0.0;0.0;0.0;0.0;0.0;0.0;0.0;0.0;0.0;35.5875;0.0;10.676250000000001;711.75;17.79375;17.79375;3.55875;1.0;0.0;-1.0;719.0;459.53125;0;2;0.002220833333333;0.0;459.53125;0;0.0;1.0;1.0;1.0;0.0;761.0;719.0;0.0;internal;collection;2.0;282.842712474619;3.956124999999986;0.013987014073608;671.0;0.0;0.017333333333333;0.027083333333333;0.0;0.044416666666667;[803];[719, 677, 637, 595, 553, 511, 510, 550, 671];2018.0;9720.0;12465.238991567512;3116.309747891878;20441.966000574706;0.0;0.0;0.0;0.0;0.0;0.0;0.0;0.0;0.0;761;4500.0;3700.0;459.53125;0.0;internal;0.2;0.017898640398784;282.88801478014227;0.62;0.0;0.1234;3.6139;0.0;0.0;0.0563;0.0203;2.1835;0.0;0.0019;0.0444;0.0634;;9.88455361897204;459.53125;455.575125;0.013987014073608;458.33125;453.2687500000001;1.199999999999989;2.306374999999889;1.753187499999939;0.0;0.074999999999989;25;0.015294218783584675;1;0;0.0;0
45;762;;4700.0;3700.0;[720, 721, 761, 802, 803];1.0;0.5;0.5;0.0;0.0;0.0;0.0;0.0;0.0;0.0;0.0;0.0;0.0;0.0;0.0;0.0;0.0;3520.0;460.640625;463.0;459.0;;;;0;;0;;0.0;0.0;999.9;NA;0.0;0.0;0.0;0.0;0.0;0.0;0.0;0.0;0.0;0.0;0.0;0.0;0;0.0;;;;;;;;;;;;;;;;;;;118.0;16262.4;1.5;17993.12737505076;16193.814637545685;1.0;0.0;2006.8726249492393;1730.727375050761;;;;;;;;;;;;;;;;;;;;;;;;;;;;;200.0;1.0;795.8838661763951;2305.3187847868;1509.4349186104046;20000.0;14666.666666666666;3.0;3028.0145485465346;0.0;0.0;0.0;15925.21309369188;17694.6812152132;;;;;;;;;;;;;;;200.0;37197.243508874366;33477.51915798693;0.836937978949673;0.929931087721859;30929.066666666666;300.0;90.0;180.0;150.0;150.0;35.4;0.0;10.62;17.7;17.7;1.6;0.32;0.0;0.0;0.0;0.0;0.0;0.0;1.6;0.32;0.0;0.8;0.8;0.0;0.0;0.0;13.504999999999999;0.0;3.9931;270.09999999999997;6.7525;6.7525;1.3505;1.0;0.0;-1.0;720.0;460.640625;0;2;0.000843055555556;0.0;460.640625;1;0.0;1.0;1.0;1.0;0.0;762.0;720.0;0.0;external;collection;2.0;282.842712474619;2.46875;0.008728349330271;671.0;0.0;0.0;0.010277777777778;0.0;0.010277777777778;[];[720, 678, 637, 595, 553, 511, 510, 550, 671];2018.0;3542.4;4542.887099149049;1135.7217747872623;4542.887099149049;0.0;0.0;0.0;0.0;0.0;0.0;0.0;0.0;0.0;762;4700.0;3700.0;460.640625;0.0;external;0.125;0.008728349330271;282.85348632562847;0.68;0.0;0.0856;3.8986;0.0;0.0;0.0368;0.009;1.1475;0.0;0.0009;0.0103;0.0126;;3.147132088700935;460.640625;458.171875;0.008728349330271;459.5156249999999;457.046875;1.125000000000114;1.125;1.125000000000057;0.0;1.14e-13;25;0.015294218783584675;1;0;0.0;0
46;800;;4100.0;3900.0;[758, 759, 760, 799, 801, 840, 841, 842];1.0;0.25;0.0;0.0;0.25;0.0;0.0;0.0;0.0;0.0;0.0;0.0;0.0;0.5;0.0;0.0;0.0;400.0;457.390625;459.0;456.0;;;;0;;0;;20000.0;10000.0;999.9;NA;0.0;0.0;0.0;0.0;0.0;0.0;0.0;0.0;0.0;0.0;0.0;0.0;0;0.0;2.956285567495662;1.0;3011.0399999999995;;1.4;8.0;1.0;8.0;873.6200000000001;273.1607864365992;474.56769262571066;1.0;309.4807864365992;278.5327077929393;564.139213563401;Direct;401.8652000000001;40.18652;;;;;;;;;;100.0;1.0;344.52000000000004;1646.04;1301.52;10000.0;3500.0;2.0;1890.0;1196.0;1767.9599999999991;0.0;5927.400000000001;6586.0;;;;;;;;;;;;;;;;;;;;;;;;;;;;;;;;;;;;;;;;;;;100.0;22860.326291492795;21574.293662343516;0.539357341558588;0.57150815728732;5685.286291492794;591.2571134991324;177.37713404973974;354.7542680994795;295.6285567495662;295.6285567495662;4.730056907993059;0.0;1.419017072397918;2.365028453996529;2.365028453996529;0.0;0.0;0.0;0.0;1.6;0.32;0.0;0.0;1.6;0.32;0.0;0.0;0.0;0.8;0.8;0.0;2.310470771417466;0.0;0.63474123142524;46.20941542834932;1.155235385708733;1.155235385708733;0.231047077141747;1.0;0.0;-1.0;840.0;457.390625;0;1;8.7917457055e-05;0.0;455.577125;0;1.0;1.0;1.0;1.0;0.0;800.0;760.0;0.0;internal;collection;2.0;282.842712474619;0.001000000000033;3.535533906e-06;671.0;0.0;0.028777777777778;0.001758349141109;0.0;0.030536126918887;[840, 841, 842, 843];[760, 719, 677, 637, 595, 553, 511, 510, 550, 671];2018.0;422.4;541.6992746952795;135.42481867381989;15131.671595607348;0.0;0.0;0.0;0.0;0.0;0.0;0.0;0.0;0.0;800;4100.0;3900.0;455.577125;0.0;internal;0.16;0.0184375;282.8907833643578;0.72;0.0;0.1144;4.0308;0.0;0.0;0.0477;0.0154;1.9845;0.0;0.0013;0.0305;0.0355;;8.62870537957005;455.577125;455.576125;3.535533906e-06;454.417125;449.2022124887492;1.16;6.373912511250808;3.766956255625404;7.969448763031551;0.0;25;0.015294218783584675;0;0;0.0;0
47;801;;4300.0;3900.0;[759, 760, 761, 800, 802, 841, 842, 843];1.0;0.75;0.0;0.0;0.25;0.0;0.0;0.0;0.0;0.0;0.0;0.0;0.0;0.0;0.0;0.0;0.0;7720.0;458.5;459.0;457.0;;;;0;;0;;0.0;0.0;999.9;NA;0.0;0.0;0.0;0.0;0.0;0.0;0.0;0.0;0.0;0.0;0.0;0.0;0;0.0;;;;;;;;;;;;;;;;;;;258.0;25476.0;1.5;26581.03607697245;23922.932469275205;1.0;0.0;3418.9639230275507;1105.0360769724493;100.0;1.0;520.83;1369.5900000000001;848.7600000000001;10000.0;3500.0;2.0;1890.0;1196.0;2044.4099999999999;0.0;5927.400000000001;6586.0;;;;;;;;;;;;;;;;;;;;;;;;;;;;;;;;;;;;;;;;;;;100.0;34015.79607697245;30614.216469275205;0.76535541173188;0.850394901924311;28976.0;300.0;90.0;180.0;150.0;150.0;77.4;0.0;23.22;38.7;38.7;0.0;0.0;0.0;0.0;1.6;0.32;0.0;0.0;1.6;0.32;0.0;0.0;0.0;0.8;0.8;0.0;28.835;0.0;8.5921;576.7;14.4175;14.4175;2.8835;1.0;0.0;-1.0;841.0;458.5;0;1;0.001097222222222;0.0;458.5;0;0.0;1.0;1.0;1.0;0.0;801.0;760.0;0.0;external;collection;2.0;200.0;2.92387500000001;0.014619375;671.0;0.0;0.0;0.021944444444444;0.0;0.021944444444444;[];[760, 719, 677, 637, 595, 553, 511, 510, 550, 671];2018.0;7742.4;9929.101478221432;2482.275369555358;9929.101478221432;0.0;0.0;0.0;0.0;0.0;0.0;0.0;0.0;0.0;801;4300.0;3900.0;458.5;0.0;external;0.16;0.014619375;200.02137147068967;0.61;0.0;0.0982;3.5995;0.0;0.0;0.0449;0.0129;1.6975;0.0;0.0013;0.022;0.0316;;6.441173661651308;458.5;455.576125;0.014619375;457.34;454.41612499999997;1.160000000000025;1.160000000000025;1.160000000000025;0.0;0.0;25;0.015294218783584675;0;0;0.0;0
48;802;;4500.0;3900.0;[760, 761, 762, 801, 803, 842, 843, 844];1.0;1.0;0.0;0.0;0.0;0.0;0.0;0.0;0.0;0.0;0.0;0.0;0.0;0.0;0.0;0.0;0.0;8040.0;460.046875;463.0;459.0;;;;0;;0;;0.0;0.0;999.9;NA;0.0;0.0;0.0;0.0;0.0;0.0;0.0;0.0;0.0;0.0;0.0;0.0;0;0.0;;;;;;;;;;;;;;;;;;;269.0;37144.8;1.5;39202.0;35281.8;1.0;0.0;798.0;2057.199999999997;;;;;;;;;;;;;;;;;;;;;;;;;;;;;;;;;;;;;;;;;;;;;;;;;;;;;;;;;0.0;39202.0;35281.8;0.882045;0.98005;37144.8;300.0;90.0;180.0;150.0;150.0;80.7;0.0;24.21;40.35;40.35;0.0;0.0;0.0;0.0;0.0;0.0;0.0;0.0;0.0;0.0;0.0;0.0;0.0;0.0;0.0;0.0;29.455500000000004;0.0;8.83665;589.1100000000001;14.727750000000002;14.727750000000002;2.94555;1.0;0.0;-1.0;842.0;460.046875;0;1;0.001120833333333;0.0;460.046875;0;0.0;1.0;1.0;1.0;0.0;802.0;760.0;0.0;internal;collection;2.0;282.842712474619;4.47075000000001;0.015806488209949;671.0;0.0;0.002755466574287;0.022416666666667;0.0;0.025172133240954;[844];[760, 719, 677, 637, 595, 553, 511, 510, 550, 671];2018.0;8040.0;10310.75323993856;2577.68830998464;11541.887955155104;0.0;0.0;0.0;0.0;0.0;0.0;0.0;0.0;0.0;802;4500.0;3900.0;460.046875;0.0;internal;0.125;0.048889804792976;283.1805378923764;0.7;0.0;0.0878;3.9766;0.0;0.0;0.0371;0.0092;2.7316;0.0;0.0006;0.0252;0.0299;;17.781697090343158;460.046875;455.576125;0.015806488209949;458.921875;445.09375000000006;1.125;10.482374999999934;5.803687499999967;0.0;0.0;25;0.015294218783584675;0;0;0.0;0
49;803;;4700.0;3900.0;[761, 762, 802, 843, 844];1.0;1.0;0.0;0.0;0.0;0.0;0.0;0.0;0.0;0.0;0.0;0.0;0.0;0.0;0.0;0.0;0.0;6220.0;464.59375;475.0;462.0;;;;0;;0;;0.0;0.0;999.9;NA;0.0;0.0;0.0;0.0;0.0;0.0;0.0;0.0;0.0;0.0;0.0;0.0;0;0.0;;;;;;;;;;;;;;;;;;;208.0;28736.4;1.5;36578.5792;32920.72128;1.0;0.0;3421.4208;7842.179199999999;;;;;;;;;;;;;;;;;;;;;;;;;;;;;;;;;;;;;;;;;;;;;;;;;;;;;;;;;0.0;36578.5792;32920.72128;0.823018032;0.91446448;28736.4;300.0;90.0;180.0;150.0;150.0;62.4;0.0;18.72;31.2;31.2;0.0;0.0;0.0;0.0;0.0;0.0;0.0;0.0;0.0;0.0;0.0;0.0;0.0;0.0;0.0;0.0;22.776;0.0;6.8328;455.52;11.388;11.388;2.2776;1.0;0.0;-1.0;761.0;464.59375;0;1;0.000866666666667;0.0;464.59375;1;0.0;1.0;1.0;1.0;0.0;803.0;761.0;0.0;external;collection;2.0;282.842712474619;5.0625;0.017898640398784;671.0;0.0;0.0;0.017333333333333;0.0;0.017333333333333;[];[761, 719, 677, 637, 595, 553, 511, 510, 550, 671];2018.0;6220.0;7976.727009007194;1994.1817522517986;7976.727009007194;0.0;0.0;0.0;0.0;0.0;0.0;0.0;0.0;0.0;803;4700.0;3900.0;464.59375;0.0;external;0.125;0.017898640398784;282.88801478014227;0.78;0.0;0.098;4.3497;0.0;0.0;0.038;0.0103;1.6792;0.0;0.0008;0.0173;0.0181;;6.666459913212561;464.59375;459.53125;0.017898640398784;463.4687499999999;458.40625;1.125000000000114;1.125;1.125000000000057;0.0;1.14e-13;25;0.015294218783584675;0;0;0.0;0
50;840;;3900.0;4100.0;[798, 799, 800, 839, 841];1.0;0.0;0.0;0.0;0.25;0.0;0.0;0.0;0.0;0.0;0.0;0.0;0.0;0.25;0.0;0.0;0.5;400.0;456.40625;461.0;454.0;;;;1;;0;;0.0;0.0;999.9;GF;0.0;0.0;0.0;0.0;0.0;0.0;0.0;0.0;0.0;0.0;0.0;0.0;0;0.0;;;;;;;;;;;;;;;;;;;;;;;;;;;;100.0;1.0;464.15999999999997;1276.44;812.2800000000001;10000.0;3500.0;2.0;1890.0;1196.0;2137.5599999999995;0.0;5927.400000000001;6586.0;;;;;;;;;;;;;;;;;;;;;;;;;;;;;;;;;;;;;;;;;;;100.0;7398.28;6658.452000000001;0.1664613;0.184957;3500.0;0.0;0.0;0.0;0.0;0.0;0.0;0.0;0.0;0.0;0.0;0.0;0.0;0.0;0.0;1.6;0.32;0.0;0.0;1.6;0.32;0.0;0.0;0.0;0.8;0.8;0.0;0.584;0.0;0.1168;11.68;0.292;0.292;0.0584;1.0;0.0;-1.0;881.0;456.40625;0;2;0.000110139679278;0.0;456.40625;1;0.0;1.0;1.0;1.0;0.0;840.0;800.0;0.0;external;collection;2.0;282.842712474619;0.829124999999976;0.002931399549756;671.0;0.0;0.0;0.000444444444444;0.0;0.000444444444444;[];[800, 760, 719, 677, 637, 595, 553, 511, 510, 550, 671];2018.0;422.4;541.6992746952795;135.42481867381989;541.6992746952795;0.0;0.0;0.0;0.0;0.0;0.0;0.0;0.0;0.0;840;3900.0;4100.0;456.40625;0.0;external;0.125;0.031231399549756;282.9806212895627;0.09;0.0;0.0119;1.2528;0.0;0.0;0.0076;0.0006;0.7561;0.0;0.0001;0.0004;0.0239;;2.315002374878204;456.40625;455.577125;0.002931399549756;455.28125;446.44767623696845;1.125;9.129448763031576;5.127224381515788;0.0;0.0;5;0.00042629679364358797;0;0;0.0;0
51;841;;4100.0;4100.0;[799, 800, 801, 840, 842];1.0;0.0;0.0;0.0;1.0;0.0;0.0;0.0;0.0;0.0;0.0;0.0;0.0;0.0;0.0;0.0;0.0;1600.0;455.578125;457.0;454.0;;;;0;;0;;0.0;0.0;999.9;NA;0.0;0.0;0.0;0.0;0.0;0.0;0.0;0.0;0.0;0.0;0.0;0.0;0;0.0;;;;;;;;;;;;;;;;;;;;;;;;;;;;400.0;1.0;825.7200000000001;2673.76;1848.04;40000.0;14000.0;2.0;7560.0;4784.0;10982.239999999998;0.0;23709.600000000002;26344.0;;;;;;;;;;;;;;;;;;;;;;;;;;;;;;;;;;;;;;;;;;;400.0;28192.04;25372.836000000003;0.6343209;0.704801;14000.0;0.0;0.0;0.0;0.0;0.0;0.0;0.0;0.0;0.0;0.0;0.0;0.0;0.0;0.0;6.4;1.28;0.0;0.0;6.4;1.28;0.0;0.0;0.0;3.2;3.2;0.0;2.336;0.0;0.4672;46.72;1.168;1.168;0.2336;1.0;0.0;-1.0;881.0;455.578125;0;2;0.001186111111111;1.0;455.578125;1;0.0;1.0;1.0;1.0;0.0;841.0;800.0;0.0;external;collection;2.0;200.0;0.000999999999976;5e-06;671.0;0.0;0.0;0.001777777777778;0.0;0.001777777777778;[];[800, 760, 719, 677, 637, 595, 553, 511, 510, 550, 671];2018.0;1689.6;2166.797098781118;541.6992746952795;2166.797098781118;0.0;0.0;0.0;0.0;0.0;0.0;0.0;0.0;0.0;841;4100.0;4100.0;455.578125;0.0;external;0.125;0.0098;200.00960376941904;0.25;0.0;0.0307;2.0745;0.0;0.0;0.0181;0.0023;0.7571;0.0;0.0003;0.0018;0.0134;;1.735956939515806;455.578125;455.577125;5e-06;454.453125;452.493125;1.125;3.084000000000003;2.104500000000002;0.0;0.0;25;0.015294218783584675;0;0;0.0;0
52;842;;4300.0;4100.0;[800, 801, 802, 841, 843];1.0;0.25;0.5;0.0;0.25;0.0;0.0;0.0;0.0;0.0;0.0;0.0;0.0;0.0;0.0;0.0;0.0;2120.0;457.5625;459.0;456.0;;;;0;;0;;0.0;0.0;999.9;NA;0.0;0.0;0.0;0.0;0.0;0.0;0.0;0.0;0.0;0.0;0.0;0.0;0;0.0;;;;;;;;;;;;;;;;;;;71.0;4897.2;1.5;8833.141;7949.8269;2.0;0.0;1166.859;3935.9410000000003;100.0;1.0;499.46000000000004;1517.5900000000001;1018.1300000000001;10000.0;3500.0;2.0;1890.0;1196.0;1896.4099999999999;0.0;5927.400000000001;6586.0;;;;;;;;;;;;;;;200.0;1.0;714.8510524340094;2172.04742854949;1457.1963761154807;20000.0;14666.666666666666;3.0;3161.2859047838447;0.0;0.0;0.0;16045.15731430546;17827.95257145051;;;;;;;;;;;;;;;300.0;35722.41994756599;32150.177952809394;0.803754448820235;0.89306049868915;23063.86666666667;300.0;90.0;180.0;150.0;150.0;21.3;0.0;6.39;10.65;10.65;1.6;0.32;0.0;0.0;1.6;0.32;0.0;0.0;3.2;0.64;0.0;0.8;0.8;0.8;0.8;0.0;8.9425;0.0;2.56595;178.85000000000002;4.47125;4.47125;0.89425;1.0;0.0;-1.0;882.0;457.5625;0;2;0.001461111111111;0.0;457.5625;1;0.0;1.0;1.0;1.0;0.0;842.0;800.0;0.0;internal;collection;2.0;282.842712474619;1.985374999999976;0.007019360628491;671.0;0.0;0.01975;0.006805555555556;0.0;0.026555555555556;[843];[800, 760, 719, 677, 637, 595, 553, 511, 510, 550, 671];2018.0;2164.8;2776.208782813308;694.052195703327;11881.475947435669;0.0;0.0;0.0;0.0;0.0;0.0;0.0;0.0;0.0;842;4300.0;4100.0;457.5625;0.0;internal;0.16;0.0184375;282.8907833643578;0.65;0.0;0.1032;3.7305;0.0;0.0;0.046;0.0137;1.9357;0.0;0.0012;0.0265;0.0355;;8.312159494572898;457.5625;455.577125;0.007019360628491;456.4025;451.18758748874916;1.160000000000025;4.389537511250865;2.774768755625445;0.0;0.0;25;0.015294218783584675;0;0;0.0;0
53;843;;4500.0;4100.0;[801, 802, 803, 842, 844];1.0;1.0;0.0;0.0;0.0;0.0;0.0;0.0;0.0;0.0;0.0;0.0;0.0;0.0;0.0;0.0;0.0;7100.0;461.25;470.0;459.0;;;;0;;0;;0.0;0.0;999.9;NA;0.0;0.0;0.0;0.0;0.0;0.0;0.0;0.0;0.0;0.0;0.0;0.0;0;0.0;;;;;;;;;;;;;;;;;;;237.0;32802.0;1.5;36303.3952;32673.05568;1.0;0.0;3696.6048000000005;3501.3951999999995;;;;;;;;;;;;;;;;;;;;;;;;;;;;;;;;;;;;;;;;;;;;;;;;;;;;;;;;;0.0;36303.3952;32673.05568;0.816826392;0.90758488;32802.0;300.0;90.0;180.0;150.0;150.0;71.1;0.0;21.33;35.55;35.55;0.0;0.0;0.0;0.0;0.0;0.0;0.0;0.0;0.0;0.0;0.0;0.0;0.0;0.0;0.0;0.0;25.9515;0.0;7.785449999999999;519.03;12.97575;12.97575;2.59515;1.0;0.0;-1.0;883.0;461.25;0;1;0.0009875;0.0;461.25;1;0.0;1.0;1.0;1.0;0.0;843.0;842.0;0.0;external;collection;2.0;200.0;3.6875;0.0184375;671.0;0.0;0.0;0.01975;0.0;0.01975;[];[842, 800, 760, 719, 677, 637, 595, 553, 511, 510, 550, 671];2018.0;7100.0;9105.26716462236;2276.31679115559;9105.26716462236;0.0;0.0;0.0;0.0;0.0;0.0;0.0;0.0;0.0;843;4500.0;4100.0;461.25;0.0;external;0.16;0.0184375;200.03399125211195;0.53;0.0;0.0853;3.2737;0.0;0.0;0.0416;0.0109;1.8116;0.0;0.001;0.0198;0.0355;;7.526025692211651;461.25;457.5625;0.0184375;460.09;456.4025;1.160000000000025;1.160000000000025;1.160000000000025;0.0;0.0;5;0.00042629679364358797;0;0;0.0;0
54;844;;4700.0;4100.0;[802, 803, 843];1.0;0.25;0.0;0.0;0.0;0.0;0.0;0.0;0.0;0.0;0.0;0.0;0.0;0.0;0.0;0.75;0.0;960.0;473.875;481.0;464.0;;;;0;;0;;0.0;0.0;999.9;NA;0.0;0.0;0.0;0.0;0.0;0.0;0.0;0.0;0.0;0.0;0.0;0.0;0;0.0;2.755466574287009;1.0;2740.96;;2.9;9.0;2.0;18.0;806.56;254.60511146411963;394.2306908222767;2.0;291.7051114641196;262.53460031770766;514.8548885358803;Direct;322.624;52.4264;;;;;;;;;;;;;;;;;;;;;;;;;;;;;;;;;;;;;;;;;;;;;;;;;;;;;;;;;;;;;;;;;;0.0;4292.146003177077;3862.931402859369;0.096573285071484;0.107303650079427;2291.446003177077;551.0933148574018;165.3279944572205;330.655988914441;275.5466574287009;275.5466574287009;9.919679667433233;0.0;2.975903900229969;4.959839833716616;4.959839833716616;0.0;0.0;0.0;0.0;0.0;0.0;0.0;0.0;0.0;0.0;0.0;0.0;0.0;0.0;0.0;0.0;3.62068307861313;0.0;1.086204923583939;72.4136615722626;1.810341539306565;1.810341539306565;0.362068307861313;1.0;0.0;-1.0;884.0;473.875;0;1;0.000137773328714;0.0;473.875;1;0.0;1.0;1.0;1.0;0.0;844.0;802.0;0.0;external;collection;2.0;282.842712474619;13.828125;0.048889804792976;671.0;0.0;0.0;0.002755466574287;0.0;0.002755466574287;[];[802, 760, 719, 677, 637, 595, 553, 511, 510, 550, 671];2018.0;960.0;1231.1347152165445;307.7836788041361;1231.1347152165445;0.0;0.0;0.0;0.0;0.0;0.0;0.0;0.0;0.0;844;4700.0;4100.0;473.875;0.0;external;0.125;0.048889804792976;283.1805378923764;0.21;0.0;0.0256;1.8799;0.0;0.0;0.0154;0.0018;1.5216;0.0;0.0001;0.0028;0.0299;;7.392737860375084;473.875;460.046875;0.048889804792976;472.74999999999994;458.921875;1.125000000000057;1.125;1.125000000000028;0.0;5.7e-14;25;0.015294218783584675;0;0;0.0;0
