;BlockID;BasinID;CentreX;CentreY;Neighbours;Active;pLU_RES;pLU_COM;pLU_ORC;pLU_LI;pLU_HI;pLU_CIV;pLU_SVU;pLU_RD;pLU_TR;pLU_PG;pLU_REF;pLU_UND;pLU_NA;pLU_WAT;pLU_FOR;pLU_AGR;Population;AvgElev;MaxElev;MinElev;Slope_PCT;Slope_DEG;Aspect_DEG;HasRiver;RiverNames;HasLake;LakeNames;MiscAtot;MiscAimp;MiscThresh;UND_Type;UND_av;OpenSpace;AGreenOS;ASquare;PG_av;REF_av;ANonW_Util;SVU_avWS;SVU_avWW;SVU_avSW;SVU_avOTH;RoadTIA;ParkBuffer;RD_av;HouseOccup;ResParcels;ResFrontT;avSt_RES;WResNstrip;ResAllots;ResDWpLot;ResHouses;ResLotArea;ResRoof;avLt_RES;ResHFloors;ResLotTIA;ResLotEIA;ResGarden;ResRoofCon;ResLotALS;ResLotARS;HDRFlats;HDRRoofA;HDROccup;HDR_TIA;HDR_EIA;HDRFloors;av_HDRes;HDRGarden;HDRCarPark;LIjobs;LIestates;avSt_LI;LIAfront;LIAfrEIA;LIAestate;LIAeBldg;LIFloors;LIAeLoad;LIAeCPark;avLt_LI;LIAeLgrey;LIAeEIA;LIAeTIA;HIjobs;HIestates;avSt_HI;HIAfront;HIAfrEIA;HIAestate;HIAeBldg;HIFloors;HIAeLoad;HIAeCPark;avLt_HI;HIAeLgrey;HIAeEIA;HIAeTIA;COMjobs;COMestates;avSt_COM;COMAfront;COMAfrEIA;COMAestate;COMAeBldg;COMFloors;COMAeLoad;COMAeCPark;avLt_COM;COMAeLgrey;COMAeEIA;COMAeTIA;ORCjobs;ORCestates;avSt_ORC;ORCAfront;ORCAfrEIA;ORCAestate;ORCAeBldg;ORCFloors;ORCAeLoad;ORCAeCPark;avLt_ORC;ORCAeLgrey;ORCAeEIA;ORCAeTIA;Total_jobs;Blk_TIA;Blk_EIA;Blk_EIF;Blk_TIF;Blk_RoofsA;WD_HHIn;WD_HHHot;WD_HHNonPo;HH_GreyW;HH_BlackW;WD_In;WD_Out;WD_Hot;WW_ResG;WW_ResB;WD_COM;WD_HotCOM;WD_Office;WD_HotOff;WD_LI;WD_HotLI;WD_HI;WD_HotHI;WD_NRes;WD_HotNRes;WD_NResIrr;WW_ComG;WW_ComB;WW_IndG;WW_IndB;WD_POSIrr;Blk_WD;Blk_WDIrr;Blk_WDHot;Blk_WW;Blk_WWG;Blk_WWB;Blk_Loss;HasSWW;HasWWTP;HasCarved;SwwID_down;ModAvgElev;DEM_sink;SwwType;DesgFlow;dem_sink;blk_elev;edge;carved;has_ww;has_infra;has_pipe;has_wwtp;id_up;id_down;has_outlet;pipe_loc;type_sewer;basin_id;horiz_dist;elev_drop;terr_slope;near_wwtp;near_river;ww_inflow;peak_flow;PE;desg_flow;up_ids;down_ids;built_year;PE_blk;PE_proj;PE_ha;PE_total;pop_D;ww_D;infra_D;wwtp_D;outlet_D;pk_flow_D;PE_D;PE_Tot_D;des_flow_D
5;471;;3900.0;2300.0;[470, 472, 511, 512, 513];1.0;0.25;0.0;0.0;0.0;0.0;0.0;0.0;0.0;0.0;0.0;0.0;0.0;0.0;0.0;0.0;0.75;4.0;446.453125;450.0;442.0;;;;0;;0;;0.0;0.0;999.9;NA;0.0;0.0;0.0;0.0;0.0;0.0;0.0;0.0;0.0;0.0;0.0;0.0;0;0.0;2.383127299990112;1.0;2465.76;;1.9;2.0;1.0;2.0;3767.12;220.20096251908637;3411.421005396944;1.0;254.1809625190864;228.76286626717777;3512.9390374809136;Direct;2448.628;94.178;;;;;;;;;;;;;;;;;;;;;;;;;;;;;;;;;;;;;;;;;;;;;;;;;;;;;;;;;;;;;;;;;;0.0;2264.281925038173;2037.853732534356;0.050946343313359;0.056607048125954;440.40192503817275;476.62545999802245;142.98763799940673;285.97527599881346;238.31272999901122;238.31272999901122;0.953250919996045;0.0;0.285975275998813;0.476625459998022;0.476625459998022;0.0;0.0;0.0;0.0;0.0;0.0;0.0;0.0;0.0;0.0;0.0;0.0;0.0;0.0;0.0;0.0;0.347936585798556;0.0;0.104380975739567;0.347936585798556;0.173968292899278;0.173968292899278;0.034793658579856;1.0;0.0;-1.0;510.0;446.453125;0;2;0.050125005691078;0.0;446.453125;1;0.0;1.0;1.0;2.0;0.0;471.0;550.0;1.0;external;trunk;3.0;721.1102550927978;4.90625;0.006803744594325076;671.0;0.0;0.0;1.3239596111056165e-05;0.0;1.3239596111056165e-05;[];[550, 671];2018.0;4.0;5.129727980068935;1.2824319950172338;5.129727980068935;0.0;0.0;0.0;0.0;0.0;0.0;0.0;0.0;0.0
13;510;;3500.0;2500.0;[468, 469, 470, 509, 511, 550, 551, 552];1.0;0.25;0.0;0.0;0.0;0.0;0.0;0.0;0.0;0.0;0.0;0.0;0.0;0.0;0.0;0.0;0.75;4.0;443.4375;445.0;442.0;;;;0;;0;;0.0;0.0;999.9;NA;0.0;0.0;0.0;0.0;0.0;0.0;0.0;0.0;0.0;0.0;0.0;0.0;0;0.0;2.332546105668701;1.0;2808.96;;1.3;2.0;1.0;2.0;3595.52;215.527260163788;3233.862372704064;1.0;262.76726016378797;236.49053414740916;3332.752739836212;Direct;2337.088;89.888;;;;;;;;;;;;;;;;;;;;;;;;;;;;;;;;;;;;;;;;;;;;;;;;;;;;;;;;;;;;;;;;;;0.0;2854.014520327576;2568.6130682948183;0.06421532670737;0.071350363008189;431.054520327576;466.5092211337402;139.95276634012205;279.9055326802441;233.2546105668701;233.2546105668701;0.93301844226748;0.0;0.279905532680244;0.46650922113374;0.46650922113374;0.0;0.0;0.0;0.0;0.0;0.0;0.0;0.0;0.0;0.0;0.0;0.0;0.0;0.0;0.0;0.0;0.34055173142763;0.0;0.102165519428289;0.34055173142763;0.170275865713815;0.170275865713815;0.034055173142763;1.0;0.0;-1.0;550.0;443.4375;0;2;0.050137964280554;0.0;443.4375;0;0.0;1.0;1.0;1.0;0.0;510.0;550.0;0.0;internal;collection;2.0;282.842712474619;1.890625;0.006684368790904082;671.0;0.0;0.022003250192343733;1.2958589475937215e-05;0.0;0.02201620878181967;[511, 552, 512, 553, 594, 513, 554, 595, 514, 555, 596, 637, 515, 556, 597, 638, 677, 678, 679, 598, 639, 680, 676, 717, 718, 719, 720, 721, 760, 761, 762, 800, 801, 802, 803, 840, 841, 842, 844, 843];[550, 671];2018.0;4.0;5.129727980068935;1.2824319950172338;11436.985017962694;0.0;0.0;0.0;0.0;0.0;0.0;0.0;0.0;0.0
14;511;;3700.0;2500.0;[469, 470, 471, 510, 512, 551, 552, 553];1.0;0.75;0.0;0.0;0.0;0.0;0.0;0.0;0.0;0.0;0.0;0.0;0.0;0.0;0.0;0.0;0.25;153.0;446.859375;450.0;444.0;;;;0;;0;;0.0;0.0;999.9;NA;0.0;0.0;0.0;0.0;0.0;0.0;0.0;0.0;0.0;0.0;0.0;0.0;0;0.0;2.808150598153793;1.0;6730.24;;2.8;56.0;1.0;56.0;415.5314285714286;129.73655763470526;156.0965435971448;2.0;177.49655763470525;159.74690187123474;238.03487093672334;Direct;166.21257142857144;27.009542857142858;;;;;;;;;;;;;;;;;;;;;;;;;;;;;;;;;;;;;;;;;;;;;;;;;;;;;;;;;;;;;;;;;;0.0;14528.607227543493;13075.746504789146;0.326893662619729;0.363215180688587;7265.247227543495;561.6301196307586;168.4890358892276;336.9780717784552;280.8150598153793;280.8150598153793;31.45128669932248;0.0;9.435386009796746;15.72564334966124;15.72564334966124;0.0;0.0;0.0;0.0;0.0;0.0;0.0;0.0;0.0;0.0;0.0;0.0;0.0;0.0;0.0;0.0;11.479719645252706;0.0;3.443915893575812;11.479719645252706;5.739859822626353;5.739859822626353;1.147971964525271;1.0;0.0;-1.0;551.0;446.859375;0;1;0.000436823426379;0.0;446.859375;0;0.0;1.0;1.0;1.0;0.0;511.0;510.0;0.0;internal;collection;2.0;200.0;3.421875;0.017109375;671.0;0.0;0.0204733712104087;0.00043682342637947884;0.0;0.02091019463678818;[512, 553, 513, 554, 595, 514, 555, 596, 637, 515, 556, 597, 638, 677, 678, 679, 598, 639, 680, 676, 717, 718, 719, 720, 721, 760, 761, 762, 800, 801, 802, 803, 840, 841, 842, 844, 843];[510, 550, 671];2018.0;153.0;196.2120952376368;49.0530238094092;10751.396873426482;0.0;0.0;0.0;0.0;0.0;0.0;0.0;0.0;0.0
15;512;;3900.0;2500.0;[470, 471, 472, 511, 513, 552, 553, 554];1.0;0.75;0.25;0.0;0.0;0.0;0.0;0.0;0.0;0.0;0.0;0.0;0.0;0.0;0.0;0.0;0.0;116.0;449.828125;450.0;447.0;;;;0;;0;;0.0;0.0;999.9;NA;0.0;0.0;0.0;0.0;0.0;0.0;0.0;0.0;0.0;0.0;0.0;0.0;0;0.0;2.45358188551161;1.0;5255.04;;1.5;48.0;1.0;48.0;515.52;226.71096622127274;122.04077637113741;1.0;266.67096622127275;240.00386959914547;248.84903377872723;Direct;216.51839999999999;28.86912;;;;;;;;;;;;;;;;;;;;;;;;;;;;;;;;;;;;;;100.0;1.0;557.38;1499.1599999999999;941.7799999999999;10000.0;7333.333333333333;3.0;1167.5066666666671;0.0;0.0;0.0;7650.756;8500.84;;;;;;;;;;;;;;;100.0;26338.666378621092;23704.799740758983;0.592619993518975;0.658466659465527;18215.459711954423;490.7163771023219;147.21491313069657;294.42982626139315;245.35818855116096;245.35818855116096;23.55438610091145;0.0;7.066315830273435;11.777193050455725;11.777193050455725;0.8;0.16;0.0;0.0;0.0;0.0;0.0;0.0;0.8;0.16;0.0;0.4;0.4;0.0;0.0;0.0;8.88935092683268;0.0;2.637605278049804;8.88935092683268;4.44467546341634;4.44467546341634;0.888935092683268;1.0;0.0;-1.0;552.0;449.828125;0;1;0.000338255362513;0.0;449.828125;0;0.0;1.0;1.0;1.0;0.0;512.0;511.0;0.0;external;collection;2.0;200.0;2.96875;0.01484375;671.0;0.0;0.0;0.00033825536251265903;0.0;0.00033825536251265903;[];[511, 510, 550, 671];2018.0;127.2;163.12534976619216;40.78133744154804;163.12534976619216;0.0;0.0;0.0;0.0;0.0;0.0;0.0;0.0;0.0
16;513;;4100.0;2500.0;[471, 472, 473, 512, 514, 553, 554, 555];1.0;0.75;0.0;0.0;0.0;0.0;0.0;0.0;0.0;0.0;0.0;0.0;0.0;0.0;0.0;0.0;0.25;316.0;450.015625;451.0;449.0;;;;0;;0;;0.0;0.0;999.9;NA;0.0;0.0;0.0;0.0;0.0;0.0;0.0;0.0;0.0;0.0;0.0;0.0;0;0.0;;;;;;;;;;;;;;;;;;;211.0;29198.4;1.5;29309.17967697245;26378.261709275204;1.0;0.0;690.8203230275503;110.77967697244821;;;;;;;;;;;;;;;;;;;;;;;;;;;;;;;;;;;;;;;;;;;;;;;;;;;;;;;;;0.0;29309.17967697245;26378.261709275204;0.65945654273188;0.732729491924311;29198.4;300.0;90.0;180.0;150.0;150.0;63.3;0.0;18.99;31.65;31.65;0.0;0.0;0.0;0.0;0.0;0.0;0.0;0.0;0.0;0.0;0.0;0.0;0.0;0.0;0.0;0.0;23.104499999999998;0.0;6.93135;23.104499999999998;11.552249999999999;11.552249999999999;2.31045;1.0;0.0;-1.0;553.0;450.015625;0;1;0.000879166666667;0.0;450.015625;0;0.0;1.0;1.0;1.0;0.0;513.0;553.0;0.0;external;collection;2.0;282.842712474619;1.515625;0.005358543576179305;671.0;0.0;0.0;0.0008791666666666666;0.0;0.0008791666666666666;[];[553, 511, 510, 550, 671];2018.0;316.0;405.2485104254459;101.31212760636147;405.2485104254459;0.0;0.0;0.0;0.0;0.0;0.0;0.0;0.0;0.0
17;514;;4300.0;2500.0;[472, 473, 474, 513, 515, 554, 555, 556];1.0;0.5;0.0;0.0;0.0;0.0;0.0;0.0;0.0;0.0;0.0;0.0;0.0;0.0;0.0;0.0;0.5;88.0;450.859375;453.0;449.0;;;;0;;0;;0.0;0.0;999.9;NA;0.0;0.0;0.0;0.0;0.0;0.0;0.0;0.0;0.0;0.0;0.0;0.0;0;0.0;2.467985948379962;1.0;4597.56;;1.7;36.0;1.0;36.0;427.8455555555555;114.02095081515424;194.37980007793755;2.0;163.86095081515424;147.47485573363883;263.98460474040127;Direct;171.13822222222223;26.52642444444444;;;;;;;;;;;;;;;;;;;;;;;;;;;;;;;;;;;;;;;;;;;;;;;;;;;;;;;;;;;;;;;;;;0.0;9531.634229345553;8578.470806410998;0.214461770160275;0.238290855733639;4104.754229345553;493.59718967599235;148.0791569027977;296.1583138055954;246.79859483799618;246.79859483799618;17.769498828335724;0.0;5.330849648500717;8.884749414167862;8.884749414167862;0.0;0.0;0.0;0.0;0.0;0.0;0.0;0.0;0.0;0.0;0.0;0.0;0.0;0.0;0.0;0.0;6.48586707234254;0.0;1.945760121702762;6.48586707234254;3.24293353617127;3.24293353617127;0.648586707234254;1.0;0.0;-1.0;554.0;450.859375;0;1;0.000246798594838;0.0;450.859375;0;0.0;1.0;1.0;1.0;0.0;514.0;554.0;0.0;internal;collection;2.0;282.842712474619;0.953125;0.0033698057540921403;671.0;0.0;0.0003710160433716656;0.0002467985948379962;0.0;0.0006178146382096617;[515, 556];[554, 553, 511, 510, 550, 671];2018.0;88.0;112.85401556151658;28.213503890379144;278.28774291873975;0.0;0.0;0.0;0.0;0.0;0.0;0.0;0.0;0.0
18;515;;4500.0;2500.0;[473, 474, 475, 514, 516, 555, 556, 557];1.0;0.25;0.0;0.0;0.0;0.0;0.0;0.0;0.0;0.0;0.25;0.0;0.0;0.25;0.0;0.0;0.25;68.0;454.078125;462.0;450.0;;;;0;;0;;0.0;0.0;999.9;GF;0.0;10000.0;10000.0;0.0;4000.0;0.0;0.0;0.0;0.0;0.0;0.0;0.0;0;0.0;;;;;;;;;;;;;;;;;;;46.0;6283.2;1.5;9015.96;8114.364;1.0;0.0;984.04;2732.76;;;;;;;;;;;;;;;;;;;;;;;;;;;;;;;;;;;;;;;;;;;;;;;;;;;;;;;;;0.0;9015.96;8114.364;0.2028591;0.225399;6283.2;300.0;90.0;180.0;150.0;150.0;13.8;0.0;4.14;6.9;6.9;0.0;0.0;0.0;0.0;0.0;0.0;0.0;0.0;0.0;0.0;0.0;0.0;0.0;0.0;0.0;0.0;5.037000000000001;0.0;1.5111;5.037000000000001;2.5185;2.5185;0.5037;1.0;0.0;-1.0;555.0;454.078125;0;1;0.000191666666667;0.0;454.078125;0;0.0;1.0;1.0;1.0;0.0;515.0;514.0;0.0;external;collection;2.0;200.0;3.21875;0.01609375;671.0;0.0;0.0;0.00019166666666666667;0.0;0.00019166666666666667;[];[514, 554, 553, 511, 510, 550, 671];2018.0;68.0;87.2053756611719;21.801343915292975;87.2053756611719;0.0;0.0;0.0;0.0;0.0;0.0;0.0;0.0;0.0
22;550;;3300.0;2700.0;[508, 509, 510, 549, 551, 590, 591, 592];1.0;0.0;0.25;0.0;0.0;0.0;0.0;0.0;0.0;0.0;0.0;0.0;0.0;0.0;0.0;0.0;0.75;30.0;441.546875;443.0;440.0;;;;0;;0;;0.0;0.0;999.9;NA;0.0;0.0;0.0;0.0;0.0;0.0;0.0;0.0;0.0;0.0;0.0;0.0;0;0.0;;;;;;;;;;;;;;;;;;;;;;;;;;;;;;;;;;;;;;;;;;;;;;;;;;;;;;;;100.0;1.0;269.21999999999997;1480.71;1211.49;10000.0;7333.333333333333;3.0;1185.9566666666678;0.0;0.0;0.0;7667.361000000001;8519.29;;;;;;;;;;;;;;;100.0;9730.78;8757.702000000001;0.21894255;0.2432695;7333.333333333333;0.0;0.0;0.0;0.0;0.0;0.0;0.0;0.0;0.0;0.0;0.8;0.16;0.0;0.0;0.0;0.0;0.0;0.0;0.8;0.16;0.0;0.4;0.4;0.0;0.0;0.0;0.292;0.0;0.0584;0.292;0.146;0.146;0.0292;1.0;0.0;-1.0;591.0;441.546875;0;2;0.050149075391665;0.0;441.546875;0;0.0;1.0;1.0;2.0;0.0;550.0;671.0;1.0;internal;trunk;3.0;721.1102550927978;5.8125;0.00806048722639786;671.0;0.0;0.024118571811154545;1.1574074074074073e-05;0.0;0.024130145885228618;[471, 510, 591, 511, 552, 551, 592, 633, 512, 553, 594, 593, 634, 513, 554, 595, 514, 555, 596, 637, 515, 556, 597, 638, 677, 678, 679, 598, 639, 680, 676, 717, 718, 719, 720, 721, 760, 761, 762, 800, 801, 802, 803, 840, 841, 842, 844, 843];[671];2018.0;41.2;52.836198194710036;13.209049548677509;12490.374658669849;0.0;0.0;0.0;0.0;0.0;0.0;0.0;0.0;0.0
23;551;;3500.0;2700.0;[509, 510, 511, 550, 552, 591, 592, 593];1.0;1.0;0.0;0.0;0.0;0.0;0.0;0.0;0.0;0.0;0.0;0.0;0.0;0.0;0.0;0.0;0.0;138.0;444.5625;451.0;443.0;;;;1;Aa (Uster);0;;0.0;0.0;999.9;NA;0.0;0.0;0.0;0.0;0.0;0.0;0.0;0.0;0.0;0.0;0.0;0.0;0;0.0;2.764824097614067;2.0;8657.92;;1.9;50.0;1.0;50.0;626.8416000000001;255.46974661953985;248.6596969291468;1.0;289.18974661953985;260.27077195758585;337.65185338046024;Direct;269.54188800000003;34.476288000000004;;;;;;;;;;;;;;;;;;;;;;;;;;;;;;;;;;;;;;;;;;;;;;;;;;;;;;;;;;;;;;;;;;0.0;20952.927330976992;18857.634597879292;0.471440864946982;0.523823183274425;12773.487330976992;552.9648195228135;165.88944585684408;331.77889171368815;276.48240976140676;276.48240976140676;27.648240976140674;0.0;8.294472292842203;13.824120488070337;13.824120488070337;0.0;0.0;0.0;0.0;0.0;0.0;0.0;0.0;0.0;0.0;0.0;0.0;0.0;0.0;0.0;0.0;10.091607956291346;0.0;3.027482386887404;10.091607956291346;5.045803978145673;5.045803978145673;1.009160795629135;1.0;0.0;-1.0;591.0;444.5625;0;2;0.03214845441076;0.0;444.5625;0;0.0;1.0;1.0;1.0;0.0;551.0;591.0;0.0;internal;collection;2.0;282.842712474619;2.15625;0.007623494984667465;671.0;0.0;0.0004861111111111111;0.00038400334689084266;0.0;0.0008701144580019538;[593];[591, 550, 671];2018.0;138.0;176.97561531237827;44.24390382809457;437.05282390187335;0.0;0.0;0.0;0.0;0.0;0.0;0.0;0.0;0.0
24;552;;3700.0;2700.0;[510, 511, 512, 551, 553, 592, 593, 594];1.0;1.0;0.0;0.0;0.0;0.0;0.0;0.0;0.0;0.0;0.0;0.0;0.0;0.0;0.0;0.0;0.0;361.0;447.296875;452.0;445.0;;;;1;,Aa (Uster);0;;0.0;0.0;999.9;NA;0.0;0.0;0.0;0.0;0.0;0.0;0.0;0.0;0.0;0.0;0.0;0.0;0;0.0;;;;;;;;;;;;;;;;;;;241.0;33356.4;1.5;36653.6178;32988.25602;1.0;0.0;3346.3822;3297.2177999999985;;;;;;;;;;;;;;;;;;;;;;;;;;;;;;;;;;;;;;;;;;;;;;;;;;;;;;;;;0.0;36653.6178;32988.25602;0.8247064005;0.916340445;33356.4;300.0;90.0;180.0;150.0;150.0;72.3;0.0;21.69;36.15;36.15;0.0;0.0;0.0;0.0;0.0;0.0;0.0;0.0;0.0;0.0;0.0;0.0;0.0;0.0;0.0;0.0;26.3895;0.0;7.91685;26.3895;13.19475;13.19475;2.63895;1.0;0.0;-1.0;551.0;447.296875;0;2;0.030841516526379;0.0;447.296875;0;0.0;1.0;1.0;1.0;0.0;552.0;510.0;0.0;internal;collection;2.0;282.842712474619;3.859375;0.013644951168209159;671.0;0.0;8.888888888888887e-05;0.0010041666666666667;0.0;0.0010930555555555554;[594];[510, 550, 671];2018.0;361.0;462.9579502012214;115.73948755030536;680.4584165561442;0.0;0.0;0.0;0.0;0.0;0.0;0.0;0.0;0.0
25;553;;3900.0;2700.0;[511, 512, 513, 552, 554, 593, 594, 595];1.0;0.75;0.0;0.0;0.25;0.0;0.0;0.0;0.0;0.0;0.0;0.0;0.0;0.0;0.0;0.0;0.0;273.0;448.5;450.0;446.0;;;;1;,Aa (Uster);0;;0.0;0.0;999.9;NA;0.0;0.0;0.0;0.0;0.0;0.0;0.0;0.0;0.0;0.0;0.0;0.0;0;0.0;;;;;;;;;;;;;;;;;;;183.0;25225.2;1.5;27374.10107697245;24636.690969275205;1.0;0.0;2625.89892302755;2148.901076972449;100.0;1.0;421.3;1627.75;1206.45;10000.0;3500.0;2.0;1890.0;1196.0;1786.25;0.0;5927.400000000001;6586.0;;;;;;;;;;;;;;;;;;;;;;;;;;;;;;;;;;;;;;;;;;;100.0;35166.55107697245;31649.895969275207;0.79124739923188;0.879163776924311;28725.2;300.0;90.0;180.0;150.0;150.0;54.9;0.0;16.47;27.45;27.45;0.0;0.0;0.0;0.0;1.6;0.32;0.0;0.0;1.6;0.32;0.0;0.0;0.0;0.8;0.8;0.0;20.622500000000002;0.0;6.12835;20.622500000000002;10.311250000000001;10.311250000000001;2.06225;1.0;0.0;-1.0;552.0;448.5;0;2;0.02941020560831;0.0;448.5;0;0.0;1.0;1.0;1.0;0.0;553.0;511.0;0.0;internal;collection;2.0;282.842712474619;1.640625;0.0058004853144208975;671.0;0.0;0.01935039362567382;0.0007847222222222222;0.0;0.02013511584789604;[513, 554, 595, 514, 555, 596, 637, 515, 556, 597, 638, 677, 678, 679, 598, 639, 680, 676, 717, 718, 719, 720, 721, 760, 761, 762, 800, 801, 802, 803, 840, 841, 842, 844, 843];[511, 510, 550, 671];2018.0;295.4;378.83041132809086;94.70760283202272;10392.05942842265;0.0;0.0;0.0;0.0;0.0;0.0;0.0;0.0;0.0
26;554;;4100.0;2700.0;[512, 513, 514, 553, 555, 594, 595, 596];1.0;0.75;0.0;0.0;0.25;0.0;0.0;0.0;0.0;0.0;0.0;0.0;0.0;0.0;0.0;0.0;0.0;334.0;449.90625;451.0;448.0;;;;1;Aa (Uster);0;;0.0;0.0;999.9;NA;0.0;0.0;0.0;0.0;0.0;0.0;0.0;0.0;0.0;0.0;0.0;0.0;0;0.0;;;;;;;;;;;;;;;;;;;223.0;15430.8;1.5;26894.312676972448;24204.881409275204;2.0;0.0;3105.6873230275505;11463.51267697245;100.0;1.0;404.6700000000001;1406.71;1002.04;10000.0;3500.0;2.0;1890.0;1196.0;2007.2900000000009;0.0;5927.400000000001;6586.0;;;;;;;;;;;;;;;;;;;;;;;;;;;;;;;;;;;;;;;;;;;100.0;34482.35267697245;31034.117409275204;0.77585293523188;0.862058816924311;18930.8;300.0;90.0;180.0;150.0;150.0;66.9;0.0;20.07;33.45;33.45;0.0;0.0;0.0;0.0;1.6;0.32;0.0;0.0;1.6;0.32;0.0;0.0;0.0;0.8;0.8;0.0;25.0025;0.0;7.44235;25.0025;12.50125;12.50125;2.50025;1.0;0.0;-1.0;553.0;449.90625;0;2;0.027679650052755;0.0;449.90625;0;0.0;1.0;1.0;1.0;0.0;554.0;553.0;0.0;internal;collection;2.0;200.0;1.40625;0.00703125;671.0;0.0;0.005280314638209662;0.0009513888888888888;0.0;0.0062317035270985505;[514, 555, 596, 515, 556, 597, 638, 598, 639, 680];[553, 511, 510, 550, 671];2018.0;356.4;457.0587630241421;114.26469075603552;3264.55888651587;0.0;0.0;0.0;0.0;0.0;0.0;0.0;0.0;0.0
27;555;;4300.0;2700.0;[513, 514, 515, 554, 556, 595, 596, 597];1.0;1.0;0.0;0.0;0.0;0.0;0.0;0.0;0.0;0.0;0.0;0.0;0.0;0.0;0.0;0.0;0.0;387.0;452.625;455.0;449.0;;;;1;Aa (Uster);0;;0.0;0.0;999.9;NA;0.0;0.0;0.0;0.0;0.0;0.0;0.0;0.0;0.0;0.0;0.0;0.0;0;0.0;;;;;;;;;;;;;;;;;;;259.0;35758.8;1.5;36232.306;32609.075399999998;1.0;0.0;3767.6940000000004;473.5059999999967;;;;;;;;;;;;;;;;;;;;;;;;;;;;;;;;;;;;;;;;;;;;;;;;;;;;;;;;;0.0;36232.306;32609.075399999998;0.815226885;0.90580765;35758.8;300.0;90.0;180.0;150.0;150.0;77.7;0.0;23.31;38.85;38.85;0.0;0.0;0.0;0.0;0.0;0.0;0.0;0.0;0.0;0.0;0.0;0.0;0.0;0.0;0.0;0.0;28.360500000000002;0.0;8.508149999999999;28.360500000000002;14.180250000000001;14.180250000000001;2.83605;1.0;0.0;-1.0;554.0;452.625;0;2;0.001270833333333;0.0;452.625;0;0.0;1.0;1.0;1.0;0.0;555.0;554.0;0.0;external;collection;2.0;200.0;2.71875;0.01359375;671.0;0.0;0.0;0.0010791666666666666;0.0;0.0010791666666666666;[];[554, 553, 511, 510, 550, 671];2018.0;387.0;496.3011820716695;124.07529551791737;496.3011820716695;0.0;0.0;0.0;0.0;0.0;0.0;0.0;0.0;0.0
28;556;;4500.0;2700.0;[514, 515, 516, 555, 557, 596, 597, 598];1.0;0.75;0.0;0.0;0.0;0.0;0.0;0.0;0.0;0.0;0.25;0.0;0.0;0.0;0.0;0.0;0.0;61.0;461.75;466.0;454.0;;;;0;;0;;0.0;0.0;999.9;NA;0.0;10000.0;10000.0;0.0;4000.0;0.0;0.0;0.0;0.0;0.0;0.0;0.0;0;0.0;1.898993400405872;1.0;6657.24;;2.1;34.0;1.0;34.0;686.5517647058824;175.46699019750253;413.50820152519617;1.0;208.6669901975025;187.80029117775226;477.8847745083799;Direct;329.54484705882356;28.835174117647064;;;;;;;;;;;;;;;;;;;;;;;;;;;;;;;;;;;;;;;;;;;;;;;;;;;;;;;;;;;;;;;;;;0.0;12144.997666715084;10930.497900043578;0.273262447501089;0.303624941667877;5965.877666715086;379.7986800811743;113.9396040243523;227.8792080487046;189.89934004058716;189.89934004058716;12.913155122759926;0.0;3.873946536827979;6.456577561379963;6.456577561379963;0.0;0.0;0.0;0.0;0.0;0.0;0.0;0.0;0.0;0.0;0.0;0.0;0.0;0.0;0.0;0.0;4.713301619807373;0.0;1.413990485942212;4.713301619807373;2.356650809903686;2.356650809903686;0.471330161980737;1.0;0.0;-1.0;596.0;461.75;0;1;0.000179349376705;0.0;461.75;0;0.0;1.0;1.0;1.0;0.0;556.0;514.0;0.0;external;collection;2.0;282.842712474619;10.890625;0.03850417394429872;671.0;0.0;0.0;0.00017934937670499893;0.0;0.00017934937670499893;[];[514, 554, 553, 511, 510, 550, 671];2018.0;61.0;78.22835169605126;19.557087924012816;78.22835169605126;0.0;0.0;0.0;0.0;0.0;0.0;0.0;0.0;0.0
32;591;;3300.0;2900.0;[549, 550, 551, 590, 592, 631, 632, 633];1.0;0.75;0.0;0.0;0.0;0.0;0.0;0.0;0.0;0.0;0.0;0.0;0.0;0.0;0.0;0.0;0.25;34.0;442.40625;452.0;440.0;;;;1;Aa (Uster);0;;0.0;0.0;999.9;NA;0.0;0.0;0.0;0.0;0.0;0.0;0.0;0.0;0.0;0.0;0.0;0.0;0;0.0;2.712266082721051;1.0;6217.5599999999995;;2.1;14.0;1.0;14.0;1698.7457142857145;250.61338604342515;1331.5511540580603;1.0;290.31338604342517;261.28204743908265;1408.4323282422893;Direct;900.3352285714287;50.96237142857143;;;;;;;;;;;;;;;;;;;;;;;;;;;;;;;;;;;;;;;;;;;;;;;;;;;;;;;;;;;;;;;;;;0.0;8669.987404607951;7802.988664147157;0.195074716603679;0.216749685115199;3508.587404607952;542.4532165442102;162.73596496326306;325.4719299265261;271.2266082721051;271.2266082721051;7.594345031618944;0.0;2.278303509485683;3.797172515809472;3.797172515809472;0.0;0.0;0.0;0.0;0.0;0.0;0.0;0.0;0.0;0.0;0.0;0.0;0.0;0.0;0.0;0.0;2.771935936540914;0.0;0.831580780962274;2.771935936540914;1.385967968270457;1.385967968270457;0.277193593654091;1.0;0.0;-1.0;672.0;442.40625;0;2;0.083516538777647;0.0;442.40625;0;0.0;1.0;1.0;1.0;0.0;591.0;550.0;0.0;internal;collection;2.0;200.0;0.859375;0.004296875;671.0;0.0;0.0019836464188957774;0.00010547701432804086;0.0;0.0020891234332238184;[551, 592, 633, 593, 634];[550, 671];2018.0;34.0;43.60268783058595;10.900671957646487;995.423714532377;0.0;0.0;0.0;0.0;0.0;0.0;0.0;0.0;0.0
33;592;;3500.0;2900.0;[550, 551, 552, 591, 593, 632, 633, 634];1.0;0.75;0.0;0.0;0.25;0.0;0.0;0.0;0.0;0.0;0.0;0.0;0.0;0.0;0.0;0.0;0.0;109.0;451.625;457.0;443.0;;;;1;Aa (Uster);0;;0.0;0.0;999.9;NA;0.0;0.0;0.0;0.0;0.0;0.0;0.0;0.0;0.0;0.0;0.0;0.0;0;0.0;2.723996668240054;1.0;5626.84;;1.7;42.0;1.0;42.0;580.3133333333333;251.69729214538106;151.96664669443032;1.0;298.15729214538106;268.34156293084294;282.1560411879522;Direct;243.73159999999996;32.497546666666665;;;;;;;;;;100.0;1.0;365.18;1499.1599999999999;1133.9799999999998;10000.0;3500.0;2.0;1890.0;1196.0;1914.8400000000001;0.0;5927.400000000001;6586.0;;;;;;;;;;;;;;;;;;;;;;;;;;;;;;;;;;;;;;;;;;;100.0;24559.066270106003;22103.1596430954;0.552578991077385;0.61397665675265;14071.286270106004;544.7993336480109;163.43980009440327;326.87960018880653;272.39966682400546;272.39966682400546;22.88157201321646;0.0;6.864471603964938;11.44078600660823;11.44078600660823;0.0;0.0;0.0;0.0;1.6;0.32;0.0;0.0;1.6;0.32;0.0;0.0;0.0;0.8;0.8;0.0;8.935773784824008;0.0;2.622332135447202;8.935773784824008;4.467886892412004;4.467886892412004;0.893577378482401;1.0;0.0;-1.0;591.0;451.625;0;2;0.000561281675806;0.0;451.625;0;0.0;1.0;1.0;1.0;0.0;592.0;591.0;0.0;internal;collection;2.0;200.0;9.21875;0.04609375;671.0;0.0;0.00022125984228930204;0.00034002183351689524;0.0;0.0005612816758061973;[634];[591, 550, 671];2018.0;131.4;168.51156414526454;42.127891036316136;263.41153177653985;0.0;0.0;0.0;0.0;0.0;0.0;0.0;0.0;0.0
34;593;;3700.0;2900.0;[551, 552, 553, 592, 594, 633, 634, 635];1.0;0.5;0.0;0.0;0.5;0.0;0.0;0.0;0.0;0.0;0.0;0.0;0.0;0.0;0.0;0.0;0.0;158.0;454.8125;459.0;451.0;;;;0;;0;;0.0;0.0;999.9;NA;0.0;0.0;0.0;0.0;0.0;0.0;0.0;0.0;0.0;0.0;0.0;0.0;0;0.0;;;;;;;;;;;;;;;;;;;106.0;14599.2;1.5;18099.37897505076;16289.441077545685;1.0;0.0;1900.6210249492387;3500.1789750507605;200.0;1.0;631.9082386916236;2225.4159710444137;1593.50773235279;20000.0;7000.0;2.0;3780.0;2392.0;4602.5840289555845;0.0;11854.800000000001;13172.0;;;;;;;;;;;;;;;;;;;;;;;;;;;;;;;;;;;;;;;;;;;200.0;32864.88670740355;29578.3980366632;0.73945995091658;0.821622167685089;21599.2;300.0;90.0;180.0;150.0;150.0;31.8;0.0;9.54;15.9;15.9;0.0;0.0;0.0;0.0;3.2;0.64;0.0;0.0;3.2;0.64;0.0;0.0;0.0;1.6;1.6;0.0;12.775;0.0;3.7157;12.775;6.3875;6.3875;1.2775;1.0;0.0;-1.0;551.0;454.8125;0;1;0.000486111111111;0.0;454.8125;0;0.0;1.0;1.0;1.0;0.0;593.0;551.0;0.0;external;collection;2.0;282.842712474619;10.25;0.03623922253581056;671.0;0.0;0.0;0.0004861111111111111;0.0;0.0004861111111111111;[];[551, 591, 550, 671];2018.0;202.8;260.07720858949506;65.01930214737376;260.07720858949506;0.0;0.0;0.0;0.0;0.0;0.0;0.0;0.0;0.0
35;594;;3900.0;2900.0;[552, 553, 554, 593, 595, 634, 635, 636];1.0;0.0;0.0;0.0;1.0;0.0;0.0;0.0;0.0;0.0;0.0;0.0;0.0;0.0;0.0;0.0;0.0;80.0;453.015625;457.0;449.0;;;;1;;0;;0.0;0.0;999.9;NA;0.0;0.0;0.0;0.0;0.0;0.0;0.0;0.0;0.0;0.0;0.0;0.0;0;0.0;;;;;;;;;;;;;;;;;;;;;;;;;;;;400.0;1.0;899.9899999999999;3404.3099999999995;2504.3199999999997;40000.0;14000.0;2.0;7560.0;4784.0;10251.690000000002;0.0;23709.600000000002;26344.0;;;;;;;;;;;;;;;;;;;;;;;;;;;;;;;;;;;;;;;;;;;400.0;28848.32;25963.488;0.6490872;0.721208;14000.0;0.0;0.0;0.0;0.0;0.0;0.0;0.0;0.0;0.0;0.0;0.0;0.0;0.0;0.0;6.4;1.28;0.0;0.0;6.4;1.28;0.0;0.0;0.0;3.2;3.2;0.0;2.336;0.0;0.4672;2.336;1.168;1.168;0.2336;1.0;0.0;-1.0;552.0;453.015625;0;1;8.8888888889e-05;0.0;453.015625;0;0.0;1.0;1.0;1.0;0.0;594.0;552.0;0.0;external;collection;2.0;282.842712474619;5.71875;0.020218834524552844;671.0;0.0;0.0;8.888888888888887e-05;0.0;8.888888888888887e-05;[];[552, 510, 550, 671];2018.0;169.6;217.50046635492285;54.37511658873071;217.50046635492285;0.0;0.0;0.0;0.0;0.0;0.0;0.0;0.0;0.0
36;595;;4100.0;2900.0;[553, 554, 555, 594, 596, 635, 636, 637];1.0;0.0;0.0;0.0;0.75;0.0;0.0;0.0;0.0;0.0;0.0;0.0;0.0;0.0;0.25;0.0;0.0;60.0;451.875;454.0;450.0;;;;0;;0;;0.0;0.0;999.9;NA;0.0;0.0;0.0;0.0;0.0;0.0;0.0;0.0;0.0;0.0;0.0;0.0;0;0.0;;;;;;;;;;;;;;;;;;;;;;;;;;;;300.0;1.0;507.6152422706632;2707.2812921102036;2199.6660498395404;30000.0;10500.0;2.0;5670.0;3587.9999999999995;7534.718707889796;0.0;17782.2;19758.0;;;;;;;;;;;;;;;;;;;;;;;;;;;;;;;;;;;;;;;;;;;300.0;21957.66604983954;19761.899444855586;0.49404748612139;0.548941651245988;10500.0;0.0;0.0;0.0;0.0;0.0;0.0;0.0;0.0;0.0;0.0;0.0;0.0;0.0;0.0;4.8;0.96;0.0;0.0;4.8;0.96;0.0;0.0;0.0;2.4;2.4;0.0;1.752;0.0;0.3504;1.752;0.876;0.876;0.1752;1.0;0.0;-1.0;553.0;451.875;0;1;6.6666666667e-05;0.0;451.875;0;0.0;1.0;1.0;1.0;0.0;595.0;553.0;0.0;internal;collection;2.0;282.842712474619;3.375;0.011932426932522989;671.0;0.0;0.012172856765241937;6.666666666666666e-05;0.0;0.012239523431908603;[637, 677, 678, 679, 676, 717, 718, 719, 720, 721, 760, 761, 762, 800, 801, 802, 803, 840, 841, 842, 844, 843];[553, 511, 510, 550, 671];2018.0;127.19999999999999;163.12534976619213;40.78133744154803;6343.4216201532445;0.0;0.0;0.0;0.0;0.0;0.0;0.0;0.0;0.0
37;596;;4300.0;2900.0;[554, 555, 556, 595, 597, 636, 637, 638];1.0;0.75;0.0;0.0;0.25;0.0;0.0;0.0;0.0;0.0;0.0;0.0;0.0;0.0;0.0;0.0;0.0;282.0;452.3125;454.0;449.0;;;;1;Aa (Uster);0;;0.0;0.0;999.9;NA;0.0;0.0;0.0;0.0;0.0;0.0;0.0;0.0;0.0;0.0;0.0;0.0;0;0.0;;;;;;;;;;;;;;;;;;;189.0;26056.8;1.5;27310.65587697245;24579.590289275206;1.0;0.0;2689.3441230275503;1253.8558769724502;100.0;1.0;325.03999999999996;1682.5600000000002;1357.5200000000002;10000.0;3500.0;2.0;1890.0;1196.0;1731.4400000000005;0.0;5927.400000000001;6586.0;;;;;;;;;;;;;;;;;;;;;;;;;;;;;;;;;;;;;;;;;;;100.0;35254.175876972455;31728.758289275207;0.79321895723188;0.881354396924311;29556.8;300.0;90.0;180.0;150.0;150.0;56.7;0.0;17.01;28.35;28.35;0.0;0.0;0.0;0.0;1.6;0.32;0.0;0.0;1.6;0.32;0.0;0.0;0.0;0.8;0.8;0.0;21.279500000000002;0.0;6.325450000000001;21.279500000000002;10.639750000000001;10.639750000000001;2.12795;1.0;0.0;-1.0;554.0;452.3125;0;2;0.025210629235695;0.0;452.3125;0;0.0;1.0;1.0;1.0;0.0;596.0;554.0;0.0;internal;collection;2.0;282.842712474619;2.40625;0.00850737846115065;671.0;0.0;0.002773611111111111;0.0008097222222222222;0.0;0.003583333333333333;[597, 638, 598, 639, 680];[554, 553, 511, 510, 550, 671];2018.0;304.4;390.3722992832459;97.59307482081148;2032.911198501319;0.0;0.0;0.0;0.0;0.0;0.0;0.0;0.0;0.0
38;597;;4500.0;2900.0;[555, 556, 557, 596, 598, 637, 638, 639];1.0;1.0;0.0;0.0;0.0;0.0;0.0;0.0;0.0;0.0;0.0;0.0;0.0;0.0;0.0;0.0;0.0;287.0;456.328125;462.0;454.0;;;;1;Aa (Uster);0;;0.0;0.0;999.9;NA;0.0;0.0;0.0;0.0;0.0;0.0;0.0;0.0;0.0;0.0;0.0;0.0;0;0.0;;;;;;;;;;;;;;;;;;;192.0;26518.8;1.5;36755.92;33080.328;1.0;0.0;3244.08;10237.12;;;;;;;;;;;;;;;;;;;;;;;;;;;;;;;;;;;;;;;;;;;;;;;;;;;;;;;;;0.0;36755.92;33080.328;0.8270082;0.918898;26518.8;300.0;90.0;180.0;150.0;150.0;57.6;0.0;17.28;28.8;28.8;0.0;0.0;0.0;0.0;0.0;0.0;0.0;0.0;0.0;0.0;0.0;0.0;0.0;0.0;0.0;0.0;21.024;0.0;6.3072;21.024;10.512;10.512;2.1024;1.0;0.0;-1.0;596.0;456.328125;0;1;0.0008;0.0;456.328125;0;0.0;1.0;1.0;1.0;0.0;597.0;596.0;0.0;external;collection;2.0;200.0;4.015625;0.020078125;671.0;0.0;0.0;0.0007999999999999999;0.0;0.0007999999999999999;[];[596, 554, 553, 511, 510, 550, 671];2018.0;287.0;368.0579825699461;92.01449564248652;368.0579825699461;0.0;0.0;0.0;0.0;0.0;0.0;0.0;0.0;0.0
39;598;;4700.0;2900.0;[556, 557, 597, 638, 639];1.0;1.0;0.0;0.0;0.0;0.0;0.0;0.0;0.0;0.0;0.0;0.0;0.0;0.0;0.0;0.0;0.0;291.0;459.96875;464.0;457.0;;;;0;;0;;0.0;0.0;999.9;NA;0.0;0.0;0.0;0.0;0.0;0.0;0.0;0.0;0.0;0.0;0.0;0.0;0;0.0;;;;;;;;;;;;;;;;;;;195.0;26888.4;1.5;36717.7;33045.93;1.0;0.0;3282.2999999999993;9829.3;;;;;;;;;;;;;;;;;;;;;;;;;;;;;;;;;;;;;;;;;;;;;;;;;;;;;;;;;0.0;36717.7;33045.93;0.82614825;0.9179425;26888.4;300.0;90.0;180.0;150.0;150.0;58.5;0.0;17.55;29.25;29.25;0.0;0.0;0.0;0.0;0.0;0.0;0.0;0.0;0.0;0.0;0.0;0.0;0.0;0.0;0.0;0.0;21.352500000000003;0.0;6.40575;21.352500000000003;10.676250000000001;10.676250000000001;2.13525;1.0;0.0;-1.0;638.0;459.96875;0;1;0.0008125;0.0;459.96875;1;0.0;1.0;1.0;1.0;0.0;598.0;638.0;0.0;external;collection;2.0;282.842712474619;4.109375;0.014528834644692344;671.0;0.0;0.0;0.0008125;0.0;0.0008125;[];[638, 596, 554, 553, 511, 510, 550, 671];2018.0;291.0;373.187710550015;93.29692763750376;373.187710550015;0.0;0.0;0.0;0.0;0.0;0.0;0.0;0.0;0.0
42;632;;3300.0;3100.0;[590, 591, 592, 631, 633, 672, 673, 674];1.0;0.75;0.0;0.0;0.25;0.0;0.0;0.0;0.0;0.0;0.0;0.0;0.0;0.0;0.0;0.0;0.0;30.0;445.015625;453.0;440.0;;;;1;Aa (Uster);0;;0.0;0.0;999.9;NA;0.0;0.0;0.0;0.0;0.0;0.0;0.0;0.0;0.0;0.0;0.0;0.0;0;0.0;3.204523647418934;1.0;6291.04;;1.8;10.0;1.0;10.0;2370.8959999999997;296.0979850215096;1943.1660228542278;1.0;343.5979850215096;309.23818651935863;2027.29801497849;Direct;1303.9928;68.755984;;;;;;;;;;100.0;1.0;499.98;1480.71;980.73;10000.0;3500.0;2.0;1890.0;1196.0;1933.2900000000009;0.0;5927.400000000001;6586.0;;;;;;;;;;;;;;;;;;;;;;;;;;;;;;;;;;;;;;;;;;;100.0;15912.789850215095;14321.510865193588;0.35803777162984;0.397819746255377;6460.979850215096;640.9047294837869;192.27141884513605;384.5428376902721;320.45236474189346;320.45236474189346;6.409047294837869;0.0;1.922714188451361;3.204523647418934;3.204523647418934;0.0;0.0;0.0;0.0;1.6;0.32;0.0;0.0;1.6;0.32;0.0;0.0;0.0;0.8;0.8;0.0;2.923302262615822;0.0;0.818590678784747;2.923302262615822;1.461651131307911;1.461651131307911;0.292330226261582;1.0;0.0;-1.0;672.0;445.015625;0;2;0.001918183706668;0.0;445.015625;0;0.0;1.0;1.0;1.0;0.0;632.0;672.0;0.0;internal;collection;3.0;282.842712474619;4.84375;0.0171252423568617;671.0;0.0;0.0018069469386844798;0.00011123676798385928;0.0;0.001918183706668339;[674, 675, 716];[672, 671];2018.0;52.4;67.19943653890304;16.79985913472576;895.650505320036;0.0;0.0;0.0;0.0;0.0;0.0;0.0;0.0;0.0
43;633;;3500.0;3100.0;[591, 592, 593, 632, 634, 673, 674, 675];1.0;1.0;0.0;0.0;0.0;0.0;0.0;0.0;0.0;0.0;0.0;0.0;0.0;0.0;0.0;0.0;0.0;196.0;456.859375;460.0;453.0;;;;0;;0;;0.0;0.0;999.9;NA;0.0;0.0;0.0;0.0;0.0;0.0;0.0;0.0;0.0;0.0;0.0;0.0;0;0.0;2.366786936089826;2.0;9834.48;;1.8;42.0;2.0;84.0;718.2266666666667;218.69111289469998;349.9231301478237;2.0;260.4711128947;234.42400160523002;457.7555537719667;Direct;287.2906666666667;46.684733333333334;;;;;;;;;;;;;;;;;;;;;;;;;;;;;;;;;;;;;;;;;;;;;;;;;;;;;;;;;;;;;;;;;;0.0;18739.5467415774;16865.59206741966;0.421639801685492;0.468488668539435;9185.0267415774;473.35738721796525;142.0072161653896;284.0144323307792;236.67869360898263;236.67869360898263;39.76202052630908;0.0;11.928606157892725;19.88101026315454;19.88101026315454;0.0;0.0;0.0;0.0;0.0;0.0;0.0;0.0;0.0;0.0;0.0;0.0;0.0;0.0;0.0;0.0;14.513137492102814;0.0;4.353941247630845;14.513137492102814;7.256568746051407;7.256568746051407;1.451313749210281;1.0;0.0;-1.0;591.0;456.859375;0;1;0.000552250285088;0.0;456.859375;0;0.0;1.0;1.0;1.0;0.0;633.0;591.0;0.0;external;collection;2.0;282.842712474619;14.453125;0.051099513484184095;671.0;0.0;0.0;0.000552250285087626;0.0;0.000552250285087626;[];[591, 550, 671];2018.0;196.0;251.35667102337783;62.83916775584446;251.35667102337783;0.0;0.0;0.0;0.0;0.0;0.0;0.0;0.0;0.0
44;634;;3700.0;3100.0;[592, 593, 594, 633, 635, 674, 675, 676];1.0;0.75;0.0;0.0;0.0;0.0;0.0;0.0;0.0;0.0;0.0;0.0;0.0;0.25;0.0;0.0;0.0;74.0;461.328125;466.0;456.0;;;;0;;0;;0.0;0.0;999.9;GF;0.0;0.0;0.0;0.0;0.0;0.0;0.0;0.0;0.0;0.0;0.0;0.0;0;0.0;3.063597816313413;1.0;5255.040000000001;;1.6;26.0;1.0;26.0;951.7292307692308;283.07643822735946;522.8611890406753;1.0;329.7964382273595;296.8167944046235;621.9327925418713;Direct;437.79544615384617;43.779544615384616;;;;;;;;;;;;;;;;;;;;;;;;;;;;;;;;;;;;;;;;;;;;;;;;;;;;;;;;;;;;;;;;;;0.0;12593.267393911348;11333.940654520211;0.283348516363005;0.314831684847784;7359.987393911346;612.7195632626826;183.8158689788048;367.6317379576096;306.3597816313413;306.3597816313413;15.930708644829748;0.0;4.779212593448924;7.965354322414874;7.965354322414874;0.0;0.0;0.0;0.0;0.0;0.0;0.0;0.0;0.0;0.0;0.0;0.0;0.0;0.0;0.0;0.0;5.814708655362858;0.0;1.744412596608857;5.814708655362858;2.907354327681429;2.907354327681429;0.581470865536286;1.0;0.0;-1.0;592.0;461.328125;0;1;0.000221259842289;0.0;461.328125;0;0.0;1.0;1.0;1.0;0.0;634.0;592.0;0.0;external;collection;2.0;282.842712474619;9.703125;0.034305727431003595;671.0;0.0;0.0;0.00022125984228930204;0.0;0.00022125984228930204;[];[592, 591, 550, 671];2018.0;74.0;94.8999676312753;23.724991907818826;94.8999676312753;0.0;0.0;0.0;0.0;0.0;0.0;0.0;0.0;0.0
47;637;;4300.0;3100.0;[595, 596, 597, 636, 638, 677, 678, 679];1.0;0.5;0.0;0.0;0.0;0.0;0.0;0.0;0.0;0.0;0.0;0.0;0.0;0.5;0.0;0.0;0.0;127.0;454.359375;455.0;453.0;;;;0;;0;;20000.0;10000.0;999.9;NA;0.0;0.0;0.0;0.0;0.0;0.0;0.0;0.0;0.0;0.0;0.0;0.0;0;0.0;;;;;;;;;;;;;;;;;;;85.0;11734.8;1.5;18245.12457505076;16420.612117545683;1.0;0.0;1754.8754249492395;6510.324575050761;;;;;;;;;;;;;;;;;;;;;;;;;;;;;;;;;;;;;;;;;;;;;;;;;;;;;;;;;0.0;28245.12457505076;26420.612117545683;0.660515302938642;0.706128114376269;11734.8;300.0;90.0;180.0;150.0;150.0;25.5;0.0;7.65;12.75;12.75;0.0;0.0;0.0;0.0;0.0;0.0;0.0;0.0;0.0;0.0;0.0;0.0;0.0;0.0;0.0;0.0;9.3075;0.0;2.79225;9.3075;4.65375;4.65375;0.93075;1.0;0.0;-1.0;596.0;454.359375;0;2;0.00508744375725;0.0;454.359375;0;0.0;1.0;1.0;1.0;0.0;637.0;595.0;0.0;internal;collection;2.0;282.842712474619;2.484375;0.008783592047551645;671.0;0.0;0.01181869009857527;0.0003541666666666666;0.0;0.012172856765241935;[677, 678, 679, 676, 717, 718, 719, 720, 721, 760, 761, 762, 800, 801, 802, 803, 840, 841, 842, 844, 843];[595, 553, 511, 510, 550, 671];2018.0;127.0;162.86886336718868;40.71721584179717;6180.2962703870535;0.0;0.0;0.0;0.0;0.0;0.0;0.0;0.0;0.0
48;638;;4500.0;3100.0;[596, 597, 598, 637, 639, 678, 679, 680];1.0;0.5;0.25;0.0;0.0;0.0;0.0;0.0;0.0;0.0;0.25;0.0;0.0;0.0;0.0;0.0;0.0;223.0;455.859375;457.0;454.0;;;;1;Aa (Uster);0;;0.0;0.0;999.9;NA;0.0;10000.0;10000.0;0.0;4000.0;0.0;0.0;0.0;0.0;0.0;0.0;0.0;0;0.0;;;;;;;;;;;;;;;;;;;149.0;10302.6;1.5;17822.79357505076;16040.514217545684;2.0;0.0;2177.2064249492387;7520.193575050761;;;;;;;;;;;;;;;;;;;;;;;;;;;;;100.0;1.0;270.34;1332.3899999999999;1062.05;10000.0;7333.333333333333;3.0;1334.2766666666676;0.0;0.0;0.0;7800.849000000001;8667.61;;;;;;;;;;;;;;;100.0;27552.45357505076;24797.208217545685;0.619930205438642;0.688811339376269;17635.933333333334;300.0;90.0;180.0;150.0;150.0;44.7;0.0;13.41;22.35;22.35;0.8;0.16;0.0;0.0;0.0;0.0;0.0;0.0;0.8;0.16;0.0;0.4;0.4;0.0;0.0;0.0;16.607499999999998;0.0;4.95305;16.607499999999998;8.303749999999999;8.303749999999999;1.66075;1.0;0.0;-1.0;596.0;455.859375;0;2;0.018334113879518;0.0;455.859375;0;0.0;1.0;1.0;1.0;0.0;638.0;596.0;0.0;internal;collection;2.0;282.842712474619;3.546875;0.012540096822605179;671.0;0.0;0.0013416666666666666;0.0006319444444444444;0.0;0.001973611111111111;[598, 639, 680];[596, 554, 553, 511, 510, 550, 671];2018.0;234.2;300.34557323303613;75.08639330825903;1274.4809166481268;0.0;0.0;0.0;0.0;0.0;0.0;0.0;0.0;0.0
49;639;;4700.0;3100.0;[597, 598, 638, 679, 680];1.0;0.25;0.25;0.25;0.0;0.0;0.0;0.0;0.0;0.0;0.0;0.0;0.0;0.25;0.0;0.0;0.0;117.0;458.21875;460.0;457.0;;;;1;Aa (Uster);0;;0.0;0.0;999.9;GF;0.0;0.0;0.0;0.0;0.0;0.0;0.0;0.0;0.0;0.0;0.0;0.0;0;0.0;;;;;;;;;;;;;;;;;;;79.0;5405.4;1.5;8746.509;7871.8581;2.0;0.0;1253.491;3341.1090000000004;;;;;;;;;;;;;;;;;;;;;;;;;;;;;100.0;1.0;213.84;1088.64;874.8000000000001;10000.0;7333.333333333333;3.0;1578.0266666666676;0.0;0.0;0.0;8020.224000000001;8911.36;400.0;1.0;213.84;1088.64;874.8000000000001;10000.0;7333.333333333333;6.0;1578.0266666666676;0.0;0.0;0.0;8020.224000000001;8911.36;500.0;28318.829;25486.946100000005;0.6371736525;0.707970725;20072.066666666666;300.0;90.0;180.0;150.0;150.0;23.7;0.0;7.11;11.85;11.85;0.8;0.16;3.2;0.64;0.0;0.0;0.0;0.0;4.0;0.8;0.0;2.0;2.0;0.0;0.0;0.0;10.1105;0.0;2.88715;10.1105;5.05525;5.05525;1.01105;1.0;0.0;-1.0;638.0;458.21875;0;2;0.013003114728305;0.0;458.21875;1;0.0;1.0;1.0;1.0;0.0;639.0;638.0;0.0;external;collection;2.0;200.0;2.359375;0.011796875;671.0;0.0;0.0;0.00038472222222222217;0.0;0.00038472222222222217;[];[638, 596, 554, 553, 511, 510, 550, 671];2018.0;173.0;221.86073513798146;55.465183784495366;221.86073513798146;0.0;0.0;0.0;0.0;0.0;0.0;0.0;0.0;0.0
51;672;;3100.0;3300.0;[630, 631, 632, 671, 673, 712, 713, 714];1.0;0.0;0.5;0.0;0.0;0.0;0.0;0.0;0.0;0.0;0.0;0.0;0.0;0.0;0.0;0.25;0.25;60.0;440.171875;450.0;437.0;;;;1;,Aa (Uster);0;;0.0;0.0;999.9;NA;0.0;0.0;0.0;0.0;0.0;0.0;0.0;0.0;0.0;0.0;0.0;0.0;0;0.0;;;;;;;;;;;;;;;;;;;;;;;;;;;;;;;;;;;;;;;;;;;;;;;;;;;;;;;;200.0;1.0;469.61261120685236;1823.2019023324856;1353.5892911256333;20000.0;14666.666666666666;3.0;3510.1314310008474;0.0;0.0;0.0;16359.118287900763;18176.798097667514;;;;;;;;;;;;;;;200.0;19530.387388793148;17577.348649913834;0.439433716247846;0.488259684719829;14666.666666666666;0.0;0.0;0.0;0.0;0.0;0.0;0.0;0.0;0.0;0.0;1.6;0.32;0.0;0.0;0.0;0.0;0.0;0.0;1.6;0.32;0.0;0.8;0.8;0.0;0.0;0.0;0.584;0.0;0.1168;0.584;0.292;0.292;0.0584;1.0;1.0;-1.0;-1.0;440.171875;0;-1;0.085773585406998;0.0;440.171875;0;0.0;1.0;1.0;1.0;0.0;672.0;671.0;0.0;internal;collection;3.0;200.0;4.4375;0.0221875;671.0;0.0;0.0022237132960177693;2.2222222222222217e-05;0.0;0.0022459355182399914;[632, 673, 674, 675, 716];[671];2018.0;82.4;105.67239638942007;26.418099097355018;1141.1079891663346;0.0;0.0;0.0;0.0;0.0;0.0;0.0;0.0;0.0
52;673;;3300.0;3300.0;[631, 632, 633, 672, 674, 713, 714, 715];1.0;1.0;0.0;0.0;0.0;0.0;0.0;0.0;0.0;0.0;0.0;0.0;0.0;0.0;0.0;0.0;0.0;109.0;447.09375;454.0;440.0;;;;0;;0;;0.0;0.0;999.9;NA;0.0;0.0;0.0;0.0;0.0;0.0;0.0;0.0;0.0;0.0;0.0;0.0;0;0.0;3.437207880181089;2.0;10991.679999999998;;2.4;32.0;1.0;32.0;906.51;317.5980081287327;449.5853137700823;1.0;353.3980081287327;318.0582073158595;553.1119918712673;Direct;407.9295;47.13852;;;;;;;;;;;;;;;;;;;;;;;;;;;;;;;;;;;;;;;;;;;;;;;;;;;;;;;;;;;;;;;;;;0.0;19608.576260119444;17647.7186341075;0.441192965852687;0.490214406502986;10163.136260119447;687.4415760362178;206.23247281086537;412.46494562173075;343.7207880181089;343.7207880181089;21.99813043315897;0.0;6.599439129947692;10.999065216579485;10.999065216579485;0.0;0.0;0.0;0.0;0.0;0.0;0.0;0.0;0.0;0.0;0.0;0.0;0.0;0.0;0.0;0.0;8.029317608103023;0.0;2.408795282430908;8.029317608103023;4.014658804051511;4.014658804051511;0.802931760810302;1.0;0.0;-1.0;672.0;447.09375;0;1;0.000305529589349;0.0;447.09375;0;0.0;1.0;1.0;1.0;0.0;673.0;672.0;0.0;external;collection;3.0;200.0;6.921875;0.034609375;671.0;0.0;0.0;0.00030552958934943007;0.0;0.00030552958934943007;[];[672, 671];2018.0;109.0;139.7850874568785;34.946271864219625;139.7850874568785;0.0;0.0;0.0;0.0;0.0;0.0;0.0;0.0;0.0
53;674;;3500.0;3300.0;[632, 633, 634, 673, 675, 714, 715, 716];1.0;1.0;0.0;0.0;0.0;0.0;0.0;0.0;0.0;0.0;0.0;0.0;0.0;0.0;0.0;0.0;0.0;294.0;454.625;459.0;450.0;;;;0;;0;;0.0;0.0;999.9;NA;0.0;0.0;0.0;0.0;0.0;0.0;0.0;0.0;0.0;0.0;0.0;0.0;0;0.0;;;;;;;;;;;;;;;;;;;197.0;27165.6;1.5;36692.22;33022.998;1.0;0.0;3307.7800000000007;9526.62;;;;;;;;;;;;;;;;;;;;;;;;;;;;;;;;;;;;;;;;;;;;;;;;;;;;;;;;;0.0;36692.22;33022.998;0.82557495;0.9173055;27165.6;300.0;90.0;180.0;150.0;150.0;59.1;0.0;17.73;29.55;29.55;0.0;0.0;0.0;0.0;0.0;0.0;0.0;0.0;0.0;0.0;0.0;0.0;0.0;0.0;0.0;0.0;21.5715;0.0;6.47145;21.5715;10.78575;10.78575;2.15715;1.0;0.0;-1.0;632.0;454.625;0;2;0.001806946938684;0.0;454.625;0;0.0;1.0;1.0;1.0;0.0;674.0;632.0;0.0;internal;collection;3.0;282.842712474619;9.609375;0.033974271127322396;671.0;0.0;0.0009861136053511466;0.0008208333333333332;0.0;0.0018069469386844798;[675, 716];[632, 672, 671];2018.0;294.0;377.0350065350667;94.25875163376668;828.451068781133;0.0;0.0;0.0;0.0;0.0;0.0;0.0;0.0;0.0
54;675;;3700.0;3300.0;[633, 634, 635, 674, 676, 715, 716, 717];1.0;1.0;0.0;0.0;0.0;0.0;0.0;0.0;0.0;0.0;0.0;0.0;0.0;0.0;0.0;0.0;0.0;187.0;460.46875;463.0;458.0;;;;0;;0;;0.0;0.0;999.9;NA;0.0;0.0;0.0;0.0;0.0;0.0;0.0;0.0;0.0;0.0;0.0;0.0;0;0.0;3.026921614834124;2.0;9195.119999999999;;1.4;62.0;1.0;62.0;496.8529032258065;139.84377860533652;252.0586473208893;2.0;178.50377860533652;160.65340074480287;318.34912462047;Direct;198.7411612903226;30.80488;;;;;;;;;;;;;;;;;;;;;;;;;;;;;;;;;;;;;;;;;;;;;;;;;;;;;;;;;;;;;;;;;;0.0;18673.074273530863;16805.76684617778;0.420144171154444;0.466826856838272;8670.314273530865;605.3843229668248;181.61529689004743;363.23059378009486;302.6921614834124;302.6921614834124;37.533828023943144;0.0;11.26014840718294;18.766914011971572;18.766914011971572;0.0;0.0;0.0;0.0;0.0;0.0;0.0;0.0;0.0;0.0;0.0;0.0;0.0;0.0;0.0;0.0;13.699847228739248;0.0;4.109954168621774;13.699847228739248;6.849923614369624;6.849923614369624;1.369984722873925;1.0;0.0;-1.0;674.0;460.46875;0;1;0.000521303166999;0.0;460.46875;0;0.0;1.0;1.0;1.0;0.0;675.0;674.0;0.0;external;collection;3.0;200.0;5.84375;0.02921875;671.0;0.0;0.0;0.0005213031669992103;0.0;0.0005213031669992103;[];[674, 632, 672, 671];2018.0;187.0;239.8147830682227;59.95369576705568;239.8147830682227;0.0;0.0;0.0;0.0;0.0;0.0;0.0;0.0;0.0
55;676;;3900.0;3300.0;[634, 635, 636, 675, 677, 716, 717, 718];1.0;0.25;0.0;0.0;0.0;0.0;0.0;0.0;0.0;0.0;0.0;0.0;0.0;0.75;0.0;0.0;0.0;87.0;456.359375;461.0;454.0;;;;0;;0;;30000.0;15000.0;999.9;NA;0.0;0.0;0.0;0.0;0.0;0.0;0.0;0.0;0.0;0.0;0.0;0.0;0;0.0;;;;;;;;;;;;;;;;;;;59.0;8038.8;1.5;8880.4064;7992.36576;1.0;0.0;1119.5936000000002;841.6063999999997;;;;;;;;;;;;;;;;;;;;;;;;;;;;;;;;;;;;;;;;;;;;;;;;;;;;;;;;;0.0;23880.4064;22992.36576;0.574809144;0.59701016;8038.8;300.0;90.0;180.0;150.0;150.0;17.7;0.0;5.31;8.85;8.85;0.0;0.0;0.0;0.0;0.0;0.0;0.0;0.0;0.0;0.0;0.0;0.0;0.0;0.0;0.0;0.0;6.460500000000001;0.0;1.93815;6.460500000000001;3.23025;3.23025;0.64605;1.0;0.0;-1.0;677.0;456.359375;0;1;0.000245833333333;0.0;456.359375;0;0.0;1.0;1.0;1.0;0.0;676.0;677.0;0.0;external;collection;2.0;200.0;1.15625;0.00578125;671.0;0.0;0.0;0.0002458333333333333;0.0;0.0002458333333333333;[];[677, 637, 595, 553, 511, 510, 550, 671];2018.0;87.0;111.57158356649934;27.892895891624836;111.57158356649934;0.0;0.0;0.0;0.0;0.0;0.0;0.0;0.0;0.0
56;677;;4100.0;3300.0;[635, 636, 637, 676, 678, 717, 718, 719];1.0;0.75;0.0;0.0;0.0;0.0;0.0;0.0;0.0;0.0;0.0;0.0;0.0;0.25;0.0;0.0;0.0;170.0;455.203125;457.0;454.0;;;;0;;0;;0.0;0.0;999.9;GF;0.0;0.0;0.0;0.0;0.0;0.0;0.0;0.0;0.0;0.0;0.0;0.0;0;0.0;2.9187353097518;1.0;5848.96;;1.2;30.0;2.0;60.0;805.0346666666667;269.6911426210663;376.48911700404;2.0;304.7111426210663;274.2400283589597;500.3235240456004;Direct;322.0138666666667;56.35242666666667;;;;;;;;;;;;;;;;;;;;;;;;;;;;;;;;;;;;;;;;;;;;;;;;;;;;;;;;;;;;;;;;;;0.0;14066.774278631987;12660.09685076879;0.31650242126922;0.3516693569658;8090.73427863199;583.74706195036;175.12411858510802;350.24823717021604;291.87353097518;291.87353097518;35.024823717021604;0.0;10.507447115106482;17.512411858510802;17.512411858510802;0.0;0.0;0.0;0.0;0.0;0.0;0.0;0.0;0.0;0.0;0.0;0.0;0.0;0.0;0.0;0.0;12.784060656712885;0.0;3.835218197013865;12.784060656712885;6.392030328356443;6.392030328356443;1.278406065671289;1.0;0.0;-1.0;637.0;455.203125;0;2;0.004733277090583;0.0;455.203125;0;0.0;1.0;1.0;1.0;0.0;677.0;637.0;0.0;internal;collection;2.0;282.842712474619;0.84375;0.002983106733130747;671.0;0.0;0.008129456435838862;0.0004864558849586333;0.0;0.008615912320797494;[676, 717, 718, 719, 760, 761, 800, 801, 802, 803, 840, 841, 842, 844, 843];[637, 595, 553, 511, 510, 550, 671];2018.0;170.0;218.01343915292975;54.50335978823244;4258.9566554522335;0.0;0.0;0.0;0.0;0.0;0.0;0.0;0.0;0.0
57;678;;4300.0;3300.0;[636, 637, 638, 677, 679, 718, 719, 720];1.0;1.0;0.0;0.0;0.0;0.0;0.0;0.0;0.0;0.0;0.0;0.0;0.0;0.0;0.0;0.0;0.0;259.0;455.203125;456.0;454.0;;;;0;;0;;0.0;0.0;999.9;NA;0.0;0.0;0.0;0.0;0.0;0.0;0.0;0.0;0.0;0.0;0.0;0.0;0;0.0;;;;;;;;;;;;;;;;;;;173.0;23931.6;1.5;36777.578;33099.8202;1.0;0.0;3222.4220000000005;12845.978000000001;;;;;;;;;;;;;;;;;;;;;;;;;;;;;;;;;;;;;;;;;;;;;;;;;;;;;;;;;0.0;36777.578;33099.8202;0.827495505;0.91943945;23931.6;300.0;90.0;180.0;150.0;150.0;51.9;0.0;15.57;25.95;25.95;0.0;0.0;0.0;0.0;0.0;0.0;0.0;0.0;0.0;0.0;0.0;0.0;0.0;0.0;0.0;0.0;18.9435;0.0;5.683050000000001;18.9435;9.47175;9.47175;1.89435;1.0;0.0;-1.0;517.0;455.203125;0;2;0.027578645898196;0.0;455.203125;0;0.0;1.0;1.0;1.0;0.0;678.0;637.0;0.0;internal;collection;2.0;200.0;0.84375;0.00421875;671.0;0.0;0.001111111111111111;0.0007208333333333332;0.0;0.0018319444444444442;[720, 762];[637, 595, 553, 511, 510, 550, 671];2018.0;259.0;332.14988670946354;83.03747167736589;934.8929243675635;0.0;0.0;0.0;0.0;0.0;0.0;0.0;0.0;0.0
58;679;;4500.0;3300.0;[637, 638, 639, 678, 680, 719, 720, 721];1.0;0.25;0.25;0.5;0.0;0.0;0.0;0.0;0.0;0.0;0.0;0.0;0.0;0.0;0.0;0.0;0.0;207.0;456.96875;458.0;456.0;;;;0;;0;;0.0;0.0;999.9;NA;0.0;0.0;0.0;0.0;0.0;0.0;0.0;0.0;0.0;0.0;0.0;0.0;0;0.0;;;;;;;;;;;;;;;;;;;139.0;6831.0;1.5;8238.4378;7414.59402;2.0;0.0;1761.5622000000003;1407.4377999999997;;;;;;;;;;;;;;;;;;;;;;;;;;;;;100.0;1.0;268.38;1591.1100000000001;1322.73;10000.0;7333.333333333333;3.0;1075.5566666666664;0.0;0.0;0.0;7568.000999999999;8408.89;800.0;1.0;384.3597974644667;2278.704513539338;1894.3447160748715;20000.0;14666.666666666666;6.0;3054.6288197939957;0.0;0.0;0.0;15949.165937814596;17721.29548646066;900.0;37585.69800253553;33827.12820228198;0.845678205057049;0.939642450063388;28831.0;300.0;90.0;180.0;150.0;150.0;41.7;0.0;12.51;20.85;20.85;0.8;0.16;6.4;1.28;0.0;0.0;0.0;0.0;7.2;1.44;0.0;3.6;3.6;0.0;0.0;0.0;17.8485;0.0;5.091749999999999;17.8485;8.92425;8.92425;1.78485;1.0;0.0;-1.0;638.0;456.96875;0;2;0.002555025367795;0.0;456.96875;0;0.0;1.0;1.0;1.0;0.0;679.0;637.0;0.0;internal;collection;2.0;282.842712474619;2.609375;0.009225533785793237;671.0;0.0;0.0006916666666666667;0.0006791666666666667;0.0;0.0013708333333333333;[721];[637, 595, 553, 511, 510, 550, 671];2018.0;307.8;394.73256806630457;98.68314201657614;823.5778272000675;0.0;0.0;0.0;0.0;0.0;0.0;0.0;0.0;0.0
59;680;;4700.0;3300.0;[638, 639, 679, 720, 721];1.0;0.0;0.25;0.75;0.0;0.0;0.0;0.0;0.0;0.0;0.0;0.0;0.0;0.0;0.0;0.0;0.0;150.0;458.828125;460.0;458.0;;;;0;;0;;0.0;0.0;999.9;NA;0.0;0.0;0.0;0.0;0.0;0.0;0.0;0.0;0.0;0.0;0.0;0.0;0;0.0;;;;;;;;;;;;;;;;;;;;;;;;;;;;;;;;;;;;;;;;;;;;;;;;;;;;;;;;100.0;1.0;213.18;1201.56;988.3799999999999;10000.0;7333.333333333333;3.0;1465.1066666666675;0.0;0.0;0.0;7918.5960000000005;8798.44;1200.0;1.0;374.231177665153;2109.3030013854077;1735.0718237202548;30000.0;26400.0;5.0;1490.6969986145923;0.0;0.0;0.0;25101.627298753134;27890.696998614592;1300.0;39412.588822334845;35471.329940101365;0.886783248502534;0.985314720558371;33733.333333333336;0.0;0.0;0.0;0.0;0.0;0.0;0.0;0.0;0.0;0.0;0.8;0.16;9.6;1.92;0.0;0.0;0.0;0.0;10.4;2.08;0.0;5.2;5.2;0.0;0.0;0.0;3.796;0.0;0.7592;3.796;1.898;1.898;0.3796;1.0;0.0;-1.0;638.0;458.828125;0;2;0.001331529338973;0.0;458.828125;1;0.0;1.0;1.0;1.0;0.0;680.0;638.0;0.0;external;collection;2.0;282.842712474619;2.96875;0.010496116283237815;671.0;0.0;0.0;0.00014444444444444444;0.0;0.00014444444444444444;[];[638, 596, 554, 553, 511, 510, 550, 671];2018.0;295.59999999999997;379.08689772709425;94.77172443177356;379.08689772709425;0.0;0.0;0.0;0.0;0.0;0.0;0.0;0.0;0.0
64;716;;3700.0;3500.0;[674, 675, 676, 715, 717, 756, 757, 758];1.0;0.75;0.0;0.0;0.0;0.0;0.0;0.0;0.0;0.0;0.0;0.0;0.0;0.25;0.0;0.0;0.0;165.0;461.0625;464.0;458.0;;;;0;;0;;0.0;0.0;999.9;GF;0.0;0.0;0.0;0.0;0.0;0.0;0.0;0.0;0.0;0.0;0.0;0.0;0;0.0;2.788862630111618;1.0;7094.04;;2.9;30.0;2.0;60.0;763.5319999999999;257.6909070223136;375.1831480824222;2.0;304.1509070223136;273.7358163200823;459.3810929776863;Direct;305.4128;53.44724;;;;;;;;;;;;;;;;;;;;;;;;;;;;;;;;;;;;;;;;;;;;;;;;;;;;;;;;;;;;;;;;;;0.0;14006.447210669408;12605.802489602469;0.315145062240062;0.350161180266735;7730.727210669407;557.7725260223236;167.33175780669708;334.66351561339417;278.8862630111618;278.8862630111618;33.46635156133942;0.0;10.039905468401825;16.73317578066971;16.73317578066971;0.0;0.0;0.0;0.0;0.0;0.0;0.0;0.0;0.0;0.0;0.0;0.0;0.0;0.0;0.0;0.0;12.21521831988889;0.0;3.664565495966666;12.21521831988889;6.107609159944445;6.107609159944445;1.221521831988889;1.0;0.0;-1.0;674.0;461.0625;0;1;0.000464810438352;0.0;461.0625;0;0.0;1.0;1.0;1.0;0.0;716.0;674.0;0.0;external;collection;3.0;282.842712474619;6.4375;0.022759999519441996;671.0;0.0;0.0;0.0004648104383519364;0.0;0.0004648104383519364;[];[674, 632, 672, 671];2018.0;165.0;211.6012791778436;52.9003197944609;211.6012791778436;0.0;0.0;0.0;0.0;0.0;0.0;0.0;0.0;0.0
65;717;;3900.0;3500.0;[675, 676, 677, 716, 718, 757, 758, 759];1.0;0.5;0.0;0.0;0.0;0.0;0.0;0.0;0.0;0.0;0.0;0.0;0.0;0.5;0.0;0.0;0.0;159.0;457.09375;459.0;455.0;;;;0;;0;;20000.0;10000.0;999.9;NA;0.0;0.0;0.0;0.0;0.0;0.0;0.0;0.0;0.0;0.0;0.0;0.0;0;0.0;;;;;;;;;;;;;;;;;;;107.0;14691.6;1.5;18086.76637505076;16278.089737545684;1.0;0.0;1913.2336249492391;3395.1663750507605;;;;;;;;;;;;;;;;;;;;;;;;;;;;;;;;;;;;;;;;;;;;;;;;;;;;;;;;;0.0;28086.76637505076;26278.089737545684;0.656952243438642;0.702169159376269;14691.6;300.0;90.0;180.0;150.0;150.0;32.1;0.0;9.63;16.05;16.05;0.0;0.0;0.0;0.0;0.0;0.0;0.0;0.0;0.0;0.0;0.0;0.0;0.0;0.0;0.0;0.0;11.716500000000002;0.0;3.514950000000001;11.716500000000002;5.858250000000001;5.858250000000001;1.17165;1.0;0.0;-1.0;677.0;457.09375;0;1;0.000445833333333;0.0;457.09375;0;0.0;1.0;1.0;1.0;0.0;717.0;677.0;0.0;external;collection;2.0;282.842712474619;1.890625;0.006684368790904082;671.0;0.0;0.0;0.00044583333333333335;0.0;0.00044583333333333335;[];[677, 637, 595, 553, 511, 510, 550, 671];2018.0;159.0;203.90668720774016;50.97667180193504;203.90668720774016;0.0;0.0;0.0;0.0;0.0;0.0;0.0;0.0;0.0
66;718;;4100.0;3500.0;[676, 677, 678, 717, 719, 758, 759, 760];1.0;0.25;0.25;0.0;0.0;0.0;0.0;0.0;0.0;0.0;0.0;0.0;0.0;0.5;0.0;0.0;0.0;106.0;457.484375;459.0;456.0;;;;0;;0;;20000.0;10000.0;999.9;NA;0.0;0.0;0.0;0.0;0.0;0.0;0.0;0.0;0.0;0.0;0.0;0.0;0;0.0;;;;;;;;;;;;;;;;;;;71.0;4897.2;1.5;8833.141;7949.8269;2.0;0.0;1166.859;3935.9410000000003;;;;;;;;;;;;;;;;;;;;;;;;;;;;;100.0;1.0;496.6;1719.0;1222.4;10000.0;7333.333333333333;3.0;947.666666666667;0.0;0.0;0.0;7452.900000000001;8281.0;;;;;;;;;;;;;;;100.0;28336.540999999997;26502.8869;0.6625721725;0.708413525;12230.533333333333;300.0;90.0;180.0;150.0;150.0;21.3;0.0;6.39;10.65;10.65;0.8;0.16;0.0;0.0;0.0;0.0;0.0;0.0;0.8;0.16;0.0;0.4;0.4;0.0;0.0;0.0;8.066500000000001;0.0;2.39075;8.066500000000001;4.033250000000001;4.033250000000001;0.80665;1.0;0.0;-1.0;677.0;457.484375;0;1;0.000306944444444;0.0;457.484375;0;0.0;1.0;1.0;1.0;0.0;718.0;677.0;0.0;external;collection;2.0;200.0;2.28125;0.01140625;671.0;0.0;0.0;0.0003069444444444445;0.0;0.0003069444444444445;[];[677, 637, 595, 553, 511, 510, 550, 671];2018.0;117.2;150.30102981601982;37.575257454004955;150.30102981601982;0.0;0.0;0.0;0.0;0.0;0.0;0.0;0.0;0.0
67;719;;4300.0;3500.0;[677, 678, 679, 718, 720, 759, 760, 761];1.0;0.75;0.25;0.0;0.0;0.0;0.0;0.0;0.0;0.0;0.0;0.0;0.0;0.0;0.0;0.0;0.0;124.0;456.703125;458.0;455.0;;;;0;;0;;0.0;0.0;999.9;NA;0.0;0.0;0.0;0.0;0.0;0.0;0.0;0.0;0.0;0.0;0.0;0.0;0;0.0;3.06118746495363;1.0;6876.0;;2.8;42.0;1.0;42.0;550.5714285714286;141.4268608808577;275.4474400755724;2.0;189.1868608808577;170.26817479277193;361.38456769057086;Direct;225.7342857142857;34.13542857142857;;;;;;;;;;;;;;;;;;;;;;;;;;;;;;;;;;;;;;100.0;1.0;252.20000000000002;1164.0;911.8;10000.0;7333.333333333333;3.0;1502.666666666667;0.0;0.0;0.0;7952.400000000001;8836.0;;;;;;;;;;;;;;;100.0;22430.448156996023;20187.40334129642;0.50468508353241;0.560761203924901;13273.261490329358;612.2374929907261;183.67124789721782;367.34249579443565;306.11874649536304;306.11874649536304;25.713974705610497;0.0;7.714192411683149;12.856987352805248;12.856987352805248;0.8;0.16;0.0;0.0;0.0;0.0;0.0;0.0;0.8;0.16;0.0;0.4;0.4;0.0;0.0;0.0;9.677600767547831;0.0;2.874080230264349;9.677600767547831;4.838800383773916;4.838800383773916;0.967760076754783;1.0;0.0;-1.0;677.0;456.703125;0;2;0.003248210094513;0.0;455.575125;0;3.0;1.0;1.0;1.0;0.0;719.0;677.0;0.0;internal;collection;2.0;282.842712474619;0.3720000000000141;0.0013152186130070281;671.0;0.0;0.006762595676038714;0.0003682496486890347;0.0;0.007130845324727749;[760, 761, 800, 801, 802, 803, 840, 841, 842, 844, 843];[677, 637, 595, 553, 511, 510, 550, 671];2018.0;135.2;173.38480572633;43.3462014315825;3575.1639157090444;0.0;0.0;0.0;0.0;0.0;0.0;0.0;0.0;0.0
68;720;;4500.0;3500.0;[678, 679, 680, 719, 721, 760, 761, 762];1.0;0.5;0.0;0.5;0.0;0.0;0.0;0.0;0.0;0.0;0.0;0.0;0.0;0.0;0.0;0.0;0.0;182.0;458.171875;459.0;457.0;;;;0;;0;;0.0;0.0;999.9;NA;0.0;0.0;0.0;0.0;0.0;0.0;0.0;0.0;0.0;0.0;0.0;0.0;0;0.0;;;;;;;;;;;;;;;;;;;122.0;16816.8;1.5;18146.26217505076;16331.635957545685;1.0;0.0;1853.737824949239;1329.4621750507617;;;;;;;;;;;;;;;;;;;;;;;;;;;;;;;;;;;;;;;;;;;800.0;1.0;413.61406871192855;1957.773258569795;1544.1591898578663;20000.0;14666.666666666666;6.0;3375.560074763538;0.0;0.0;0.0;16238.004067287184;18042.226741430204;800.0;37732.648106338835;33959.383295704945;0.848984582392624;0.943316202658471;31483.466666666667;300.0;90.0;180.0;150.0;150.0;36.6;0.0;10.98;18.3;18.3;0.0;0.0;6.4;1.28;0.0;0.0;0.0;0.0;6.4;1.28;0.0;3.2;3.2;0.0;0.0;0.0;15.694999999999999;0.0;4.474900000000001;15.694999999999999;7.847499999999999;7.847499999999999;1.5695;1.0;0.0;-1.0;678.0;458.171875;0;2;0.001440277777778;0.0;458.171875;0;0.0;1.0;1.0;1.0;0.0;720.0;678.0;0.0;internal;collection;2.0;282.842712474619;2.96875;0.010496116283237815;671.0;0.0;0.0005138888888888888;0.0005972222222222221;0.0;0.001111111111111111;[762];[678, 637, 595, 553, 511, 510, 550, 671];2018.0;271.6;348.30852984668076;87.07713246167019;602.7430376581;0.0;0.0;0.0;0.0;0.0;0.0;0.0;0.0;0.0
69;721;;4700.0;3500.0;[679, 680, 720, 761, 762];1.0;0.25;0.0;0.75;0.0;0.0;0.0;0.0;0.0;0.0;0.0;0.0;0.0;0.0;0.0;0.0;0.0;200.0;459.09375;460.0;458.0;;;;0;;0;;0.0;0.0;999.9;NA;0.0;0.0;0.0;0.0;0.0;0.0;0.0;0.0;0.0;0.0;0.0;0.0;0;0.0;;;;;;;;;;;;;;;;;;;134.0;6600.0;1.5;8253.3436;7428.00924;2.0;0.0;1746.6564;1653.3436;;;;;;;;;;;;;;;;;;;;;;;;;;;;;;;;;;;;;;;;;;;1200.0;1.0;406.3321938165305;2641.1592598074485;2234.827065990918;30000.0;26400.0;5.0;958.8407401925506;0.0;0.0;0.0;24622.956666173297;27358.84074019255;1200.0;37847.01140618347;34062.310265565124;0.851557756639128;0.946175285154587;33000.0;300.0;90.0;180.0;150.0;150.0;40.2;0.0;12.06;20.1;20.1;0.0;0.0;9.6;1.92;0.0;0.0;0.0;0.0;9.6;1.92;0.0;4.8;4.8;0.0;0.0;0.0;18.177000000000003;0.0;5.1027;18.177000000000003;9.088500000000002;9.088500000000002;1.8177;1.0;0.0;-1.0;679.0;459.09375;0;2;0.001875858701128;0.0;459.09375;1;0.0;1.0;1.0;1.0;0.0;721.0;679.0;0.0;external;collection;2.0;282.842712474619;2.125;0.007513009550107067;671.0;0.0;0.0;0.0006916666666666667;0.0;0.0006916666666666667;[];[679, 637, 595, 553, 511, 510, 550, 671];2018.0;334.4;428.84525913376297;107.21131478344074;428.84525913376297;0.0;0.0;0.0;0.0;0.0;0.0;0.0;0.0;0.0
77;760;;4300.0;3700.0;[718, 719, 720, 759, 761, 800, 801, 802];1.0;1.0;0.0;0.0;0.0;0.0;0.0;0.0;0.0;0.0;0.0;0.0;0.0;0.0;0.0;0.0;0.0;237.0;458.203125;459.0;457.0;;;;0;;0;;0.0;0.0;999.9;NA;0.0;0.0;0.0;0.0;0.0;0.0;0.0;0.0;0.0;0.0;0.0;0.0;0;0.0;2.893728786546412;2.0;7899.120000000001;;1.3;41.0;2.0;82.0;782.9482926829268;267.38053987688846;369.09004436541767;2.0;301.88053987688846;271.69248588919965;481.0677528060383;Direct;313.17931707317075;54.80638048780488;;;;;;;;;;;;;;;;;;;;;;;;;;;;;;;;;;;;;;;;;;;;;;;;;;;;;;;;;;;;;;;;;;0.0;18787.982134952428;16909.18392145719;0.42272959803643;0.469699553373811;10962.602134952427;578.7457573092823;173.6237271927847;347.2474543855694;289.37287865464117;289.37287865464117;47.457152099361146;0.0;14.237145629808346;23.728576049680573;23.728576049680573;0.0;0.0;0.0;0.0;0.0;0.0;0.0;0.0;0.0;0.0;0.0;0.0;0.0;0.0;0.0;0.0;17.321860516266817;0.0;5.196558154880046;17.321860516266817;8.660930258133408;8.660930258133408;1.732186051626682;1.0;0.0;-1.0;719.0;458.203125;0;1;0.000659127112491;0.0;455.576125;0;2.0;1.0;1.0;1.0;0.0;760.0;719.0;0.0;internal;collection;2.0;200.0;0.0009999999999763531;4.999999999881766e-06;671.0;0.0;0.003882635230214254;0.000659127112491127;0.0;0.004541762342705381;[800, 801, 802, 840, 841, 842, 844, 843];[719, 677, 637, 595, 553, 511, 510, 550, 671];2018.0;237.0;303.93638281908443;75.98409570477111;2379.6808099539794;0.0;0.0;0.0;0.0;0.0;0.0;0.0;0.0;0.0
78;761;;4500.0;3700.0;[719, 720, 721, 760, 762, 801, 802, 803];1.0;1.0;0.0;0.0;0.0;0.0;0.0;0.0;0.0;0.0;0.0;0.0;0.0;0.0;0.0;0.0;0.0;486.0;459.53125;461.0;459.0;;;;0;;0;;0.0;0.0;999.9;NA;0.0;0.0;0.0;0.0;0.0;0.0;0.0;0.0;0.0;0.0;0.0;0.0;0;0.0;;;;;;;;;;;;;;;;;;;325.0;22453.2;1.5;35765.385;32188.846500000003;2.0;0.0;4234.615;13312.185;;;;;;;;;;;;;;;;;;;;;;;;;;;;;;;;;;;;;;;;;;;;;;;;;;;;;;;;;0.0;35765.385;32188.846500000003;0.8047211625;0.894134625;22453.2;300.0;90.0;180.0;150.0;150.0;97.5;0.0;29.25;48.75;48.75;0.0;0.0;0.0;0.0;0.0;0.0;0.0;0.0;0.0;0.0;0.0;0.0;0.0;0.0;0.0;0.0;35.5875;0.0;10.676250000000001;35.5875;17.79375;17.79375;3.55875;1.0;0.0;-1.0;719.0;459.53125;0;2;0.002220833333333;0.0;459.53125;0;0.0;1.0;1.0;1.0;0.0;761.0;719.0;0.0;internal;collection;2.0;282.842712474619;3.956124999999986;0.013987014073608101;671.0;0.0;0.0008666666666666666;0.0013541666666666665;0.0;0.0022208333333333333;[803];[719, 677, 637, 595, 553, 511, 510, 550, 671];2018.0;486.0;623.2619495783756;155.8154873945939;1022.0983000287354;0.0;0.0;0.0;0.0;0.0;0.0;0.0;0.0;0.0
79;762;;4700.0;3700.0;[720, 721, 761, 802, 803];1.0;0.5;0.5;0.0;0.0;0.0;0.0;0.0;0.0;0.0;0.0;0.0;0.0;0.0;0.0;0.0;0.0;176.0;460.640625;463.0;459.0;;;;0;;0;;0.0;0.0;999.9;NA;0.0;0.0;0.0;0.0;0.0;0.0;0.0;0.0;0.0;0.0;0.0;0.0;0;0.0;;;;;;;;;;;;;;;;;;;118.0;16262.4;1.5;17993.12737505076;16193.814637545685;1.0;0.0;2006.8726249492393;1730.727375050761;;;;;;;;;;;;;;;;;;;;;;;;;;;;;200.0;1.0;795.8838661763951;2305.3187847868;1509.4349186104046;20000.0;14666.666666666666;3.0;3028.0145485465346;0.0;0.0;0.0;15925.21309369188;17694.6812152132;;;;;;;;;;;;;;;200.0;37197.243508874366;33477.51915798693;0.836937978949673;0.929931087721859;30929.066666666666;300.0;90.0;180.0;150.0;150.0;35.4;0.0;10.62;17.7;17.7;1.6;0.32;0.0;0.0;0.0;0.0;0.0;0.0;1.6;0.32;0.0;0.8;0.8;0.0;0.0;0.0;13.504999999999999;0.0;3.9931;13.504999999999999;6.7525;6.7525;1.3505;1.0;0.0;-1.0;720.0;460.640625;0;2;0.000843055555556;0.0;460.640625;1;0.0;1.0;1.0;1.0;0.0;762.0;720.0;0.0;external;collection;2.0;282.842712474619;2.46875;0.008728349330271445;671.0;0.0;0.0;0.0005138888888888888;0.0;0.0005138888888888888;[];[720, 678, 637, 595, 553, 511, 510, 550, 671];2018.0;198.4;254.4345078114192;63.6086269528548;254.4345078114192;0.0;0.0;0.0;0.0;0.0;0.0;0.0;0.0;0.0
86;800;;4100.0;3900.0;[758, 759, 760, 799, 801, 840, 841, 842];1.0;0.25;0.0;0.0;0.25;0.0;0.0;0.0;0.0;0.0;0.0;0.0;0.0;0.5;0.0;0.0;0.0;20.0;457.390625;459.0;456.0;;;;0;;0;;20000.0;10000.0;999.9;NA;0.0;0.0;0.0;0.0;0.0;0.0;0.0;0.0;0.0;0.0;0.0;0.0;0;0.0;2.956285567495662;1.0;3011.0399999999995;;1.4;8.0;1.0;8.0;873.6200000000001;273.1607864365992;474.56769262571066;1.0;309.4807864365992;278.5327077929393;564.139213563401;Direct;401.8652000000001;40.18652;;;;;;;;;;100.0;1.0;344.52000000000004;1646.04;1301.52;10000.0;3500.0;2.0;1890.0;1196.0;1767.9599999999991;0.0;5927.400000000001;6586.0;;;;;;;;;;;;;;;;;;;;;;;;;;;;;;;;;;;;;;;;;;;100.0;22860.326291492795;21574.293662343516;0.539357341558588;0.57150815728732;5685.286291492794;591.2571134991324;177.37713404973974;354.7542680994795;295.6285567495662;295.6285567495662;4.730056907993059;0.0;1.419017072397918;2.365028453996529;2.365028453996529;0.0;0.0;0.0;0.0;1.6;0.32;0.0;0.0;1.6;0.32;0.0;0.0;0.0;0.8;0.8;0.0;2.310470771417466;0.0;0.63474123142524;2.310470771417466;1.155235385708733;1.155235385708733;0.231047077141747;1.0;0.0;-1.0;840.0;457.390625;0;1;8.7917457055e-05;0.0;455.577125;0;1.0;1.0;1.0;1.0;0.0;800.0;760.0;0.0;internal;collection;2.0;282.842712474619;0.0010000000000331966;3.535533906050105e-06;671.0;0.0;0.0014388888888888889;8.791745705545912e-05;0.0;0.001526806345944348;[840, 841, 842, 843];[760, 719, 677, 637, 595, 553, 511, 510, 550, 671];2018.0;42.4;54.37511658873071;13.593779147182678;974.9048026121012;0.0;0.0;0.0;0.0;0.0;0.0;0.0;0.0;0.0
87;801;;4300.0;3900.0;[759, 760, 761, 800, 802, 841, 842, 843];1.0;0.75;0.0;0.0;0.25;0.0;0.0;0.0;0.0;0.0;0.0;0.0;0.0;0.0;0.0;0.0;0.0;386.0;458.5;459.0;457.0;;;;0;;0;;0.0;0.0;999.9;NA;0.0;0.0;0.0;0.0;0.0;0.0;0.0;0.0;0.0;0.0;0.0;0.0;0;0.0;;;;;;;;;;;;;;;;;;;258.0;25476.0;1.5;26581.03607697245;23922.932469275205;1.0;0.0;3418.9639230275507;1105.0360769724493;100.0;1.0;520.83;1369.5900000000001;848.7600000000001;10000.0;3500.0;2.0;1890.0;1196.0;2044.4099999999999;0.0;5927.400000000001;6586.0;;;;;;;;;;;;;;;;;;;;;;;;;;;;;;;;;;;;;;;;;;;100.0;34015.79607697245;30614.216469275205;0.76535541173188;0.850394901924311;28976.0;300.0;90.0;180.0;150.0;150.0;77.4;0.0;23.22;38.7;38.7;0.0;0.0;0.0;0.0;1.6;0.32;0.0;0.0;1.6;0.32;0.0;0.0;0.0;0.8;0.8;0.0;28.835;0.0;8.5921;28.835;14.4175;14.4175;2.8835;1.0;0.0;-1.0;841.0;458.5;0;1;0.001097222222222;0.0;458.5;0;0.0;1.0;1.0;1.0;0.0;801.0;760.0;0.0;external;collection;2.0;200.0;2.9238750000000095;0.014619375000000047;671.0;0.0;0.0;0.001097222222222222;0.0;0.001097222222222222;[];[760, 719, 677, 637, 595, 553, 511, 510, 550, 671];2018.0;408.4;523.7452267650383;130.93630669125957;523.7452267650383;0.0;0.0;0.0;0.0;0.0;0.0;0.0;0.0;0.0
88;802;;4500.0;3900.0;[760, 761, 762, 801, 803, 842, 843, 844];1.0;1.0;0.0;0.0;0.0;0.0;0.0;0.0;0.0;0.0;0.0;0.0;0.0;0.0;0.0;0.0;0.0;402.0;460.046875;463.0;459.0;;;;0;;0;;0.0;0.0;999.9;NA;0.0;0.0;0.0;0.0;0.0;0.0;0.0;0.0;0.0;0.0;0.0;0.0;0;0.0;;;;;;;;;;;;;;;;;;;269.0;37144.8;1.5;39202.0;35281.8;1.0;0.0;798.0;2057.199999999997;;;;;;;;;;;;;;;;;;;;;;;;;;;;;;;;;;;;;;;;;;;;;;;;;;;;;;;;;0.0;39202.0;35281.8;0.882045;0.98005;37144.8;300.0;90.0;180.0;150.0;150.0;80.7;0.0;24.21;40.35;40.35;0.0;0.0;0.0;0.0;0.0;0.0;0.0;0.0;0.0;0.0;0.0;0.0;0.0;0.0;0.0;0.0;29.455500000000004;0.0;8.83665;29.455500000000004;14.727750000000002;14.727750000000002;2.94555;1.0;0.0;-1.0;842.0;460.046875;0;1;0.001120833333333;0.0;460.046875;0;0.0;1.0;1.0;1.0;0.0;802.0;760.0;0.0;internal;collection;2.0;282.842712474619;4.4707500000000095;0.01580648820994882;671.0;0.0;0.00013777332871435044;0.0011208333333333335;0.0;0.0012586066620476838;[844];[760, 719, 677, 637, 595, 553, 511, 510, 550, 671];2018.0;402.0;515.537661996928;128.884415499232;577.0943977577552;0.0;0.0;0.0;0.0;0.0;0.0;0.0;0.0;0.0
89;803;;4700.0;3900.0;[761, 762, 802, 843, 844];1.0;1.0;0.0;0.0;0.0;0.0;0.0;0.0;0.0;0.0;0.0;0.0;0.0;0.0;0.0;0.0;0.0;311.0;464.59375;475.0;462.0;;;;0;;0;;0.0;0.0;999.9;NA;0.0;0.0;0.0;0.0;0.0;0.0;0.0;0.0;0.0;0.0;0.0;0.0;0;0.0;;;;;;;;;;;;;;;;;;;208.0;28736.4;1.5;36578.5792;32920.72128;1.0;0.0;3421.4208;7842.179199999999;;;;;;;;;;;;;;;;;;;;;;;;;;;;;;;;;;;;;;;;;;;;;;;;;;;;;;;;;0.0;36578.5792;32920.72128;0.823018032;0.91446448;28736.4;300.0;90.0;180.0;150.0;150.0;62.4;0.0;18.72;31.2;31.2;0.0;0.0;0.0;0.0;0.0;0.0;0.0;0.0;0.0;0.0;0.0;0.0;0.0;0.0;0.0;0.0;22.776;0.0;6.8328;22.776;11.388;11.388;2.2776;1.0;0.0;-1.0;761.0;464.59375;0;1;0.000866666666667;0.0;464.59375;1;0.0;1.0;1.0;1.0;0.0;803.0;761.0;0.0;external;collection;2.0;282.842712474619;5.0625;0.017898640398784485;671.0;0.0;0.0;0.0008666666666666666;0.0;0.0008666666666666666;[];[761, 719, 677, 637, 595, 553, 511, 510, 550, 671];2018.0;311.0;398.8363504503597;99.70908761258993;398.8363504503597;0.0;0.0;0.0;0.0;0.0;0.0;0.0;0.0;0.0
95;840;;3900.0;4100.0;[798, 799, 800, 839, 841];1.0;0.0;0.0;0.0;0.25;0.0;0.0;0.0;0.0;0.0;0.0;0.0;0.0;0.25;0.0;0.0;0.5;20.0;456.40625;461.0;454.0;;;;1;;0;;0.0;0.0;999.9;GF;0.0;0.0;0.0;0.0;0.0;0.0;0.0;0.0;0.0;0.0;0.0;0.0;0;0.0;;;;;;;;;;;;;;;;;;;;;;;;;;;;100.0;1.0;464.15999999999997;1276.44;812.2800000000001;10000.0;3500.0;2.0;1890.0;1196.0;2137.5599999999995;0.0;5927.400000000001;6586.0;;;;;;;;;;;;;;;;;;;;;;;;;;;;;;;;;;;;;;;;;;;100.0;7398.28;6658.452000000001;0.1664613;0.184957;3500.0;0.0;0.0;0.0;0.0;0.0;0.0;0.0;0.0;0.0;0.0;0.0;0.0;0.0;0.0;1.6;0.32;0.0;0.0;1.6;0.32;0.0;0.0;0.0;0.8;0.8;0.0;0.584;0.0;0.1168;0.584;0.292;0.292;0.0584;1.0;0.0;-1.0;881.0;456.40625;0;2;0.000110139679278;0.0;456.40625;1;0.0;1.0;1.0;1.0;0.0;840.0;800.0;0.0;external;collection;2.0;282.842712474619;0.8291249999999764;0.0029313995497563974;671.0;0.0;0.0;2.2222222222222217e-05;0.0;2.2222222222222217e-05;[];[800, 760, 719, 677, 637, 595, 553, 511, 510, 550, 671];2018.0;42.4;54.37511658873071;13.593779147182678;54.37511658873071;0.0;0.0;0.0;0.0;0.0;0.0;0.0;0.0;0.0
96;841;;4100.0;4100.0;[799, 800, 801, 840, 842];1.0;0.0;0.0;0.0;1.0;0.0;0.0;0.0;0.0;0.0;0.0;0.0;0.0;0.0;0.0;0.0;0.0;80.0;455.578125;457.0;454.0;;;;0;;0;;0.0;0.0;999.9;NA;0.0;0.0;0.0;0.0;0.0;0.0;0.0;0.0;0.0;0.0;0.0;0.0;0;0.0;;;;;;;;;;;;;;;;;;;;;;;;;;;;400.0;1.0;825.7200000000001;2673.76;1848.04;40000.0;14000.0;2.0;7560.0;4784.0;10982.239999999998;0.0;23709.600000000002;26344.0;;;;;;;;;;;;;;;;;;;;;;;;;;;;;;;;;;;;;;;;;;;400.0;28192.04;25372.836000000003;0.6343209;0.704801;14000.0;0.0;0.0;0.0;0.0;0.0;0.0;0.0;0.0;0.0;0.0;0.0;0.0;0.0;0.0;6.4;1.28;0.0;0.0;6.4;1.28;0.0;0.0;0.0;3.2;3.2;0.0;2.336;0.0;0.4672;2.336;1.168;1.168;0.2336;1.0;0.0;-1.0;881.0;455.578125;0;2;0.001186111111111;1.0;455.578125;1;0.0;1.0;1.0;1.0;0.0;841.0;800.0;0.0;external;collection;2.0;200.0;0.0009999999999763531;4.999999999881766e-06;671.0;0.0;0.0;8.888888888888887e-05;0.0;8.888888888888887e-05;[];[800, 760, 719, 677, 637, 595, 553, 511, 510, 550, 671];2018.0;169.6;217.50046635492285;54.37511658873071;217.50046635492285;0.0;0.0;0.0;0.0;0.0;0.0;0.0;0.0;0.0
97;842;;4300.0;4100.0;[800, 801, 802, 841, 843];1.0;0.25;0.5;0.0;0.25;0.0;0.0;0.0;0.0;0.0;0.0;0.0;0.0;0.0;0.0;0.0;0.0;106.0;457.5625;459.0;456.0;;;;0;;0;;0.0;0.0;999.9;NA;0.0;0.0;0.0;0.0;0.0;0.0;0.0;0.0;0.0;0.0;0.0;0.0;0;0.0;;;;;;;;;;;;;;;;;;;71.0;4897.2;1.5;8833.141;7949.8269;2.0;0.0;1166.859;3935.9410000000003;100.0;1.0;499.46000000000004;1517.5900000000001;1018.1300000000001;10000.0;3500.0;2.0;1890.0;1196.0;1896.4099999999999;0.0;5927.400000000001;6586.0;;;;;;;;;;;;;;;200.0;1.0;714.8510524340094;2172.04742854949;1457.1963761154807;20000.0;14666.666666666666;3.0;3161.2859047838447;0.0;0.0;0.0;16045.15731430546;17827.95257145051;;;;;;;;;;;;;;;300.0;35722.41994756599;32150.177952809394;0.803754448820235;0.89306049868915;23063.86666666667;300.0;90.0;180.0;150.0;150.0;21.3;0.0;6.39;10.65;10.65;1.6;0.32;0.0;0.0;1.6;0.32;0.0;0.0;3.2;0.64;0.0;0.8;0.8;0.8;0.8;0.0;8.9425;0.0;2.56595;8.9425;4.47125;4.47125;0.89425;1.0;0.0;-1.0;882.0;457.5625;0;2;0.001461111111111;0.0;457.5625;1;0.0;1.0;1.0;1.0;0.0;842.0;800.0;0.0;internal;collection;2.0;282.842712474619;1.9853749999999764;0.007019360628491125;671.0;0.0;0.0009874999999999999;0.0003402777777777778;0.0;0.0013277777777777776;[843];[800, 760, 719, 677, 637, 595, 553, 511, 510, 550, 671];2018.0;150.8;193.39074484859887;48.34768621214972;648.6541030797168;0.0;0.0;0.0;0.0;0.0;0.0;0.0;0.0;0.0
98;843;;4500.0;4100.0;[801, 802, 803, 842, 844];1.0;1.0;0.0;0.0;0.0;0.0;0.0;0.0;0.0;0.0;0.0;0.0;0.0;0.0;0.0;0.0;0.0;355.0;461.25;470.0;459.0;;;;0;;0;;0.0;0.0;999.9;NA;0.0;0.0;0.0;0.0;0.0;0.0;0.0;0.0;0.0;0.0;0.0;0.0;0;0.0;;;;;;;;;;;;;;;;;;;237.0;32802.0;1.5;36303.3952;32673.05568;1.0;0.0;3696.6048000000005;3501.3951999999995;;;;;;;;;;;;;;;;;;;;;;;;;;;;;;;;;;;;;;;;;;;;;;;;;;;;;;;;;0.0;36303.3952;32673.05568;0.816826392;0.90758488;32802.0;300.0;90.0;180.0;150.0;150.0;71.1;0.0;21.33;35.55;35.55;0.0;0.0;0.0;0.0;0.0;0.0;0.0;0.0;0.0;0.0;0.0;0.0;0.0;0.0;0.0;0.0;25.9515;0.0;7.785449999999999;25.9515;12.97575;12.97575;2.59515;1.0;0.0;-1.0;883.0;461.25;0;1;0.0009875;0.0;461.25;1;0.0;1.0;1.0;1.0;0.0;843.0;842.0;0.0;external;collection;2.0;200.0;3.6875;0.0184375;671.0;0.0;0.0;0.0009874999999999999;0.0;0.0009874999999999999;[];[842, 800, 760, 719, 677, 637, 595, 553, 511, 510, 550, 671];2018.0;355.0;455.263358231118;113.8158395577795;455.263358231118;0.0;0.0;0.0;0.0;0.0;0.0;0.0;0.0;0.0
99;844;;4700.0;4100.0;[802, 803, 843];1.0;0.25;0.0;0.0;0.0;0.0;0.0;0.0;0.0;0.0;0.0;0.0;0.0;0.0;0.0;0.75;0.0;48.0;473.875;481.0;464.0;;;;0;;0;;0.0;0.0;999.9;NA;0.0;0.0;0.0;0.0;0.0;0.0;0.0;0.0;0.0;0.0;0.0;0.0;0;0.0;2.755466574287009;1.0;2740.96;;2.9;9.0;2.0;18.0;806.56;254.60511146411963;394.2306908222767;2.0;291.7051114641196;262.53460031770766;514.8548885358803;Direct;322.624;52.4264;;;;;;;;;;;;;;;;;;;;;;;;;;;;;;;;;;;;;;;;;;;;;;;;;;;;;;;;;;;;;;;;;;0.0;4292.146003177077;3862.931402859369;0.096573285071484;0.107303650079427;2291.446003177077;551.0933148574018;165.3279944572205;330.655988914441;275.5466574287009;275.5466574287009;9.919679667433233;0.0;2.975903900229969;4.959839833716616;4.959839833716616;0.0;0.0;0.0;0.0;0.0;0.0;0.0;0.0;0.0;0.0;0.0;0.0;0.0;0.0;0.0;0.0;3.62068307861313;0.0;1.086204923583939;3.62068307861313;1.810341539306565;1.810341539306565;0.362068307861313;1.0;0.0;-1.0;884.0;473.875;0;1;0.000137773328714;0.0;473.875;1;0.0;1.0;1.0;1.0;0.0;844.0;802.0;0.0;external;collection;2.0;282.842712474619;13.828125;0.04888980479297614;671.0;0.0;0.0;0.00013777332871435044;0.0;0.00013777332871435044;[];[802, 760, 719, 677, 637, 595, 553, 511, 510, 550, 671];2018.0;48.0;61.55673576082722;15.389183940206806;61.55673576082722;0.0;0.0;0.0;0.0;0.0;0.0;0.0;0.0;0.0
