Manholes;240
id;x;y;z;outlet;wwtp
159.0;7100.0;700.0;492.390625;0.0;672.0
199.0;6900.0;900.0;493.8125;0.0;672.0
200.0;7100.0;900.0;505.609375;0.0;672.0
201.0;7300.0;900.0;518.125;0.0;672.0
228.0;4500.0;1100.0;439.515625;0.0;672.0
230.0;4900.0;1100.0;439.71875;0.0;672.0
240.0;6900.0;1100.0;515.390625;0.0;672.0
241.0;7100.0;1100.0;506.9375;0.0;672.0
269.0;4500.0;1300.0;439.015625;0.0;672.0
270.0;4700.0;1300.0;438.734375;0.0;672.0
311.0;4700.0;1500.0;440.828125;0.0;672.0
352.0;4700.0;1700.0;443.296875;0.0;672.0
394.0;4900.0;1900.0;454.984375;0.0;672.0
434.0;4700.0;2100.0;448.421875;0.0;672.0
435.0;4900.0;2100.0;451.40625;0.0;672.0
436.0;5100.0;2100.0;457.71875;0.0;672.0
437.0;5300.0;2100.0;471.625;0.0;672.0
438.0;5500.0;2100.0;470.546875;0.0;672.0
439.0;5700.0;2100.0;478.75;0.0;672.0
440.0;5900.0;2100.0;491.625;0.0;672.0
441.0;6100.0;2100.0;490.5;0.0;672.0
442.0;6300.0;2100.0;495.40625;0.0;672.0
471.0;3900.0;2300.0;446.453125;0.0;672.0
476.0;4900.0;2300.0;452.390625;0.0;672.0
477.0;5100.0;2300.0;475.21875;0.0;672.0
478.0;5300.0;2300.0;489.09375;0.0;672.0
479.0;5500.0;2300.0;485.125;0.0;672.0
480.0;5700.0;2300.0;486.78125;0.0;672.0
481.0;5900.0;2300.0;491.828125;0.0;672.0
483.0;6300.0;2300.0;496.171875;0.0;672.0
510.0;3500.0;2500.0;443.4375;0.0;672.0
511.0;3700.0;2500.0;446.859375;0.0;672.0
512.0;3900.0;2500.0;449.828125;0.0;672.0
513.0;4100.0;2500.0;450.015625;0.0;672.0
514.0;4300.0;2500.0;450.859375;0.0;672.0
515.0;4500.0;2500.0;454.078125;0.0;672.0
517.0;4900.0;2500.0;460.90625;0.0;672.0
518.0;5100.0;2500.0;474.953125;0.0;672.0
519.0;5300.0;2500.0;484.4375;0.0;672.0
520.0;5500.0;2500.0;489.171875;0.0;672.0
521.0;5700.0;2500.0;493.40625;0.0;672.0
522.0;5900.0;2500.0;487.90625;0.0;672.0
524.0;6300.0;2500.0;493.953125;0.0;672.0
525.0;6500.0;2500.0;508.9375;0.0;672.0
526.0;6700.0;2500.0;510.296875;0.0;672.0
550.0;3300.0;2700.0;441.546875;0.0;672.0
551.0;3500.0;2700.0;444.5625;0.0;672.0
552.0;3700.0;2700.0;447.296875;0.0;672.0
553.0;3900.0;2700.0;448.5;0.0;672.0
554.0;4100.0;2700.0;449.90625;0.0;672.0
555.0;4300.0;2700.0;452.625;0.0;672.0
556.0;4500.0;2700.0;461.75;0.0;672.0
558.0;4900.0;2700.0;470.421875;0.0;672.0
559.0;5100.0;2700.0;481.40625;0.0;672.0
562.0;5700.0;2700.0;471.140625;0.0;672.0
563.0;5900.0;2700.0;473.328125;0.0;672.0
564.0;6100.0;2700.0;475.515625;0.0;672.0
565.0;6300.0;2700.0;484.75;0.0;672.0
566.0;6500.0;2700.0;505.9375;0.0;672.0
567.0;6700.0;2700.0;493.671875;0.0;672.0
568.0;6900.0;2700.0;486.453125;0.0;672.0
591.0;3300.0;2900.0;442.40625;0.0;672.0
592.0;3500.0;2900.0;451.625;0.0;672.0
593.0;3700.0;2900.0;454.8125;0.0;672.0
594.0;3900.0;2900.0;453.015625;0.0;672.0
595.0;4100.0;2900.0;451.875;0.0;672.0
596.0;4300.0;2900.0;452.3125;0.0;672.0
597.0;4500.0;2900.0;456.328125;0.0;672.0
598.0;4700.0;2900.0;459.96875;0.0;672.0
599.0;4900.0;2900.0;466.328125;0.0;672.0
600.0;5100.0;2900.0;465.09375;0.0;672.0
601.0;5300.0;2900.0;466.125;0.0;672.0
602.0;5500.0;2900.0;468.703125;0.0;672.0
603.0;5700.0;2900.0;470.75;0.0;672.0
604.0;5900.0;2900.0;476.015625;0.0;672.0
605.0;6100.0;2900.0;482.453125;0.0;672.0
606.0;6300.0;2900.0;494.796875;0.0;672.0
607.0;6500.0;2900.0;492.375;0.0;672.0
608.0;6700.0;2900.0;487.5625;0.0;672.0
632.0;3300.0;3100.0;445.015625;0.0;672.0
633.0;3500.0;3100.0;456.859375;0.0;672.0
634.0;3700.0;3100.0;461.328125;0.0;672.0
637.0;4300.0;3100.0;454.359375;0.0;672.0
638.0;4500.0;3100.0;455.859375;0.0;672.0
639.0;4700.0;3100.0;458.21875;0.0;672.0
640.0;4900.0;3100.0;460.671875;0.0;672.0
641.0;5100.0;3100.0;463.546875;0.0;672.0
642.0;5300.0;3100.0;467.03125;0.0;672.0
643.0;5500.0;3100.0;469.609375;0.0;672.0
644.0;5700.0;3100.0;477.171875;0.0;672.0
645.0;5900.0;3100.0;490.796875;0.0;672.0
646.0;6100.0;3100.0;499.3125;0.0;672.0
647.0;6300.0;3100.0;516.09375;0.0;672.0
671.0;2900.0;3300.0;435.734375;0.0;672.0
672.0;3100.0;3300.0;440.171875;1.0;672.0
673.0;3300.0;3300.0;447.09375;0.0;672.0
674.0;3500.0;3300.0;454.625;0.0;672.0
675.0;3700.0;3300.0;460.46875;0.0;672.0
676.0;3900.0;3300.0;456.359375;0.0;672.0
677.0;4100.0;3300.0;455.203125;0.0;672.0
678.0;4300.0;3300.0;455.203125;0.0;672.0
679.0;4500.0;3300.0;456.96875;0.0;672.0
680.0;4700.0;3300.0;458.828125;0.0;672.0
681.0;4900.0;3300.0;461.609375;0.0;672.0
682.0;5100.0;3300.0;464.234375;0.0;672.0
683.0;5300.0;3300.0;467.671875;0.0;672.0
684.0;5500.0;3300.0;473.90625;0.0;672.0
685.0;5700.0;3300.0;483.046875;0.0;672.0
686.0;5900.0;3300.0;490.15625;0.0;672.0
687.0;6100.0;3300.0;504.734375;0.0;672.0
716.0;3700.0;3500.0;461.0625;0.0;672.0
717.0;3900.0;3500.0;457.09375;0.0;672.0
718.0;4100.0;3500.0;457.484375;0.0;672.0
719.0;4300.0;3500.0;456.703125;0.0;672.0
720.0;4500.0;3500.0;458.171875;0.0;672.0
721.0;4700.0;3500.0;459.09375;0.0;672.0
722.0;4900.0;3500.0;461.625;0.0;672.0
723.0;5100.0;3500.0;464.6875;0.0;672.0
724.0;5300.0;3500.0;468.078125;0.0;672.0
725.0;5500.0;3500.0;476.09375;0.0;672.0
726.0;5700.0;3500.0;484.4375;0.0;672.0
727.0;5900.0;3500.0;496.921875;0.0;672.0
728.0;6100.0;3500.0;520.15625;0.0;672.0
760.0;4300.0;3700.0;458.203125;0.0;672.0
761.0;4500.0;3700.0;459.53125;0.0;672.0
762.0;4700.0;3700.0;460.640625;0.0;672.0
763.0;4900.0;3700.0;462.90625;0.0;672.0
764.0;5100.0;3700.0;467.40625;0.0;672.0
765.0;5300.0;3700.0;472.015625;0.0;672.0
766.0;5500.0;3700.0;481.0;0.0;672.0
767.0;5700.0;3700.0;490.734375;0.0;672.0
768.0;5900.0;3700.0;500.359375;0.0;672.0
800.0;4100.0;3900.0;457.390625;0.0;672.0
801.0;4300.0;3900.0;458.5;0.0;672.0
802.0;4500.0;3900.0;460.046875;0.0;672.0
803.0;4700.0;3900.0;464.59375;0.0;672.0
804.0;4900.0;3900.0;473.03125;0.0;672.0
805.0;5100.0;3900.0;488.328125;0.0;672.0
806.0;5300.0;3900.0;480.609375;0.0;672.0
807.0;5500.0;3900.0;486.03125;0.0;672.0
808.0;5700.0;3900.0;493.921875;0.0;672.0
809.0;5900.0;3900.0;494.5;0.0;672.0
810.0;6100.0;3900.0;500.140625;0.0;672.0
840.0;3900.0;4100.0;456.40625;0.0;672.0
841.0;4100.0;4100.0;455.578125;0.0;672.0
842.0;4300.0;4100.0;457.5625;0.0;672.0
843.0;4500.0;4100.0;461.25;0.0;672.0
844.0;4700.0;4100.0;473.875;0.0;672.0
847.0;5300.0;4100.0;485.765625;0.0;672.0
848.0;5500.0;4100.0;485.359375;0.0;672.0
849.0;5700.0;4100.0;487.578125;0.0;672.0
850.0;5900.0;4100.0;490.65625;0.0;672.0
881.0;3900.0;4300.0;453.28125;0.0;672.0
882.0;4100.0;4300.0;454.453125;0.0;672.0
883.0;4300.0;4300.0;456.515625;0.0;672.0
884.0;4500.0;4300.0;459.453125;0.0;672.0
885.0;4700.0;4300.0;467.578125;0.0;672.0
886.0;4900.0;4300.0;474.40625;0.0;672.0
888.0;5300.0;4300.0;486.5625;0.0;672.0
889.0;5500.0;4300.0;482.703125;0.0;672.0
890.0;5700.0;4300.0;485.546875;0.0;672.0
917.0;2900.0;4500.0;465.578125;0.0;672.0
923.0;4100.0;4500.0;454.890625;0.0;672.0
924.0;4300.0;4500.0;458.65625;0.0;672.0
925.0;4500.0;4500.0;469.078125;0.0;672.0
926.0;4700.0;4500.0;475.03125;0.0;672.0
927.0;4900.0;4500.0;476.375;0.0;672.0
930.0;5500.0;4500.0;480.875;0.0;672.0
931.0;5700.0;4500.0;484.21875;0.0;672.0
932.0;5900.0;4500.0;487.5625;0.0;672.0
938.0;7100.0;4500.0;557.953125;0.0;672.0
957.0;2700.0;4700.0;453.34375;0.0;672.0
958.0;2900.0;4700.0;458.484375;0.0;672.0
960.0;3300.0;4700.0;455.40625;0.0;672.0
962.0;3700.0;4700.0;455.375;0.0;672.0
966.0;4500.0;4700.0;466.359375;0.0;672.0
967.0;4700.0;4700.0;470.34375;0.0;672.0
968.0;4900.0;4700.0;472.546875;0.0;672.0
969.0;5100.0;4700.0;473.84375;0.0;672.0
975.0;6300.0;4700.0;502.96875;0.0;672.0
976.0;6500.0;4700.0;517.28125;0.0;672.0
977.0;6700.0;4700.0;543.703125;0.0;672.0
978.0;6900.0;4700.0;553.140625;0.0;672.0
979.0;7100.0;4700.0;560.375;0.0;672.0
980.0;7300.0;4700.0;567.671875;0.0;672.0
994.0;1900.0;4900.0;439.3125;0.0;672.0
995.0;2100.0;4900.0;441.59375;0.0;672.0
996.0;2300.0;4900.0;444.84375;0.0;672.0
997.0;2500.0;4900.0;451.5;0.0;672.0
998.0;2700.0;4900.0;452.4375;0.0;672.0
999.0;2900.0;4900.0;452.640625;0.0;672.0
1016.0;6300.0;4900.0;516.90625;0.0;672.0
1017.0;6500.0;4900.0;536.265625;0.0;672.0
1018.0;6700.0;4900.0;556.328125;0.0;672.0
1019.0;6900.0;4900.0;560.765625;0.0;672.0
1020.0;7100.0;4900.0;568.484375;0.0;672.0
1034.0;1700.0;5100.0;439.328125;0.0;672.0
1035.0;1900.0;5100.0;440.59375;0.0;672.0
1036.0;2100.0;5100.0;442.25;0.0;672.0
1037.0;2300.0;5100.0;445.015625;0.0;672.0
1038.0;2500.0;5100.0;447.03125;0.0;672.0
1039.0;2700.0;5100.0;447.984375;0.0;672.0
1040.0;2900.0;5100.0;448.734375;0.0;672.0
1058.0;6500.0;5100.0;550.09375;0.0;672.0
1059.0;6700.0;5100.0;564.046875;0.0;672.0
1076.0;1900.0;5300.0;441.0625;0.0;672.0
1077.0;2100.0;5300.0;443.015625;0.0;672.0
1078.0;2300.0;5300.0;444.078125;0.0;672.0
1079.0;2500.0;5300.0;446.4375;0.0;672.0
1080.0;2700.0;5300.0;448.65625;0.0;672.0
1081.0;2900.0;5300.0;451.578125;0.0;672.0
1082.0;3100.0;5300.0;456.046875;0.0;672.0
1083.0;3300.0;5300.0;459.4375;0.0;672.0
1117.0;1900.0;5500.0;442.59375;0.0;672.0
1118.0;2100.0;5500.0;443.9375;0.0;672.0
1119.0;2300.0;5500.0;445.140625;0.0;672.0
1120.0;2500.0;5500.0;449.0;0.0;672.0
1121.0;2700.0;5500.0;449.921875;0.0;672.0
1122.0;2900.0;5500.0;453.0;0.0;672.0
1123.0;3100.0;5500.0;453.734375;0.0;672.0
1124.0;3300.0;5500.0;458.265625;0.0;672.0
1157.0;1700.0;5700.0;445.34375;0.0;672.0
1158.0;1900.0;5700.0;445.15625;0.0;672.0
1159.0;2100.0;5700.0;446.53125;0.0;672.0
1160.0;2300.0;5700.0;447.96875;0.0;672.0
1161.0;2500.0;5700.0;449.5;0.0;672.0
1163.0;2900.0;5700.0;451.6875;0.0;672.0
1164.0;3100.0;5700.0;453.15625;0.0;672.0
1199.0;1900.0;5900.0;445.0;0.0;672.0
1200.0;2100.0;5900.0;447.75;0.0;672.0
1201.0;2300.0;5900.0;447.46875;0.0;672.0
1240.0;1900.0;6100.0;447.05263157894734;0.0;672.0
1241.0;2100.0;6100.0;447.234375;0.0;672.0
1245.0;2900.0;6100.0;454.359375;0.0;672.0
1260.0;5900.0;6100.0;533.3125;0.0;672.0
1261.0;6100.0;6100.0;538.296875;0.0;672.0
1262.0;6300.0;6100.0;544.40625;0.0;672.0
1410.0;3100.0;6900.0;473.875;0.0;672.0
1411.0;3300.0;6900.0;478.3;0.0;672.0
1453.0;3500.0;7100.0;472.0;0.0;672.0
Pipes;239
id_up;id_down;type;design_flow;basin;LinkType;up_ids;down_ids
199;159;2;0.00019761530337512802;1;Collection;[240, 241];[159, 441, 438, 518, 517, 434, 471, 510, 550, 591, 672, -1]
200;159;1;0.000172245472468943;1;Collection;[];[159, 441, 438, 518, 517, 434, 471, 510, 550, 591, 672, -1]
201;159;1;0.00010910863783238219;1;Collection;[];[159, 441, 438, 518, 517, 434, 471, 510, 550, 591, 672, -1]
228;270;1;1.3906523914351668e-05;2;Collection;[];[270, 434, 471, 510, 550, 591, 672, -1]
230;270;1;0.00034346900259832054;2;Collection;[];[270, 434, 471, 510, 550, 591, 672, -1]
240;199;1;0.00010059877754301843;1;Collection;[];[199, 159, 441, 438, 518, 517, 434, 471, 510, 550, 591, 672, -1]
241;199;1;5.2265830341406996e-05;1;Collection;[];[199, 159, 441, 438, 518, 517, 434, 471, 510, 550, 591, 672, -1]
269;270;1;0.0002085097802950019;2;Collection;[];[270, 434, 471, 510, 550, 591, 672, -1]
311;270;2;0.0006525787861528182;2;Collection;[352, 394];[270, 434, 471, 510, 550, 591, 672, -1]
352;311;2;0.0004939537861528182;2;Collection;[394];[311, 270, 434, 471, 510, 550, 591, 672, -1]
394;352;1;0.0001460871809557433;2;Collection;[];[352, 311, 270, 434, 471, 510, 550, 591, 672, -1]
435;434;2;0.0016860704483382522;3;Collection;[436, 477];[434, 471, 510, 550, 591, 672, -1]
436;435;1;0.0005535;3;Collection;[];[435, 434, 471, 510, 550, 591, 672, -1]
437;438;1;9.490695912585026e-05;4;Collection;[];[438, 518, 517, 434, 471, 510, 550, 591, 672, -1]
439;438;2;0.0006518614443466416;4;Collection;[440, 481];[438, 518, 517, 434, 471, 510, 550, 591, 672, -1]
440;439;1;4.2749044122366656e-05;4;Collection;[];[439, 438, 518, 517, 434, 471, 510, 550, 591, 672, -1]
442;441;1;0.00013823767408602356;5;Collection;[];[441, 438, 518, 517, 434, 471, 510, 550, 591, 672, -1]
476;434;1;0.0004557720285738116;3;Collection;[];[434, 471, 510, 550, 591, 672, -1]
477;435;1;0.0002735125164814581;3;Collection;[];[435, 434, 471, 510, 550, 591, 672, -1]
478;438;1;0.00024337708677265219;4;Collection;[];[438, 518, 517, 434, 471, 510, 550, 591, 672, -1]
479;438;1;0.00024431649061979746;4;Collection;[];[438, 518, 517, 434, 471, 510, 550, 591, 672, -1]
480;438;1;0.0006108749999999999;4;Collection;[];[438, 518, 517, 434, 471, 510, 550, 591, 672, -1]
481;439;1;0.0004893749999999999;4;Collection;[];[439, 438, 518, 517, 434, 471, 510, 550, 591, 672, -1]
483;441;1;0.00024057976903566503;5;Collection;[];[441, 438, 518, 517, 434, 471, 510, 550, 591, 672, -1]
511;551;1;0.00035600387279125656;13;Collection;[];[551, 591, 672, -1]
512;552;1;0.000587125603964584;13;Collection;[];[552, 551, 591, 672, -1]
513;553;1;0.000712125;13;Collection;[];[553, 552, 551, 591, 672, -1]
514;554;1;0.000201686127225901;13;Collection;[];[554, 553, 552, 551, 591, 672, -1]
515;555;1;0.00015525;13;Collection;[];[555, 554, 553, 552, 551, 591, 672, -1]
519;559;1;0.00038812499999999996;13;Collection;[];[559, 600, 640, 639, 638, 596, 554, 553, 552, 551, 591, 672, -1]
520;562;1;0.0005602499999999999;11;Collection;[];[562, 603, 602, 518, 517, 434, 471, 510, 550, 591, 672, -1]
521;562;1;0.00037462499999999996;11;Collection;[];[562, 603, 602, 518, 517, 434, 471, 510, 550, 591, 672, -1]
522;562;1;7.828183243455888e-05;11;Collection;[];[562, 603, 602, 518, 517, 434, 471, 510, 550, 591, 672, -1]
524;564;1;0.0003678499956436508;11;Collection;[];[564, 563, 562, 603, 602, 518, 517, 434, 471, 510, 550, 591, 672, -1]
525;565;1;0.0003955434567071529;11;Collection;[];[565, 564, 563, 562, 603, 602, 518, 517, 434, 471, 510, 550, 591, 672, -1]
526;568;1;2.525664468832468e-05;12;Collection;[];[568, 441, 438, 518, 517, 434, 471, 510, 550, 591, 672, -1]
551;591;2;0.06808375822343106;13;Collection;[511, 552, 593, 512, 553, 594, 513, 554, 595, 514, 555, 596, 515, 556, 597, 637, 638, 677, 598, 639, 679, 680, 676, 717, 718, 719, 599, 640, 681, 721, 722, 760, 761, 600, 641, 682, 723, 763, 764, 803, 558, 559, 601, 642, 683, 724, 765, 805, 806, 519, 643, 684, 725, 766, 807, 847, 848, 685, 726, 767, 808, 727, 768];[591, 672, -1]
552;551;2;0.06560470366193469;13;Collection;[512, 553, 594, 513, 554, 595, 514, 555, 596, 515, 556, 597, 637, 638, 677, 598, 639, 679, 680, 676, 717, 718, 719, 599, 640, 681, 721, 722, 760, 761, 600, 641, 682, 723, 763, 764, 803, 558, 559, 601, 642, 683, 724, 765, 805, 806, 519, 643, 684, 725, 766, 807, 847, 848, 685, 726, 767, 808, 727, 768];[551, 591, 672, -1]
553;552;2;0.06140204813019475;13;Collection;[513, 554, 595, 514, 555, 596, 515, 556, 597, 637, 638, 677, 598, 639, 679, 680, 676, 717, 718, 719, 599, 640, 681, 721, 722, 760, 761, 600, 641, 682, 723, 763, 764, 803, 558, 559, 601, 642, 683, 724, 765, 805, 806, 519, 643, 684, 725, 766, 807, 847, 848, 685, 726, 767, 808, 727, 768];[552, 551, 591, 672, -1]
554;553;2;0.05747931458064484;13;Collection;[514, 555, 596, 515, 556, 597, 637, 638, 677, 598, 639, 679, 680, 676, 717, 718, 719, 599, 640, 681, 721, 722, 760, 761, 600, 641, 682, 723, 763, 764, 803, 558, 559, 601, 642, 683, 724, 765, 805, 806, 519, 643, 684, 725, 766, 807, 847, 848, 685, 726, 767, 808, 727, 768];[553, 552, 551, 591, 672, -1]
555;554;2;0.001029375;13;Collection;[515];[554, 553, 552, 551, 591, 672, -1]
556;596;1;0.00013856870611788323;13;Collection;[];[596, 554, 553, 552, 551, 591, 672, -1]
558;600;1;0.0004089570160815004;13;Collection;[];[600, 640, 639, 638, 596, 554, 553, 552, 551, 591, 672, -1]
559;600;2;0.00040819941547383485;13;Collection;[519];[600, 640, 639, 638, 596, 554, 553, 552, 551, 591, 672, -1]
563;562;2;0.0063702620380934084;11;Collection;[564, 605, 524, 565, 606, 525, 566, 607, 647];[562, 603, 602, 518, 517, 434, 471, 510, 550, 591, 672, -1]
564;563;2;0.004499553032438378;11;Collection;[524, 565, 606, 525, 566, 607, 647];[563, 562, 603, 602, 518, 517, 434, 471, 510, 550, 591, 672, -1]
565;564;2;0.0025184530367947278;11;Collection;[525, 566, 607, 647];[564, 563, 562, 603, 602, 518, 517, 434, 471, 510, 550, 591, 672, -1]
566;565;1;0.00021711207603209077;11;Collection;[];[565, 564, 563, 562, 603, 602, 518, 517, 434, 471, 510, 550, 591, 672, -1]
567;568;1;0.0007205176136443444;12;Collection;[];[568, 441, 438, 518, 517, 434, 471, 510, 550, 591, 672, -1]
592;591;2;0.001095290301612922;13;Collection;[634];[591, 672, -1]
593;551;1;0.001806878823328889;13;Collection;[];[551, 591, 672, -1]
594;552;1;0.002802154927775336;13;Collection;[];[552, 551, 591, 672, -1]
595;553;1;0.0019224046280537468;13;Collection;[];[553, 552, 551, 591, 672, -1]
596;554;2;0.05483663345051509;13;Collection;[556, 597, 637, 638, 677, 598, 639, 679, 680, 676, 717, 718, 719, 599, 640, 681, 721, 722, 760, 761, 600, 641, 682, 723, 763, 764, 803, 558, 559, 601, 642, 683, 724, 765, 805, 806, 519, 643, 684, 725, 766, 807, 847, 848, 685, 726, 767, 808, 727, 768];[554, 553, 552, 551, 591, 672, -1]
597;596;1;0.0006479999999999998;13;Collection;[];[596, 554, 553, 552, 551, 591, 672, -1]
598;638;1;0.0006581249999999999;13;Collection;[];[638, 596, 554, 553, 552, 551, 591, 672, -1]
599;639;1;0.0005084076195374533;13;Collection;[];[639, 638, 596, 554, 553, 552, 551, 591, 672, -1]
600;640;2;0.006462916260959991;13;Collection;[558, 559, 601, 642, 519, 643, 684, 685, 726, 727, 768];[640, 639, 638, 596, 554, 553, 552, 551, 591, 672, -1]
601;600;2;0.001959649625198217;13;Collection;[643, 685, 727];[600, 640, 639, 638, 596, 554, 553, 552, 551, 591, 672, -1]
604;562;2;0.0012722230787900507;11;Collection;[646];[562, 603, 602, 518, 517, 434, 471, 510, 550, 591, 672, -1]
605;563;1;0.0002488915674895076;11;Collection;[];[563, 562, 603, 602, 518, 517, 434, 471, 510, 550, 591, 672, -1]
606;564;1;0.0005973749999999999;11;Collection;[];[564, 563, 562, 603, 602, 518, 517, 434, 471, 510, 550, 591, 672, -1]
607;565;2;0.0009641725040554843;11;Collection;[647];[565, 564, 563, 562, 603, 602, 518, 517, 434, 471, 510, 550, 591, 672, -1]
608;568;1;0.0007078746790906077;12;Collection;[];[568, 441, 438, 518, 517, 434, 471, 510, 550, 591, 672, -1]
632;672;2;0.0021727679195403774;17;Collection;[674, 675, 716];[672, -1]
633;591;1;0.00045105469677052316;13;Collection;[];[591, 672, -1]
634;592;1;0.00016711942606781688;13;Collection;[];[592, 591, 672, -1]
637;596;2;0.004742933564654677;13;Collection;[677, 676, 717, 718, 719, 760, 761, 803];[596, 554, 553, 552, 551, 591, 672, -1]
638;596;2;0.04801908161075547;13;Collection;[598, 639, 679, 680, 599, 640, 681, 721, 722, 600, 641, 682, 723, 763, 764, 558, 559, 601, 642, 683, 724, 765, 805, 806, 519, 643, 684, 725, 766, 807, 847, 848, 685, 726, 767, 808, 727, 768];[596, 554, 553, 552, 551, 591, 672, -1]
639;638;2;0.023442313449644453;13;Collection;[599, 640, 681, 600, 641, 682, 723, 558, 559, 601, 642, 683, 724, 765, 519, 643, 684, 725, 766, 807, 685, 726, 767, 808, 727, 768];[638, 596, 554, 553, 552, 551, 591, 672, -1]
640;639;2;0.013574018221188037;13;Collection;[600, 641, 682, 558, 559, 601, 642, 683, 724, 519, 643, 684, 725, 766, 685, 726, 767, 808, 727, 768];[639, 638, 596, 554, 553, 552, 551, 591, 672, -1]
641;640;2;0.003052674254780516;13;Collection;[683, 725, 767];[640, 639, 638, 596, 554, 553, 552, 551, 591, 672, -1]
642;600;2;0.003068761759551412;13;Collection;[684, 726, 768];[600, 640, 639, 638, 596, 554, 553, 552, 551, 591, 672, -1]
643;601;2;0.0019468326566057566;13;Collection;[685, 727];[601, 600, 640, 639, 638, 596, 554, 553, 552, 551, 591, 672, -1]
644;602;2;0.0014594082392873002;14;Collection;[686, 687, 728];[602, 518, 517, 434, 471, 510, 550, 591, 672, -1]
645;603;1;0.00011500564574703207;15;Collection;[];[603, 602, 518, 517, 434, 471, 510, 550, 591, 672, -1]
646;604;1;0.000621;11;Collection;[];[604, 562, 603, 602, 518, 517, 434, 471, 510, 550, 591, 672, -1]
647;607;1;0.00030037499999999997;11;Collection;[];[607, 565, 564, 563, 562, 603, 602, 518, 517, 434, 471, 510, 550, 591, 672, -1]
673;672;1;0.0002527576694303033;17;Collection;[];[672, -1]
674;632;2;0.0014684262860452449;17;Collection;[675, 716];[632, 672, -1]
675;674;1;0.000422082340215294;17;Collection;[];[674, 632, 672, -1]
676;677;1;0.00019912499999999997;13;Collection;[];[677, 637, 596, 554, 553, 552, 551, 591, 672, -1]
677;637;2;0.004456058564654677;13;Collection;[676, 717, 718, 719, 760, 761, 803];[637, 596, 554, 553, 552, 551, 591, 672, -1]
679;638;2;0.010146938247319047;13;Collection;[721, 763, 805];[638, 596, 554, 553, 552, 551, 591, 672, -1]
680;638;2;0.01290111661535977;13;Collection;[722, 764, 806, 847, 848];[638, 596, 554, 553, 552, 551, 591, 672, -1]
681;639;2;0.007315755947152421;13;Collection;[723, 765, 807];[639, 638, 596, 554, 553, 552, 551, 591, 672, -1]
682;640;2;0.002345451836557492;13;Collection;[724, 766, 808];[640, 639, 638, 596, 554, 553, 552, 551, 591, 672, -1]
683;641;2;0.002043682420275429;13;Collection;[725, 767];[641, 640, 639, 638, 596, 554, 553, 552, 551, 591, 672, -1]
684;642;2;0.002488531159717605;13;Collection;[726, 768];[642, 600, 640, 639, 638, 596, 554, 553, 552, 551, 591, 672, -1]
685;643;2;0.001435480694560426;13;Collection;[727];[643, 601, 600, 640, 639, 638, 596, 554, 553, 552, 551, 591, 672, -1]
686;644;2;0.0007979082392873002;14;Collection;[687, 728];[644, 602, 518, 517, 434, 471, 510, 550, 591, 672, -1]
687;686;1;0.00048740823928730025;14;Collection;[];[686, 644, 602, 518, 517, 434, 471, 510, 550, 591, 672, -1]
716;674;1;0.000381468945829951;17;Collection;[];[674, 632, 672, -1]
717;677;1;0.000361125;13;Collection;[];[677, 637, 596, 554, 553, 552, 551, 591, 672, -1]
718;677;1;0.0005535956954717441;13;Collection;[];[677, 637, 596, 554, 553, 552, 551, 591, 672, -1]
719;677;2;0.002948727688123374;13;Collection;[760, 761, 803];[677, 637, 596, 554, 553, 552, 551, 591, 672, -1]
720;678;2;0.004327808171986235;18;Collection;[762, 804];[678, 517, 434, 471, 510, 550, 591, 672, -1]
721;679;2;0.006782169255958566;13;Collection;[763, 805];[679, 638, 596, 554, 553, 552, 551, 591, 672, -1]
722;680;2;0.00818668720126085;13;Collection;[764, 806, 847, 848];[680, 638, 596, 554, 553, 552, 551, 591, 672, -1]
723;681;2;0.003989420871440212;13;Collection;[765, 807];[681, 639, 638, 596, 554, 553, 552, 551, 591, 672, -1]
724;682;2;0.0015253268365574917;13;Collection;[766, 808];[682, 640, 639, 638, 596, 554, 553, 552, 551, 591, 672, -1]
725;683;2;0.0015174767802545218;13;Collection;[767];[683, 641, 640, 639, 638, 596, 554, 553, 552, 551, 591, 672, -1]
726;684;2;0.0015456831668161056;13;Collection;[768];[684, 642, 600, 640, 639, 638, 596, 554, 553, 552, 551, 591, 672, -1]
727;685;1;0.00027096476363439135;13;Collection;[];[685, 643, 601, 600, 640, 639, 638, 596, 554, 553, 552, 551, 591, 672, -1]
728;686;1;0.00015862499999999997;14;Collection;[];[686, 644, 602, 518, 517, 434, 471, 510, 550, 591, 672, -1]
760;719;1;0.0005393744951141484;13;Collection;[];[719, 677, 637, 596, 554, 553, 552, 551, 591, 672, -1]
761;719;2;0.0017988749999999997;13;Collection;[803];[719, 677, 637, 596, 554, 553, 552, 551, 591, 672, -1]
762;720;2;0.0012739764727768838;18;Collection;[804];[720, 678, 517, 434, 471, 510, 550, 591, 672, -1]
763;721;2;0.0021734581809421676;13;Collection;[805];[721, 679, 638, 596, 554, 553, 552, 551, 591, 672, -1]
764;722;2;0.0025429578002807967;13;Collection;[806, 847, 848];[722, 680, 638, 596, 554, 553, 552, 551, 591, 672, -1]
765;723;2;0.0009425844785596863;13;Collection;[807];[723, 681, 639, 638, 596, 554, 553, 552, 551, 591, 672, -1]
766;724;2;0.0008098268365574917;13;Collection;[808];[724, 682, 640, 639, 638, 596, 554, 553, 552, 551, 591, 672, -1]
767;725;1;0.00021750082558953852;13;Collection;[];[725, 683, 641, 640, 639, 638, 596, 554, 553, 552, 551, 591, 672, -1]
768;726;1;0.0008567289142547058;13;Collection;[];[726, 684, 642, 600, 640, 639, 638, 596, 554, 553, 552, 551, 591, 672, -1]
800;840;1;0.0007759298317105723;19;Collection;[];[840, 881, 678, 517, 434, 471, 510, 550, 591, 672, -1]
801;841;1;0.0015784577766464756;19;Collection;[];[841, 881, 678, 517, 434, 471, 510, 550, 591, 672, -1]
802;842;1;0.000907875;19;Collection;[];[842, 882, 881, 678, 517, 434, 471, 510, 550, 591, 672, -1]
803;761;1;0.0007019999999999999;13;Collection;[];[761, 719, 677, 637, 596, 554, 553, 552, 551, 591, 672, -1]
804;762;1;0.00026662499999999993;18;Collection;[];[762, 720, 678, 517, 434, 471, 510, 550, 591, 672, -1]
805;763;1;0.0002040769218498737;13;Collection;[];[763, 721, 679, 638, 596, 554, 553, 552, 551, 591, 672, -1]
806;764;2;0.001898332800280797;13;Collection;[847, 848];[764, 722, 680, 638, 596, 554, 553, 552, 551, 591, 672, -1]
807;765;1;0.0001391607087702188;13;Collection;[];[765, 723, 681, 639, 638, 596, 554, 553, 552, 551, 591, 672, -1]
808;766;1;0.00031700530199709083;13;Collection;[];[766, 724, 682, 640, 639, 638, 596, 554, 553, 552, 551, 591, 672, -1]
809;849;1;0.0007319273867434207;20;Collection;[];[849, 889, 930, 602, 518, 517, 434, 471, 510, 550, 591, 672, -1]
810;850;1;0.000151875;20;Collection;[];[850, 890, 930, 602, 518, 517, 434, 471, 510, 550, 591, 672, -1]
840;881;2;0.0014177875590103697;19;Collection;[800];[881, 678, 517, 434, 471, 510, 550, 591, 672, -1]
841;881;2;0.004158982022920673;19;Collection;[801];[881, 678, 517, 434, 471, 510, 550, 591, 672, -1]
842;882;2;0.002489372061092784;19;Collection;[802];[882, 881, 678, 517, 434, 471, 510, 550, 591, 672, -1]
843;883;1;0.000799875;19;Collection;[];[883, 923, 881, 678, 517, 434, 471, 510, 550, 591, 672, -1]
844;884;1;0.00010856456674083425;19;Collection;[];[884, 883, 923, 881, 678, 517, 434, 471, 510, 550, 591, 672, -1]
847;806;1;0.0003585069801336508;13;Collection;[];[806, 764, 722, 680, 638, 596, 554, 553, 552, 551, 591, 672, -1]
848;806;1;0.0010452272779738025;13;Collection;[];[806, 764, 722, 680, 638, 596, 554, 553, 552, 551, 591, 672, -1]
849;889;2;0.0015973822799821551;20;Collection;[809];[889, 930, 602, 518, 517, 434, 471, 510, 550, 591, 672, -1]
850;890;2;0.000462375;20;Collection;[810];[890, 930, 602, 518, 517, 434, 471, 510, 550, 591, 672, -1]
882;881;2;0.0049287336228420915;19;Collection;[842, 802];[881, 678, 517, 434, 471, 510, 550, 591, 672, -1]
883;923;2;0.007132048712397747;19;Collection;[843, 884, 925, 844, 885, 926, 886, 927];[923, 881, 678, 517, 434, 471, 510, 550, 591, 672, -1]
884;883;2;0.0036251169699997947;19;Collection;[844, 885, 926, 886, 927];[883, 923, 881, 678, 517, 434, 471, 510, 550, 591, 672, -1]
885;884;2;0.0023476036787341355;19;Collection;[886, 927];[884, 883, 923, 881, 678, 517, 434, 471, 510, 550, 591, 672, -1]
886;885;1;0.0004961249999999999;19;Collection;[];[885, 884, 883, 923, 881, 678, 517, 434, 471, 510, 550, 591, 672, -1]
888;930;1;0.0007072465316046024;20;Collection;[];[930, 602, 518, 517, 434, 471, 510, 550, 591, 672, -1]
889;930;2;0.002986165388865164;20;Collection;[849, 809];[930, 602, 518, 517, 434, 471, 510, 550, 591, 672, -1]
890;930;2;0.0017804516299490098;20;Collection;[850, 810];[930, 602, 518, 517, 434, 471, 510, 550, 591, 672, -1]
917;957;1;1.3071771184355548e-05;24;Collection;[];[957, 999, 1039, 1079, 1078, 1036, 994, 1117, 1199, 1161, 960, 962, 881, 678, 517, 434, 471, 510, 550, 591, 672, -1]
923;881;2;0.010502023139110334;19;Collection;[883, 924, 843, 884, 925, 966, 844, 885, 926, 967, 886, 927, 968, 969];[881, 678, 517, 434, 471, 510, 550, 591, 672, -1]
924;923;2;0.002685746542835383;19;Collection;[966, 967, 968, 969];[923, 881, 678, 517, 434, 471, 510, 550, 591, 672, -1]
925;883;1;0.0005061471509322981;19;Collection;[];[883, 923, 881, 678, 517, 434, 471, 510, 550, 591, 672, -1]
926;884;1;0.0005310737245248245;19;Collection;[];[884, 883, 923, 881, 678, 517, 434, 471, 510, 550, 591, 672, -1]
927;885;1;0.0008997286787341358;19;Collection;[];[885, 884, 883, 923, 881, 678, 517, 434, 471, 510, 550, 591, 672, -1]
931;930;2;0.0010175791228964697;20;Collection;[932];[930, 602, 518, 517, 434, 471, 510, 550, 591, 672, -1]
932;931;1;0.00036155159038272545;20;Collection;[];[931, 930, 602, 518, 517, 434, 471, 510, 550, 591, 672, -1]
938;978;2;0.000239527727486372;23;Collection;[980];[978, 977, 976, 975, 930, 602, 518, 517, 434, 471, 510, 550, 591, 672, -1]
957;999;2;2.6706106956872705e-05;24;Collection;[917];[999, 1039, 1079, 1078, 1036, 994, 1117, 1199, 1161, 960, 962, 881, 678, 517, 434, 471, 510, 550, 591, 672, -1]
958;999;1;0.00042106131107625213;24;Collection;[];[999, 1039, 1079, 1078, 1036, 994, 1117, 1199, 1161, 960, 962, 881, 678, 517, 434, 471, 510, 550, 591, 672, -1]
966;924;2;0.0010553045412876314;19;Collection;[967, 968, 969];[924, 923, 881, 678, 517, 434, 471, 510, 550, 591, 672, -1]
967;966;2;0.0006300545412876316;19;Collection;[968, 969];[966, 924, 923, 881, 678, 517, 434, 471, 510, 550, 591, 672, -1]
968;967;2;0.0002520545412876316;19;Collection;[969];[967, 966, 924, 923, 881, 678, 517, 434, 471, 510, 550, 591, 672, -1]
969;968;1;1.2429541287631671e-05;19;Collection;[];[968, 967, 966, 924, 923, 881, 678, 517, 434, 471, 510, 550, 591, 672, -1]
976;975;2;0.0013061179083126277;23;Collection;[977, 1018, 978, 1019, 938, 979, 1020, 980];[975, 930, 602, 518, 517, 434, 471, 510, 550, 591, 672, -1]
977;976;2;0.0010735962240860577;23;Collection;[978, 1019, 938, 979, 1020, 980];[976, 975, 930, 602, 518, 517, 434, 471, 510, 550, 591, 672, -1]
978;977;2;0.0008776110008449281;23;Collection;[938, 979, 1020, 980];[977, 976, 975, 930, 602, 518, 517, 434, 471, 510, 550, 591, 672, -1]
979;978;1;0.0003607894781184676;23;Collection;[];[978, 977, 976, 975, 930, 602, 518, 517, 434, 471, 510, 550, 591, 672, -1]
980;938;1;0.000165375;23;Collection;[];[938, 978, 977, 976, 975, 930, 602, 518, 517, 434, 471, 510, 550, 591, 672, -1]
995;994;1;0.0006044915174899271;24;Collection;[];[994, 1117, 1199, 1161, 960, 962, 881, 678, 517, 434, 471, 510, 550, 591, 672, -1]
996;1036;1;0.00011213486203376603;24;Collection;[];[1036, 994, 1117, 1199, 1161, 960, 962, 881, 678, 517, 434, 471, 510, 550, 591, 672, -1]
997;1038;1;0.00024357553099066528;24;Collection;[];[1038, 1078, 1036, 994, 1117, 1199, 1161, 960, 962, 881, 678, 517, 434, 471, 510, 550, 591, 672, -1]
998;1038;1;0.00023805931430041744;24;Collection;[];[1038, 1078, 1036, 994, 1117, 1199, 1161, 960, 962, 881, 678, 517, 434, 471, 510, 550, 591, 672, -1]
999;1039;2;0.0015513924180331248;24;Collection;[957, 958, 917];[1039, 1079, 1078, 1036, 994, 1117, 1199, 1161, 960, 962, 881, 678, 517, 434, 471, 510, 550, 591, 672, -1]
1016;975;2;6.555500990937794e-05;23;Collection;[1058];[975, 930, 602, 518, 517, 434, 471, 510, 550, 591, 672, -1]
1017;975;2;0.0003662905859857739;23;Collection;[1059];[975, 930, 602, 518, 517, 434, 471, 510, 550, 591, 672, -1]
1018;976;1;0.00019125606269546693;23;Collection;[];[976, 975, 930, 602, 518, 517, 434, 471, 510, 550, 591, 672, -1]
1019;977;1;3.424998464226123e-05;23;Collection;[];[977, 976, 975, 930, 602, 518, 517, 434, 471, 510, 550, 591, 672, -1]
1020;978;1;1.2268302028881324e-05;23;Collection;[];[978, 977, 976, 975, 930, 602, 518, 517, 434, 471, 510, 550, 591, 672, -1]
1034;994;1;1.2269743860151798e-05;24;Collection;[];[994, 1117, 1199, 1161, 960, 962, 881, 678, 517, 434, 471, 510, 550, 591, 672, -1]
1035;994;2;0.006517850891846507;24;Collection;[1076, 1077, 1118, 1119, 1160];[994, 1117, 1199, 1161, 960, 962, 881, 678, 517, 434, 471, 510, 550, 591, 672, -1]
1036;994;2;0.015796544734460613;24;Collection;[996, 1037, 1078, 1038, 1079, 1120, 997, 998, 1039, 1080, 1121, 999, 1040, 1081, 1122, 1163, 957, 958, 1082, 1123, 1164, 917, 1083, 1124];[994, 1117, 1199, 1161, 960, 962, 881, 678, 517, 434, 471, 510, 550, 591, 672, -1]
1037;1036;1;0.0010030113727659022;24;Collection;[];[1036, 994, 1117, 1199, 1161, 960, 962, 881, 678, 517, 434, 471, 510, 550, 591, 672, -1]
1038;1078;2;0.0021647587938542394;24;Collection;[997, 998];[1078, 1036, 994, 1117, 1199, 1161, 960, 962, 881, 678, 517, 434, 471, 510, 550, 591, 672, -1]
1039;1079;2;0.005487818467478521;24;Collection;[999, 1040, 1081, 957, 958, 1082, 917];[1079, 1078, 1036, 994, 1117, 1199, 1161, 960, 962, 881, 678, 517, 434, 471, 510, 550, 591, 672, -1]
1040;1039;2;0.0010996124227136354;24;Collection;[1082];[1039, 1079, 1078, 1036, 994, 1117, 1199, 1161, 960, 962, 881, 678, 517, 434, 471, 510, 550, 591, 672, -1]
1058;1016;1;1.2669590440172696e-05;23;Collection;[];[1016, 975, 930, 602, 518, 517, 434, 471, 510, 550, 591, 672, -1]
1059;1017;1;0.000118466387558381;23;Collection;[];[1017, 975, 930, 602, 518, 517, 434, 471, 510, 550, 591, 672, -1]
1076;1035;1;0.00046754829552648575;24;Collection;[];[1035, 994, 1117, 1199, 1161, 960, 962, 881, 678, 517, 434, 471, 510, 550, 591, 672, -1]
1077;1035;2;0.0048518650779704724;24;Collection;[1118, 1119, 1160];[1035, 994, 1117, 1199, 1161, 960, 962, 881, 678, 517, 434, 471, 510, 550, 591, 672, -1]
1078;1036;2;0.014346754244074417;24;Collection;[1038, 1079, 1120, 997, 998, 1039, 1080, 1121, 999, 1040, 1081, 1122, 1163, 957, 958, 1082, 1123, 1164, 917, 1083, 1124];[1036, 994, 1117, 1199, 1161, 960, 962, 881, 678, 517, 434, 471, 510, 550, 591, 672, -1]
1079;1078;2;0.010797485313808277;24;Collection;[1039, 1080, 1121, 999, 1040, 1081, 1122, 1163, 957, 958, 1082, 1123, 1164, 917, 1083, 1124];[1078, 1036, 994, 1117, 1199, 1161, 960, 962, 881, 678, 517, 434, 471, 510, 550, 591, 672, -1]
1080;1079;2;0.0020843427588641177;24;Collection;[1122, 1123, 1164, 1083, 1124];[1079, 1078, 1036, 994, 1117, 1199, 1161, 960, 962, 881, 678, 517, 434, 471, 510, 550, 591, 672, -1]
1081;1039;1;0.0001876152347479672;24;Collection;[];[1039, 1079, 1078, 1036, 994, 1117, 1199, 1161, 960, 962, 881, 678, 517, 434, 471, 510, 550, 591, 672, -1]
1082;1040;1;2.3721477946428913e-05;24;Collection;[];[1040, 1039, 1079, 1078, 1036, 994, 1117, 1199, 1161, 960, 962, 881, 678, 517, 434, 471, 510, 550, 591, 672, -1]
1083;1123;1;9.450567020292994e-05;24;Collection;[];[1123, 1122, 1080, 1079, 1078, 1036, 994, 1117, 1199, 1161, 960, 962, 881, 678, 517, 434, 471, 510, 550, 591, 672, -1]
1118;1077;2;0.0037644525204149305;24;Collection;[1160];[1077, 1035, 994, 1117, 1199, 1161, 960, 962, 881, 678, 517, 434, 471, 510, 550, 591, 672, -1]
1119;1077;1;0.0009146249999999997;24;Collection;[];[1077, 1035, 994, 1117, 1199, 1161, 960, 962, 881, 678, 517, 434, 471, 510, 550, 591, 672, -1]
1120;1078;1;0.000483351779367902;24;Collection;[];[1078, 1036, 994, 1117, 1199, 1161, 960, 962, 881, 678, 517, 434, 471, 510, 550, 591, 672, -1]
1121;1079;2;0.00108036280866458;24;Collection;[1163];[1079, 1078, 1036, 994, 1117, 1199, 1161, 960, 962, 881, 678, 517, 434, 471, 510, 550, 591, 672, -1]
1122;1080;2;0.0013442942514981945;24;Collection;[1123, 1164, 1083, 1124];[1080, 1079, 1078, 1036, 994, 1117, 1199, 1161, 960, 962, 881, 678, 517, 434, 471, 510, 550, 591, 672, -1]
1123;1122;2;0.0009078912782166923;24;Collection;[1083, 1124];[1122, 1080, 1079, 1078, 1036, 994, 1117, 1199, 1161, 960, 962, 881, 678, 517, 434, 471, 510, 550, 591, 672, -1]
1124;1123;1;0.0003636707906688444;24;Collection;[];[1123, 1122, 1080, 1079, 1078, 1036, 994, 1117, 1199, 1161, 960, 962, 881, 678, 517, 434, 471, 510, 550, 591, 672, -1]
1157;1117;1;9.929123917862135e-05;25;Collection;[];[1117, 1199, 1161, 960, 962, 881, 678, 517, 434, 471, 510, 550, 591, 672, -1]
1158;1117;1;0.0003091062892920585;25;Collection;[];[1117, 1199, 1161, 960, 962, 881, 678, 517, 434, 471, 510, 550, 591, 672, -1]
1159;1117;2;0.0038912802332648957;25;Collection;[1201];[1117, 1199, 1161, 960, 962, 881, 678, 517, 434, 471, 510, 550, 591, 672, -1]
1160;1118;1;0.0028262025204149306;24;Collection;[];[1118, 1077, 1035, 994, 1117, 1199, 1161, 960, 962, 881, 678, 517, 434, 471, 510, 550, 591, 672, -1]
1163;1121;1;0.00019222457799207958;24;Collection;[];[1121, 1079, 1078, 1036, 994, 1117, 1199, 1161, 960, 962, 881, 678, 517, 434, 471, 510, 550, 591, 672, -1]
1164;1122;1;0.00013181290901661887;24;Collection;[];[1122, 1080, 1079, 1078, 1036, 994, 1117, 1199, 1161, 960, 962, 881, 678, 517, 434, 471, 510, 550, 591, 672, -1]
1200;1199;1;0.0028140201056458315;27;Collection;[];[1199, 1161, 960, 962, 881, 678, 517, 434, 471, 510, 550, 591, 672, -1]
1201;1159;1;0.00244888768127339;25;Collection;[];[1159, 1117, 1199, 1161, 960, 962, 881, 678, 517, 434, 471, 510, 550, 591, 672, -1]
1240;1199;1;0.0020725457725188578;27;Collection;[];[1199, 1161, 960, 962, 881, 678, 517, 434, 471, 510, 550, 591, 672, -1]
1241;1199;1;0.0019017749923582585;27;Collection;[];[1199, 1161, 960, 962, 881, 678, 517, 434, 471, 510, 550, 591, 672, -1]
1261;1260;2;0.0001445039779639213;29;Collection;[1262];[1260, 975, 930, 602, 518, 517, 434, 471, 510, 550, 591, 672, -1]
1262;1261;1;9.798557300874162e-05;29;Collection;[];[1261, 1260, 975, 930, 602, 518, 517, 434, 471, 510, 550, 591, 672, -1]
1411;1453;1;0.0013936411670569943;31;Collection;[];[1453, 1410, 1245, 1161, 960, 962, 881, 678, 517, 434, 471, 510, 550, 591, 672, -1]
591;672;2;0.16956166956617;0;Trunk;[550, 551, 592, 633, 510, 511, 552, 593, 634, 471, 512, 553, 594, 434, 513, 554, 595, 270, 435, 476, 517, 514, 555, 596, 228, 230, 269, 311, 436, 477, 518, 678, 515, 556, 597, 637, 638, 352, 438, 602, 720, 881, 677, 598, 639, 679, 680, 394, 437, 439, 441, 478, 479, 480, 603, 644, 930, 762, 840, 841, 882, 923, 962, 676, 717, 718, 719, 599, 640, 681, 721, 722, 440, 481, 159, 442, 483, 568, 562, 645, 686, 888, 889, 890, 931, 975, 804, 800, 801, 842, 883, 924, 960, 760, 761, 600, 641, 682, 723, 763, 764, 199, 200, 201, 526, 567, 608, 520, 521, 522, 563, 604, 687, 728, 849, 850, 932, 976, 1016, 1017, 1260, 802, 843, 884, 925, 966, 1161, 803, 558, 559, 601, 642, 683, 724, 765, 805, 806, 240, 241, 564, 605, 646, 809, 810, 977, 1018, 1058, 1059, 1261, 844, 885, 926, 967, 1199, 1245, 519, 643, 684, 725, 766, 807, 847, 848, 524, 565, 606, 978, 1019, 1262, 886, 927, 968, 1117, 1200, 1240, 1241, 1410, 685, 726, 767, 808, 525, 566, 607, 938, 979, 1020, 969, 994, 1157, 1158, 1159, 1453, 727, 768, 647, 980, 995, 1034, 1035, 1036, 1201, 1411, 1076, 1077, 996, 1037, 1078, 1118, 1119, 1038, 1079, 1120, 1160, 997, 998, 1039, 1080, 1121, 999, 1040, 1081, 1122, 1163, 957, 958, 1082, 1123, 1164, 917, 1083, 1124];[672, -1]
671;672;1;0.00031379034956043105;0;Trunk;[];[672, -1]
550;591;2;0.09984980896609597;0;Trunk;[510, 471, 434, 270, 435, 476, 517, 228, 230, 269, 311, 436, 477, 518, 678, 352, 438, 602, 720, 881, 394, 437, 439, 441, 478, 479, 480, 603, 644, 930, 762, 840, 841, 882, 923, 962, 440, 481, 159, 442, 483, 568, 562, 645, 686, 888, 889, 890, 931, 975, 804, 800, 801, 842, 883, 924, 960, 199, 200, 201, 526, 567, 608, 520, 521, 522, 563, 604, 687, 728, 849, 850, 932, 976, 1016, 1017, 1260, 802, 843, 884, 925, 966, 1161, 240, 241, 564, 605, 646, 809, 810, 977, 1018, 1058, 1059, 1261, 844, 885, 926, 967, 1199, 1245, 524, 565, 606, 978, 1019, 1262, 886, 927, 968, 1117, 1200, 1240, 1241, 1410, 525, 566, 607, 938, 979, 1020, 969, 994, 1157, 1158, 1159, 1453, 647, 980, 995, 1034, 1035, 1036, 1201, 1411, 1076, 1077, 996, 1037, 1078, 1118, 1119, 1038, 1079, 1120, 1160, 997, 998, 1039, 1080, 1121, 999, 1040, 1081, 1122, 1163, 957, 958, 1082, 1123, 1164, 917, 1083, 1124];[591, 672, -1]
510;550;2;0.09953951346661442;0;Trunk;[471, 434, 270, 435, 476, 517, 228, 230, 269, 311, 436, 477, 518, 678, 352, 438, 602, 720, 881, 394, 437, 439, 441, 478, 479, 480, 603, 644, 930, 762, 840, 841, 882, 923, 962, 440, 481, 159, 442, 483, 568, 562, 645, 686, 888, 889, 890, 931, 975, 804, 800, 801, 842, 883, 924, 960, 199, 200, 201, 526, 567, 608, 520, 521, 522, 563, 604, 687, 728, 849, 850, 932, 976, 1016, 1017, 1260, 802, 843, 884, 925, 966, 1161, 240, 241, 564, 605, 646, 809, 810, 977, 1018, 1058, 1059, 1261, 844, 885, 926, 967, 1199, 1245, 524, 565, 606, 978, 1019, 1262, 886, 927, 968, 1117, 1200, 1240, 1241, 1410, 525, 566, 607, 938, 979, 1020, 969, 994, 1157, 1158, 1159, 1453, 647, 980, 995, 1034, 1035, 1036, 1201, 1411, 1076, 1077, 996, 1037, 1078, 1118, 1119, 1038, 1079, 1120, 1160, 997, 998, 1039, 1080, 1121, 999, 1040, 1081, 1122, 1163, 957, 958, 1082, 1123, 1164, 917, 1083, 1124];[550, 591, 672, -1]
471;510;2;0.09952705741626253;0;Trunk;[434, 270, 435, 476, 517, 228, 230, 269, 311, 436, 477, 518, 678, 352, 438, 602, 720, 881, 394, 437, 439, 441, 478, 479, 480, 603, 644, 930, 762, 840, 841, 882, 923, 962, 440, 481, 159, 442, 483, 568, 562, 645, 686, 888, 889, 890, 931, 975, 804, 800, 801, 842, 883, 924, 960, 199, 200, 201, 526, 567, 608, 520, 521, 522, 563, 604, 687, 728, 849, 850, 932, 976, 1016, 1017, 1260, 802, 843, 884, 925, 966, 1161, 240, 241, 564, 605, 646, 809, 810, 977, 1018, 1058, 1059, 1261, 844, 885, 926, 967, 1199, 1245, 524, 565, 606, 978, 1019, 1262, 886, 927, 968, 1117, 1200, 1240, 1241, 1410, 525, 566, 607, 938, 979, 1020, 969, 994, 1157, 1158, 1159, 1453, 647, 980, 995, 1034, 1035, 1036, 1201, 1411, 1076, 1077, 996, 1037, 1078, 1118, 1119, 1038, 1079, 1120, 1160, 997, 998, 1039, 1080, 1121, 999, 1040, 1081, 1122, 1163, 957, 958, 1082, 1123, 1164, 917, 1083, 1124];[510, 550, 591, 672, -1]
434;471;2;0.09951463521333383;0;Trunk;[270, 435, 476, 517, 228, 230, 269, 311, 436, 477, 518, 678, 352, 438, 602, 720, 881, 394, 437, 439, 441, 478, 479, 480, 603, 644, 930, 762, 840, 841, 882, 923, 962, 440, 481, 159, 442, 483, 568, 562, 645, 686, 888, 889, 890, 931, 975, 804, 800, 801, 842, 883, 924, 960, 199, 200, 201, 526, 567, 608, 520, 521, 522, 563, 604, 687, 728, 849, 850, 932, 976, 1016, 1017, 1260, 802, 843, 884, 925, 966, 1161, 240, 241, 564, 605, 646, 809, 810, 977, 1018, 1058, 1059, 1261, 844, 885, 926, 967, 1199, 1245, 524, 565, 606, 978, 1019, 1262, 886, 927, 968, 1117, 1200, 1240, 1241, 1410, 525, 566, 607, 938, 979, 1020, 969, 994, 1157, 1158, 1159, 1453, 647, 980, 995, 1034, 1035, 1036, 1201, 1411, 1076, 1077, 996, 1037, 1078, 1118, 1119, 1038, 1079, 1120, 1160, 997, 998, 1039, 1080, 1121, 999, 1040, 1081, 1122, 1163, 957, 958, 1082, 1123, 1164, 917, 1083, 1124];[471, 510, 550, 591, 672, -1]
270;434;2;0.0015964640929604923;0;Trunk;[228, 230, 269, 311, 352, 394];[434, 471, 510, 550, 591, 672, -1]
517;434;2;0.09576412857896249;0;Trunk;[518, 678, 438, 602, 720, 881, 437, 439, 441, 478, 479, 480, 603, 644, 930, 762, 840, 841, 882, 923, 962, 440, 481, 159, 442, 483, 568, 562, 645, 686, 888, 889, 890, 931, 975, 804, 800, 801, 842, 883, 924, 960, 199, 200, 201, 526, 567, 608, 520, 521, 522, 563, 604, 687, 728, 849, 850, 932, 976, 1016, 1017, 1260, 802, 843, 884, 925, 966, 1161, 240, 241, 564, 605, 646, 809, 810, 977, 1018, 1058, 1059, 1261, 844, 885, 926, 967, 1199, 1245, 524, 565, 606, 978, 1019, 1262, 886, 927, 968, 1117, 1200, 1240, 1241, 1410, 525, 566, 607, 938, 979, 1020, 969, 994, 1157, 1158, 1159, 1453, 647, 980, 995, 1034, 1035, 1036, 1201, 1411, 1076, 1077, 996, 1037, 1078, 1118, 1119, 1038, 1079, 1120, 1160, 997, 998, 1039, 1080, 1121, 999, 1040, 1081, 1122, 1163, 957, 958, 1082, 1123, 1164, 917, 1083, 1124];[434, 471, 510, 550, 591, 672, -1]
518;517;2;0.027431409740376604;0;Trunk;[438, 602, 437, 439, 441, 478, 479, 480, 603, 644, 930, 440, 481, 159, 442, 483, 568, 562, 645, 686, 888, 889, 890, 931, 975, 199, 200, 201, 526, 567, 608, 520, 521, 522, 563, 604, 687, 728, 849, 850, 932, 976, 1016, 1017, 1260, 240, 241, 564, 605, 646, 809, 810, 977, 1018, 1058, 1059, 1261, 524, 565, 606, 978, 1019, 1262, 525, 566, 607, 938, 979, 1020, 647, 980];[517, 434, 471, 510, 550, 591, 672, -1]
678;517;2;0.06794894222634312;0;Trunk;[720, 881, 762, 840, 841, 882, 923, 962, 804, 800, 801, 842, 883, 924, 960, 802, 843, 884, 925, 966, 1161, 844, 885, 926, 967, 1199, 1245, 886, 927, 968, 1117, 1200, 1240, 1241, 1410, 969, 994, 1157, 1158, 1159, 1453, 995, 1034, 1035, 1036, 1201, 1411, 1076, 1077, 996, 1037, 1078, 1118, 1119, 1038, 1079, 1120, 1160, 997, 998, 1039, 1080, 1121, 999, 1040, 1081, 1122, 1163, 957, 958, 1082, 1123, 1164, 917, 1083, 1124];[517, 434, 471, 510, 550, 591, 672, -1]
438;518;2;0.004948695651254723;0;Trunk;[437, 439, 441, 478, 479, 480, 440, 481, 159, 442, 483, 568, 199, 200, 201, 526, 567, 608, 240, 241];[518, 517, 434, 471, 510, 550, 591, 672, -1]
602;518;2;0.022147581758709272;0;Trunk;[603, 644, 930, 562, 645, 686, 888, 889, 890, 931, 975, 520, 521, 522, 563, 604, 687, 728, 849, 850, 932, 976, 1016, 1017, 1260, 564, 605, 646, 809, 810, 977, 1018, 1058, 1059, 1261, 524, 565, 606, 978, 1019, 1262, 525, 566, 607, 938, 979, 1020, 647, 980];[518, 517, 434, 471, 510, 550, 591, 672, -1]
881;678;2;0.06303725905435688;0;Trunk;[840, 841, 882, 923, 962, 800, 801, 842, 883, 924, 960, 802, 843, 884, 925, 966, 1161, 844, 885, 926, 967, 1199, 1245, 886, 927, 968, 1117, 1200, 1240, 1241, 1410, 969, 994, 1157, 1158, 1159, 1453, 995, 1034, 1035, 1036, 1201, 1411, 1076, 1077, 996, 1037, 1078, 1118, 1119, 1038, 1079, 1120, 1160, 997, 998, 1039, 1080, 1121, 999, 1040, 1081, 1122, 1163, 957, 958, 1082, 1123, 1164, 917, 1083, 1124];[678, 517, 434, 471, 510, 550, 591, 672, -1]
441;438;2;0.003091368006896467;0;Trunk;[159, 442, 483, 568, 199, 200, 201, 526, 567, 608, 240, 241];[438, 518, 517, 434, 471, 510, 550, 591, 672, -1]
603;602;2;0.010281964420994898;0;Trunk;[562, 645, 520, 521, 522, 563, 604, 564, 605, 646, 524, 565, 606, 525, 566, 607, 647];[602, 518, 517, 434, 471, 510, 550, 591, 672, -1]
930;602;2;0.009731209098427073;0;Trunk;[888, 889, 890, 931, 975, 849, 850, 932, 976, 1016, 1017, 1260, 809, 810, 977, 1018, 1058, 1059, 1261, 978, 1019, 1262, 938, 979, 1020, 980];[602, 518, 517, 434, 471, 510, 550, 591, 672, -1]
962;881;2;0.04135080433196934;0;Trunk;[960, 1161, 1199, 1245, 1117, 1200, 1240, 1241, 1410, 994, 1157, 1158, 1159, 1453, 995, 1034, 1035, 1036, 1201, 1411, 1076, 1077, 996, 1037, 1078, 1118, 1119, 1038, 1079, 1120, 1160, 997, 998, 1039, 1080, 1121, 999, 1040, 1081, 1122, 1163, 957, 958, 1082, 1123, 1164, 917, 1083, 1124];[881, 678, 517, 434, 471, 510, 550, 591, 672, -1]
159;441;2;0.0004903484250875043;0;Trunk;[199, 200, 201, 240, 241];[441, 438, 518, 517, 434, 471, 510, 550, 591, 672, -1]
568;441;2;0.0021887881745906784;0;Trunk;[526, 567, 608];[441, 438, 518, 517, 434, 471, 510, 550, 591, 672, -1]
562;603;2;0.009356958775247866;0;Trunk;[520, 521, 522, 563, 604, 564, 605, 646, 524, 565, 606, 525, 566, 607, 647];[603, 602, 518, 517, 434, 471, 510, 550, 591, 672, -1]
975;930;2;0.0019164808896280344;0;Trunk;[976, 1016, 1017, 1260, 977, 1018, 1058, 1059, 1261, 978, 1019, 1262, 938, 979, 1020, 980];[930, 602, 518, 517, 434, 471, 510, 550, 591, 672, -1]
960;962;2;0.04114654837610922;0;Trunk;[1161, 1199, 1245, 1117, 1200, 1240, 1241, 1410, 994, 1157, 1158, 1159, 1453, 995, 1034, 1035, 1036, 1201, 1411, 1076, 1077, 996, 1037, 1078, 1118, 1119, 1038, 1079, 1120, 1160, 997, 998, 1039, 1080, 1121, 999, 1040, 1081, 1122, 1163, 957, 958, 1082, 1123, 1164, 917, 1083, 1124];[962, 881, 678, 517, 434, 471, 510, 550, 591, 672, -1]
1260;975;2;0.00015628750484960157;0;Trunk;[1261, 1262];[975, 930, 602, 518, 517, 434, 471, 510, 550, 591, 672, -1]
1161;960;2;0.040792126807725475;0;Trunk;[1199, 1245, 1117, 1200, 1240, 1241, 1410, 994, 1157, 1158, 1159, 1453, 995, 1034, 1035, 1036, 1201, 1411, 1076, 1077, 996, 1037, 1078, 1118, 1119, 1038, 1079, 1120, 1160, 997, 998, 1039, 1080, 1121, 999, 1040, 1081, 1122, 1163, 957, 958, 1082, 1123, 1164, 917, 1083, 1124];[960, 962, 881, 678, 517, 434, 471, 510, 550, 591, 672, -1]
1199;1161;2;0.035318508961386455;0;Trunk;[1117, 1200, 1240, 1241, 994, 1157, 1158, 1159, 995, 1034, 1035, 1036, 1201, 1076, 1077, 996, 1037, 1078, 1118, 1119, 1038, 1079, 1120, 1160, 997, 998, 1039, 1080, 1121, 999, 1040, 1081, 1122, 1163, 957, 958, 1082, 1123, 1164, 917, 1083, 1124];[1161, 960, 962, 881, 678, 517, 434, 471, 510, 550, 591, 672, -1]
1245;1161;2;0.005166492846339019;0;Trunk;[1410, 1453, 1411];[1161, 960, 962, 881, 678, 517, 434, 471, 510, 550, 591, 672, -1]
1117;1199;2;0.027451573260283895;0;Trunk;[994, 1157, 1158, 1159, 995, 1034, 1035, 1036, 1201, 1076, 1077, 996, 1037, 1078, 1118, 1119, 1038, 1079, 1120, 1160, 997, 998, 1039, 1080, 1121, 999, 1040, 1081, 1122, 1163, 957, 958, 1082, 1123, 1164, 917, 1083, 1124];[1199, 1161, 960, 962, 881, 678, 517, 434, 471, 510, 550, 591, 672, -1]
1410;1245;2;0.004084418504801714;0;Trunk;[1453, 1411];[1245, 1161, 960, 962, 881, 678, 517, 434, 471, 510, 550, 591, 672, -1]
994;1117;2;0.02307710471927695;0;Trunk;[995, 1034, 1035, 1036, 1076, 1077, 996, 1037, 1078, 1118, 1119, 1038, 1079, 1120, 1160, 997, 998, 1039, 1080, 1121, 999, 1040, 1081, 1122, 1163, 957, 958, 1082, 1123, 1164, 917, 1083, 1124];[1117, 1199, 1161, 960, 962, 881, 678, 517, 434, 471, 510, 550, 591, 672, -1]
1453;1410;2;0.0028164451166151853;0;Trunk;[1411];[1410, 1245, 1161, 960, 962, 881, 678, 517, 434, 471, 510, 550, 591, 672, -1]
