Manholes;333
id;x;y;z;outlet;wwtp
159.0;7100.0;700.0;492.390625;0.0;672.0
199.0;6900.0;900.0;493.8125;0.0;672.0
200.0;7100.0;900.0;505.609375;0.0;672.0
201.0;7300.0;900.0;518.125;0.0;672.0
228.0;4500.0;1100.0;439.515625;0.0;672.0
230.0;4900.0;1100.0;439.71875;0.0;672.0
239.0;6700.0;1100.0;496.859375;0.0;672.0
240.0;6900.0;1100.0;515.390625;0.0;672.0
241.0;7100.0;1100.0;506.9375;0.0;672.0
269.0;4500.0;1300.0;439.015625;0.0;672.0
270.0;4700.0;1300.0;438.734375;0.0;672.0
311.0;4700.0;1500.0;440.828125;0.0;672.0
352.0;4700.0;1700.0;443.296875;0.0;672.0
357.0;5700.0;1700.0;493.78125;0.0;672.0
389.0;3900.0;1900.0;440.8125;0.0;672.0
390.0;4100.0;1900.0;442.640625;0.0;672.0
394.0;4900.0;1900.0;454.984375;0.0;672.0
395.0;5100.0;1900.0;452.6875;0.0;672.0
396.0;5300.0;1900.0;463.359375;0.0;672.0
397.0;5500.0;1900.0;478.171875;0.0;672.0
398.0;5700.0;1900.0;477.421875;0.0;672.0
399.0;5900.0;1900.0;479.71875;0.0;672.0
401.0;6300.0;1900.0;499.5625;0.0;672.0
403.0;6700.0;1900.0;499.0;0.0;672.0
404.0;6900.0;1900.0;504.9375;0.0;672.0
428.0;3500.0;2100.0;439.546875;0.0;672.0
434.0;4700.0;2100.0;448.421875;0.0;672.0
435.0;4900.0;2100.0;451.40625;0.0;672.0
436.0;5100.0;2100.0;457.71875;0.0;672.0
437.0;5300.0;2100.0;471.625;0.0;672.0
438.0;5500.0;2100.0;470.546875;0.0;672.0
439.0;5700.0;2100.0;478.75;0.0;672.0
440.0;5900.0;2100.0;491.625;0.0;672.0
441.0;6100.0;2100.0;490.5;0.0;672.0
442.0;6300.0;2100.0;495.40625;0.0;672.0
469.0;3500.0;2300.0;441.59375;0.0;672.0
471.0;3900.0;2300.0;446.453125;0.0;672.0
474.0;4500.0;2300.0;448.296875;0.0;672.0
476.0;4900.0;2300.0;452.390625;0.0;672.0
477.0;5100.0;2300.0;475.21875;0.0;672.0
478.0;5300.0;2300.0;489.09375;0.0;672.0
479.0;5500.0;2300.0;485.125;0.0;672.0
480.0;5700.0;2300.0;486.78125;0.0;672.0
481.0;5900.0;2300.0;491.828125;0.0;672.0
482.0;6100.0;2300.0;500.359375;0.0;672.0
483.0;6300.0;2300.0;496.171875;0.0;672.0
484.0;6500.0;2300.0;500.796875;0.0;672.0
485.0;6700.0;2300.0;511.734375;0.0;672.0
509.0;3300.0;2500.0;441.046875;0.0;672.0
510.0;3500.0;2500.0;443.4375;0.0;672.0
511.0;3700.0;2500.0;446.859375;0.0;672.0
512.0;3900.0;2500.0;449.828125;0.0;672.0
513.0;4100.0;2500.0;450.015625;0.0;672.0
514.0;4300.0;2500.0;450.859375;0.0;672.0
515.0;4500.0;2500.0;454.078125;0.0;672.0
516.0;4700.0;2500.0;458.203125;0.0;672.0
517.0;4900.0;2500.0;460.90625;0.0;672.0
518.0;5100.0;2500.0;474.953125;0.0;672.0
519.0;5300.0;2500.0;484.4375;0.0;672.0
520.0;5500.0;2500.0;489.171875;0.0;672.0
521.0;5700.0;2500.0;493.40625;0.0;672.0
522.0;5900.0;2500.0;487.90625;0.0;672.0
523.0;6100.0;2500.0;495.953125;0.0;672.0
524.0;6300.0;2500.0;493.953125;0.0;672.0
525.0;6500.0;2500.0;508.9375;0.0;672.0
526.0;6700.0;2500.0;510.296875;0.0;672.0
549.0;3100.0;2700.0;439.140625;0.0;672.0
550.0;3300.0;2700.0;441.546875;0.0;672.0
551.0;3500.0;2700.0;444.5625;0.0;672.0
552.0;3700.0;2700.0;447.296875;0.0;672.0
553.0;3900.0;2700.0;448.5;0.0;672.0
554.0;4100.0;2700.0;449.90625;0.0;672.0
555.0;4300.0;2700.0;452.625;0.0;672.0
556.0;4500.0;2700.0;461.75;0.0;672.0
557.0;4700.0;2700.0;461.109375;0.0;672.0
558.0;4900.0;2700.0;470.421875;0.0;672.0
559.0;5100.0;2700.0;481.40625;0.0;672.0
560.0;5300.0;2700.0;480.640625;0.0;672.0
561.0;5500.0;2700.0;472.453125;0.0;672.0
562.0;5700.0;2700.0;471.140625;0.0;672.0
563.0;5900.0;2700.0;473.328125;0.0;672.0
564.0;6100.0;2700.0;475.515625;0.0;672.0
565.0;6300.0;2700.0;484.75;0.0;672.0
566.0;6500.0;2700.0;505.9375;0.0;672.0
567.0;6700.0;2700.0;493.671875;0.0;672.0
568.0;6900.0;2700.0;486.453125;0.0;672.0
590.0;3100.0;2900.0;438.59375;0.0;672.0
591.0;3300.0;2900.0;442.40625;0.0;672.0
592.0;3500.0;2900.0;451.625;0.0;672.0
593.0;3700.0;2900.0;454.8125;0.0;672.0
594.0;3900.0;2900.0;453.015625;0.0;672.0
595.0;4100.0;2900.0;451.875;0.0;672.0
596.0;4300.0;2900.0;452.3125;0.0;672.0
597.0;4500.0;2900.0;456.328125;0.0;672.0
598.0;4700.0;2900.0;459.96875;0.0;672.0
599.0;4900.0;2900.0;466.328125;0.0;672.0
600.0;5100.0;2900.0;465.09375;0.0;672.0
601.0;5300.0;2900.0;466.125;0.0;672.0
602.0;5500.0;2900.0;468.703125;0.0;672.0
603.0;5700.0;2900.0;470.75;0.0;672.0
604.0;5900.0;2900.0;476.015625;0.0;672.0
605.0;6100.0;2900.0;482.453125;0.0;672.0
606.0;6300.0;2900.0;494.796875;0.0;672.0
607.0;6500.0;2900.0;492.375;0.0;672.0
608.0;6700.0;2900.0;487.5625;0.0;672.0
609.0;6900.0;2900.0;498.796875;0.0;672.0
631.0;3100.0;3100.0;438.625;0.0;672.0
632.0;3300.0;3100.0;445.015625;0.0;672.0
633.0;3500.0;3100.0;456.859375;0.0;672.0
634.0;3700.0;3100.0;461.328125;0.0;672.0
637.0;4300.0;3100.0;454.359375;0.0;672.0
638.0;4500.0;3100.0;455.859375;0.0;672.0
639.0;4700.0;3100.0;458.21875;0.0;672.0
640.0;4900.0;3100.0;460.671875;0.0;672.0
641.0;5100.0;3100.0;463.546875;0.0;672.0
642.0;5300.0;3100.0;467.03125;0.0;672.0
643.0;5500.0;3100.0;469.609375;0.0;672.0
644.0;5700.0;3100.0;477.171875;0.0;672.0
645.0;5900.0;3100.0;490.796875;0.0;672.0
646.0;6100.0;3100.0;499.3125;0.0;672.0
647.0;6300.0;3100.0;516.09375;0.0;672.0
648.0;6500.0;3100.0;511.921875;0.0;672.0
649.0;6700.0;3100.0;501.15625;0.0;672.0
650.0;6900.0;3100.0;510.9375;0.0;672.0
671.0;2900.0;3300.0;435.734375;0.0;672.0
672.0;3100.0;3300.0;440.171875;1.0;672.0
673.0;3300.0;3300.0;447.09375;0.0;672.0
674.0;3500.0;3300.0;454.625;0.0;672.0
675.0;3700.0;3300.0;460.46875;0.0;672.0
676.0;3900.0;3300.0;456.359375;0.0;672.0
677.0;4100.0;3300.0;455.203125;0.0;672.0
678.0;4300.0;3300.0;455.203125;0.0;672.0
679.0;4500.0;3300.0;456.96875;0.0;672.0
680.0;4700.0;3300.0;458.828125;0.0;672.0
681.0;4900.0;3300.0;461.609375;0.0;672.0
682.0;5100.0;3300.0;464.234375;0.0;672.0
683.0;5300.0;3300.0;467.671875;0.0;672.0
684.0;5500.0;3300.0;473.90625;0.0;672.0
685.0;5700.0;3300.0;483.046875;0.0;672.0
686.0;5900.0;3300.0;490.15625;0.0;672.0
687.0;6100.0;3300.0;504.734375;0.0;672.0
716.0;3700.0;3500.0;461.0625;0.0;672.0
717.0;3900.0;3500.0;457.09375;0.0;672.0
718.0;4100.0;3500.0;457.484375;0.0;672.0
719.0;4300.0;3500.0;456.703125;0.0;672.0
720.0;4500.0;3500.0;458.171875;0.0;672.0
721.0;4700.0;3500.0;459.09375;0.0;672.0
722.0;4900.0;3500.0;461.625;0.0;672.0
723.0;5100.0;3500.0;464.6875;0.0;672.0
724.0;5300.0;3500.0;468.078125;0.0;672.0
725.0;5500.0;3500.0;476.09375;0.0;672.0
726.0;5700.0;3500.0;484.4375;0.0;672.0
727.0;5900.0;3500.0;496.921875;0.0;672.0
728.0;6100.0;3500.0;520.15625;0.0;672.0
729.0;6300.0;3500.0;520.515625;0.0;672.0
757.0;3700.0;3700.0;459.828125;0.0;672.0
758.0;3900.0;3700.0;458.46875;0.0;672.0
760.0;4300.0;3700.0;458.203125;0.0;672.0
761.0;4500.0;3700.0;459.53125;0.0;672.0
762.0;4700.0;3700.0;460.640625;0.0;672.0
763.0;4900.0;3700.0;462.90625;0.0;672.0
764.0;5100.0;3700.0;467.40625;0.0;672.0
765.0;5300.0;3700.0;472.015625;0.0;672.0
766.0;5500.0;3700.0;481.0;0.0;672.0
767.0;5700.0;3700.0;490.734375;0.0;672.0
768.0;5900.0;3700.0;500.359375;0.0;672.0
769.0;6100.0;3700.0;509.90625;0.0;672.0
795.0;3100.0;3900.0;467.921875;0.0;672.0
799.0;3900.0;3900.0;457.421875;0.0;672.0
800.0;4100.0;3900.0;457.390625;0.0;672.0
801.0;4300.0;3900.0;458.5;0.0;672.0
802.0;4500.0;3900.0;460.046875;0.0;672.0
803.0;4700.0;3900.0;464.59375;0.0;672.0
804.0;4900.0;3900.0;473.03125;0.0;672.0
805.0;5100.0;3900.0;488.328125;0.0;672.0
806.0;5300.0;3900.0;480.609375;0.0;672.0
807.0;5500.0;3900.0;486.03125;0.0;672.0
808.0;5700.0;3900.0;493.921875;0.0;672.0
809.0;5900.0;3900.0;494.5;0.0;672.0
810.0;6100.0;3900.0;500.140625;0.0;672.0
835.0;2900.0;4100.0;461.25;0.0;672.0
836.0;3100.0;4100.0;477.453125;0.0;672.0
840.0;3900.0;4100.0;456.40625;0.0;672.0
841.0;4100.0;4100.0;455.578125;0.0;672.0
842.0;4300.0;4100.0;457.5625;0.0;672.0
843.0;4500.0;4100.0;461.25;0.0;672.0
844.0;4700.0;4100.0;473.875;0.0;672.0
846.0;5100.0;4100.0;481.96875;0.0;672.0
847.0;5300.0;4100.0;485.765625;0.0;672.0
848.0;5500.0;4100.0;485.359375;0.0;672.0
849.0;5700.0;4100.0;487.578125;0.0;672.0
850.0;5900.0;4100.0;490.65625;0.0;672.0
852.0;6300.0;4100.0;500.78125;0.0;672.0
875.0;2700.0;4300.0;441.390625;0.0;672.0
876.0;2900.0;4300.0;462.1875;0.0;672.0
877.0;3100.0;4300.0;476.40625;0.0;672.0
881.0;3900.0;4300.0;453.28125;0.0;672.0
882.0;4100.0;4300.0;454.453125;0.0;672.0
883.0;4300.0;4300.0;456.515625;0.0;672.0
884.0;4500.0;4300.0;459.453125;0.0;672.0
885.0;4700.0;4300.0;467.578125;0.0;672.0
886.0;4900.0;4300.0;474.40625;0.0;672.0
888.0;5300.0;4300.0;486.5625;0.0;672.0
889.0;5500.0;4300.0;482.703125;0.0;672.0
890.0;5700.0;4300.0;485.546875;0.0;672.0
893.0;6300.0;4300.0;496.6875;0.0;672.0
914.0;2300.0;4500.0;437.96875;0.0;672.0
915.0;2500.0;4500.0;441.75;0.0;672.0
916.0;2700.0;4500.0;446.25;0.0;672.0
917.0;2900.0;4500.0;465.578125;0.0;672.0
918.0;3100.0;4500.0;472.921875;0.0;672.0
923.0;4100.0;4500.0;454.890625;0.0;672.0
924.0;4300.0;4500.0;458.65625;0.0;672.0
925.0;4500.0;4500.0;469.078125;0.0;672.0
926.0;4700.0;4500.0;475.03125;0.0;672.0
927.0;4900.0;4500.0;476.375;0.0;672.0
928.0;5100.0;4500.0;479.21875;0.0;672.0
929.0;5300.0;4500.0;478.453125;0.0;672.0
930.0;5500.0;4500.0;480.875;0.0;672.0
931.0;5700.0;4500.0;484.21875;0.0;672.0
932.0;5900.0;4500.0;487.5625;0.0;672.0
933.0;6100.0;4500.0;490.9375;0.0;672.0
937.0;6900.0;4500.0;538.109375;0.0;672.0
938.0;7100.0;4500.0;557.953125;0.0;672.0
954.0;2100.0;4700.0;437.703125;0.0;672.0
955.0;2300.0;4700.0;442.109375;0.0;672.0
956.0;2500.0;4700.0;448.859375;0.0;672.0
957.0;2700.0;4700.0;453.34375;0.0;672.0
958.0;2900.0;4700.0;458.484375;0.0;672.0
959.0;3100.0;4700.0;459.515625;0.0;672.0
960.0;3300.0;4700.0;455.40625;0.0;672.0
966.0;4500.0;4700.0;466.359375;0.0;672.0
967.0;4700.0;4700.0;470.34375;0.0;672.0
968.0;4900.0;4700.0;472.546875;0.0;672.0
969.0;5100.0;4700.0;473.84375;0.0;672.0
970.0;5300.0;4700.0;476.515625;0.0;672.0
971.0;5500.0;4700.0;479.765625;0.0;672.0
972.0;5700.0;4700.0;483.078125;0.0;672.0
973.0;5900.0;4700.0;486.78125;0.0;672.0
975.0;6300.0;4700.0;502.96875;0.0;672.0
976.0;6500.0;4700.0;517.28125;0.0;672.0
977.0;6700.0;4700.0;543.703125;0.0;672.0
978.0;6900.0;4700.0;553.140625;0.0;672.0
979.0;7100.0;4700.0;560.375;0.0;672.0
980.0;7300.0;4700.0;567.671875;0.0;672.0
993.0;1700.0;4900.0;436.796875;0.0;672.0
994.0;1900.0;4900.0;439.3125;0.0;672.0
995.0;2100.0;4900.0;441.59375;0.0;672.0
996.0;2300.0;4900.0;444.84375;0.0;672.0
997.0;2500.0;4900.0;451.5;0.0;672.0
998.0;2700.0;4900.0;452.4375;0.0;672.0
999.0;2900.0;4900.0;452.640625;0.0;672.0
1000.0;3100.0;4900.0;451.5;0.0;672.0
1001.0;3300.0;4900.0;451.546875;0.0;672.0
1011.0;5300.0;4900.0;477.25;0.0;672.0
1012.0;5500.0;4900.0;480.53125;0.0;672.0
1013.0;5700.0;4900.0;485.03125;0.0;672.0
1016.0;6300.0;4900.0;516.90625;0.0;672.0
1017.0;6500.0;4900.0;536.265625;0.0;672.0
1018.0;6700.0;4900.0;556.328125;0.0;672.0
1019.0;6900.0;4900.0;560.765625;0.0;672.0
1020.0;7100.0;4900.0;568.484375;0.0;672.0
1033.0;1500.0;5100.0;435.828125;0.0;672.0
1034.0;1700.0;5100.0;439.328125;0.0;672.0
1035.0;1900.0;5100.0;440.59375;0.0;672.0
1036.0;2100.0;5100.0;442.25;0.0;672.0
1037.0;2300.0;5100.0;445.015625;0.0;672.0
1038.0;2500.0;5100.0;447.03125;0.0;672.0
1039.0;2700.0;5100.0;447.984375;0.0;672.0
1040.0;2900.0;5100.0;448.734375;0.0;672.0
1041.0;3100.0;5100.0;449.71875;0.0;672.0
1043.0;3500.0;5100.0;460.46875;0.0;672.0
1058.0;6500.0;5100.0;550.09375;0.0;672.0
1059.0;6700.0;5100.0;564.046875;0.0;672.0
1074.0;1500.0;5300.0;438.484375;0.0;672.0
1075.0;1700.0;5300.0;439.796875;0.0;672.0
1076.0;1900.0;5300.0;441.0625;0.0;672.0
1077.0;2100.0;5300.0;443.015625;0.0;672.0
1078.0;2300.0;5300.0;444.078125;0.0;672.0
1079.0;2500.0;5300.0;446.4375;0.0;672.0
1080.0;2700.0;5300.0;448.65625;0.0;672.0
1081.0;2900.0;5300.0;451.578125;0.0;672.0
1082.0;3100.0;5300.0;456.046875;0.0;672.0
1083.0;3300.0;5300.0;459.4375;0.0;672.0
1087.0;4100.0;5300.0;461.796875;0.0;672.0
1088.0;4300.0;5300.0;462.703125;0.0;672.0
1117.0;1900.0;5500.0;442.59375;0.0;672.0
1118.0;2100.0;5500.0;443.9375;0.0;672.0
1119.0;2300.0;5500.0;445.140625;0.0;672.0
1120.0;2500.0;5500.0;449.0;0.0;672.0
1121.0;2700.0;5500.0;449.921875;0.0;672.0
1122.0;2900.0;5500.0;453.0;0.0;672.0
1123.0;3100.0;5500.0;453.734375;0.0;672.0
1124.0;3300.0;5500.0;458.265625;0.0;672.0
1157.0;1700.0;5700.0;445.34375;0.0;672.0
1158.0;1900.0;5700.0;445.15625;0.0;672.0
1159.0;2100.0;5700.0;446.53125;0.0;672.0
1160.0;2300.0;5700.0;447.96875;0.0;672.0
1161.0;2500.0;5700.0;449.5;0.0;672.0
1162.0;2700.0;5700.0;449.875;0.0;672.0
1163.0;2900.0;5700.0;451.6875;0.0;672.0
1164.0;3100.0;5700.0;453.15625;0.0;672.0
1198.0;1700.0;5900.0;445.0;0.0;672.0
1199.0;1900.0;5900.0;445.0;0.0;672.0
1200.0;2100.0;5900.0;447.75;0.0;672.0
1201.0;2300.0;5900.0;447.46875;0.0;672.0
1204.0;2900.0;5900.0;454.125;0.0;672.0
1205.0;3100.0;5900.0;457.375;0.0;672.0
1240.0;1900.0;6100.0;447.05263157894734;0.0;672.0
1241.0;2100.0;6100.0;447.234375;0.0;672.0
1245.0;2900.0;6100.0;454.359375;0.0;672.0
1246.0;3100.0;6100.0;459.46875;0.0;672.0
1247.0;3300.0;6100.0;461.109375;0.0;672.0
1277.0;1100.0;6300.0;442.375;0.0;672.0
1278.0;1300.0;6300.0;442.7368421052632;0.0;672.0
1279.0;1500.0;6300.0;442.7142857142857;0.0;672.0
1282.0;2100.0;6300.0;444.62068965517244;0.0;672.0
1283.0;2300.0;6300.0;446.9655172413793;0.0;672.0
1285.0;2700.0;6300.0;451.96875;0.0;672.0
1286.0;2900.0;6300.0;458.359375;0.0;672.0
1319.0;1300.0;6500.0;442.0;0.0;672.0
1324.0;2300.0;6500.0;449.8333333333333;0.0;672.0
1325.0;2500.0;6500.0;451.84;0.0;672.0
1326.0;2700.0;6500.0;455.453125;0.0;672.0
1340.0;5500.0;6500.0;523.6041666666666;0.0;672.0
1341.0;5700.0;6500.0;535.90625;0.0;672.0
1342.0;5900.0;6500.0;552.125;0.0;672.0
1343.0;6100.0;6500.0;564.046875;0.0;672.0
1381.0;5500.0;6700.0;536.8;0.0;672.0
1409.0;2900.0;6900.0;471.22222222222223;0.0;672.0
1410.0;3100.0;6900.0;473.875;0.0;672.0
1411.0;3300.0;6900.0;478.3;0.0;672.0
1453.0;3500.0;7100.0;472.0;0.0;672.0
Pipes;332
id_up;id_down;type;design_flow;basin;LinkType;up_ids;down_ids
199;159;2;7.356727462716668e-05;1;Collection;[239, 240, 241];[159, 403, 568, 562, 603, 602, 518, 517, 474, 471, 428, 510, 509, 550, 549, 590, 672, -1]
200;159;1;3.8220260523304884e-05;1;Collection;[];[159, 403, 568, 562, 603, 602, 518, 517, 474, 471, 428, 510, 509, 550, 549, 590, 672, -1]
201;159;1;3.7487725718478444e-05;1;Collection;[];[159, 403, 568, 562, 603, 602, 518, 517, 474, 471, 428, 510, 509, 550, 549, 590, 672, -1]
228;270;1;7.729679974705429e-05;2;Collection;[];[270, 395, 435, 517, 474, 471, 428, 510, 509, 550, 549, 590, 672, -1]
230;270;1;0.000333986005913508;2;Collection;[];[270, 395, 435, 517, 474, 471, 428, 510, 509, 550, 549, 590, 672, -1]
239;199;1;2.468932425320469e-05;1;Collection;[];[199, 159, 403, 568, 562, 603, 602, 518, 517, 474, 471, 428, 510, 509, 550, 549, 590, 672, -1]
240;199;1;1.104929550062804e-05;1;Collection;[];[199, 159, 403, 568, 562, 603, 602, 518, 517, 474, 471, 428, 510, 509, 550, 549, 590, 672, -1]
241;199;1;2.349376123044609e-05;1;Collection;[];[199, 159, 403, 568, 562, 603, 602, 518, 517, 474, 471, 428, 510, 509, 550, 549, 590, 672, -1]
269;270;1;3.891601669366881e-05;2;Collection;[];[270, 395, 435, 517, 474, 471, 428, 510, 509, 550, 549, 590, 672, -1]
311;270;2;0.0003480856055953407;2;Collection;[352];[270, 395, 435, 517, 474, 471, 428, 510, 509, 550, 549, 590, 672, -1]
352;311;1;0.00033679381712002746;2;Collection;[];[311, 270, 395, 435, 517, 474, 471, 428, 510, 509, 550, 549, 590, 672, -1]
357;398;1;2.6511513212696167e-05;4;Collection;[];[398, 438, 396, 395, 435, 517, 474, 471, 428, 510, 509, 550, 549, 590, 672, -1]
390;389;1;0.0007359494660102099;3;Collection;[];[389, 471, 428, 510, 509, 550, 549, 590, 672, -1]
394;395;1;0.00024402595574203015;4;Collection;[];[395, 435, 517, 474, 471, 428, 510, 509, 550, 549, 590, 672, -1]
396;395;2;0.004168803933321728;4;Collection;[397, 438, 398, 439, 478, 479, 480, 357, 399, 440, 481, 441, 401, 442, 483];[395, 435, 517, 474, 471, 428, 510, 509, 550, 549, 590, 672, -1]
397;396;1;3.674149891193492e-05;4;Collection;[];[396, 395, 435, 517, 474, 471, 428, 510, 509, 550, 549, 590, 672, -1]
398;438;2;0.0016600675780596133;4;Collection;[357, 399, 440, 441, 401, 442, 483];[438, 396, 395, 435, 517, 474, 471, 428, 510, 509, 550, 549, 590, 672, -1]
399;398;2;0.001437685317081322;4;Collection;[441, 401, 442, 483];[398, 438, 396, 395, 435, 517, 474, 471, 428, 510, 509, 550, 549, 590, 672, -1]
401;441;1;3.747449670893944e-05;4;Collection;[];[441, 399, 398, 438, 396, 395, 435, 517, 474, 471, 428, 510, 509, 550, 549, 590, 672, -1]
404;403;1;0.0006733852754918036;5;Collection;[];[403, 568, 562, 603, 602, 518, 517, 474, 471, 428, 510, 509, 550, 549, 590, 672, -1]
434;474;2;0.0007265912413491243;9;Collection;[476];[474, 471, 428, 510, 509, 550, 549, 590, 672, -1]
436;395;1;0.0006581249999999999;4;Collection;[];[395, 435, 517, 474, 471, 428, 510, 509, 550, 549, 590, 672, -1]
437;395;1;0.00018619705956669265;4;Collection;[];[395, 435, 517, 474, 471, 428, 510, 509, 550, 549, 590, 672, -1]
438;396;2;0.004076675643982362;4;Collection;[398, 439, 478, 479, 480, 357, 399, 440, 481, 441, 401, 442, 483];[396, 395, 435, 517, 474, 471, 428, 510, 509, 550, 549, 590, 672, -1]
439;438;2;0.0007676945383433327;4;Collection;[481];[438, 396, 395, 435, 517, 474, 471, 428, 510, 509, 550, 549, 590, 672, -1]
440;398;1;0.00013891039325873768;4;Collection;[];[398, 438, 396, 395, 435, 517, 474, 471, 428, 510, 509, 550, 549, 590, 672, -1]
441;399;2;0.0007026756658927278;4;Collection;[401, 442, 483];[399, 398, 438, 396, 395, 435, 517, 474, 471, 428, 510, 509, 550, 549, 590, 672, -1]
442;441;1;0.00020006546649472707;4;Collection;[];[441, 399, 398, 438, 396, 395, 435, 517, 474, 471, 428, 510, 509, 550, 549, 590, 672, -1]
469;428;1;1.1116270117178303e-05;6;Collection;[];[428, 510, 509, 550, 549, 590, 672, -1]
476;434;1;0.0006022745698419614;9;Collection;[];[434, 474, 471, 428, 510, 509, 550, 549, 590, 672, -1]
477;435;1;0.00041463422844901333;7;Collection;[];[435, 517, 474, 471, 428, 510, 509, 550, 549, 590, 672, -1]
478;438;1;0.0004094236751095266;4;Collection;[];[438, 396, 395, 435, 517, 474, 471, 428, 510, 509, 550, 549, 590, 672, -1]
479;438;1;0.00040836026082524625;4;Collection;[];[438, 396, 395, 435, 517, 474, 471, 428, 510, 509, 550, 549, 590, 672, -1]
480;438;1;0.0007357499999999999;4;Collection;[];[438, 396, 395, 435, 517, 474, 471, 428, 510, 509, 550, 549, 590, 672, -1]
481;439;1;0.000583875;4;Collection;[];[439, 438, 396, 395, 435, 517, 474, 471, 428, 510, 509, 550, 549, 590, 672, -1]
482;522;1;6.829313818740997e-05;16;Collection;[];[522, 562, 603, 602, 518, 517, 474, 471, 428, 510, 509, 550, 549, 590, 672, -1]
483;441;1;0.0003672302876830072;4;Collection;[];[441, 399, 398, 438, 396, 395, 435, 517, 474, 471, 428, 510, 509, 550, 549, 590, 672, -1]
484;524;2;6.628892789744052e-05;16;Collection;[485];[524, 564, 563, 562, 603, 602, 518, 517, 474, 471, 428, 510, 509, 550, 549, 590, 672, -1]
485;484;1;3.451525998107676e-05;16;Collection;[];[484, 524, 564, 563, 562, 603, 602, 518, 517, 474, 471, 428, 510, 509, 550, 549, 590, 672, -1]
511;551;1;0.0005228176964693781;21;Collection;[];[551, 591, 631, 671, 672, -1]
512;552;1;0.00020941854167768326;21;Collection;[];[552, 551, 591, 631, 671, 672, -1]
513;553;1;0.0008167499999999999;21;Collection;[];[553, 552, 551, 591, 631, 671, 672, -1]
514;554;1;0.0002670886344509637;21;Collection;[];[554, 553, 552, 551, 591, 631, 671, 672, -1]
515;555;1;0.00020597451524779852;21;Collection;[];[555, 554, 553, 552, 551, 591, 631, 671, 672, -1]
516;474;1;6.688565452059452e-05;9;Collection;[];[474, 471, 428, 510, 509, 550, 549, 590, 672, -1]
519;561;1;0.000543418619526401;16;Collection;[];[561, 562, 603, 602, 518, 517, 474, 471, 428, 510, 509, 550, 549, 590, 672, -1]
520;562;1;0.0007256249999999999;16;Collection;[];[562, 603, 602, 518, 517, 474, 471, 428, 510, 509, 550, 549, 590, 672, -1]
521;562;1;0.000459;16;Collection;[];[562, 603, 602, 518, 517, 474, 471, 428, 510, 509, 550, 549, 590, 672, -1]
522;562;2;0.0003549060502183793;16;Collection;[482];[562, 603, 602, 518, 517, 474, 471, 428, 510, 509, 550, 549, 590, 672, -1]
523;563;1;0.0002117064926820683;16;Collection;[];[563, 562, 603, 602, 518, 517, 474, 471, 428, 510, 509, 550, 549, 590, 672, -1]
524;564;2;0.0006366639278974404;16;Collection;[484, 485];[564, 563, 562, 603, 602, 518, 517, 474, 471, 428, 510, 509, 550, 549, 590, 672, -1]
525;565;1;0.0005612141764270324;16;Collection;[];[565, 564, 563, 562, 603, 602, 518, 517, 474, 471, 428, 510, 509, 550, 549, 590, 672, -1]
526;568;1;0.0008888717671005854;17;Collection;[];[568, 562, 603, 602, 518, 517, 474, 471, 428, 510, 509, 550, 549, 590, 672, -1]
551;591;2;0.035882318065514035;21;Collection;[511, 552, 593, 512, 553, 594, 513, 554, 595, 514, 555, 596, 515, 556, 597, 637, 638, 557, 677, 598, 639, 679, 680, 676, 719, 599, 640, 681, 721, 722, 760, 761, 600, 641, 682, 723, 763, 764, 803, 558, 559, 560, 601, 642, 683, 724, 765, 805, 806, 643, 684, 725, 766, 807, 847, 848, 685, 726, 767, 808, 727, 768];[591, 631, 671, 672, -1]
552;551;2;0.033808260362899814;21;Collection;[512, 553, 594, 513, 554, 595, 514, 555, 596, 515, 556, 597, 637, 638, 557, 677, 598, 639, 679, 680, 676, 719, 599, 640, 681, 721, 722, 760, 761, 600, 641, 682, 723, 763, 764, 803, 558, 559, 560, 601, 642, 683, 724, 765, 805, 806, 643, 684, 725, 766, 807, 847, 848, 685, 726, 767, 808, 727, 768];[551, 591, 631, 671, 672, -1]
553;552;2;0.03101131886738203;21;Collection;[513, 554, 595, 514, 555, 596, 515, 556, 597, 637, 638, 557, 677, 598, 639, 679, 680, 676, 719, 599, 640, 681, 721, 722, 760, 761, 600, 641, 682, 723, 763, 764, 803, 558, 559, 560, 601, 642, 683, 724, 765, 805, 806, 643, 684, 725, 766, 807, 847, 848, 685, 726, 767, 808, 727, 768];[552, 551, 591, 631, 671, 672, -1]
554;553;2;0.029425950993273515;21;Collection;[514, 555, 596, 515, 556, 597, 637, 638, 557, 677, 598, 639, 679, 680, 676, 719, 599, 640, 681, 721, 722, 760, 761, 600, 641, 682, 723, 763, 764, 803, 558, 559, 560, 601, 642, 683, 724, 765, 805, 806, 643, 684, 725, 766, 807, 847, 848, 685, 726, 767, 808, 727, 768];[553, 552, 551, 591, 631, 671, 672, -1]
555;554;2;0.0012657245152477984;21;Collection;[515];[554, 553, 552, 551, 591, 631, 671, 672, -1]
556;596;1;0.00030647905751789904;21;Collection;[];[596, 554, 553, 552, 551, 591, 631, 671, 672, -1]
557;597;1;0.00017490559160778687;21;Collection;[];[597, 596, 554, 553, 552, 551, 591, 631, 671, 672, -1]
558;600;1;0.00056056042894196;21;Collection;[];[600, 640, 639, 638, 596, 554, 553, 552, 551, 591, 631, 671, 672, -1]
559;600;1;0.00019805038760877035;21;Collection;[];[600, 640, 639, 638, 596, 554, 553, 552, 551, 591, 631, 671, 672, -1]
560;600;1;0.00011065794440927422;21;Collection;[];[600, 640, 639, 638, 596, 554, 553, 552, 551, 591, 631, 671, 672, -1]
561;562;2;0.0006990482326621598;16;Collection;[519];[562, 603, 602, 518, 517, 474, 471, 428, 510, 509, 550, 549, 590, 672, -1]
563;562;2;0.006685765906359643;16;Collection;[523, 564, 605, 524, 565, 606, 484, 525, 566, 607, 485, 647];[562, 603, 602, 518, 517, 474, 471, 428, 510, 509, 550, 549, 590, 672, -1]
564;563;2;0.0057730811275191266;16;Collection;[524, 565, 606, 484, 525, 566, 607, 485, 647];[563, 562, 603, 602, 518, 517, 474, 471, 428, 510, 509, 550, 549, 590, 672, -1]
565;564;2;0.003216042199621686;16;Collection;[525, 566, 607, 647];[564, 563, 562, 603, 602, 518, 517, 474, 471, 428, 510, 509, 550, 549, 590, 672, -1]
566;565;1;0.00042903703364164145;16;Collection;[];[565, 564, 563, 562, 603, 602, 518, 517, 474, 471, 428, 510, 509, 550, 549, 590, 672, -1]
567;568;1;0.0020469776522612122;17;Collection;[];[568, 562, 603, 602, 518, 517, 474, 471, 428, 510, 509, 550, 549, 590, 672, -1]
591;631;2;0.03728756445587883;21;Collection;[551, 592, 633, 511, 552, 593, 634, 512, 553, 594, 513, 554, 595, 514, 555, 596, 515, 556, 597, 637, 638, 557, 677, 598, 639, 679, 680, 676, 719, 599, 640, 681, 721, 722, 760, 761, 600, 641, 682, 723, 763, 764, 803, 558, 559, 560, 601, 642, 683, 724, 765, 805, 806, 643, 684, 725, 766, 807, 847, 848, 685, 726, 767, 808, 727, 768];[631, 671, 672, -1]
592;591;2;0.0006107763555496207;21;Collection;[634];[591, 631, 671, 672, -1]
593;551;1;0.001108380462359576;21;Collection;[];[551, 591, 631, 671, 672, -1]
594;552;1;0.0016256479538401046;21;Collection;[];[552, 551, 591, 631, 671, 672, -1]
595;553;1;5.64928741085119e-05;21;Collection;[];[553, 552, 551, 591, 631, 671, 672, -1]
596;554;2;0.027022387843574754;21;Collection;[556, 597, 637, 638, 557, 677, 598, 639, 679, 680, 676, 719, 599, 640, 681, 721, 722, 760, 761, 600, 641, 682, 723, 763, 764, 803, 558, 559, 560, 601, 642, 683, 724, 765, 805, 806, 643, 684, 725, 766, 807, 847, 848, 685, 726, 767, 808, 727, 768];[554, 553, 552, 551, 591, 631, 671, 672, -1]
597;596;2;0.0010287805916077866;21;Collection;[557];[596, 554, 553, 552, 551, 591, 631, 671, 672, -1]
598;638;1;0.0008639999999999999;21;Collection;[];[638, 596, 554, 553, 552, 551, 591, 631, 671, 672, -1]
599;639;1;0.000712125;21;Collection;[];[639, 638, 596, 554, 553, 552, 551, 591, 631, 671, 672, -1]
600;640;2;0.005188279875619964;21;Collection;[558, 559, 560, 601, 642, 643, 684, 685, 726, 727, 768];[640, 639, 638, 596, 554, 553, 552, 551, 591, 631, 671, 672, -1]
601;600;2;0.0017082926819994503;21;Collection;[643, 685, 727];[600, 640, 639, 638, 596, 554, 553, 552, 551, 591, 631, 671, 672, -1]
604;562;2;0.0008067245508862087;16;Collection;[646];[562, 603, 602, 518, 517, 474, 471, 428, 510, 509, 550, 549, 590, 672, -1]
605;563;1;0.0003650758073412108;16;Collection;[];[563, 562, 603, 602, 518, 517, 474, 471, 428, 510, 509, 550, 549, 590, 672, -1]
606;564;1;0.0006952499999999999;16;Collection;[];[564, 563, 562, 603, 602, 518, 517, 474, 471, 428, 510, 509, 550, 549, 590, 672, -1]
607;565;2;0.0010782909895530124;16;Collection;[647];[565, 564, 563, 562, 603, 602, 518, 517, 474, 471, 428, 510, 509, 550, 549, 590, 672, -1]
608;568;2;0.004286255665951452;17;Collection;[648, 649, 650];[568, 562, 603, 602, 518, 517, 474, 471, 428, 510, 509, 550, 549, 590, 672, -1]
609;568;1;0.002119635039036027;17;Collection;[];[568, 562, 603, 602, 518, 517, 474, 471, 428, 510, 509, 550, 549, 590, 672, -1]
631;671;2;0.039374334878365766;21;Collection;[591, 632, 673, 551, 592, 633, 674, 511, 552, 593, 634, 675, 512, 553, 594, 513, 554, 595, 514, 555, 596, 515, 556, 597, 637, 638, 557, 677, 598, 639, 679, 680, 676, 719, 599, 640, 681, 721, 722, 760, 761, 600, 641, 682, 723, 763, 764, 803, 558, 559, 560, 601, 642, 683, 724, 765, 805, 806, 643, 684, 725, 766, 807, 847, 848, 685, 726, 767, 808, 727, 768];[671, 672, -1]
632;631;2;0.001637445870822578;21;Collection;[674, 675];[631, 671, 672, -1]
633;591;1;0.0006108749999999999;21;Collection;[];[591, 631, 671, 672, -1]
634;592;1;0.00028150855749404217;21;Collection;[];[592, 591, 631, 671, 672, -1]
637;596;2;0.005486219257730616;21;Collection;[677, 676, 719, 760, 761, 803];[596, 554, 553, 552, 551, 591, 631, 671, 672, -1]
638;596;2;0.019461783936718453;21;Collection;[598, 639, 679, 680, 599, 640, 681, 721, 722, 600, 641, 682, 723, 763, 764, 558, 559, 560, 601, 642, 683, 724, 765, 805, 806, 643, 684, 725, 766, 807, 847, 848, 685, 726, 767, 808, 727, 768];[596, 554, 553, 552, 551, 591, 631, 671, 672, -1]
639;638;2;0.013079074725688051;21;Collection;[599, 640, 681, 600, 641, 682, 723, 558, 559, 560, 601, 642, 683, 724, 765, 643, 684, 725, 766, 807, 685, 726, 767, 808, 727, 768];[638, 596, 554, 553, 552, 551, 591, 631, 671, 672, -1]
640;639;2;0.010446761086927247;21;Collection;[600, 641, 682, 558, 559, 560, 601, 642, 683, 724, 643, 684, 725, 766, 685, 726, 767, 808, 727, 768];[639, 638, 596, 554, 553, 552, 551, 591, 631, 671, 672, -1]
641;640;2;0.002259708998883382;21;Collection;[683, 725, 767];[640, 639, 638, 596, 554, 553, 552, 551, 591, 631, 671, 672, -1]
642;600;2;0.0021935477377115035;21;Collection;[684, 726, 768];[600, 640, 639, 638, 596, 554, 553, 552, 551, 591, 631, 671, 672, -1]
643;601;2;0.0015256153180666422;21;Collection;[685, 727];[601, 600, 640, 639, 638, 596, 554, 553, 552, 551, 591, 631, 671, 672, -1]
644;602;2;0.0022003325311329798;19;Collection;[686, 687, 728, 729];[602, 518, 517, 474, 471, 428, 510, 509, 550, 549, 590, 672, -1]
645;603;1;0.0002767109433804267;20;Collection;[];[603, 602, 518, 517, 474, 471, 428, 510, 509, 550, 549, 590, 672, -1]
646;604;1;0.000766125;16;Collection;[];[604, 562, 603, 602, 518, 517, 474, 471, 428, 510, 509, 550, 549, 590, 672, -1]
647;607;1;0.000361125;16;Collection;[];[607, 565, 564, 563, 562, 603, 602, 518, 517, 474, 471, 428, 510, 509, 550, 549, 590, 672, -1]
648;608;1;5.3446594610557694e-05;17;Collection;[];[608, 568, 562, 603, 602, 518, 517, 474, 471, 428, 510, 509, 550, 549, 590, 672, -1]
649;608;1;0.0013658770861137493;17;Collection;[];[608, 568, 562, 603, 602, 518, 517, 474, 471, 428, 510, 509, 550, 549, 590, 672, -1]
650;608;1;0.0006602614222990928;17;Collection;[];[608, 568, 562, 603, 602, 518, 517, 474, 471, 428, 510, 509, 550, 549, 590, 672, -1]
673;631;1;0.0003864015160075592;21;Collection;[];[631, 671, 672, -1]
674;632;2;0.0014411249999999997;21;Collection;[675];[632, 631, 671, 672, -1]
675;674;1;0.0006108749999999999;21;Collection;[];[674, 632, 631, 671, 672, -1]
676;677;1;0.00024974999999999997;21;Collection;[];[677, 637, 596, 554, 553, 552, 551, 591, 631, 671, 672, -1]
677;637;2;0.005135219257730616;21;Collection;[676, 719, 760, 761, 803];[637, 596, 554, 553, 552, 551, 591, 631, 671, 672, -1]
679;638;2;0.003194982672790497;21;Collection;[721, 763, 805];[638, 596, 554, 553, 552, 551, 591, 631, 671, 672, -1]
680;638;2;0.0017398515382399053;21;Collection;[722, 764, 806, 847, 848];[638, 596, 554, 553, 552, 551, 591, 631, 671, 672, -1]
681;639;2;0.0016970210403618622;21;Collection;[723, 765, 807];[639, 638, 596, 554, 553, 552, 551, 591, 631, 671, 672, -1]
682;640;2;0.002450451255047098;21;Collection;[724, 766, 808];[640, 639, 638, 596, 554, 553, 552, 551, 591, 631, 671, 672, -1]
683;641;2;0.0014935839988833818;21;Collection;[725, 767];[641, 640, 639, 638, 596, 554, 553, 552, 551, 591, 631, 671, 672, -1]
684;642;2;0.001840572204677658;21;Collection;[726, 768];[642, 600, 640, 639, 638, 596, 554, 553, 552, 551, 591, 631, 671, 672, -1]
685;643;2;0.0008877403180666422;21;Collection;[727];[643, 601, 600, 640, 639, 638, 596, 554, 553, 552, 551, 591, 631, 671, 672, -1]
686;644;2;0.0014139575311329796;19;Collection;[687, 728, 729];[644, 602, 518, 517, 474, 471, 428, 510, 509, 550, 549, 590, 672, -1]
687;686;2;0.0009624481775721643;19;Collection;[729];[686, 644, 602, 518, 517, 474, 471, 428, 510, 509, 550, 549, 590, 672, -1]
716;758;1;0.000509625;27;Collection;[];[758, 799, 840, 881, 717, 672, -1]
719;677;2;0.004406219257730617;21;Collection;[760, 761, 803];[677, 637, 596, 554, 553, 552, 551, 591, 631, 671, 672, -1]
720;678;2;0.0028789291947606687;23;Collection;[762, 804, 846];[678, 718, 717, 672, -1]
721;679;2;0.0028995811948479724;21;Collection;[763, 805];[679, 638, 596, 554, 553, 552, 551, 591, 631, 671, 672, -1]
722;680;2;0.001588988975886641;21;Collection;[764, 806, 847, 848];[680, 638, 596, 554, 553, 552, 551, 591, 631, 671, 672, -1]
723;681;2;0.0011441608903157408;21;Collection;[765, 807];[681, 639, 638, 596, 554, 553, 552, 551, 591, 631, 671, 672, -1]
724;682;2;0.0014750762550470985;21;Collection;[766, 808];[682, 640, 639, 638, 596, 554, 553, 552, 551, 591, 631, 671, 672, -1]
725;683;2;0.000794958998883382;21;Collection;[767];[683, 641, 640, 639, 638, 596, 554, 553, 552, 551, 591, 631, 671, 672, -1]
726;684;2;0.0011689472046776581;21;Collection;[768];[684, 642, 600, 640, 639, 638, 596, 554, 553, 552, 551, 591, 631, 671, 672, -1]
727;685;1;0.0004019095791739646;21;Collection;[];[685, 643, 601, 600, 640, 639, 638, 596, 554, 553, 552, 551, 591, 631, 671, 672, -1]
728;686;1;0.00024563435356081523;19;Collection;[];[686, 644, 602, 518, 517, 474, 471, 428, 510, 509, 550, 549, 590, 672, -1]
729;687;1;0.0003549481775721644;19;Collection;[];[687, 686, 644, 602, 518, 517, 474, 471, 428, 510, 509, 550, 549, 590, 672, -1]
757;799;1;6.149732965296677e-05;27;Collection;[];[799, 840, 881, 717, 672, -1]
758;799;2;0.00182237546482732;27;Collection;[716];[799, 840, 881, 717, 672, -1]
760;719;1;0.0006479999999999998;21;Collection;[];[719, 677, 637, 596, 554, 553, 552, 551, 591, 631, 671, 672, -1]
761;719;2;0.0020486249999999997;21;Collection;[803];[719, 677, 637, 596, 554, 553, 552, 551, 591, 631, 671, 672, -1]
762;720;2;0.002538551642438224;23;Collection;[804, 846];[720, 678, 718, 717, 672, -1]
763;721;2;0.002585057657730497;21;Collection;[805];[721, 679, 638, 596, 554, 553, 552, 551, 591, 631, 671, 672, -1]
764;722;2;0.0014542609506550735;21;Collection;[806, 847, 848];[722, 680, 638, 596, 554, 553, 552, 551, 591, 631, 671, 672, -1]
765;723;2;0.0007516247842730413;21;Collection;[807];[723, 681, 639, 638, 596, 554, 553, 552, 551, 591, 631, 671, 672, -1]
766;724;2;0.0006313262550470989;21;Collection;[808];[724, 682, 640, 639, 638, 596, 554, 553, 552, 551, 591, 631, 671, 672, -1]
767;725;1;0.00031167088065065207;21;Collection;[];[725, 683, 641, 640, 639, 638, 596, 554, 553, 552, 551, 591, 631, 671, 672, -1]
768;726;1;0.0007256239068136081;21;Collection;[];[726, 684, 642, 600, 640, 639, 638, 596, 554, 553, 552, 551, 591, 631, 671, 672, -1]
769;809;1;0.0004312440797054528;27;Collection;[];[809, 849, 889, 929, 969, 968, 967, 966, 924, 923, 881, 717, 672, -1]
795;835;1;2.175780332779354e-05;26;Collection;[];[835, 875, 671, 672, -1]
799;840;2;0.0019329279088893224;27;Collection;[757, 758, 716];[840, 881, 717, 672, -1]
800;840;1;0.00010760741927123049;27;Collection;[];[840, 881, 717, 672, -1]
801;841;1;0.000995625;27;Collection;[];[841, 881, 717, 672, -1]
802;842;1;0.001056375;27;Collection;[];[842, 882, 881, 717, 672, -1]
803;761;1;0.0008268749999999999;21;Collection;[];[761, 719, 677, 637, 596, 554, 553, 552, 551, 591, 631, 671, 672, -1]
804;762;2;0.001745208134660684;23;Collection;[846];[762, 720, 678, 718, 717, 672, -1]
805;763;1;0.0002635501324752765;21;Collection;[];[763, 721, 679, 638, 596, 554, 553, 552, 551, 591, 631, 671, 672, -1]
806;764;2;0.0006847609506550734;21;Collection;[847, 848];[764, 722, 680, 638, 596, 554, 553, 552, 551, 591, 631, 671, 672, -1]
807;765;1;0.0002044537821249178;21;Collection;[];[765, 723, 681, 639, 638, 596, 554, 553, 552, 551, 591, 631, 671, 672, -1]
808;766;1;0.00046912500000000003;21;Collection;[];[766, 724, 682, 640, 639, 638, 596, 554, 553, 552, 551, 591, 631, 671, 672, -1]
809;849;2;0.0010787117827175366;27;Collection;[769];[849, 889, 929, 969, 968, 967, 966, 924, 923, 881, 717, 672, -1]
810;850;1;0.000205875;27;Collection;[];[850, 890, 930, 970, 969, 968, 967, 966, 924, 923, 881, 717, 672, -1]
835;875;2;0.0014673829559044619;26;Collection;[795, 836, 877];[875, 671, 672, -1]
836;835;1;0.0006881480024070429;26;Collection;[];[835, 875, 671, 672, -1]
840;881;2;0.002678180516964468;27;Collection;[799, 800, 757, 758, 716];[881, 717, 672, -1]
841;881;2;0.0018437037805902746;27;Collection;[801];[881, 717, 672, -1]
842;882;2;0.0024119086350268917;27;Collection;[802];[882, 881, 717, 672, -1]
843;883;1;0.000988875;27;Collection;[];[883, 923, 881, 717, 672, -1]
844;884;1;0.00016199999999999995;27;Collection;[];[884, 883, 923, 881, 717, 672, -1]
846;804;1;5.463302686294853e-05;23;Collection;[];[804, 762, 720, 678, 718, 717, 672, -1]
847;806;1;5.844139075752555e-05;21;Collection;[];[806, 764, 722, 680, 638, 596, 554, 553, 552, 551, 591, 631, 671, 672, -1]
848;806;1;5.929357379682556e-05;21;Collection;[];[806, 764, 722, 680, 638, 596, 554, 553, 552, 551, 591, 631, 671, 672, -1]
849;889;2;0.0016727544432849602;27;Collection;[809, 769];[889, 929, 969, 968, 967, 966, 924, 923, 881, 717, 672, -1]
850;890;2;0.00027599030182929544;27;Collection;[810];[890, 930, 970, 969, 968, 967, 966, 924, 923, 881, 717, 672, -1]
852;893;1;0.0003393182961475588;27;Collection;[];[893, 933, 973, 972, 971, 970, 969, 968, 967, 966, 924, 923, 881, 717, 672, -1]
876;875;1;6.105718543285426e-05;26;Collection;[];[875, 671, 672, -1]
877;835;1;0.0007365696142860405;26;Collection;[];[835, 875, 671, 672, -1]
882;881;2;0.0045861707490328935;27;Collection;[842, 802];[881, 717, 672, -1]
883;923;2;0.0073707820407111335;27;Collection;[843, 884, 925, 844, 885, 926, 886, 927];[923, 881, 717, 672, -1]
884;883;2;0.004908434729487127;27;Collection;[844, 885, 926, 886, 927];[883, 923, 881, 717, 672, -1]
885;884;2;0.003254684729487127;27;Collection;[886, 927];[884, 883, 923, 881, 717, 672, -1]
886;885;1;0.000991815754733885;27;Collection;[];[885, 884, 883, 923, 881, 717, 672, -1]
888;929;1;0.0009111840864494741;27;Collection;[];[929, 969, 968, 967, 966, 924, 923, 881, 717, 672, -1]
889;929;2;0.0026276605002570914;27;Collection;[849, 809, 769];[929, 969, 968, 967, 966, 924, 923, 881, 717, 672, -1]
890;930;2;0.0015560494765952016;27;Collection;[850, 810];[930, 970, 969, 968, 967, 966, 924, 923, 881, 717, 672, -1]
893;933;2;0.0009495038064849829;27;Collection;[852];[933, 973, 972, 971, 970, 969, 968, 967, 966, 924, 923, 881, 717, 672, -1]
914;954;2;4.771979670208113e-05;29;Collection;[915, 956];[954, 875, 671, 672, -1]
915;914;1;1.3165779486255604e-05;29;Collection;[];[914, 954, 875, 671, 672, -1]
916;875;2;0.0006088317268096643;26;Collection;[957, 958];[875, 671, 672, -1]
917;875;1;5.0562482306396645e-05;26;Collection;[];[875, 671, 672, -1]
918;960;1;2.1477517437026363e-05;30;Collection;[];[960, 1000, 1040, 1039, 1079, 1078, 1036, 994, 993, 1033, 954, 875, 671, 672, -1]
923;881;2;0.02999252100197818;27;Collection;[883, 924, 843, 884, 925, 966, 844, 885, 926, 967, 886, 927, 968, 928, 969, 929, 970, 1011, 888, 889, 930, 971, 1012, 849, 890, 931, 972, 1013, 809, 850, 932, 973, 769, 810, 933, 893, 975, 852, 976, 1016, 1017, 977, 1018, 1058, 1059, 1019];[881, 717, 672, -1]
924;923;2;0.022002185199544094;27;Collection;[966, 967, 968, 928, 969, 929, 970, 1011, 888, 889, 930, 971, 1012, 849, 890, 931, 972, 1013, 809, 850, 932, 973, 769, 810, 933, 893, 975, 852, 976, 1016, 1017, 977, 1018, 1058, 1059, 1019];[923, 881, 717, 672, -1]
925;883;1;0.000637875;27;Collection;[];[883, 923, 881, 717, 672, -1]
926;884;1;0.0006885000000000001;27;Collection;[];[884, 883, 923, 881, 717, 672, -1]
927;885;1;0.0011457439747532415;27;Collection;[];[885, 884, 883, 923, 881, 717, 672, -1]
928;968;1;0.00142733516317428;27;Collection;[];[968, 967, 966, 924, 923, 881, 717, 672, -1]
929;969;2;0.004672402684039982;27;Collection;[888, 889, 849, 809, 769];[969, 968, 967, 966, 924, 923, 881, 717, 672, -1]
930;970;2;0.003009556836366659;27;Collection;[890, 850, 810];[970, 969, 968, 967, 966, 924, 923, 881, 717, 672, -1]
931;971;1;0.0006194486499104488;27;Collection;[];[971, 970, 969, 968, 967, 966, 924, 923, 881, 717, 672, -1]
932;972;1;0.0006445472549821214;27;Collection;[];[972, 971, 970, 969, 968, 967, 966, 924, 923, 881, 717, 672, -1]
933;973;2;0.0025275733509704298;27;Collection;[893, 975, 852, 976, 1016, 1017, 977, 1018, 1058, 1059, 1019];[973, 972, 971, 970, 969, 968, 967, 966, 924, 923, 881, 717, 672, -1]
938;937;2;8.709415060449295e-05;28;Collection;[980];[937, 568, 562, 603, 602, 518, 517, 474, 471, 428, 510, 509, 550, 549, 590, 672, -1]
955;954;1;0.001021869814185366;29;Collection;[];[954, 875, 671, 672, -1]
956;914;1;2.3469737333754327e-05;29;Collection;[];[914, 954, 875, 671, 672, -1]
957;916;1;8.391284957689242e-05;26;Collection;[];[916, 875, 671, 672, -1]
958;916;1;0.0005129999999999999;26;Collection;[];[916, 875, 671, 672, -1]
959;1000;1;4.348909353800645e-05;30;Collection;[];[1000, 1040, 1039, 1079, 1078, 1036, 994, 993, 1033, 954, 875, 671, 672, -1]
960;1000;2;0.0003795110200611606;30;Collection;[918];[1000, 1040, 1039, 1079, 1078, 1036, 994, 993, 1033, 954, 875, 671, 672, -1]
966;924;2;0.020256059243119084;27;Collection;[967, 968, 928, 969, 929, 970, 1011, 888, 889, 930, 971, 1012, 849, 890, 931, 972, 1013, 809, 850, 932, 973, 769, 810, 933, 893, 975, 852, 976, 1016, 1017, 977, 1018, 1058, 1059, 1019];[924, 923, 881, 717, 672, -1]
967;966;2;0.02016116023632609;27;Collection;[968, 928, 969, 929, 970, 1011, 888, 889, 930, 971, 1012, 849, 890, 931, 972, 1013, 809, 850, 932, 973, 769, 810, 933, 893, 975, 852, 976, 1016, 1017, 977, 1018, 1058, 1059, 1019];[966, 924, 923, 881, 717, 672, -1]
968;967;2;0.01973253523632609;27;Collection;[928, 969, 929, 970, 1011, 888, 889, 930, 971, 1012, 849, 890, 931, 972, 1013, 809, 850, 932, 973, 769, 810, 933, 893, 975, 852, 976, 1016, 1017, 977, 1018, 1058, 1059, 1019];[967, 966, 924, 923, 881, 717, 672, -1]
969;968;2;0.017638497252126833;27;Collection;[929, 970, 1011, 888, 889, 930, 971, 1012, 849, 890, 931, 972, 1013, 809, 850, 932, 973, 769, 810, 933, 893, 975, 852, 976, 1016, 1017, 977, 1018, 1058, 1059, 1019];[968, 967, 966, 924, 923, 881, 717, 672, -1]
970;969;2;0.011443446898941114;27;Collection;[930, 971, 1012, 890, 931, 972, 1013, 850, 932, 973, 810, 933, 893, 975, 852, 976, 1016, 1017, 977, 1018, 1058, 1059, 1019];[969, 968, 967, 966, 924, 923, 881, 717, 672, -1]
971;970;2;0.0071456910432126375;27;Collection;[931, 972, 1013, 932, 973, 933, 893, 975, 852, 976, 1016, 1017, 977, 1018, 1058, 1059, 1019];[970, 969, 968, 967, 966, 924, 923, 881, 717, 672, -1]
972;971;2;0.005562618260339355;27;Collection;[932, 973, 933, 893, 975, 852, 976, 1016, 1017, 977, 1018, 1058, 1059, 1019];[971, 970, 969, 968, 967, 966, 924, 923, 881, 717, 672, -1]
973;972;2;0.0036062228497545884;27;Collection;[933, 893, 975, 852, 976, 1016, 1017, 977, 1018, 1058, 1059, 1019];[972, 971, 970, 969, 968, 967, 966, 924, 923, 881, 717, 672, -1]
975;933;2;0.0009065212835715143;27;Collection;[976, 1016, 1017, 977, 1018, 1058, 1059, 1019];[933, 973, 972, 971, 970, 969, 968, 967, 966, 924, 923, 881, 717, 672, -1]
976;975;2;0.000412844922920498;27;Collection;[977, 1018, 1019];[975, 933, 973, 972, 971, 970, 969, 968, 967, 966, 924, 923, 881, 717, 672, -1]
977;976;2;0.00025382421614018316;27;Collection;[1019];[976, 975, 933, 973, 972, 971, 970, 969, 968, 967, 966, 924, 923, 881, 717, 672, -1]
978;937;2;0.00010170496954815441;28;Collection;[1020];[937, 568, 562, 603, 602, 518, 517, 474, 471, 428, 510, 509, 550, 549, 590, 672, -1]
979;937;1;0.00010607734434038774;28;Collection;[];[937, 568, 562, 603, 602, 518, 517, 474, 471, 428, 510, 509, 550, 549, 590, 672, -1]
980;938;1;1.3112444892160356e-05;28;Collection;[];[938, 937, 568, 562, 603, 602, 518, 517, 474, 471, 428, 510, 509, 550, 549, 590, 672, -1]
993;1033;2;0.015982444155771686;30;Collection;[994, 1035, 1036, 1076, 1077, 1037, 1078, 1118, 1119, 1038, 1079, 1120, 1160, 997, 998, 1039, 1080, 1121, 999, 1040, 1081, 1122, 1163, 1000, 1041, 1082, 1123, 1164, 1205, 959, 960, 1001, 1083, 1124, 1247, 918, 1043];[1033, 954, 875, 671, 672, -1]
994;993;2;0.012615761703284156;30;Collection;[1036, 1037, 1078, 1038, 1079, 1120, 997, 998, 1039, 1080, 1121, 999, 1040, 1081, 1122, 1163, 1000, 1041, 1082, 1123, 1164, 1205, 959, 960, 1001, 1083, 1124, 1247, 918, 1043];[993, 1033, 954, 875, 671, 672, -1]
995;954;1;0.0007686075286020221;29;Collection;[];[954, 875, 671, 672, -1]
996;954;1;0.00022111833116129006;29;Collection;[];[954, 875, 671, 672, -1]
997;1038;1;0.00045988189196340736;30;Collection;[];[1038, 1078, 1036, 994, 993, 1033, 954, 875, 671, 672, -1]
998;1038;1;0.0004436206621886887;30;Collection;[];[1038, 1078, 1036, 994, 993, 1033, 954, 875, 671, 672, -1]
999;1039;1;0.0013095;30;Collection;[];[1039, 1079, 1078, 1036, 994, 993, 1033, 954, 875, 671, 672, -1]
1000;1040;2;0.0004831782204105602;30;Collection;[959, 960, 918];[1040, 1039, 1079, 1078, 1036, 994, 993, 1033, 954, 875, 671, 672, -1]
1001;1041;2;0.0012806309931800261;30;Collection;[1043];[1041, 1040, 1039, 1079, 1078, 1036, 994, 993, 1033, 954, 875, 671, 672, -1]
1011;969;1;0.00033625118452607864;27;Collection;[];[969, 968, 967, 966, 924, 923, 881, 717, 672, -1]
1012;970;1;0.0006533238567416393;27;Collection;[];[970, 969, 968, 967, 966, 924, 923, 881, 717, 672, -1]
1013;971;1;0.00034965535521212516;27;Collection;[];[971, 970, 969, 968, 967, 966, 924, 923, 881, 717, 672, -1]
1016;975;2;0.00010545401902329734;27;Collection;[1058];[975, 933, 973, 972, 971, 970, 969, 968, 967, 966, 924, 923, 881, 717, 672, -1]
1017;975;2;0.00036278400078446993;27;Collection;[1059];[975, 933, 973, 972, 971, 970, 969, 968, 967, 966, 924, 923, 881, 717, 672, -1]
1018;976;1;0.00012068015445224883;27;Collection;[];[976, 975, 933, 973, 972, 971, 970, 969, 968, 967, 966, 924, 923, 881, 717, 672, -1]
1019;977;1;1.5487313370437383e-05;27;Collection;[];[977, 976, 975, 933, 973, 972, 971, 970, 969, 968, 967, 966, 924, 923, 881, 717, 672, -1]
1020;978;1;2.314539317456402e-05;28;Collection;[];[978, 937, 568, 562, 603, 602, 518, 517, 474, 471, 428, 510, 509, 550, 549, 590, 672, -1]
1034;1033;1;0.0001265795844172634;30;Collection;[];[1033, 954, 875, 671, 672, -1]
1035;993;2;0.003292600322294972;30;Collection;[1076, 1077, 1118, 1119, 1160];[993, 1033, 954, 875, 671, 672, -1]
1036;994;2;0.012417551705179653;30;Collection;[1037, 1078, 1038, 1079, 1120, 997, 998, 1039, 1080, 1121, 999, 1040, 1081, 1122, 1163, 1000, 1041, 1082, 1123, 1164, 1205, 959, 960, 1001, 1083, 1124, 1247, 918, 1043];[994, 993, 1033, 954, 875, 671, 672, -1]
1037;1036;1;0.0003983247601819947;30;Collection;[];[1036, 994, 993, 1033, 954, 875, 671, 672, -1]
1038;1078;2;0.0010469168205253288;30;Collection;[997, 998];[1078, 1036, 994, 993, 1033, 954, 875, 671, 672, -1]
1039;1079;2;0.004636999881199026;30;Collection;[999, 1040, 1081, 1000, 1041, 1082, 959, 960, 1001, 1083, 918, 1043];[1079, 1078, 1036, 994, 993, 1033, 954, 875, 671, 672, -1]
1040;1039;2;0.0028993391066763057;30;Collection;[1000, 1041, 1082, 959, 960, 1001, 1083, 918, 1043];[1039, 1079, 1078, 1036, 994, 993, 1033, 954, 875, 671, 672, -1]
1041;1040;2;0.001852146410172561;30;Collection;[1001, 1083, 1043];[1040, 1039, 1079, 1078, 1036, 994, 993, 1033, 954, 875, 671, 672, -1]
1043;1001;1;0.0012696441540037985;30;Collection;[];[1001, 1041, 1040, 1039, 1079, 1078, 1036, 994, 993, 1033, 954, 875, 671, 672, -1]
1058;1016;1;5.143441119092311e-05;27;Collection;[];[1016, 975, 933, 973, 972, 971, 970, 969, 968, 967, 966, 924, 923, 881, 717, 672, -1]
1059;1017;1;0.0001225192705542263;27;Collection;[];[1017, 975, 933, 973, 972, 971, 970, 969, 968, 967, 966, 924, 923, 881, 717, 672, -1]
1074;1033;1;1.0722890821908084e-05;30;Collection;[];[1033, 954, 875, 671, 672, -1]
1075;1033;1;2.4620913327714698e-05;30;Collection;[];[1033, 954, 875, 671, 672, -1]
1076;1035;1;0.00018148022143060769;30;Collection;[];[1035, 993, 1033, 954, 875, 671, 672, -1]
1077;1035;2;0.0024654561390575302;30;Collection;[1118, 1119, 1160];[1035, 993, 1033, 954, 875, 671, 672, -1]
1078;1036;2;0.01153534312704425;30;Collection;[1038, 1079, 1120, 997, 998, 1039, 1080, 1121, 999, 1040, 1081, 1122, 1163, 1000, 1041, 1082, 1123, 1164, 1205, 959, 960, 1001, 1083, 1124, 1247, 918, 1043];[1036, 994, 993, 1033, 954, 875, 671, 672, -1]
1079;1078;2;0.00950269012575504;30;Collection;[1039, 1080, 1121, 999, 1040, 1081, 1122, 1163, 1000, 1041, 1082, 1123, 1164, 1205, 959, 960, 1001, 1083, 1124, 1247, 918, 1043];[1078, 1036, 994, 993, 1033, 954, 875, 671, 672, -1]
1080;1079;2;0.0015453219123826632;30;Collection;[1122, 1123, 1164, 1124];[1079, 1078, 1036, 994, 993, 1033, 954, 875, 671, 672, -1]
1081;1039;1;0.0002650640779156245;30;Collection;[];[1039, 1079, 1078, 1036, 994, 993, 1033, 954, 875, 671, 672, -1]
1082;1040;1;6.615194312531143e-05;30;Collection;[];[1040, 1039, 1079, 1078, 1036, 994, 993, 1033, 954, 875, 671, 672, -1]
1083;1041;1;0.00014770331489708812;30;Collection;[];[1041, 1040, 1039, 1079, 1078, 1036, 994, 993, 1033, 954, 875, 671, 672, -1]
1088;1087;1;0.0006633245657739938;31;Collection;[];[1087, 881, 717, 672, -1]
1118;1077;2;0.001127391929366682;30;Collection;[1160];[1077, 1035, 993, 1033, 954, 875, 671, 672, -1]
1119;1077;1;0.001042875;30;Collection;[];[1077, 1035, 993, 1033, 954, 875, 671, 672, -1]
1120;1078;1;0.0006075;30;Collection;[];[1078, 1036, 994, 993, 1033, 954, 875, 671, 672, -1]
1121;1079;2;0.0030125663785276298;30;Collection;[1163, 1205, 1247];[1079, 1078, 1036, 994, 993, 1033, 954, 875, 671, 672, -1]
1122;1080;2;0.001379232732012273;30;Collection;[1123, 1164, 1124];[1080, 1079, 1078, 1036, 994, 993, 1033, 954, 875, 671, 672, -1]
1123;1122;2;0.0007132449402080255;30;Collection;[1124];[1122, 1080, 1079, 1078, 1036, 994, 993, 1033, 954, 875, 671, 672, -1]
1124;1123;1;6.861994020802556e-05;30;Collection;[];[1123, 1122, 1080, 1079, 1078, 1036, 994, 993, 1033, 954, 875, 671, 672, -1]
1157;1117;1;0.00019116214368142452;32;Collection;[];[1117, 1033, 954, 875, 671, 672, -1]
1158;1117;1;0.00043441221787440847;32;Collection;[];[1117, 1033, 954, 875, 671, 672, -1]
1159;1117;2;0.0024431500673100163;32;Collection;[1201];[1117, 1033, 954, 875, 671, 672, -1]
1160;1118;1;6.426692936668196e-05;30;Collection;[];[1118, 1077, 1035, 993, 1033, 954, 875, 671, 672, -1]
1163;1121;2;0.00238144137852763;30;Collection;[1205, 1247];[1121, 1079, 1078, 1036, 994, 993, 1033, 954, 875, 671, 672, -1]
1164;1122;1;0.00015525;30;Collection;[];[1122, 1080, 1079, 1078, 1036, 994, 993, 1033, 954, 875, 671, 672, -1]
1200;1199;1;0.0023081548920722236;36;Collection;[];[1199, 1117, 1033, 954, 875, 671, 672, -1]
1201;1159;1;0.0008796064178435338;32;Collection;[];[1159, 1117, 1033, 954, 875, 671, 672, -1]
1204;1162;2;0.0007401958848547671;34;Collection;[1246];[1162, 1161, 1199, 1117, 1033, 954, 875, 671, 672, -1]
1205;1163;2;0.0021691329199872026;30;Collection;[1247];[1163, 1121, 1079, 1078, 1036, 994, 993, 1033, 954, 875, 671, 672, -1]
1240;1282;1;0.0015273397910179406;37;Collection;[];[1282, 1199, 1117, 1033, 954, 875, 671, 672, -1]
1241;1282;1;0.0021499171600072235;37;Collection;[];[1282, 1199, 1117, 1033, 954, 875, 671, 672, -1]
1245;1285;1;0.0009620921108388379;37;Collection;[];[1285, 1325, 1283, 1282, 1199, 1117, 1033, 954, 875, 671, 672, -1]
1246;1204;1;0.000717805802445314;34;Collection;[];[1204, 1162, 1161, 1199, 1117, 1033, 954, 875, 671, 672, -1]
1247;1205;1;0.0006995958157305274;30;Collection;[];[1205, 1163, 1121, 1079, 1078, 1036, 994, 993, 1033, 954, 875, 671, 672, -1]
1277;1319;1;0.0006221568716039336;38;Collection;[];[1319, 1198, 1199, 1117, 1033, 954, 875, 671, 672, -1]
1278;1319;1;0.0013617669415390474;38;Collection;[];[1319, 1198, 1199, 1117, 1033, 954, 875, 671, 672, -1]
1279;1319;1;0.0013583121435350378;38;Collection;[];[1319, 1198, 1199, 1117, 1033, 954, 875, 671, 672, -1]
1283;1282;2;0.014158467146649227;37;Collection;[1325, 1285, 1326, 1245, 1286];[1282, 1199, 1117, 1033, 954, 875, 671, 672, -1]
1285;1325;2;0.005133328888732245;37;Collection;[1245, 1286];[1325, 1283, 1282, 1199, 1117, 1033, 954, 875, 671, 672, -1]
1286;1285;1;0.00135380183791444;37;Collection;[];[1285, 1325, 1283, 1282, 1199, 1117, 1033, 954, 875, 671, 672, -1]
1324;1282;1;0.0013748557699134563;37;Collection;[];[1282, 1199, 1117, 1033, 954, 875, 671, 672, -1]
1325;1283;2;0.0115067554411789;37;Collection;[1285, 1326, 1245, 1286];[1283, 1282, 1199, 1117, 1033, 954, 875, 671, 672, -1]
1326;1325;1;0.0013231445998801283;37;Collection;[];[1325, 1283, 1282, 1199, 1117, 1033, 954, 875, 671, 672, -1]
1341;1340;2;0.005970066983777464;39;Collection;[1342, 1343];[1340, 1087, 881, 717, 672, -1]
1342;1341;2;0.003393294002325717;39;Collection;[1343];[1341, 1340, 1087, 881, 717, 672, -1]
1343;1342;1;0.0013872140442694383;39;Collection;[];[1342, 1341, 1340, 1087, 881, 717, 672, -1]
1381;1340;1;0.0006670924159404377;39;Collection;[];[1340, 1087, 881, 717, 672, -1]
1410;1409;1;0.0012226990588407875;40;Collection;[];[1409, 1282, 1199, 1117, 1033, 954, 875, 671, 672, -1]
1411;1453;1;0.001347237416254231;41;Collection;[];[1453, 1409, 1282, 1199, 1117, 1033, 954, 875, 671, 672, -1]
590;672;2;0.03888217494762568;0;Trunk;[549, 550, 509, 510, 428, 469, 471, 389, 474, 390, 434, 516, 517, 476, 435, 518, 395, 477, 602, 270, 394, 396, 436, 437, 603, 644, 228, 230, 269, 311, 397, 438, 562, 645, 686, 352, 398, 439, 478, 479, 480, 520, 521, 522, 561, 563, 568, 604, 687, 728, 357, 399, 440, 481, 482, 519, 523, 564, 605, 403, 526, 567, 608, 609, 937, 646, 729, 441, 524, 565, 606, 159, 404, 648, 649, 650, 938, 978, 979, 401, 442, 483, 484, 525, 566, 607, 199, 200, 201, 980, 1020, 485, 647, 239, 240, 241];[672, -1]
671;672;2;0.10287579450558515;0;Trunk;[631, 875, 591, 632, 673, 835, 876, 916, 917, 954, 551, 592, 633, 674, 795, 836, 877, 957, 958, 914, 955, 995, 996, 1033, 511, 552, 593, 634, 675, 915, 956, 993, 1034, 1074, 1075, 1117, 512, 553, 594, 994, 1035, 1157, 1158, 1159, 1199, 513, 554, 595, 1036, 1076, 1077, 1201, 1161, 1198, 1200, 1282, 514, 555, 596, 1037, 1078, 1118, 1119, 1162, 1319, 1240, 1241, 1283, 1324, 1409, 515, 556, 597, 637, 638, 1038, 1079, 1120, 1160, 1204, 1277, 1278, 1279, 1325, 1410, 1453, 557, 677, 598, 639, 679, 680, 997, 998, 1039, 1080, 1121, 1246, 1285, 1326, 1411, 676, 719, 599, 640, 681, 721, 722, 999, 1040, 1081, 1122, 1163, 1245, 1286, 760, 761, 600, 641, 682, 723, 763, 764, 1000, 1041, 1082, 1123, 1164, 1205, 803, 558, 559, 560, 601, 642, 683, 724, 765, 805, 806, 959, 960, 1001, 1083, 1124, 1247, 643, 684, 725, 766, 807, 847, 848, 918, 1043, 685, 726, 767, 808, 727, 768];[672, -1]
717;672;2;0.05386817392355109;0;Trunk;[718, 881, 678, 840, 841, 882, 923, 1087, 720, 799, 800, 801, 842, 883, 924, 1088, 1340, 762, 757, 758, 802, 843, 884, 925, 966, 1341, 1381, 804, 716, 844, 885, 926, 967, 1342, 846, 886, 927, 968, 1343, 928, 969, 929, 970, 1011, 888, 889, 930, 971, 1012, 849, 890, 931, 972, 1013, 809, 850, 932, 973, 769, 810, 933, 893, 975, 852, 976, 1016, 1017, 977, 1018, 1058, 1059, 1019];[672, -1]
549;590;2;0.03846786382946505;0;Trunk;[550, 509, 510, 428, 469, 471, 389, 474, 390, 434, 516, 517, 476, 435, 518, 395, 477, 602, 270, 394, 396, 436, 437, 603, 644, 228, 230, 269, 311, 397, 438, 562, 645, 686, 352, 398, 439, 478, 479, 480, 520, 521, 522, 561, 563, 568, 604, 687, 728, 357, 399, 440, 481, 482, 519, 523, 564, 605, 403, 526, 567, 608, 609, 937, 646, 729, 441, 524, 565, 606, 159, 404, 648, 649, 650, 938, 978, 979, 401, 442, 483, 484, 525, 566, 607, 199, 200, 201, 980, 1020, 485, 647, 239, 240, 241];[590, 672, -1]
875;671;2;0.06318935313101319;0;Trunk;[835, 876, 916, 917, 954, 795, 836, 877, 957, 958, 914, 955, 995, 996, 1033, 915, 956, 993, 1034, 1074, 1075, 1117, 994, 1035, 1157, 1158, 1159, 1199, 1036, 1076, 1077, 1201, 1161, 1198, 1200, 1282, 1037, 1078, 1118, 1119, 1162, 1319, 1240, 1241, 1283, 1324, 1409, 1038, 1079, 1120, 1160, 1204, 1277, 1278, 1279, 1325, 1410, 1453, 997, 998, 1039, 1080, 1121, 1246, 1285, 1326, 1411, 999, 1040, 1081, 1122, 1163, 1245, 1286, 1000, 1041, 1082, 1123, 1164, 1205, 959, 960, 1001, 1083, 1124, 1247, 918, 1043];[671, 672, -1]
718;717;2;0.0036298713187439624;0;Trunk;[678, 720, 762, 804, 846];[717, 672, -1]
881;717;2;0.04977592760480712;0;Trunk;[840, 841, 882, 923, 1087, 799, 800, 801, 842, 883, 924, 1088, 1340, 757, 758, 802, 843, 884, 925, 966, 1341, 1381, 716, 844, 885, 926, 967, 1342, 886, 927, 968, 1343, 928, 969, 929, 970, 1011, 888, 889, 930, 971, 1012, 849, 890, 931, 972, 1013, 809, 850, 932, 973, 769, 810, 933, 893, 975, 852, 976, 1016, 1017, 977, 1018, 1058, 1059, 1019];[717, 672, -1]
550;549;2;0.03843639681658797;0;Trunk;[509, 510, 428, 469, 471, 389, 474, 390, 434, 516, 517, 476, 435, 518, 395, 477, 602, 270, 394, 396, 436, 437, 603, 644, 228, 230, 269, 311, 397, 438, 562, 645, 686, 352, 398, 439, 478, 479, 480, 520, 521, 522, 561, 563, 568, 604, 687, 728, 357, 399, 440, 481, 482, 519, 523, 564, 605, 403, 526, 567, 608, 609, 937, 646, 729, 441, 524, 565, 606, 159, 404, 648, 649, 650, 938, 978, 979, 401, 442, 483, 484, 525, 566, 607, 199, 200, 201, 980, 1020, 485, 647, 239, 240, 241];[549, 590, 672, -1]
954;875;2;0.05953817461928412;0;Trunk;[914, 955, 995, 996, 1033, 915, 956, 993, 1034, 1074, 1075, 1117, 994, 1035, 1157, 1158, 1159, 1199, 1036, 1076, 1077, 1201, 1161, 1198, 1200, 1282, 1037, 1078, 1118, 1119, 1162, 1319, 1240, 1241, 1283, 1324, 1409, 1038, 1079, 1120, 1160, 1204, 1277, 1278, 1279, 1325, 1410, 1453, 997, 998, 1039, 1080, 1121, 1246, 1285, 1326, 1411, 999, 1040, 1081, 1122, 1163, 1245, 1286, 1000, 1041, 1082, 1123, 1164, 1205, 959, 960, 1001, 1083, 1124, 1247, 918, 1043];[875, 671, 672, -1]
678;718;2;0.003591054194760669;0;Trunk;[720, 762, 804, 846];[718, 717, 672, -1]
1087;881;2;0.009977455978197302;0;Trunk;[1088, 1340, 1341, 1381, 1342, 1343];[881, 717, 672, -1]
509;550;2;0.03793771717082464;0;Trunk;[510, 428, 469, 471, 389, 474, 390, 434, 516, 517, 476, 435, 518, 395, 477, 602, 270, 394, 396, 436, 437, 603, 644, 228, 230, 269, 311, 397, 438, 562, 645, 686, 352, 398, 439, 478, 479, 480, 520, 521, 522, 561, 563, 568, 604, 687, 728, 357, 399, 440, 481, 482, 519, 523, 564, 605, 403, 526, 567, 608, 609, 937, 646, 729, 441, 524, 565, 606, 159, 404, 648, 649, 650, 938, 978, 979, 401, 442, 483, 484, 525, 566, 607, 199, 200, 201, 980, 1020, 485, 647, 239, 240, 241];[550, 549, 590, 672, -1]
1033;954;2;0.05708680874565187;0;Trunk;[993, 1034, 1074, 1075, 1117, 994, 1035, 1157, 1158, 1159, 1199, 1036, 1076, 1077, 1201, 1161, 1198, 1200, 1282, 1037, 1078, 1118, 1119, 1162, 1319, 1240, 1241, 1283, 1324, 1409, 1038, 1079, 1120, 1160, 1204, 1277, 1278, 1279, 1325, 1410, 1453, 997, 998, 1039, 1080, 1121, 1246, 1285, 1326, 1411, 999, 1040, 1081, 1122, 1163, 1245, 1286, 1000, 1041, 1082, 1123, 1164, 1205, 959, 960, 1001, 1083, 1124, 1247, 918, 1043];[954, 875, 671, 672, -1]
1340;1087;2;0.008600244011118988;0;Trunk;[1341, 1381, 1342, 1343];[1087, 881, 717, 672, -1]
510;509;2;0.037924779112762735;0;Trunk;[428, 469, 471, 389, 474, 390, 434, 516, 517, 476, 435, 518, 395, 477, 602, 270, 394, 396, 436, 437, 603, 644, 228, 230, 269, 311, 397, 438, 562, 645, 686, 352, 398, 439, 478, 479, 480, 520, 521, 522, 561, 563, 568, 604, 687, 728, 357, 399, 440, 481, 482, 519, 523, 564, 605, 403, 526, 567, 608, 609, 937, 646, 729, 441, 524, 565, 606, 159, 404, 648, 649, 650, 938, 978, 979, 401, 442, 483, 484, 525, 566, 607, 199, 200, 201, 980, 1020, 485, 647, 239, 240, 241];[509, 550, 549, 590, 672, -1]
1117;1033;2;0.040910600776725405;0;Trunk;[1157, 1158, 1159, 1199, 1201, 1161, 1198, 1200, 1282, 1162, 1319, 1240, 1241, 1283, 1324, 1409, 1204, 1277, 1278, 1279, 1325, 1410, 1453, 1246, 1285, 1326, 1411, 1245, 1286];[1033, 954, 875, 671, 672, -1]
428;510;2;0.03784662006678682;0;Trunk;[469, 471, 389, 474, 390, 434, 516, 517, 476, 435, 518, 395, 477, 602, 270, 394, 396, 436, 437, 603, 644, 228, 230, 269, 311, 397, 438, 562, 645, 686, 352, 398, 439, 478, 479, 480, 520, 521, 522, 561, 563, 568, 604, 687, 728, 357, 399, 440, 481, 482, 519, 523, 564, 605, 403, 526, 567, 608, 609, 937, 646, 729, 441, 524, 565, 606, 159, 404, 648, 649, 650, 938, 978, 979, 401, 442, 483, 484, 525, 566, 607, 199, 200, 201, 980, 1020, 485, 647, 239, 240, 241];[510, 509, 550, 549, 590, 672, -1]
1199;1117;2;0.037648290122287695;0;Trunk;[1161, 1198, 1200, 1282, 1162, 1319, 1240, 1241, 1283, 1324, 1409, 1204, 1277, 1278, 1279, 1325, 1410, 1453, 1246, 1285, 1326, 1411, 1245, 1286];[1117, 1033, 954, 875, 671, 672, -1]
471;428;2;0.03721715566451653;0;Trunk;[389, 474, 390, 434, 516, 517, 476, 435, 518, 395, 477, 602, 270, 394, 396, 436, 437, 603, 644, 228, 230, 269, 311, 397, 438, 562, 645, 686, 352, 398, 439, 478, 479, 480, 520, 521, 522, 561, 563, 568, 604, 687, 728, 357, 399, 440, 481, 482, 519, 523, 564, 605, 403, 526, 567, 608, 609, 937, 646, 729, 441, 524, 565, 606, 159, 404, 648, 649, 650, 938, 978, 979, 401, 442, 483, 484, 525, 566, 607, 199, 200, 201, 980, 1020, 485, 647, 239, 240, 241];[428, 510, 509, 550, 549, 590, 672, -1]
1161;1199;2;0.001162368786816329;0;Trunk;[1162, 1204, 1246];[1199, 1117, 1033, 954, 875, 671, 672, -1]
1198;1199;2;0.004861244425793467;0;Trunk;[1319, 1277, 1278, 1279];[1199, 1117, 1033, 954, 875, 671, 672, -1]
1282;1199;2;0.028764201649175578;0;Trunk;[1240, 1241, 1283, 1324, 1409, 1325, 1410, 1453, 1285, 1326, 1411, 1245, 1286];[1199, 1117, 1033, 954, 875, 671, 672, -1]
389;471;2;0.001427522160941175;0;Trunk;[390];[471, 428, 510, 509, 550, 549, 590, 672, -1]
474;471;2;0.03571515107497384;0;Trunk;[434, 516, 517, 476, 435, 518, 395, 477, 602, 270, 394, 396, 436, 437, 603, 644, 228, 230, 269, 311, 397, 438, 562, 645, 686, 352, 398, 439, 478, 479, 480, 520, 521, 522, 561, 563, 568, 604, 687, 728, 357, 399, 440, 481, 482, 519, 523, 564, 605, 403, 526, 567, 608, 609, 937, 646, 729, 441, 524, 565, 606, 159, 404, 648, 649, 650, 938, 978, 979, 401, 442, 483, 484, 525, 566, 607, 199, 200, 201, 980, 1020, 485, 647, 239, 240, 241];[471, 428, 510, 509, 550, 549, 590, 672, -1]
1162;1161;2;0.0007539937868163292;0;Trunk;[1204, 1246];[1161, 1199, 1117, 1033, 954, 875, 671, 672, -1]
1319;1198;2;0.004796231129592323;0;Trunk;[1277, 1278, 1279];[1198, 1199, 1117, 1033, 954, 875, 671, 672, -1]
1409;1282;2;0.008164012659443727;0;Trunk;[1410, 1453, 1411];[1282, 1199, 1117, 1033, 954, 875, 671, 672, -1]
517;474;2;0.0348726360269844;0;Trunk;[435, 518, 395, 477, 602, 270, 394, 396, 436, 437, 603, 644, 228, 230, 269, 311, 397, 438, 562, 645, 686, 352, 398, 439, 478, 479, 480, 520, 521, 522, 561, 563, 568, 604, 687, 728, 357, 399, 440, 481, 482, 519, 523, 564, 605, 403, 526, 567, 608, 609, 937, 646, 729, 441, 524, 565, 606, 159, 404, 648, 649, 650, 938, 978, 979, 401, 442, 483, 484, 525, 566, 607, 199, 200, 201, 980, 1020, 485, 647, 239, 240, 241];[474, 471, 428, 510, 509, 550, 549, 590, 672, -1]
1453;1409;2;0.005467633628556773;0;Trunk;[1411];[1409, 1282, 1199, 1117, 1033, 954, 875, 671, 672, -1]
435;517;2;0.007860645580732488;0;Trunk;[395, 477, 270, 394, 396, 436, 437, 228, 230, 269, 311, 397, 438, 352, 398, 439, 478, 479, 480, 357, 399, 440, 481, 441, 401, 442, 483];[517, 474, 471, 428, 510, 509, 550, 549, 590, 672, -1]
518;517;2;0.026502395445067297;0;Trunk;[602, 603, 644, 562, 645, 686, 520, 521, 522, 561, 563, 568, 604, 687, 728, 482, 519, 523, 564, 605, 403, 526, 567, 608, 609, 937, 646, 729, 524, 565, 606, 159, 404, 648, 649, 650, 938, 978, 979, 484, 525, 566, 607, 199, 200, 201, 980, 1020, 485, 647, 239, 240, 241];[517, 474, 471, 428, 510, 509, 550, 549, 590, 672, -1]
395;435;2;0.006367075621411188;0;Trunk;[270, 394, 396, 436, 437, 228, 230, 269, 311, 397, 438, 352, 398, 439, 478, 479, 480, 357, 399, 440, 481, 441, 401, 442, 483];[435, 517, 474, 471, 428, 510, 509, 550, 549, 590, 672, -1]
602;518;2;0.025994503880854444;0;Trunk;[603, 644, 562, 645, 686, 520, 521, 522, 561, 563, 568, 604, 687, 728, 482, 519, 523, 564, 605, 403, 526, 567, 608, 609, 937, 646, 729, 524, 565, 606, 159, 404, 648, 649, 650, 938, 978, 979, 484, 525, 566, 607, 199, 200, 201, 980, 1020, 485, 647, 239, 240, 241];[518, 517, 474, 471, 428, 510, 509, 550, 549, 590, 672, -1]
270;395;2;0.0010747693898443202;0;Trunk;[228, 230, 269, 311, 352];[395, 435, 517, 474, 471, 428, 510, 509, 550, 549, 590, 672, -1]
603;602;2;0.022994296349721468;0;Trunk;[562, 645, 520, 521, 522, 561, 563, 568, 604, 482, 519, 523, 564, 605, 403, 526, 567, 608, 609, 937, 646, 524, 565, 606, 159, 404, 648, 649, 650, 938, 978, 979, 484, 525, 566, 607, 199, 200, 201, 980, 1020, 485, 647, 239, 240, 241];[602, 518, 517, 474, 471, 428, 510, 509, 550, 549, 590, 672, -1]
562;603;2;0.02178271040634104;0;Trunk;[520, 521, 522, 561, 563, 568, 604, 482, 519, 523, 564, 605, 403, 526, 567, 608, 609, 937, 646, 524, 565, 606, 159, 404, 648, 649, 650, 938, 978, 979, 484, 525, 566, 607, 199, 200, 201, 980, 1020, 485, 647, 239, 240, 241];[603, 602, 518, 517, 474, 471, 428, 510, 509, 550, 549, 590, 672, -1]
568;562;2;0.011835653913978618;0;Trunk;[403, 526, 567, 608, 609, 937, 159, 404, 648, 649, 650, 938, 978, 979, 199, 200, 201, 980, 1020, 239, 240, 241];[562, 603, 602, 518, 517, 474, 471, 428, 510, 509, 550, 549, 590, 672, -1]
403;568;2;0.0014954202650003215;0;Trunk;[159, 404, 199, 200, 201, 239, 240, 241];[568, 562, 603, 602, 518, 517, 474, 471, 428, 510, 509, 550, 549, 590, 672, -1]
937;568;2;0.0003283036897353826;0;Trunk;[938, 978, 979, 980, 1020];[568, 562, 603, 602, 518, 517, 474, 471, 428, 510, 509, 550, 549, 590, 672, -1]
159;403;2;0.00016014272776599176;0;Trunk;[199, 200, 201, 239, 240, 241];[403, 568, 562, 603, 602, 518, 517, 474, 471, 428, 510, 509, 550, 549, 590, 672, -1]
