Manholes;373
id;x;y;z;outlet;wwtp
159.0;7100.0;700.0;492.390625;0.0;672.0
199.0;6900.0;900.0;493.8125;0.0;672.0
200.0;7100.0;900.0;505.609375;0.0;672.0
201.0;7300.0;900.0;518.125;0.0;672.0
228.0;4500.0;1100.0;439.515625;0.0;672.0
230.0;4900.0;1100.0;439.71875;0.0;672.0
239.0;6700.0;1100.0;496.859375;0.0;672.0
240.0;6900.0;1100.0;515.390625;0.0;672.0
241.0;7100.0;1100.0;506.9375;0.0;672.0
269.0;4500.0;1300.0;439.015625;0.0;672.0
270.0;4700.0;1300.0;438.734375;0.0;672.0
311.0;4700.0;1500.0;440.828125;0.0;672.0
352.0;4700.0;1700.0;443.296875;0.0;672.0
354.0;5100.0;1700.0;446.1875;0.0;672.0
357.0;5700.0;1700.0;493.78125;0.0;672.0
389.0;3900.0;1900.0;440.8125;0.0;672.0
390.0;4100.0;1900.0;442.640625;0.0;672.0
394.0;4900.0;1900.0;454.984375;0.0;672.0
395.0;5100.0;1900.0;452.6875;0.0;672.0
396.0;5300.0;1900.0;463.359375;0.0;672.0
397.0;5500.0;1900.0;478.171875;0.0;672.0
398.0;5700.0;1900.0;477.421875;0.0;672.0
399.0;5900.0;1900.0;479.71875;0.0;672.0
401.0;6300.0;1900.0;499.5625;0.0;672.0
403.0;6700.0;1900.0;499.0;0.0;672.0
404.0;6900.0;1900.0;504.9375;0.0;672.0
428.0;3500.0;2100.0;439.546875;0.0;672.0
434.0;4700.0;2100.0;448.421875;0.0;672.0
435.0;4900.0;2100.0;451.40625;0.0;672.0
436.0;5100.0;2100.0;457.71875;0.0;672.0
437.0;5300.0;2100.0;471.625;0.0;672.0
438.0;5500.0;2100.0;470.546875;0.0;672.0
439.0;5700.0;2100.0;478.75;0.0;672.0
440.0;5900.0;2100.0;491.625;0.0;672.0
441.0;6100.0;2100.0;490.5;0.0;672.0
442.0;6300.0;2100.0;495.40625;0.0;672.0
469.0;3500.0;2300.0;441.59375;0.0;672.0
470.0;3700.0;2300.0;443.046875;0.0;672.0
471.0;3900.0;2300.0;446.453125;0.0;672.0
472.0;4100.0;2300.0;447.984375;0.0;672.0
473.0;4300.0;2300.0;448.09375;0.0;672.0
474.0;4500.0;2300.0;448.296875;0.0;672.0
476.0;4900.0;2300.0;452.390625;0.0;672.0
477.0;5100.0;2300.0;475.21875;0.0;672.0
478.0;5300.0;2300.0;489.09375;0.0;672.0
479.0;5500.0;2300.0;485.125;0.0;672.0
480.0;5700.0;2300.0;486.78125;0.0;672.0
481.0;5900.0;2300.0;491.828125;0.0;672.0
482.0;6100.0;2300.0;500.359375;0.0;672.0
483.0;6300.0;2300.0;496.171875;0.0;672.0
484.0;6500.0;2300.0;500.796875;0.0;672.0
485.0;6700.0;2300.0;511.734375;0.0;672.0
508.0;3100.0;2500.0;438.078125;0.0;672.0
509.0;3300.0;2500.0;441.046875;0.0;672.0
510.0;3500.0;2500.0;443.4375;0.0;672.0
511.0;3700.0;2500.0;446.859375;0.0;672.0
512.0;3900.0;2500.0;449.828125;0.0;672.0
513.0;4100.0;2500.0;450.015625;0.0;672.0
514.0;4300.0;2500.0;450.859375;0.0;672.0
515.0;4500.0;2500.0;454.078125;0.0;672.0
516.0;4700.0;2500.0;458.203125;0.0;672.0
517.0;4900.0;2500.0;460.90625;0.0;672.0
518.0;5100.0;2500.0;474.953125;0.0;672.0
519.0;5300.0;2500.0;484.4375;0.0;672.0
520.0;5500.0;2500.0;489.171875;0.0;672.0
521.0;5700.0;2500.0;493.40625;0.0;672.0
522.0;5900.0;2500.0;487.90625;0.0;672.0
523.0;6100.0;2500.0;495.953125;0.0;672.0
524.0;6300.0;2500.0;493.953125;0.0;672.0
525.0;6500.0;2500.0;508.9375;0.0;672.0
526.0;6700.0;2500.0;510.296875;0.0;672.0
549.0;3100.0;2700.0;439.140625;0.0;672.0
550.0;3300.0;2700.0;441.546875;0.0;672.0
551.0;3500.0;2700.0;444.5625;0.0;672.0
552.0;3700.0;2700.0;447.296875;0.0;672.0
553.0;3900.0;2700.0;448.5;0.0;672.0
554.0;4100.0;2700.0;449.90625;0.0;672.0
555.0;4300.0;2700.0;452.625;0.0;672.0
556.0;4500.0;2700.0;461.75;0.0;672.0
557.0;4700.0;2700.0;461.109375;0.0;672.0
558.0;4900.0;2700.0;470.421875;0.0;672.0
559.0;5100.0;2700.0;481.40625;0.0;672.0
560.0;5300.0;2700.0;480.640625;0.0;672.0
561.0;5500.0;2700.0;472.453125;0.0;672.0
562.0;5700.0;2700.0;471.140625;0.0;672.0
563.0;5900.0;2700.0;473.328125;0.0;672.0
564.0;6100.0;2700.0;475.515625;0.0;672.0
565.0;6300.0;2700.0;484.75;0.0;672.0
566.0;6500.0;2700.0;505.9375;0.0;672.0
567.0;6700.0;2700.0;493.671875;0.0;672.0
568.0;6900.0;2700.0;486.453125;0.0;672.0
589.0;2900.0;2900.0;435.609375;0.0;672.0
590.0;3100.0;2900.0;438.59375;0.0;672.0
591.0;3300.0;2900.0;442.40625;0.0;672.0
592.0;3500.0;2900.0;451.625;0.0;672.0
593.0;3700.0;2900.0;454.8125;0.0;672.0
594.0;3900.0;2900.0;453.015625;0.0;672.0
595.0;4100.0;2900.0;451.875;0.0;672.0
596.0;4300.0;2900.0;452.3125;0.0;672.0
597.0;4500.0;2900.0;456.328125;0.0;672.0
598.0;4700.0;2900.0;459.96875;0.0;672.0
599.0;4900.0;2900.0;466.328125;0.0;672.0
600.0;5100.0;2900.0;465.09375;0.0;672.0
601.0;5300.0;2900.0;466.125;0.0;672.0
602.0;5500.0;2900.0;468.703125;0.0;672.0
603.0;5700.0;2900.0;470.75;0.0;672.0
604.0;5900.0;2900.0;476.015625;0.0;672.0
605.0;6100.0;2900.0;482.453125;0.0;672.0
606.0;6300.0;2900.0;494.796875;0.0;672.0
607.0;6500.0;2900.0;492.375;0.0;672.0
608.0;6700.0;2900.0;487.5625;0.0;672.0
609.0;6900.0;2900.0;498.796875;0.0;672.0
630.0;2900.0;3100.0;435.5;0.0;672.0
631.0;3100.0;3100.0;438.625;0.0;672.0
632.0;3300.0;3100.0;445.015625;0.0;672.0
633.0;3500.0;3100.0;456.859375;0.0;672.0
634.0;3700.0;3100.0;461.328125;0.0;672.0
637.0;4300.0;3100.0;454.359375;0.0;672.0
638.0;4500.0;3100.0;455.859375;0.0;672.0
639.0;4700.0;3100.0;458.21875;0.0;672.0
640.0;4900.0;3100.0;460.671875;0.0;672.0
641.0;5100.0;3100.0;463.546875;0.0;672.0
642.0;5300.0;3100.0;467.03125;0.0;672.0
643.0;5500.0;3100.0;469.609375;0.0;672.0
644.0;5700.0;3100.0;477.171875;0.0;672.0
645.0;5900.0;3100.0;490.796875;0.0;672.0
646.0;6100.0;3100.0;499.3125;0.0;672.0
647.0;6300.0;3100.0;516.09375;0.0;672.0
648.0;6500.0;3100.0;511.921875;0.0;672.0
649.0;6700.0;3100.0;501.15625;0.0;672.0
650.0;6900.0;3100.0;510.9375;0.0;672.0
671.0;2900.0;3300.0;435.734375;0.0;672.0
672.0;3100.0;3300.0;440.171875;1.0;672.0
673.0;3300.0;3300.0;447.09375;0.0;672.0
674.0;3500.0;3300.0;454.625;0.0;672.0
675.0;3700.0;3300.0;460.46875;0.0;672.0
676.0;3900.0;3300.0;456.359375;0.0;672.0
677.0;4100.0;3300.0;455.203125;0.0;672.0
678.0;4300.0;3300.0;455.203125;0.0;672.0
679.0;4500.0;3300.0;456.96875;0.0;672.0
680.0;4700.0;3300.0;458.828125;0.0;672.0
681.0;4900.0;3300.0;461.609375;0.0;672.0
682.0;5100.0;3300.0;464.234375;0.0;672.0
683.0;5300.0;3300.0;467.671875;0.0;672.0
684.0;5500.0;3300.0;473.90625;0.0;672.0
685.0;5700.0;3300.0;483.046875;0.0;672.0
686.0;5900.0;3300.0;490.15625;0.0;672.0
687.0;6100.0;3300.0;504.734375;0.0;672.0
688.0;6300.0;3300.0;519.671875;0.0;672.0
689.0;6500.0;3300.0;517.734375;0.0;672.0
716.0;3700.0;3500.0;461.0625;0.0;672.0
717.0;3900.0;3500.0;457.09375;0.0;672.0
718.0;4100.0;3500.0;457.484375;0.0;672.0
719.0;4300.0;3500.0;456.703125;0.0;672.0
720.0;4500.0;3500.0;458.171875;0.0;672.0
721.0;4700.0;3500.0;459.09375;0.0;672.0
722.0;4900.0;3500.0;461.625;0.0;672.0
723.0;5100.0;3500.0;464.6875;0.0;672.0
724.0;5300.0;3500.0;468.078125;0.0;672.0
725.0;5500.0;3500.0;476.09375;0.0;672.0
726.0;5700.0;3500.0;484.4375;0.0;672.0
727.0;5900.0;3500.0;496.921875;0.0;672.0
728.0;6100.0;3500.0;520.15625;0.0;672.0
729.0;6300.0;3500.0;520.515625;0.0;672.0
757.0;3700.0;3700.0;459.828125;0.0;672.0
758.0;3900.0;3700.0;458.46875;0.0;672.0
760.0;4300.0;3700.0;458.203125;0.0;672.0
761.0;4500.0;3700.0;459.53125;0.0;672.0
762.0;4700.0;3700.0;460.640625;0.0;672.0
763.0;4900.0;3700.0;462.90625;0.0;672.0
764.0;5100.0;3700.0;467.40625;0.0;672.0
765.0;5300.0;3700.0;472.015625;0.0;672.0
766.0;5500.0;3700.0;481.0;0.0;672.0
767.0;5700.0;3700.0;490.734375;0.0;672.0
768.0;5900.0;3700.0;500.359375;0.0;672.0
769.0;6100.0;3700.0;509.90625;0.0;672.0
795.0;3100.0;3900.0;467.921875;0.0;672.0
799.0;3900.0;3900.0;457.421875;0.0;672.0
800.0;4100.0;3900.0;457.390625;0.0;672.0
801.0;4300.0;3900.0;458.5;0.0;672.0
802.0;4500.0;3900.0;460.046875;0.0;672.0
803.0;4700.0;3900.0;464.59375;0.0;672.0
804.0;4900.0;3900.0;473.03125;0.0;672.0
805.0;5100.0;3900.0;488.328125;0.0;672.0
806.0;5300.0;3900.0;480.609375;0.0;672.0
807.0;5500.0;3900.0;486.03125;0.0;672.0
808.0;5700.0;3900.0;493.921875;0.0;672.0
809.0;5900.0;3900.0;494.5;0.0;672.0
810.0;6100.0;3900.0;500.140625;0.0;672.0
835.0;2900.0;4100.0;461.25;0.0;672.0
836.0;3100.0;4100.0;477.453125;0.0;672.0
840.0;3900.0;4100.0;456.40625;0.0;672.0
841.0;4100.0;4100.0;455.578125;0.0;672.0
842.0;4300.0;4100.0;457.5625;0.0;672.0
843.0;4500.0;4100.0;461.25;0.0;672.0
844.0;4700.0;4100.0;473.875;0.0;672.0
846.0;5100.0;4100.0;481.96875;0.0;672.0
847.0;5300.0;4100.0;485.765625;0.0;672.0
848.0;5500.0;4100.0;485.359375;0.0;672.0
849.0;5700.0;4100.0;487.578125;0.0;672.0
850.0;5900.0;4100.0;490.65625;0.0;672.0
852.0;6300.0;4100.0;500.78125;0.0;672.0
875.0;2700.0;4300.0;441.390625;0.0;672.0
876.0;2900.0;4300.0;462.1875;0.0;672.0
877.0;3100.0;4300.0;476.40625;0.0;672.0
881.0;3900.0;4300.0;453.28125;0.0;672.0
882.0;4100.0;4300.0;454.453125;0.0;672.0
883.0;4300.0;4300.0;456.515625;0.0;672.0
884.0;4500.0;4300.0;459.453125;0.0;672.0
885.0;4700.0;4300.0;467.578125;0.0;672.0
886.0;4900.0;4300.0;474.40625;0.0;672.0
888.0;5300.0;4300.0;486.5625;0.0;672.0
889.0;5500.0;4300.0;482.703125;0.0;672.0
890.0;5700.0;4300.0;485.546875;0.0;672.0
892.0;6100.0;4300.0;492.96875;0.0;672.0
893.0;6300.0;4300.0;496.6875;0.0;672.0
914.0;2300.0;4500.0;437.96875;0.0;672.0
915.0;2500.0;4500.0;441.75;0.0;672.0
916.0;2700.0;4500.0;446.25;0.0;672.0
917.0;2900.0;4500.0;465.578125;0.0;672.0
918.0;3100.0;4500.0;472.921875;0.0;672.0
919.0;3300.0;4500.0;464.59375;0.0;672.0
921.0;3700.0;4500.0;453.1875;0.0;672.0
923.0;4100.0;4500.0;454.890625;0.0;672.0
924.0;4300.0;4500.0;458.65625;0.0;672.0
925.0;4500.0;4500.0;469.078125;0.0;672.0
926.0;4700.0;4500.0;475.03125;0.0;672.0
927.0;4900.0;4500.0;476.375;0.0;672.0
928.0;5100.0;4500.0;479.21875;0.0;672.0
929.0;5300.0;4500.0;478.453125;0.0;672.0
930.0;5500.0;4500.0;480.875;0.0;672.0
931.0;5700.0;4500.0;484.21875;0.0;672.0
932.0;5900.0;4500.0;487.5625;0.0;672.0
933.0;6100.0;4500.0;490.9375;0.0;672.0
934.0;6300.0;4500.0;496.9375;0.0;672.0
937.0;6900.0;4500.0;538.109375;0.0;672.0
938.0;7100.0;4500.0;557.953125;0.0;672.0
953.0;1900.0;4700.0;435.734375;0.0;672.0
954.0;2100.0;4700.0;437.703125;0.0;672.0
955.0;2300.0;4700.0;442.109375;0.0;672.0
956.0;2500.0;4700.0;448.859375;0.0;672.0
957.0;2700.0;4700.0;453.34375;0.0;672.0
958.0;2900.0;4700.0;458.484375;0.0;672.0
959.0;3100.0;4700.0;459.515625;0.0;672.0
960.0;3300.0;4700.0;455.40625;0.0;672.0
962.0;3700.0;4700.0;455.375;0.0;672.0
966.0;4500.0;4700.0;466.359375;0.0;672.0
967.0;4700.0;4700.0;470.34375;0.0;672.0
968.0;4900.0;4700.0;472.546875;0.0;672.0
969.0;5100.0;4700.0;473.84375;0.0;672.0
970.0;5300.0;4700.0;476.515625;0.0;672.0
971.0;5500.0;4700.0;479.765625;0.0;672.0
972.0;5700.0;4700.0;483.078125;0.0;672.0
973.0;5900.0;4700.0;486.78125;0.0;672.0
974.0;6100.0;4700.0;492.9375;0.0;672.0
975.0;6300.0;4700.0;502.96875;0.0;672.0
976.0;6500.0;4700.0;517.28125;0.0;672.0
977.0;6700.0;4700.0;543.703125;0.0;672.0
978.0;6900.0;4700.0;553.140625;0.0;672.0
979.0;7100.0;4700.0;560.375;0.0;672.0
980.0;7300.0;4700.0;567.671875;0.0;672.0
993.0;1700.0;4900.0;436.796875;0.0;672.0
994.0;1900.0;4900.0;439.3125;0.0;672.0
995.0;2100.0;4900.0;441.59375;0.0;672.0
996.0;2300.0;4900.0;444.84375;0.0;672.0
997.0;2500.0;4900.0;451.5;0.0;672.0
998.0;2700.0;4900.0;452.4375;0.0;672.0
999.0;2900.0;4900.0;452.640625;0.0;672.0
1000.0;3100.0;4900.0;451.5;0.0;672.0
1001.0;3300.0;4900.0;451.546875;0.0;672.0
1010.0;5100.0;4900.0;474.484375;0.0;672.0
1011.0;5300.0;4900.0;477.25;0.0;672.0
1012.0;5500.0;4900.0;480.53125;0.0;672.0
1013.0;5700.0;4900.0;485.03125;0.0;672.0
1016.0;6300.0;4900.0;516.90625;0.0;672.0
1017.0;6500.0;4900.0;536.265625;0.0;672.0
1018.0;6700.0;4900.0;556.328125;0.0;672.0
1019.0;6900.0;4900.0;560.765625;0.0;672.0
1020.0;7100.0;4900.0;568.484375;0.0;672.0
1033.0;1500.0;5100.0;435.828125;0.0;672.0
1034.0;1700.0;5100.0;439.328125;0.0;672.0
1035.0;1900.0;5100.0;440.59375;0.0;672.0
1036.0;2100.0;5100.0;442.25;0.0;672.0
1037.0;2300.0;5100.0;445.015625;0.0;672.0
1038.0;2500.0;5100.0;447.03125;0.0;672.0
1039.0;2700.0;5100.0;447.984375;0.0;672.0
1040.0;2900.0;5100.0;448.734375;0.0;672.0
1041.0;3100.0;5100.0;449.71875;0.0;672.0
1043.0;3500.0;5100.0;460.46875;0.0;672.0
1058.0;6500.0;5100.0;550.09375;0.0;672.0
1059.0;6700.0;5100.0;564.046875;0.0;672.0
1074.0;1500.0;5300.0;438.484375;0.0;672.0
1075.0;1700.0;5300.0;439.796875;0.0;672.0
1076.0;1900.0;5300.0;441.0625;0.0;672.0
1077.0;2100.0;5300.0;443.015625;0.0;672.0
1078.0;2300.0;5300.0;444.078125;0.0;672.0
1079.0;2500.0;5300.0;446.4375;0.0;672.0
1080.0;2700.0;5300.0;448.65625;0.0;672.0
1081.0;2900.0;5300.0;451.578125;0.0;672.0
1082.0;3100.0;5300.0;456.046875;0.0;672.0
1083.0;3300.0;5300.0;459.4375;0.0;672.0
1084.0;3500.0;5300.0;462.359375;0.0;672.0
1087.0;4100.0;5300.0;461.796875;0.0;672.0
1088.0;4300.0;5300.0;462.703125;0.0;672.0
1115.0;1500.0;5500.0;438.921875;0.0;672.0
1116.0;1700.0;5500.0;440.6875;0.0;672.0
1117.0;1900.0;5500.0;442.59375;0.0;672.0
1118.0;2100.0;5500.0;443.9375;0.0;672.0
1119.0;2300.0;5500.0;445.140625;0.0;672.0
1120.0;2500.0;5500.0;449.0;0.0;672.0
1121.0;2700.0;5500.0;449.921875;0.0;672.0
1122.0;2900.0;5500.0;453.0;0.0;672.0
1123.0;3100.0;5500.0;453.734375;0.0;672.0
1124.0;3300.0;5500.0;458.265625;0.0;672.0
1156.0;1500.0;5700.0;442.96875;0.0;672.0
1157.0;1700.0;5700.0;445.34375;0.0;672.0
1158.0;1900.0;5700.0;445.15625;0.0;672.0
1159.0;2100.0;5700.0;446.53125;0.0;672.0
1160.0;2300.0;5700.0;447.96875;0.0;672.0
1161.0;2500.0;5700.0;449.5;0.0;672.0
1162.0;2700.0;5700.0;449.875;0.0;672.0
1163.0;2900.0;5700.0;451.6875;0.0;672.0
1164.0;3100.0;5700.0;453.15625;0.0;672.0
1165.0;3300.0;5700.0;456.109375;0.0;672.0
1197.0;1500.0;5900.0;444.75;0.0;672.0
1198.0;1700.0;5900.0;445.0;0.0;672.0
1199.0;1900.0;5900.0;445.0;0.0;672.0
1200.0;2100.0;5900.0;447.75;0.0;672.0
1201.0;2300.0;5900.0;447.46875;0.0;672.0
1204.0;2900.0;5900.0;454.125;0.0;672.0
1205.0;3100.0;5900.0;457.375;0.0;672.0
1239.0;1700.0;6100.0;443.7857142857143;0.0;672.0
1240.0;1900.0;6100.0;447.05263157894734;0.0;672.0
1241.0;2100.0;6100.0;447.234375;0.0;672.0
1244.0;2700.0;6100.0;449.3125;0.0;672.0
1245.0;2900.0;6100.0;454.359375;0.0;672.0
1246.0;3100.0;6100.0;459.46875;0.0;672.0
1247.0;3300.0;6100.0;461.109375;0.0;672.0
1260.0;5900.0;6100.0;533.3125;0.0;672.0
1261.0;6100.0;6100.0;538.296875;0.0;672.0
1262.0;6300.0;6100.0;544.40625;0.0;672.0
1277.0;1100.0;6300.0;442.375;0.0;672.0
1278.0;1300.0;6300.0;442.7368421052632;0.0;672.0
1279.0;1500.0;6300.0;442.7142857142857;0.0;672.0
1282.0;2100.0;6300.0;444.62068965517244;0.0;672.0
1283.0;2300.0;6300.0;446.9655172413793;0.0;672.0
1285.0;2700.0;6300.0;451.96875;0.0;672.0
1286.0;2900.0;6300.0;458.359375;0.0;672.0
1297.0;5100.0;6300.0;505.93023255813955;0.0;672.0
1298.0;5300.0;6300.0;510.1875;0.0;672.0
1299.0;5500.0;6300.0;516.796875;0.0;672.0
1300.0;5700.0;6300.0;526.53125;0.0;672.0
1301.0;5900.0;6300.0;534.65625;0.0;672.0
1302.0;6100.0;6300.0;548.78125;0.0;672.0
1303.0;6300.0;6300.0;557.9375;0.0;672.0
1318.0;1100.0;6500.0;441.3076923076923;0.0;672.0
1319.0;1300.0;6500.0;442.0;0.0;672.0
1324.0;2300.0;6500.0;449.8333333333333;0.0;672.0
1325.0;2500.0;6500.0;451.84;0.0;672.0
1326.0;2700.0;6500.0;455.453125;0.0;672.0
1335.0;4500.0;6500.0;492.94117647058823;0.0;672.0
1336.0;4700.0;6500.0;495.0;0.0;672.0
1338.0;5100.0;6500.0;515.0;0.0;672.0
1339.0;5300.0;6500.0;512.0;0.0;672.0
1340.0;5500.0;6500.0;523.6041666666666;0.0;672.0
1341.0;5700.0;6500.0;535.90625;0.0;672.0
1342.0;5900.0;6500.0;552.125;0.0;672.0
1343.0;6100.0;6500.0;564.046875;0.0;672.0
1381.0;5500.0;6700.0;536.8;0.0;672.0
1409.0;2900.0;6900.0;471.22222222222223;0.0;672.0
1410.0;3100.0;6900.0;473.875;0.0;672.0
1411.0;3300.0;6900.0;478.3;0.0;672.0
1453.0;3500.0;7100.0;472.0;0.0;672.0
Pipes;372
id_up;id_down;type;design_flow;basin;LinkType;up_ids;down_ids
199;159;2;0.0001675766451122138;1;Collection;[239, 240, 241];[159, 403, 568, 562, 603, 602, 518, 517, 435, 354, 270, 389, 428, 510, 509, 550, 630, 672, -1]
200;159;1;9.055664165693876e-05;1;Collection;[];[159, 403, 568, 562, 603, 602, 518, 517, 435, 354, 270, 389, 428, 510, 509, 550, 630, 672, -1]
201;159;1;5.732083660642205e-05;1;Collection;[];[159, 403, 568, 562, 603, 602, 518, 517, 435, 354, 270, 389, 428, 510, 509, 550, 630, 672, -1]
228;270;1;0.00012767992145205323;2;Collection;[];[270, 389, 428, 510, 509, 550, 630, 672, -1]
230;270;1;0.0003326277722933836;2;Collection;[];[270, 389, 428, 510, 509, 550, 630, 672, -1]
239;199;1;3.5276557190752426e-05;1;Collection;[];[199, 159, 403, 568, 562, 603, 602, 518, 517, 435, 354, 270, 389, 428, 510, 509, 550, 630, 672, -1]
240;199;1;4.0580762848519353e-05;1;Collection;[];[199, 159, 403, 568, 562, 603, 602, 518, 517, 435, 354, 270, 389, 428, 510, 509, 550, 630, 672, -1]
241;199;1;5.761577098865086e-05;1;Collection;[];[199, 159, 403, 568, 562, 603, 602, 518, 517, 435, 354, 270, 389, 428, 510, 509, 550, 630, 672, -1]
269;270;1;7.321006512103241e-05;2;Collection;[];[270, 389, 428, 510, 509, 550, 630, 672, -1]
311;270;2;0.0003771179379217544;2;Collection;[352];[270, 389, 428, 510, 509, 550, 630, 672, -1]
352;311;1;0.00035454958763183556;2;Collection;[];[311, 270, 389, 428, 510, 509, 550, 630, 672, -1]
357;398;1;4.324956502211757e-05;3;Collection;[];[398, 438, 396, 354, 270, 389, 428, 510, 509, 550, 630, 672, -1]
390;389;1;0.0006502377028121625;4;Collection;[];[389, 428, 510, 509, 550, 630, 672, -1]
394;354;1;0.0003039129774135813;3;Collection;[];[354, 270, 389, 428, 510, 509, 550, 630, 672, -1]
395;354;2;0.001011713487901124;3;Collection;[436, 437];[354, 270, 389, 428, 510, 509, 550, 630, 672, -1]
396;354;2;0.004122096186921812;3;Collection;[397, 438, 398, 439, 478, 479, 480, 357, 399, 440, 481, 441, 401, 442, 483];[354, 270, 389, 428, 510, 509, 550, 630, 672, -1]
397;396;1;8.554981461130249e-05;3;Collection;[];[396, 354, 270, 389, 428, 510, 509, 550, 630, 672, -1]
398;438;2;0.001239107261341283;3;Collection;[357, 399, 440, 441, 401, 442, 483];[438, 396, 354, 270, 389, 428, 510, 509, 550, 630, 672, -1]
399;398;2;0.0009191262289469338;3;Collection;[441, 401, 442, 483];[398, 438, 396, 354, 270, 389, 428, 510, 509, 550, 630, 672, -1]
401;441;1;7.224571353627978e-05;3;Collection;[];[441, 399, 398, 438, 396, 354, 270, 389, 428, 510, 509, 550, 630, 672, -1]
404;403;1;0.0006874841563466052;5;Collection;[];[403, 568, 562, 603, 602, 518, 517, 435, 354, 270, 389, 428, 510, 509, 550, 630, 672, -1]
434;474;2;0.0007937660821336146;6;Collection;[476];[474, 473, 472, 471, 470, 428, 510, 509, 550, 630, 672, -1]
436;395;1;0.0007019999999999999;3;Collection;[];[395, 354, 270, 389, 428, 510, 509, 550, 630, 672, -1]
437;395;1;0.00024111062405374434;3;Collection;[];[395, 354, 270, 389, 428, 510, 509, 550, 630, 672, -1]
438;396;2;0.003945369987647705;3;Collection;[398, 439, 478, 479, 480, 357, 399, 440, 481, 441, 401, 442, 483];[396, 354, 270, 389, 428, 510, 509, 550, 630, 672, -1]
439;438;2;0.0008384072796117509;3;Collection;[481];[438, 396, 354, 270, 389, 428, 510, 509, 550, 630, 672, -1]
440;398;1;0.00018384082481379696;3;Collection;[];[398, 438, 396, 354, 270, 389, 428, 510, 509, 550, 630, 672, -1]
441;399;2;0.0008682734693676511;3;Collection;[401, 442, 483];[399, 398, 438, 396, 354, 270, 389, 428, 510, 509, 550, 630, 672, -1]
442;441;1;0.00021174091797449338;3;Collection;[];[441, 399, 398, 438, 396, 354, 270, 389, 428, 510, 509, 550, 630, 672, -1]
469;428;1;2.4032327111401625e-05;6;Collection;[];[428, 510, 509, 550, 630, 672, -1]
470;428;2;0.0011469633739582725;6;Collection;[471, 472, 473, 474, 434, 516, 476];[428, 510, 509, 550, 630, 672, -1]
471;470;2;0.0011215796071742134;6;Collection;[472, 473, 474, 434, 516, 476];[470, 428, 510, 509, 550, 630, 672, -1]
472;471;2;0.001002698812126846;6;Collection;[473, 474, 434, 516, 476];[471, 470, 428, 510, 509, 550, 630, 672, -1]
473;472;2;0.0009773400331199323;6;Collection;[474, 434, 516, 476];[472, 471, 470, 428, 510, 509, 550, 630, 672, -1]
474;473;2;0.0009665044485340151;6;Collection;[434, 516, 476];[473, 472, 471, 470, 428, 510, 509, 550, 630, 672, -1]
476;434;1;0.0006239753350244576;6;Collection;[];[434, 474, 473, 472, 471, 470, 428, 510, 509, 550, 630, 672, -1]
477;435;1;0.0004744077324906548;7;Collection;[];[435, 354, 270, 389, 428, 510, 509, 550, 630, 672, -1]
478;438;1;0.00047577155187814404;3;Collection;[];[438, 396, 354, 270, 389, 428, 510, 509, 550, 630, 672, -1]
479;438;1;0.0004778938365039664;3;Collection;[];[438, 396, 354, 270, 389, 428, 510, 509, 550, 630, 672, -1]
480;438;1;0.0007796249999999999;3;Collection;[];[438, 396, 354, 270, 389, 428, 510, 509, 550, 630, 672, -1]
481;439;1;0.000617625;3;Collection;[];[439, 438, 396, 354, 270, 389, 428, 510, 509, 550, 630, 672, -1]
482;522;1;0.00010115068016413672;14;Collection;[];[522, 562, 603, 602, 518, 517, 435, 354, 270, 389, 428, 510, 509, 550, 630, 672, -1]
483;441;1;0.0004365084196349268;3;Collection;[];[441, 399, 398, 438, 396, 354, 270, 389, 428, 510, 509, 550, 630, 672, -1]
484;524;2;0.0001072218125498621;14;Collection;[485];[524, 564, 563, 562, 603, 602, 518, 517, 435, 354, 270, 389, 428, 510, 509, 550, 630, 672, -1]
485;484;1;5.187259370362476e-05;14;Collection;[];[484, 524, 564, 563, 562, 603, 602, 518, 517, 435, 354, 270, 389, 428, 510, 509, 550, 630, 672, -1]
511;551;1;0.0005805;18;Collection;[];[551, 591, 631, 630, 672, -1]
512;552;1;0.0002823566155896916;18;Collection;[];[552, 551, 591, 631, 630, 672, -1]
513;553;1;0.000860625;18;Collection;[];[553, 552, 551, 591, 631, 630, 672, -1]
514;554;1;0.0003075837197660438;18;Collection;[];[554, 553, 552, 551, 591, 631, 630, 672, -1]
515;555;1;0.0002426216198299202;18;Collection;[];[555, 554, 553, 552, 551, 591, 631, 630, 672, -1]
516;474;1;0.00010041643654944848;6;Collection;[];[474, 473, 472, 471, 470, 428, 510, 509, 550, 630, 672, -1]
519;561;1;0.000590625;14;Collection;[];[561, 562, 603, 602, 518, 517, 435, 354, 270, 389, 428, 510, 509, 550, 630, 672, -1]
520;562;1;0.000793125;14;Collection;[];[562, 603, 602, 518, 517, 435, 354, 270, 389, 428, 510, 509, 550, 630, 672, -1]
521;562;1;0.00049275;14;Collection;[];[562, 603, 602, 518, 517, 435, 354, 270, 389, 428, 510, 509, 550, 630, 672, -1]
522;562;2;0.00047327925074380154;14;Collection;[482];[562, 603, 602, 518, 517, 435, 354, 270, 389, 428, 510, 509, 550, 630, 672, -1]
523;563;1;0.00030083363669808013;14;Collection;[];[563, 562, 603, 602, 518, 517, 435, 354, 270, 389, 428, 510, 509, 550, 630, 672, -1]
524;564;2;0.000768721812549862;14;Collection;[484, 485];[564, 563, 562, 603, 602, 518, 517, 435, 354, 270, 389, 428, 510, 509, 550, 630, 672, -1]
525;565;1;0.0006243749999999999;14;Collection;[];[565, 564, 563, 562, 603, 602, 518, 517, 435, 354, 270, 389, 428, 510, 509, 550, 630, 672, -1]
526;568;1;0.00022313497359336315;15;Collection;[];[568, 562, 603, 602, 518, 517, 435, 354, 270, 389, 428, 510, 509, 550, 630, 672, -1]
549;589;1;6.854295260273324e-05;18;Collection;[];[589, 630, 672, -1]
551;591;2;0.03445153090910438;18;Collection;[511, 552, 593, 512, 553, 594, 513, 554, 595, 514, 555, 596, 515, 556, 597, 637, 638, 557, 677, 598, 639, 679, 680, 676, 719, 599, 640, 681, 721, 722, 760, 761, 600, 641, 682, 723, 763, 764, 803, 558, 559, 560, 601, 642, 683, 724, 765, 805, 806, 643, 684, 725, 766, 807, 847, 848, 685, 726, 767, 808, 727, 768];[591, 631, 630, 672, -1]
552;551;2;0.032987082766775436;18;Collection;[512, 553, 594, 513, 554, 595, 514, 555, 596, 515, 556, 597, 637, 638, 557, 677, 598, 639, 679, 680, 676, 719, 599, 640, 681, 721, 722, 760, 761, 600, 641, 682, 723, 763, 764, 803, 558, 559, 560, 601, 642, 683, 724, 765, 805, 806, 643, 684, 725, 766, 807, 847, 848, 685, 726, 767, 808, 727, 768];[551, 591, 631, 630, 672, -1]
553;552;2;0.03157352506469482;18;Collection;[513, 554, 595, 514, 555, 596, 515, 556, 597, 637, 638, 557, 677, 598, 639, 679, 680, 676, 719, 599, 640, 681, 721, 722, 760, 761, 600, 641, 682, 723, 763, 764, 803, 558, 559, 560, 601, 642, 683, 724, 765, 805, 806, 643, 684, 725, 766, 807, 847, 848, 685, 726, 767, 808, 727, 768];[552, 551, 591, 631, 630, 672, -1]
554;553;2;0.029846803215894172;18;Collection;[514, 555, 596, 515, 556, 597, 637, 638, 557, 677, 598, 639, 679, 680, 676, 719, 599, 640, 681, 721, 722, 760, 761, 600, 641, 682, 723, 763, 764, 803, 558, 559, 560, 601, 642, 683, 724, 765, 805, 806, 643, 684, 725, 766, 807, 847, 848, 685, 726, 767, 808, 727, 768];[553, 552, 551, 591, 631, 630, 672, -1]
555;554;2;0.0013799966198299201;18;Collection;[515];[554, 553, 552, 551, 591, 631, 630, 672, -1]
556;596;1;0.00038014046494537794;18;Collection;[];[596, 554, 553, 552, 551, 591, 631, 630, 672, -1]
557;597;1;0.00024554857887166035;18;Collection;[];[597, 596, 554, 553, 552, 551, 591, 631, 630, 672, -1]
558;600;1;0.0006108749999999999;18;Collection;[];[600, 640, 639, 638, 596, 554, 553, 552, 551, 591, 631, 630, 672, -1]
559;600;1;0.0002791118060357934;18;Collection;[];[600, 640, 639, 638, 596, 554, 553, 552, 551, 591, 631, 630, 672, -1]
560;600;1;0.00015866008517746182;18;Collection;[];[600, 640, 639, 638, 596, 554, 553, 552, 551, 591, 631, 630, 672, -1]
561;562;2;0.0008189324283623327;14;Collection;[519];[562, 603, 602, 518, 517, 435, 354, 270, 389, 428, 510, 509, 550, 630, 672, -1]
563;562;2;0.006776152496370282;14;Collection;[523, 564, 605, 524, 565, 606, 484, 525, 566, 607, 485, 647];[562, 603, 602, 518, 517, 435, 354, 270, 389, 428, 510, 509, 550, 630, 672, -1]
564;563;2;0.005635038505616679;14;Collection;[524, 565, 606, 484, 525, 566, 607, 485, 647];[563, 562, 603, 602, 518, 517, 435, 354, 270, 389, 428, 510, 509, 550, 630, 672, -1]
565;564;2;0.0028143166930668178;14;Collection;[525, 566, 607, 647];[564, 563, 562, 603, 602, 518, 517, 435, 354, 270, 389, 428, 510, 509, 550, 630, 672, -1]
566;565;1;0.0005208623427121694;14;Collection;[];[565, 564, 563, 562, 603, 602, 518, 517, 435, 354, 270, 389, 428, 510, 509, 550, 630, 672, -1]
567;568;1;0.0008841665867087359;15;Collection;[];[568, 562, 603, 602, 518, 517, 435, 354, 270, 389, 428, 510, 509, 550, 630, 672, -1]
589;630;2;7.854295260273323e-05;18;Collection;[549];[630, 672, -1]
590;630;1;0.00013635771305527052;18;Collection;[];[630, 672, -1]
591;631;2;0.03607624329213348;18;Collection;[551, 592, 633, 511, 552, 593, 634, 512, 553, 594, 513, 554, 595, 514, 555, 596, 515, 556, 597, 637, 638, 557, 677, 598, 639, 679, 680, 676, 719, 599, 640, 681, 721, 722, 760, 761, 600, 641, 682, 723, 763, 764, 803, 558, 559, 560, 601, 642, 683, 724, 765, 805, 806, 643, 684, 725, 766, 807, 847, 848, 685, 726, 767, 808, 727, 768];[631, 630, 672, -1]
592;591;2;0.0007131517093076922;18;Collection;[634];[591, 631, 630, 672, -1]
593;551;1;0.00039279473888784134;18;Collection;[];[551, 591, 631, 630, 672, -1]
594;552;1;0.00011532608649092838;18;Collection;[];[552, 551, 591, 631, 630, 672, -1]
595;553;1;8.647184880064684e-05;18;Collection;[];[553, 552, 551, 591, 631, 630, 672, -1]
596;554;2;0.027210847876298204;18;Collection;[556, 597, 637, 638, 557, 677, 598, 639, 679, 680, 676, 719, 599, 640, 681, 721, 722, 760, 761, 600, 641, 682, 723, 763, 764, 803, 558, 559, 560, 601, 642, 683, 724, 765, 805, 806, 643, 684, 725, 766, 807, 847, 848, 685, 726, 767, 808, 727, 768];[554, 553, 552, 551, 591, 631, 630, 672, -1]
597;596;2;0.0011905485788716603;18;Collection;[557];[596, 554, 553, 552, 551, 591, 631, 630, 672, -1]
598;638;1;0.0009551249999999999;18;Collection;[];[638, 596, 554, 553, 552, 551, 591, 631, 630, 672, -1]
599;639;1;0.000799875;18;Collection;[];[639, 638, 596, 554, 553, 552, 551, 591, 631, 630, 672, -1]
600;640;2;0.005822650797771906;18;Collection;[558, 559, 560, 601, 642, 643, 684, 685, 726, 727, 768];[640, 639, 638, 596, 554, 553, 552, 551, 591, 631, 630, 672, -1]
601;600;2;0.001924278175266058;18;Collection;[643, 685, 727];[600, 640, 639, 638, 596, 554, 553, 552, 551, 591, 631, 630, 672, -1]
604;562;2;0.0012821419054500406;14;Collection;[646, 688];[562, 603, 602, 518, 517, 435, 354, 270, 389, 428, 510, 509, 550, 630, 672, -1]
605;563;1;0.00041267280406729966;14;Collection;[];[563, 562, 603, 602, 518, 517, 435, 354, 270, 389, 428, 510, 509, 550, 630, 672, -1]
606;564;1;0.0007391249999999999;14;Collection;[];[564, 563, 562, 603, 602, 518, 517, 435, 354, 270, 389, 428, 510, 509, 550, 630, 672, -1]
607;565;2;0.0004304543503546484;14;Collection;[647];[565, 564, 563, 562, 603, 602, 518, 517, 435, 354, 270, 389, 428, 510, 509, 550, 630, 672, -1]
608;568;2;0.002282911518621246;15;Collection;[648, 649, 650, 689];[568, 562, 603, 602, 518, 517, 435, 354, 270, 389, 428, 510, 509, 550, 630, 672, -1]
609;568;1;0.0022082154498122225;15;Collection;[];[568, 562, 603, 602, 518, 517, 435, 354, 270, 389, 428, 510, 509, 550, 630, 672, -1]
631;630;2;0.03850442680396543;18;Collection;[591, 632, 673, 551, 592, 633, 674, 511, 552, 593, 634, 675, 512, 553, 594, 513, 554, 595, 514, 555, 596, 515, 556, 597, 637, 638, 557, 677, 598, 639, 679, 680, 676, 719, 599, 640, 681, 721, 722, 760, 761, 600, 641, 682, 723, 763, 764, 803, 558, 559, 560, 601, 642, 683, 724, 765, 805, 806, 643, 684, 725, 766, 807, 847, 848, 685, 726, 767, 808, 727, 768];[630, 672, -1]
632;631;2;0.0018473351888701893;18;Collection;[674, 675];[631, 630, 672, -1]
633;591;1;0.000678375;18;Collection;[];[591, 631, 630, 672, -1]
634;592;1;0.00033354423355366996;18;Collection;[];[592, 591, 631, 630, 672, -1]
637;596;2;0.005741129574558629;18;Collection;[677, 676, 719, 760, 761, 803];[596, 554, 553, 552, 551, 591, 631, 630, 672, -1]
638;596;2;0.019105904257922537;18;Collection;[598, 639, 679, 680, 599, 640, 681, 721, 722, 600, 641, 682, 723, 763, 764, 558, 559, 560, 601, 642, 683, 724, 765, 805, 806, 643, 684, 725, 766, 807, 847, 848, 685, 726, 767, 808, 727, 768];[596, 554, 553, 552, 551, 591, 631, 630, 672, -1]
639;638;2;0.014124334930213513;18;Collection;[599, 640, 681, 600, 641, 682, 723, 558, 559, 560, 601, 642, 683, 724, 765, 643, 684, 725, 766, 807, 685, 726, 767, 808, 727, 768];[638, 596, 554, 553, 552, 551, 591, 631, 630, 672, -1]
640;639;2;0.011183042865352237;18;Collection;[600, 641, 682, 558, 559, 560, 601, 642, 683, 724, 643, 684, 725, 766, 685, 726, 767, 808, 727, 768];[639, 638, 596, 554, 553, 552, 551, 591, 631, 630, 672, -1]
641;640;2;0.0020640999516644207;18;Collection;[683, 725, 767];[640, 639, 638, 596, 554, 553, 552, 551, 591, 631, 630, 672, -1]
642;600;2;0.002345368675076798;18;Collection;[684, 726, 768];[600, 640, 639, 638, 596, 554, 553, 552, 551, 591, 631, 630, 672, -1]
643;601;2;0.001673426266909348;18;Collection;[685, 727];[601, 600, 640, 639, 638, 596, 554, 553, 552, 551, 591, 631, 630, 672, -1]
644;602;2;0.0020070316041395217;16;Collection;[686, 687, 728, 729];[602, 518, 517, 435, 354, 270, 389, 428, 510, 509, 550, 630, 672, -1]
645;603;1;0.0003431292114987573;17;Collection;[];[603, 602, 518, 517, 435, 354, 270, 389, 428, 510, 509, 550, 630, 672, -1]
646;604;2;0.0012123585897185233;14;Collection;[688];[604, 562, 603, 602, 518, 517, 435, 354, 270, 389, 428, 510, 509, 550, 630, 672, -1]
647;607;1;0.00039053618541451087;14;Collection;[];[607, 565, 564, 563, 562, 603, 602, 518, 517, 435, 354, 270, 389, 428, 510, 509, 550, 630, 672, -1]
648;608;1;8.804303369787931e-05;15;Collection;[];[608, 568, 562, 603, 602, 518, 517, 435, 354, 270, 389, 428, 510, 509, 550, 630, 672, -1]
649;608;2;0.0007529993270064696;15;Collection;[689];[608, 568, 562, 603, 602, 518, 517, 435, 354, 270, 389, 428, 510, 509, 550, 630, 672, -1]
650;608;1;0.0006309567416480352;15;Collection;[];[608, 568, 562, 603, 602, 518, 517, 435, 354, 270, 389, 428, 510, 509, 550, 630, 672, -1]
671;630;1;0.00046973402306322627;18;Collection;[];[630, 672, -1]
673;631;1;0.00044085685247334766;18;Collection;[];[631, 630, 672, -1]
674;632;2;0.00158625;18;Collection;[675];[632, 631, 630, 672, -1]
675;674;1;0.0006885000000000001;18;Collection;[];[674, 632, 631, 630, 672, -1]
676;677;1;0.00027337499999999996;18;Collection;[];[677, 637, 596, 554, 553, 552, 551, 591, 631, 630, 672, -1]
677;637;2;0.005366504574558629;18;Collection;[676, 719, 760, 761, 803];[637, 596, 554, 553, 552, 551, 591, 631, 630, 672, -1]
679;638;2;0.0017482636625400813;18;Collection;[721, 763, 805];[638, 596, 554, 553, 552, 551, 591, 631, 630, 672, -1]
680;638;2;0.001640305665168946;18;Collection;[722, 764, 806, 847, 848];[638, 596, 554, 553, 552, 551, 591, 631, 630, 672, -1]
681;639;2;0.0018675902945239436;18;Collection;[723, 765, 807];[639, 638, 596, 554, 553, 552, 551, 591, 631, 630, 672, -1]
682;640;2;0.0026921671159159063;18;Collection;[724, 766, 808];[640, 639, 638, 596, 554, 553, 552, 551, 591, 631, 630, 672, -1]
683;641;2;0.0012203499516644208;18;Collection;[725, 767];[641, 640, 639, 638, 596, 554, 553, 552, 551, 591, 631, 630, 672, -1]
684;642;2;0.001946271391297732;18;Collection;[726, 768];[642, 600, 640, 639, 638, 596, 554, 553, 552, 551, 591, 631, 630, 672, -1]
685;643;2;0.000988301266909348;18;Collection;[727];[643, 601, 600, 640, 639, 638, 596, 554, 553, 552, 551, 591, 631, 630, 672, -1]
686;644;2;0.001173406604139522;16;Collection;[687, 728, 729];[644, 602, 518, 517, 435, 354, 270, 389, 428, 510, 509, 550, 630, 672, -1]
687;686;2;0.0006628053666202961;16;Collection;[729];[686, 644, 602, 518, 517, 435, 354, 270, 389, 428, 510, 509, 550, 630, 672, -1]
688;646;1;0.0003888585897185233;14;Collection;[];[646, 604, 562, 603, 602, 518, 517, 435, 354, 270, 389, 428, 510, 509, 550, 630, 672, -1]
689;649;1;2.235172247282363e-05;15;Collection;[];[649, 608, 568, 562, 603, 602, 518, 517, 435, 354, 270, 389, 428, 510, 509, 550, 630, 672, -1]
716;758;1;0.000563625;24;Collection;[];[758, 799, 840, 881, 921, 717, 672, -1]
719;677;2;0.0045801295745586295;18;Collection;[760, 761, 803];[677, 637, 596, 554, 553, 552, 551, 591, 631, 630, 672, -1]
720;678;2;0.003133268117333035;20;Collection;[762, 804, 846];[678, 718, 717, 672, -1]
721;679;2;0.0014019743091368676;18;Collection;[763, 805];[679, 638, 596, 554, 553, 552, 551, 591, 631, 630, 672, -1]
722;680;2;0.001418524330970042;18;Collection;[764, 806, 847, 848];[680, 638, 596, 554, 553, 552, 551, 591, 631, 630, 672, -1]
723;681;2;0.0012499652945239439;18;Collection;[765, 807];[681, 639, 638, 596, 554, 553, 552, 551, 591, 631, 630, 672, -1]
724;682;2;0.0016492921159159063;18;Collection;[766, 808];[682, 640, 639, 638, 596, 554, 553, 552, 551, 591, 631, 630, 672, -1]
725;683;2;0.0004440999516644209;18;Collection;[767];[683, 641, 640, 639, 638, 596, 554, 553, 552, 551, 591, 631, 630, 672, -1]
726;684;2;0.001227396391297732;18;Collection;[768];[684, 642, 600, 640, 639, 638, 596, 554, 553, 552, 551, 591, 631, 630, 672, -1]
727;685;1;0.0004493800290113525;18;Collection;[];[685, 643, 601, 600, 640, 639, 638, 596, 554, 553, 552, 551, 591, 631, 630, 672, -1]
728;686;1;0.0002844762375192257;16;Collection;[];[686, 644, 602, 518, 517, 435, 354, 270, 389, 428, 510, 509, 550, 630, 672, -1]
729;687;1;1.143036662029604e-05;16;Collection;[];[687, 686, 644, 602, 518, 517, 435, 354, 270, 389, 428, 510, 509, 550, 630, 672, -1]
757;799;1;7.75260946386487e-05;24;Collection;[];[799, 840, 881, 921, 717, 672, -1]
758;799;2;0.000574601725693779;24;Collection;[716];[799, 840, 881, 921, 717, 672, -1]
760;719;1;0.000691875;18;Collection;[];[719, 677, 637, 596, 554, 553, 552, 551, 591, 631, 630, 672, -1]
761;719;2;0.0021397499999999997;18;Collection;[803];[719, 677, 637, 596, 554, 553, 552, 551, 591, 631, 630, 672, -1]
762;720;2;0.0027518199971081304;20;Collection;[804, 846];[720, 678, 718, 717, 672, -1]
763;721;2;0.0010487373125616958;18;Collection;[805];[721, 679, 638, 596, 554, 553, 552, 551, 591, 631, 630, 672, -1]
764;722;2;0.0012179567338843826;18;Collection;[806, 847, 848];[722, 680, 638, 596, 554, 553, 552, 551, 591, 631, 630, 672, -1]
765;723;2;0.0008035922987417119;18;Collection;[807];[723, 681, 639, 638, 596, 554, 553, 552, 551, 591, 631, 630, 672, -1]
766;724;2;0.0007481671159159065;18;Collection;[808];[724, 682, 640, 639, 638, 596, 554, 553, 552, 551, 591, 631, 630, 672, -1]
767;725;1;0.00034410181889384247;18;Collection;[];[725, 683, 641, 640, 639, 638, 596, 554, 553, 552, 551, 591, 631, 630, 672, -1]
768;726;1;0.0007295469543713934;18;Collection;[];[726, 684, 642, 600, 640, 639, 638, 596, 554, 553, 552, 551, 591, 631, 630, 672, -1]
769;809;1;0.0004521828886694227;24;Collection;[];[809, 849, 889, 929, 969, 968, 967, 966, 924, 923, 881, 921, 717, 672, -1]
795;835;1;4.615413673769204e-05;23;Collection;[];[835, 875, 921, 717, 672, -1]
799;840;2;0.0007245312679353415;24;Collection;[757, 758, 716];[840, 881, 921, 717, 672, -1]
800;840;1;0.0001508640018877765;24;Collection;[];[840, 881, 921, 717, 672, -1]
801;841;1;0.001083375;24;Collection;[];[841, 881, 921, 717, 672, -1]
802;842;1;0.0011204999999999998;24;Collection;[];[842, 882, 881, 921, 717, 672, -1]
803;761;1;0.0008741249999999998;18;Collection;[];[761, 719, 677, 637, 596, 554, 553, 552, 551, 591, 631, 630, 672, -1]
804;762;2;0.0019128515875997626;20;Collection;[846];[762, 720, 678, 718, 717, 672, -1]
805;763;1;0.000289362312561696;18;Collection;[];[763, 721, 679, 638, 596, 554, 553, 552, 551, 591, 631, 630, 672, -1]
806;764;2;0.00040458173388438273;18;Collection;[847, 848];[764, 722, 680, 638, 596, 554, 553, 552, 551, 591, 631, 630, 672, -1]
807;765;1;0.00022309229874171196;18;Collection;[];[765, 723, 681, 639, 638, 596, 554, 553, 552, 551, 591, 631, 630, 672, -1]
808;766;1;0.0005366249999999999;18;Collection;[];[766, 724, 682, 640, 639, 638, 596, 554, 553, 552, 551, 591, 631, 630, 672, -1]
809;849;2;0.0007486651836840575;24;Collection;[769];[849, 889, 929, 969, 968, 967, 966, 924, 923, 881, 921, 717, 672, -1]
810;850;1;0.0005689715501837113;24;Collection;[];[850, 890, 930, 970, 969, 968, 967, 966, 924, 923, 881, 921, 717, 672, -1]
835;875;2;0.0008459658264806738;23;Collection;[795, 836, 877];[875, 921, 717, 672, -1]
836;835;1;1.3252397265244829e-05;23;Collection;[];[835, 875, 921, 717, 672, -1]
840;881;2;0.001495162191573723;24;Collection;[799, 800, 757, 758, 716];[881, 921, 717, 672, -1]
841;881;2;0.001289178137466767;24;Collection;[801];[881, 921, 717, 672, -1]
842;882;2;0.0024967434777375353;24;Collection;[802];[882, 881, 921, 717, 672, -1]
843;883;1;0.0010664999999999997;24;Collection;[];[883, 923, 881, 921, 717, 672, -1]
844;884;1;0.000185625;24;Collection;[];[884, 883, 923, 881, 921, 717, 672, -1]
846;804;1;7.903513261212804e-05;20;Collection;[];[804, 762, 720, 678, 718, 717, 672, -1]
847;806;1;9.285377779986306e-05;18;Collection;[];[806, 764, 722, 680, 638, 596, 554, 553, 552, 551, 591, 631, 630, 672, -1]
848;806;1;0.00012569371712085883;18;Collection;[];[806, 764, 722, 680, 638, 596, 554, 553, 552, 551, 591, 631, 630, 672, -1]
849;889;2;0.00141058307676611;24;Collection;[809, 769];[889, 929, 969, 968, 967, 966, 924, 923, 881, 921, 717, 672, -1]
850;890;2;0.0006863107805797888;24;Collection;[810];[890, 930, 970, 969, 968, 967, 966, 924, 923, 881, 921, 717, 672, -1]
852;892;1;0.0006874189009094325;24;Collection;[];[892, 932, 972, 971, 970, 969, 968, 967, 966, 924, 923, 881, 921, 717, 672, -1]
876;875;1;0.00010286048253406797;23;Collection;[];[875, 921, 717, 672, -1]
877;835;1;0.0007319449935362615;23;Collection;[];[835, 875, 921, 717, 672, -1]
881;921;2;0.039700019661483725;24;Collection;[840, 841, 882, 923, 799, 800, 801, 842, 883, 924, 757, 758, 802, 843, 884, 925, 966, 716, 844, 885, 926, 967, 886, 927, 968, 928, 969, 1010, 929, 970, 1011, 888, 889, 930, 971, 1012, 849, 890, 931, 972, 1013, 809, 850, 932, 973, 769, 810, 892, 933, 974, 852, 893, 934, 975, 1016, 976, 1017, 1058, 977, 1018, 1059, 1019];[921, 717, 672, -1]
882;881;2;0.00423078283994029;24;Collection;[842, 802];[881, 921, 717, 672, -1]
883;923;2;0.0077412560606492575;24;Collection;[843, 884, 925, 844, 885, 926, 886, 927];[923, 881, 921, 717, 672, -1]
884;883;2;0.004996703903575787;24;Collection;[844, 885, 926, 886, 927];[883, 923, 881, 921, 717, 672, -1]
885;884;2;0.0031843289035757877;24;Collection;[886, 927];[884, 883, 923, 881, 921, 717, 672, -1]
886;885;1;0.000691875;24;Collection;[];[885, 884, 883, 923, 881, 921, 717, 672, -1]
888;929;1;0.0009991506915176611;24;Collection;[];[929, 969, 968, 967, 966, 924, 923, 881, 921, 717, 672, -1]
889;929;2;0.0024684478857016886;24;Collection;[849, 809, 769];[929, 969, 968, 967, 966, 924, 923, 881, 921, 717, 672, -1]
890;930;2;0.002009126389230385;24;Collection;[850, 810];[930, 970, 969, 968, 967, 966, 924, 923, 881, 921, 717, 672, -1]
892;932;2;0.0010197102747689184;24;Collection;[852];[932, 972, 971, 970, 969, 968, 967, 966, 924, 923, 881, 921, 717, 672, -1]
893;933;1;0.0006226029258280503;24;Collection;[];[933, 973, 972, 971, 970, 969, 968, 967, 966, 924, 923, 881, 921, 717, 672, -1]
914;954;2;8.898963605830586e-05;26;Collection;[915, 956];[954, 953, 875, 921, 717, 672, -1]
915;914;1;2.52143781602321e-05;26;Collection;[];[914, 954, 953, 875, 921, 717, 672, -1]
916;875;2;0.0007526600527010024;23;Collection;[957, 958];[875, 921, 717, 672, -1]
917;875;1;8.347270618922369e-05;23;Collection;[];[875, 921, 717, 672, -1]
918;960;1;5.756668567357715e-05;26;Collection;[];[960, 1000, 1040, 1039, 1079, 1078, 1036, 994, 953, 875, 921, 717, 672, -1]
919;960;1;3.0993084996638694e-05;26;Collection;[];[960, 1000, 1040, 1039, 1079, 1078, 1036, 994, 953, 875, 921, 717, 672, -1]
923;881;2;0.03266262550753078;24;Collection;[883, 924, 843, 884, 925, 966, 844, 885, 926, 967, 886, 927, 968, 928, 969, 1010, 929, 970, 1011, 888, 889, 930, 971, 1012, 849, 890, 931, 972, 1013, 809, 850, 932, 973, 769, 810, 892, 933, 974, 852, 893, 934, 975, 1016, 976, 1017, 1058, 977, 1018, 1059, 1019];[881, 921, 717, 672, -1]
924;923;2;0.02418555056141978;24;Collection;[966, 967, 968, 928, 969, 1010, 929, 970, 1011, 888, 889, 930, 971, 1012, 849, 890, 931, 972, 1013, 809, 850, 932, 973, 769, 810, 892, 933, 974, 852, 893, 934, 975, 1016, 976, 1017, 1058, 977, 1018, 1059, 1019];[923, 881, 921, 717, 672, -1]
925;883;1;0.0007053749999999998;24;Collection;[];[883, 923, 881, 921, 717, 672, -1]
926;884;1;0.0007559999999999999;24;Collection;[];[884, 883, 923, 881, 921, 717, 672, -1]
927;885;1;0.0013078289035757878;24;Collection;[];[885, 884, 883, 923, 881, 921, 717, 672, -1]
928;968;1;0.0011701082647008543;24;Collection;[];[968, 967, 966, 924, 923, 881, 921, 717, 672, -1]
929;969;2;0.004272329556942979;24;Collection;[888, 889, 849, 809, 769];[969, 968, 967, 966, 924, 923, 881, 921, 717, 672, -1]
930;970;2;0.0032470859397734954;24;Collection;[890, 850, 810];[970, 969, 968, 967, 966, 924, 923, 881, 921, 717, 672, -1]
931;971;1;0.0006625525040596115;24;Collection;[];[971, 970, 969, 968, 967, 966, 924, 923, 881, 921, 717, 672, -1]
932;972;2;0.0020414798212503374;24;Collection;[892, 852];[972, 971, 970, 969, 968, 967, 966, 924, 923, 881, 921, 717, 672, -1]
933;973;2;0.0024382189733783504;24;Collection;[893, 934, 975, 976, 1017, 977, 1018, 1059, 1019];[973, 972, 971, 970, 969, 968, 967, 966, 924, 923, 881, 921, 717, 672, -1]
934;933;2;0.0005455113681637319;24;Collection;[976, 977, 1018, 1019];[933, 973, 972, 971, 970, 969, 968, 967, 966, 924, 923, 881, 921, 717, 672, -1]
938;937;2;0.0001406490029298182;25;Collection;[980];[937, 568, 562, 603, 602, 518, 517, 435, 354, 270, 389, 428, 510, 509, 550, 630, 672, -1]
954;953;2;0.0007739671554386786;26;Collection;[914, 955, 996, 915, 956];[953, 875, 921, 717, 672, -1]
955;954;1;4.039583782432811e-05;26;Collection;[];[954, 953, 875, 921, 717, 672, -1]
956;914;1;3.479081513782929e-05;26;Collection;[];[914, 954, 953, 875, 921, 717, 672, -1]
957;916;1;0.00012615728252537878;23;Collection;[];[916, 875, 921, 717, 672, -1]
958;916;1;0.0005939999999999999;23;Collection;[];[916, 875, 921, 717, 672, -1]
959;1000;1;7.322818059883546e-05;26;Collection;[];[1000, 1040, 1039, 1079, 1078, 1036, 994, 953, 875, 921, 717, 672, -1]
960;1000;2;0.0005454287838554857;26;Collection;[918, 919];[1000, 1040, 1039, 1079, 1078, 1036, 994, 953, 875, 921, 717, 672, -1]
962;921;1;3.4106853159786804e-05;24;Collection;[];[921, 717, 672, -1]
966;924;2;0.02322810875041019;24;Collection;[967, 968, 928, 969, 1010, 929, 970, 1011, 888, 889, 930, 971, 1012, 849, 890, 931, 972, 1013, 809, 850, 932, 973, 769, 810, 892, 933, 974, 852, 893, 934, 975, 1016, 976, 1017, 1058, 977, 1018, 1059, 1019];[924, 923, 881, 921, 717, 672, -1]
967;966;2;0.023083587222537925;24;Collection;[968, 928, 969, 1010, 929, 970, 1011, 888, 889, 930, 971, 1012, 849, 890, 931, 972, 1013, 809, 850, 932, 973, 769, 810, 892, 933, 974, 852, 893, 934, 975, 1016, 976, 1017, 1058, 977, 1018, 1059, 1019];[966, 924, 923, 881, 921, 717, 672, -1]
968;967;2;0.02260771222253792;24;Collection;[928, 969, 1010, 929, 970, 1011, 888, 889, 930, 971, 1012, 849, 890, 931, 972, 1013, 809, 850, 932, 973, 769, 810, 892, 933, 974, 852, 893, 934, 975, 1016, 976, 1017, 1058, 977, 1018, 1059, 1019];[967, 966, 924, 923, 881, 921, 717, 672, -1]
969;968;2;0.0204597624267155;24;Collection;[929, 970, 1011, 888, 889, 930, 971, 1012, 849, 890, 931, 972, 1013, 809, 850, 932, 973, 769, 810, 892, 933, 974, 852, 893, 934, 975, 1016, 976, 1017, 1058, 977, 1018, 1059, 1019];[968, 967, 966, 924, 923, 881, 921, 717, 672, -1]
970;969;2;0.014683684930805803;24;Collection;[930, 971, 1012, 890, 931, 972, 1013, 850, 932, 973, 810, 892, 933, 974, 852, 893, 934, 975, 1016, 976, 1017, 1058, 977, 1018, 1059, 1019];[969, 968, 967, 966, 924, 923, 881, 921, 717, 672, -1]
971;970;2;0.009322620059947103;24;Collection;[931, 972, 1013, 932, 973, 892, 933, 974, 852, 893, 934, 975, 1016, 976, 1017, 1058, 977, 1018, 1059, 1019];[970, 969, 968, 967, 966, 924, 923, 881, 921, 717, 672, -1]
972;971;2;0.00726881821127334;24;Collection;[932, 973, 892, 933, 974, 852, 893, 934, 975, 1016, 976, 1017, 1058, 977, 1018, 1059, 1019];[971, 970, 969, 968, 967, 966, 924, 923, 881, 921, 717, 672, -1]
973;972;2;0.003982644103362574;24;Collection;[933, 974, 893, 934, 975, 1016, 976, 1017, 1058, 977, 1018, 1059, 1019];[972, 971, 970, 969, 968, 967, 966, 924, 923, 881, 921, 717, 672, -1]
974;973;2;0.00045669900129867566;24;Collection;[1016, 1058];[973, 972, 971, 970, 969, 968, 967, 966, 924, 923, 881, 921, 717, 672, -1]
975;933;2;0.0004905475463276487;24;Collection;[1017, 1059];[933, 973, 972, 971, 970, 969, 968, 967, 966, 924, 923, 881, 921, 717, 672, -1]
976;934;2;0.0005332862989132089;24;Collection;[977, 1018, 1019];[934, 933, 973, 972, 971, 970, 969, 968, 967, 966, 924, 923, 881, 921, 717, 672, -1]
977;976;2;0.00031018072793849937;24;Collection;[1019];[976, 934, 933, 973, 972, 971, 970, 969, 968, 967, 966, 924, 923, 881, 921, 717, 672, -1]
978;937;2;0.0001694952101966475;25;Collection;[1020];[937, 568, 562, 603, 602, 518, 517, 435, 354, 270, 389, 428, 510, 509, 550, 630, 672, -1]
979;937;1;0.00015188667882185116;25;Collection;[];[937, 568, 562, 603, 602, 518, 517, 435, 354, 270, 389, 428, 510, 509, 550, 630, 672, -1]
980;938;1;2.8652883603556774e-05;25;Collection;[];[938, 937, 568, 562, 603, 602, 518, 517, 435, 354, 270, 389, 428, 510, 509, 550, 630, 672, -1]
993;953;2;0.003194515998746108;26;Collection;[1035, 1076, 1077, 1118, 1119, 1160];[953, 875, 921, 717, 672, -1]
994;953;2;0.015538603135690969;26;Collection;[1036, 1037, 1078, 1038, 1079, 1120, 997, 998, 1039, 1080, 1121, 999, 1040, 1081, 1122, 1163, 1000, 1041, 1082, 1123, 1164, 1205, 959, 960, 1001, 1083, 1124, 1165, 1247, 918, 919, 1043, 1084];[953, 875, 921, 717, 672, -1]
995;953;1;0.00034190187935435727;26;Collection;[];[953, 875, 921, 717, 672, -1]
996;954;1;0.0002769663056104341;26;Collection;[];[954, 953, 875, 921, 717, 672, -1]
997;1038;1;0.0005476295646516284;26;Collection;[];[1038, 1078, 1036, 994, 953, 875, 921, 717, 672, -1]
998;1038;1;0.0005300371936998665;26;Collection;[];[1038, 1078, 1036, 994, 953, 875, 921, 717, 672, -1]
999;1039;1;0.001400625;26;Collection;[];[1039, 1079, 1078, 1036, 994, 953, 875, 921, 717, 672, -1]
1000;1040;2;0.0007008746332546715;26;Collection;[959, 960, 918, 919];[1040, 1039, 1079, 1078, 1036, 994, 953, 875, 921, 717, 672, -1]
1001;1041;2;0.0018466932771072898;26;Collection;[1043];[1041, 1040, 1039, 1079, 1078, 1036, 994, 953, 875, 921, 717, 672, -1]
1010;968;1;0.00030854132300225543;24;Collection;[];[968, 967, 966, 924, 923, 881, 921, 717, 672, -1]
1011;969;1;0.0003232292307317299;24;Collection;[];[969, 968, 967, 966, 924, 923, 881, 921, 717, 672, -1]
1012;970;1;0.0007225759915201994;24;Collection;[];[970, 969, 968, 967, 966, 924, 923, 881, 921, 717, 672, -1]
1013;971;1;0.0007032789555310187;24;Collection;[];[971, 970, 969, 968, 967, 966, 924, 923, 881, 921, 717, 672, -1]
1016;974;2;0.00014014559940116224;24;Collection;[1058];[974, 973, 972, 971, 970, 969, 968, 967, 966, 924, 923, 881, 921, 717, 672, -1]
1017;975;2;0.00043908619677514733;24;Collection;[1059];[975, 933, 973, 972, 971, 970, 969, 968, 967, 966, 924, 923, 881, 921, 717, 672, -1]
1018;976;1;0.00015777063972679232;24;Collection;[];[976, 934, 933, 973, 972, 971, 970, 969, 968, 967, 966, 924, 923, 881, 921, 717, 672, -1]
1019;977;1;2.891215821049143e-05;24;Collection;[];[977, 976, 934, 933, 973, 972, 971, 970, 969, 968, 967, 966, 924, 923, 881, 921, 717, 672, -1]
1020;978;1;4.109723746562088e-05;25;Collection;[];[978, 937, 568, 562, 603, 602, 518, 517, 435, 354, 270, 389, 428, 510, 509, 550, 630, 672, -1]
1034;1033;1;0.00018663345454926684;27;Collection;[];[1033, 953, 875, 921, 717, 672, -1]
1035;993;2;0.0030946477826775012;26;Collection;[1076, 1077, 1118, 1119, 1160];[993, 953, 875, 921, 717, 672, -1]
1036;994;2;0.015306567711708971;26;Collection;[1037, 1078, 1038, 1079, 1120, 997, 998, 1039, 1080, 1121, 999, 1040, 1081, 1122, 1163, 1000, 1041, 1082, 1123, 1164, 1205, 959, 960, 1001, 1083, 1124, 1165, 1247, 918, 919, 1043, 1084];[994, 953, 875, 921, 717, 672, -1]
1037;1036;1;0.0004976462413386288;26;Collection;[];[1036, 994, 953, 875, 921, 717, 672, -1]
1038;1078;2;0.0013119294824959383;26;Collection;[997, 998];[1078, 1036, 994, 953, 875, 921, 717, 672, -1]
1039;1079;2;0.007142432501915362;26;Collection;[999, 1040, 1081, 1000, 1041, 1082, 959, 960, 1001, 1083, 918, 919, 1043];[1079, 1078, 1036, 994, 953, 875, 921, 717, 672, -1]
1040;1039;2;0.004840393565824927;26;Collection;[1000, 1041, 1082, 959, 960, 1001, 1083, 918, 919, 1043];[1039, 1079, 1078, 1036, 994, 953, 875, 921, 717, 672, -1]
1041;1040;2;0.00244144275032483;26;Collection;[1001, 1083, 1043];[1040, 1039, 1079, 1078, 1036, 994, 953, 875, 921, 717, 672, -1]
1043;1001;1;0.001451495519924033;26;Collection;[];[1001, 1041, 1040, 1039, 1079, 1078, 1036, 994, 953, 875, 921, 717, 672, -1]
1058;1016;1;5.428798519609656e-05;24;Collection;[];[1016, 974, 973, 972, 971, 970, 969, 968, 967, 966, 924, 923, 881, 921, 717, 672, -1]
1059;1017;1;0.00015976152212714183;24;Collection;[];[1017, 975, 933, 973, 972, 971, 970, 969, 968, 967, 966, 924, 923, 881, 921, 717, 672, -1]
1074;1033;2;0.0008738111370127164;27;Collection;[1115, 1116, 1156, 1157, 1158, 1197, 1198];[1033, 953, 875, 921, 717, 672, -1]
1075;1033;1;6.262970893391889e-05;27;Collection;[];[1033, 953, 875, 921, 717, 672, -1]
1076;1035;1;0.00021880115829339336;26;Collection;[];[1035, 993, 953, 875, 921, 717, 672, -1]
1077;1035;2;0.002656727290113739;26;Collection;[1118, 1119, 1160];[1035, 993, 953, 875, 921, 717, 672, -1]
1078;1036;2;0.014256953843682483;26;Collection;[1038, 1079, 1120, 997, 998, 1039, 1080, 1121, 999, 1040, 1081, 1122, 1163, 1000, 1041, 1082, 1123, 1164, 1205, 959, 960, 1001, 1083, 1124, 1165, 1247, 918, 919, 1043, 1084];[1036, 994, 953, 875, 921, 717, 672, -1]
1079;1078;2;0.011852938879347078;26;Collection;[1039, 1080, 1121, 999, 1040, 1081, 1122, 1163, 1000, 1041, 1082, 1123, 1164, 1205, 959, 960, 1001, 1083, 1124, 1165, 1247, 918, 919, 1043, 1084];[1078, 1036, 994, 953, 875, 921, 717, 672, -1]
1080;1079;2;0.0018605980033979726;26;Collection;[1122, 1123, 1164, 1124, 1165, 1084];[1079, 1078, 1036, 994, 953, 875, 921, 717, 672, -1]
1081;1039;1;0.0006604583396631387;26;Collection;[];[1039, 1079, 1078, 1036, 994, 953, 875, 921, 717, 672, -1]
1082;1040;1;0.0007351925931984672;26;Collection;[];[1040, 1039, 1079, 1078, 1036, 994, 953, 875, 921, 717, 672, -1]
1083;1041;1;0.000165375;26;Collection;[];[1041, 1040, 1039, 1079, 1078, 1036, 994, 953, 875, 921, 717, 672, -1]
1084;1124;1;2.2560287416672826e-05;26;Collection;[];[1124, 1123, 1122, 1080, 1079, 1078, 1036, 994, 953, 875, 921, 717, 672, -1]
1088;1087;1;0.0007204280407551075;28;Collection;[];[1087, 921, 717, 672, -1]
1115;1074;2;0.00036360330041024604;27;Collection;[1156, 1157, 1197, 1198];[1074, 1033, 953, 875, 921, 717, 672, -1]
1116;1074;2;0.0004885340916997074;27;Collection;[1158];[1074, 1033, 953, 875, 921, 717, 672, -1]
1118;1077;2;0.0012224822665801308;26;Collection;[1160];[1077, 1035, 993, 953, 875, 921, 717, 672, -1]
1119;1077;1;0.0010867499999999998;26;Collection;[];[1077, 1035, 993, 953, 875, 921, 717, 672, -1]
1120;1078;1;0.000651375;26;Collection;[];[1078, 1036, 994, 953, 875, 921, 717, 672, -1]
1121;1079;2;0.002484523413744826;26;Collection;[1163, 1205, 1247];[1079, 1078, 1036, 994, 953, 875, 921, 717, 672, -1]
1122;1080;2;0.0016440924629652631;26;Collection;[1123, 1164, 1124, 1165, 1084];[1080, 1079, 1078, 1036, 994, 953, 875, 921, 717, 672, -1]
1123;1122;2;0.0008813424629652635;26;Collection;[1124, 1165, 1084];[1122, 1080, 1079, 1078, 1036, 994, 953, 875, 921, 717, 672, -1]
1124;1123;2;0.0001336967782473387;26;Collection;[1084];[1123, 1122, 1080, 1079, 1078, 1036, 994, 953, 875, 921, 717, 672, -1]
1156;1115;2;0.00011256911074972334;27;Collection;[1197, 1198];[1115, 1074, 1033, 953, 875, 921, 717, 672, -1]
1157;1115;1;0.00023871394666244672;27;Collection;[];[1115, 1074, 1033, 953, 875, 921, 717, 672, -1]
1158;1116;1;0.0004763735136970539;27;Collection;[];[1116, 1074, 1033, 953, 875, 921, 717, 672, -1]
1159;1117;2;0.0018602759372827351;29;Collection;[1201];[1117, 1033, 953, 875, 921, 717, 672, -1]
1160;1118;1;0.00011210726658013073;26;Collection;[];[1118, 1077, 1035, 993, 953, 875, 921, 717, 672, -1]
1163;1121;2;0.0017960234137448258;26;Collection;[1205, 1247];[1121, 1079, 1078, 1036, 994, 953, 875, 921, 717, 672, -1]
1164;1122;1;0.000165375;26;Collection;[];[1122, 1080, 1079, 1078, 1036, 994, 953, 875, 921, 717, 672, -1]
1165;1123;1;1.1895684717924875e-05;26;Collection;[];[1123, 1122, 1080, 1079, 1078, 1036, 994, 953, 875, 921, 717, 672, -1]
1197;1156;1;1.2492512571508031e-05;27;Collection;[];[1156, 1115, 1074, 1033, 953, 875, 921, 717, 672, -1]
1198;1156;1;8.741288941181129e-05;27;Collection;[];[1156, 1115, 1074, 1033, 953, 875, 921, 717, 672, -1]
1199;1239;2;0.002087968738483817;35;Collection;[1200];[1239, 1279, 1319, 1318, 1282, 1244, 1162, 1161, 1117, 1033, 953, 875, 921, 717, 672, -1]
1200;1199;1;0.0014703437384838169;35;Collection;[];[1199, 1239, 1279, 1319, 1318, 1282, 1244, 1162, 1161, 1117, 1033, 953, 875, 921, 717, 672, -1]
1201;1159;1;0.0002381223832368778;29;Collection;[];[1159, 1117, 1033, 953, 875, 921, 717, 672, -1]
1204;1244;2;0.0010706142656054752;32;Collection;[1246];[1244, 1162, 1161, 1117, 1033, 953, 875, 921, 717, 672, -1]
1205;1163;2;0.0015085764336238853;26;Collection;[1247];[1163, 1121, 1079, 1078, 1036, 994, 953, 875, 921, 717, 672, -1]
1239;1279;2;0.0020997511136600067;35;Collection;[1199, 1200];[1279, 1319, 1318, 1282, 1244, 1162, 1161, 1117, 1033, 953, 875, 921, 717, 672, -1]
1240;1282;1;0.0008796911859905835;33;Collection;[];[1282, 1244, 1162, 1161, 1117, 1033, 953, 875, 921, 717, 672, -1]
1241;1282;1;0.0015537766107320725;33;Collection;[];[1282, 1244, 1162, 1161, 1117, 1033, 953, 875, 921, 717, 672, -1]
1245;1244;1;0.0010563262489802065;32;Collection;[];[1244, 1162, 1161, 1117, 1033, 953, 875, 921, 717, 672, -1]
1246;1204;1;0.0010235596622508857;32;Collection;[];[1204, 1244, 1162, 1161, 1117, 1033, 953, 875, 921, 717, 672, -1]
1247;1205;1;0.0007173697331568692;26;Collection;[];[1205, 1163, 1121, 1079, 1078, 1036, 994, 953, 875, 921, 717, 672, -1]
1260;1300;2;0.00289566225129042;34;Collection;[1261, 1302, 1262, 1303];[1300, 1299, 1298, 1297, 1335, 1453, 1409, 1244, 1162, 1161, 1117, 1033, 953, 875, 921, 717, 672, -1]
1261;1260;2;0.001433415721266592;34;Collection;[1262, 1303];[1260, 1300, 1299, 1298, 1297, 1335, 1453, 1409, 1244, 1162, 1161, 1117, 1033, 953, 875, 921, 717, 672, -1]
1262;1261;1;1.2746406958863138e-05;34;Collection;[];[1261, 1260, 1300, 1299, 1298, 1297, 1335, 1453, 1409, 1244, 1162, 1161, 1117, 1033, 953, 875, 921, 717, 672, -1]
1277;1318;1;0.0019894215582271393;35;Collection;[];[1318, 1282, 1244, 1162, 1161, 1117, 1033, 953, 875, 921, 717, 672, -1]
1278;1318;1;0.002803738952853928;35;Collection;[];[1318, 1282, 1244, 1162, 1161, 1117, 1033, 953, 875, 921, 717, 672, -1]
1279;1319;2;0.0033201247109768354;35;Collection;[1239, 1199, 1200];[1319, 1318, 1282, 1244, 1162, 1161, 1117, 1033, 953, 875, 921, 717, 672, -1]
1283;1282;2;0.009490881758882339;33;Collection;[1325, 1326];[1282, 1244, 1162, 1161, 1117, 1033, 953, 875, 921, 717, 672, -1]
1285;1244;1;0.0025536796947770177;32;Collection;[];[1244, 1162, 1161, 1117, 1033, 953, 875, 921, 717, 672, -1]
1286;1244;1;0.0012351112503811697;32;Collection;[];[1244, 1162, 1161, 1117, 1033, 953, 875, 921, 717, 672, -1]
1298;1297;2;0.017067818143985163;34;Collection;[1299, 1340, 1300, 1341, 1260, 1301, 1342, 1261, 1302, 1343, 1262, 1303];[1297, 1335, 1453, 1409, 1244, 1162, 1161, 1117, 1033, 953, 875, 921, 717, 672, -1]
1299;1298;2;0.01319862794987176;34;Collection;[1300, 1341, 1260, 1301, 1342, 1261, 1302, 1343, 1262, 1303];[1298, 1297, 1335, 1453, 1409, 1244, 1162, 1161, 1117, 1033, 953, 875, 921, 717, 672, -1]
1300;1299;2;0.0090823620284575;34;Collection;[1260, 1301, 1342, 1261, 1302, 1343, 1262, 1303];[1299, 1298, 1297, 1335, 1453, 1409, 1244, 1162, 1161, 1117, 1033, 953, 875, 921, 717, 672, -1]
1301;1300;2;0.002761334456454226;34;Collection;[1343];[1300, 1299, 1298, 1297, 1335, 1453, 1409, 1244, 1162, 1161, 1117, 1033, 953, 875, 921, 717, 672, -1]
1302;1260;1;0.0014322149299615013;34;Collection;[];[1260, 1300, 1299, 1298, 1297, 1335, 1453, 1409, 1244, 1162, 1161, 1117, 1033, 953, 875, 921, 717, 672, -1]
1303;1261;1;0.0013955291296143474;34;Collection;[];[1261, 1260, 1300, 1299, 1298, 1297, 1335, 1453, 1409, 1244, 1162, 1161, 1117, 1033, 953, 875, 921, 717, 672, -1]
1319;1318;2;0.004802415322091943;35;Collection;[1279, 1239, 1199, 1200];[1318, 1282, 1244, 1162, 1161, 1117, 1033, 953, 875, 921, 717, 672, -1]
1324;1282;1;0.0012366112539214454;33;Collection;[];[1282, 1244, 1162, 1161, 1117, 1033, 953, 875, 921, 717, 672, -1]
1325;1283;2;0.006629886684227577;33;Collection;[1326];[1283, 1282, 1244, 1162, 1161, 1117, 1033, 953, 875, 921, 717, 672, -1]
1326;1325;1;0.0013392929466268866;33;Collection;[];[1325, 1283, 1282, 1244, 1162, 1161, 1117, 1033, 953, 875, 921, 717, 672, -1]
1336;1335;1;0.0007045554314250687;36;Collection;[];[1335, 1453, 1409, 1244, 1162, 1161, 1117, 1033, 953, 875, 921, 717, 672, -1]
1338;1297;1;0.0006667004782428517;34;Collection;[];[1297, 1335, 1453, 1409, 1244, 1162, 1161, 1117, 1033, 953, 875, 921, 717, 672, -1]
1339;1297;2;0.0021100743634000227;34;Collection;[1381];[1297, 1335, 1453, 1409, 1244, 1162, 1161, 1117, 1033, 953, 875, 921, 717, 672, -1]
1340;1298;1;0.002456523173125521;34;Collection;[];[1298, 1297, 1335, 1453, 1409, 1244, 1162, 1161, 1117, 1033, 953, 875, 921, 717, 672, -1]
1341;1299;1;0.00271233178058167;34;Collection;[];[1299, 1298, 1297, 1335, 1453, 1409, 1244, 1162, 1161, 1117, 1033, 953, 875, 921, 717, 672, -1]
1342;1300;1;0.0019966895963849252;34;Collection;[];[1300, 1299, 1298, 1297, 1335, 1453, 1409, 1244, 1162, 1161, 1117, 1033, 953, 875, 921, 717, 672, -1]
1343;1301;1;0.0013743112776820083;34;Collection;[];[1301, 1300, 1299, 1298, 1297, 1335, 1453, 1409, 1244, 1162, 1161, 1117, 1033, 953, 875, 921, 717, 672, -1]
1381;1339;1;0.0007094863929191322;34;Collection;[];[1339, 1297, 1335, 1453, 1409, 1244, 1162, 1161, 1117, 1033, 953, 875, 921, 717, 672, -1]
1410;1409;1;0.0012885451590840564;37;Collection;[];[1409, 1244, 1162, 1161, 1117, 1033, 953, 875, 921, 717, 672, -1]
1411;1453;1;0.0013263782339727936;38;Collection;[];[1453, 1409, 1244, 1162, 1161, 1117, 1033, 953, 875, 921, 717, 672, -1]
630;672;2;0.07510261485867945;0;Trunk;[550, 589, 590, 631, 671, 509, 549, 591, 632, 673, 508, 510, 551, 592, 633, 674, 428, 511, 552, 593, 634, 675, 389, 469, 470, 512, 553, 594, 270, 390, 471, 513, 554, 595, 228, 230, 269, 311, 354, 472, 514, 555, 596, 352, 394, 395, 396, 435, 473, 515, 556, 597, 637, 638, 436, 437, 397, 438, 477, 517, 474, 557, 677, 598, 639, 679, 680, 398, 439, 478, 479, 480, 518, 434, 516, 676, 719, 599, 640, 681, 721, 722, 357, 399, 440, 481, 602, 476, 760, 761, 600, 641, 682, 723, 763, 764, 441, 603, 644, 803, 558, 559, 560, 601, 642, 683, 724, 765, 805, 806, 401, 442, 483, 562, 645, 686, 643, 684, 725, 766, 807, 847, 848, 520, 521, 522, 561, 563, 568, 604, 687, 728, 685, 726, 767, 808, 482, 519, 523, 564, 605, 403, 526, 567, 608, 609, 937, 646, 729, 727, 768, 524, 565, 606, 159, 404, 648, 649, 650, 938, 978, 979, 688, 484, 525, 566, 607, 199, 200, 201, 689, 980, 1020, 485, 647, 239, 240, 241];[672, -1]
717;672;2;0.1357789308885476;0;Trunk;[718, 921, 678, 875, 881, 962, 1087, 720, 835, 876, 916, 917, 953, 840, 841, 882, 923, 1088, 762, 795, 836, 877, 957, 958, 954, 993, 994, 995, 1033, 799, 800, 801, 842, 883, 924, 804, 914, 955, 996, 1035, 1036, 1034, 1074, 1075, 1117, 757, 758, 802, 843, 884, 925, 966, 846, 915, 956, 1076, 1077, 1037, 1078, 1115, 1116, 1159, 1161, 716, 844, 885, 926, 967, 1118, 1119, 1038, 1079, 1120, 1156, 1157, 1158, 1201, 1162, 886, 927, 968, 1160, 997, 998, 1039, 1080, 1121, 1197, 1198, 1244, 928, 969, 1010, 999, 1040, 1081, 1122, 1163, 1204, 1245, 1282, 1285, 1286, 1409, 929, 970, 1011, 1000, 1041, 1082, 1123, 1164, 1205, 1246, 1240, 1241, 1283, 1318, 1324, 1410, 1453, 888, 889, 930, 971, 1012, 959, 960, 1001, 1083, 1124, 1165, 1247, 1325, 1277, 1278, 1319, 1335, 1411, 849, 890, 931, 972, 1013, 918, 919, 1043, 1084, 1326, 1279, 1297, 1336, 809, 850, 932, 973, 1239, 1298, 1338, 1339, 769, 810, 892, 933, 974, 1199, 1299, 1340, 1381, 852, 893, 934, 975, 1016, 1200, 1300, 1341, 976, 1017, 1058, 1260, 1301, 1342, 977, 1018, 1059, 1261, 1302, 1343, 1019, 1262, 1303];[672, -1]
550;630;2;0.035876759062799184;0;Trunk;[509, 508, 510, 428, 389, 469, 470, 270, 390, 471, 228, 230, 269, 311, 354, 472, 352, 394, 395, 396, 435, 473, 436, 437, 397, 438, 477, 517, 474, 398, 439, 478, 479, 480, 518, 434, 516, 357, 399, 440, 481, 602, 476, 441, 603, 644, 401, 442, 483, 562, 645, 686, 520, 521, 522, 561, 563, 568, 604, 687, 728, 482, 519, 523, 564, 605, 403, 526, 567, 608, 609, 937, 646, 729, 524, 565, 606, 159, 404, 648, 649, 650, 938, 978, 979, 688, 484, 525, 566, 607, 199, 200, 201, 689, 980, 1020, 485, 647, 239, 240, 241];[630, 672, -1]
718;717;2;0.003953133452012436;0;Trunk;[678, 720, 762, 804, 846];[717, 672, -1]
921;717;2;0.13131617243653518;0;Trunk;[875, 881, 962, 1087, 835, 876, 916, 917, 953, 840, 841, 882, 923, 1088, 795, 836, 877, 957, 958, 954, 993, 994, 995, 1033, 799, 800, 801, 842, 883, 924, 914, 955, 996, 1035, 1036, 1034, 1074, 1075, 1117, 757, 758, 802, 843, 884, 925, 966, 915, 956, 1076, 1077, 1037, 1078, 1115, 1116, 1159, 1161, 716, 844, 885, 926, 967, 1118, 1119, 1038, 1079, 1120, 1156, 1157, 1158, 1201, 1162, 886, 927, 968, 1160, 997, 998, 1039, 1080, 1121, 1197, 1198, 1244, 928, 969, 1010, 999, 1040, 1081, 1122, 1163, 1204, 1245, 1282, 1285, 1286, 1409, 929, 970, 1011, 1000, 1041, 1082, 1123, 1164, 1205, 1246, 1240, 1241, 1283, 1318, 1324, 1410, 1453, 888, 889, 930, 971, 1012, 959, 960, 1001, 1083, 1124, 1165, 1247, 1325, 1277, 1278, 1319, 1335, 1411, 849, 890, 931, 972, 1013, 918, 919, 1043, 1084, 1326, 1279, 1297, 1336, 809, 850, 932, 973, 1239, 1298, 1338, 1339, 769, 810, 892, 933, 974, 1199, 1299, 1340, 1381, 852, 893, 934, 975, 1016, 1200, 1300, 1341, 976, 1017, 1058, 1260, 1301, 1342, 977, 1018, 1059, 1261, 1302, 1343, 1019, 1262, 1303];[717, 672, -1]
509;550;2;0.03580407700066968;0;Trunk;[508, 510, 428, 389, 469, 470, 270, 390, 471, 228, 230, 269, 311, 354, 472, 352, 394, 395, 396, 435, 473, 436, 437, 397, 438, 477, 517, 474, 398, 439, 478, 479, 480, 518, 434, 516, 357, 399, 440, 481, 602, 476, 441, 603, 644, 401, 442, 483, 562, 645, 686, 520, 521, 522, 561, 563, 568, 604, 687, 728, 482, 519, 523, 564, 605, 403, 526, 567, 608, 609, 937, 646, 729, 524, 565, 606, 159, 404, 648, 649, 650, 938, 978, 979, 688, 484, 525, 566, 607, 199, 200, 201, 689, 980, 1020, 485, 647, 239, 240, 241];[550, 630, 672, -1]
678;718;2;0.003889268117333035;0;Trunk;[720, 762, 804, 846];[718, 717, 672, -1]
875;921;2;0.09019095096880662;0;Trunk;[835, 876, 916, 917, 953, 795, 836, 877, 957, 958, 954, 993, 994, 995, 1033, 914, 955, 996, 1035, 1036, 1034, 1074, 1075, 1117, 915, 956, 1076, 1077, 1037, 1078, 1115, 1116, 1159, 1161, 1118, 1119, 1038, 1079, 1120, 1156, 1157, 1158, 1201, 1162, 1160, 997, 998, 1039, 1080, 1121, 1197, 1198, 1244, 999, 1040, 1081, 1122, 1163, 1204, 1245, 1282, 1285, 1286, 1409, 1000, 1041, 1082, 1123, 1164, 1205, 1246, 1240, 1241, 1283, 1318, 1324, 1410, 1453, 959, 960, 1001, 1083, 1124, 1165, 1247, 1325, 1277, 1278, 1319, 1335, 1411, 918, 919, 1043, 1084, 1326, 1279, 1297, 1336, 1239, 1298, 1338, 1339, 1199, 1299, 1340, 1381, 1200, 1300, 1341, 1260, 1301, 1342, 1261, 1302, 1343, 1262, 1303];[921, 717, 672, -1]
1087;921;2;0.0013646516423136558;0;Trunk;[1088];[921, 717, 672, -1]
508;509;1;1.2092891036525312e-05;0;Trunk;[];[509, 550, 630, 672, -1]
510;509;2;0.035760581344344435;0;Trunk;[428, 389, 469, 470, 270, 390, 471, 228, 230, 269, 311, 354, 472, 352, 394, 395, 396, 435, 473, 436, 437, 397, 438, 477, 517, 474, 398, 439, 478, 479, 480, 518, 434, 516, 357, 399, 440, 481, 602, 476, 441, 603, 644, 401, 442, 483, 562, 645, 686, 520, 521, 522, 561, 563, 568, 604, 687, 728, 482, 519, 523, 564, 605, 403, 526, 567, 608, 609, 937, 646, 729, 524, 565, 606, 159, 404, 648, 649, 650, 938, 978, 979, 688, 484, 525, 566, 607, 199, 200, 201, 689, 980, 1020, 485, 647, 239, 240, 241];[509, 550, 630, 672, -1]
953;875;2;0.08699520971887359;0;Trunk;[954, 993, 994, 995, 1033, 914, 955, 996, 1035, 1036, 1034, 1074, 1075, 1117, 915, 956, 1076, 1077, 1037, 1078, 1115, 1116, 1159, 1161, 1118, 1119, 1038, 1079, 1120, 1156, 1157, 1158, 1201, 1162, 1160, 997, 998, 1039, 1080, 1121, 1197, 1198, 1244, 999, 1040, 1081, 1122, 1163, 1204, 1245, 1282, 1285, 1286, 1409, 1000, 1041, 1082, 1123, 1164, 1205, 1246, 1240, 1241, 1283, 1318, 1324, 1410, 1453, 959, 960, 1001, 1083, 1124, 1165, 1247, 1325, 1277, 1278, 1319, 1335, 1411, 918, 919, 1043, 1084, 1326, 1279, 1297, 1336, 1239, 1298, 1338, 1339, 1199, 1299, 1340, 1381, 1200, 1300, 1341, 1260, 1301, 1342, 1261, 1302, 1343, 1262, 1303];[875, 921, 717, 672, -1]
428;510;2;0.03565440427427118;0;Trunk;[389, 469, 470, 270, 390, 471, 228, 230, 269, 311, 354, 472, 352, 394, 395, 396, 435, 473, 436, 437, 397, 438, 477, 517, 474, 398, 439, 478, 479, 480, 518, 434, 516, 357, 399, 440, 481, 602, 476, 441, 603, 644, 401, 442, 483, 562, 645, 686, 520, 521, 522, 561, 563, 568, 604, 687, 728, 482, 519, 523, 564, 605, 403, 526, 567, 608, 609, 937, 646, 729, 524, 565, 606, 159, 404, 648, 649, 650, 938, 978, 979, 688, 484, 525, 566, 607, 199, 200, 201, 689, 980, 1020, 485, 647, 239, 240, 241];[510, 509, 550, 630, 672, -1]
1033;953;2;0.06711880692138374;0;Trunk;[1034, 1074, 1075, 1117, 1115, 1116, 1159, 1161, 1156, 1157, 1158, 1201, 1162, 1197, 1198, 1244, 1204, 1245, 1282, 1285, 1286, 1409, 1246, 1240, 1241, 1283, 1318, 1324, 1410, 1453, 1325, 1277, 1278, 1319, 1335, 1411, 1326, 1279, 1297, 1336, 1239, 1298, 1338, 1339, 1199, 1299, 1340, 1381, 1200, 1300, 1341, 1260, 1301, 1342, 1261, 1302, 1343, 1262, 1303];[953, 875, 921, 717, 672, -1]
389;428;2;0.033875255675867216;0;Trunk;[270, 390, 228, 230, 269, 311, 354, 352, 394, 395, 396, 435, 436, 437, 397, 438, 477, 517, 398, 439, 478, 479, 480, 518, 357, 399, 440, 481, 602, 441, 603, 644, 401, 442, 483, 562, 645, 686, 520, 521, 522, 561, 563, 568, 604, 687, 728, 482, 519, 523, 564, 605, 403, 526, 567, 608, 609, 937, 646, 729, 524, 565, 606, 159, 404, 648, 649, 650, 938, 978, 979, 688, 484, 525, 566, 607, 199, 200, 201, 689, 980, 1020, 485, 647, 239, 240, 241];[428, 510, 509, 550, 630, 672, -1]
1117;1033;2;0.06594291725991551;0;Trunk;[1159, 1161, 1201, 1162, 1244, 1204, 1245, 1282, 1285, 1286, 1409, 1246, 1240, 1241, 1283, 1318, 1324, 1410, 1453, 1325, 1277, 1278, 1319, 1335, 1411, 1326, 1279, 1297, 1336, 1239, 1298, 1338, 1339, 1199, 1299, 1340, 1381, 1200, 1300, 1341, 1260, 1301, 1342, 1261, 1302, 1343, 1262, 1303];[1033, 953, 875, 921, 717, 672, -1]
270;389;2;0.032548972672933205;0;Trunk;[228, 230, 269, 311, 354, 352, 394, 395, 396, 435, 436, 437, 397, 438, 477, 517, 398, 439, 478, 479, 480, 518, 357, 399, 440, 481, 602, 441, 603, 644, 401, 442, 483, 562, 645, 686, 520, 521, 522, 561, 563, 568, 604, 687, 728, 482, 519, 523, 564, 605, 403, 526, 567, 608, 609, 937, 646, 729, 524, 565, 606, 159, 404, 648, 649, 650, 938, 978, 979, 688, 484, 525, 566, 607, 199, 200, 201, 689, 980, 1020, 485, 647, 239, 240, 241];[389, 428, 510, 509, 550, 630, 672, -1]
1161;1117;2;0.06384241354283969;0;Trunk;[1162, 1244, 1204, 1245, 1282, 1285, 1286, 1409, 1246, 1240, 1241, 1283, 1318, 1324, 1410, 1453, 1325, 1277, 1278, 1319, 1335, 1411, 1326, 1279, 1297, 1336, 1239, 1298, 1338, 1339, 1199, 1299, 1340, 1381, 1200, 1300, 1341, 1260, 1301, 1342, 1261, 1302, 1343, 1262, 1303];[1117, 1033, 953, 875, 921, 717, 672, -1]
354;270;2;0.031334586976144975;0;Trunk;[394, 395, 396, 435, 436, 437, 397, 438, 477, 517, 398, 439, 478, 479, 480, 518, 357, 399, 440, 481, 602, 441, 603, 644, 401, 442, 483, 562, 645, 686, 520, 521, 522, 561, 563, 568, 604, 687, 728, 482, 519, 523, 564, 605, 403, 526, 567, 608, 609, 937, 646, 729, 524, 565, 606, 159, 404, 648, 649, 650, 938, 978, 979, 688, 484, 525, 566, 607, 199, 200, 201, 689, 980, 1020, 485, 647, 239, 240, 241];[270, 389, 428, 510, 509, 550, 630, 672, -1]
1162;1161;2;0.06338678854283969;0;Trunk;[1244, 1204, 1245, 1282, 1285, 1286, 1409, 1246, 1240, 1241, 1283, 1318, 1324, 1410, 1453, 1325, 1277, 1278, 1319, 1335, 1411, 1326, 1279, 1297, 1336, 1239, 1298, 1338, 1339, 1199, 1299, 1340, 1381, 1200, 1300, 1341, 1260, 1301, 1342, 1261, 1302, 1343, 1262, 1303];[1161, 1117, 1033, 953, 875, 921, 717, 672, -1]
435;354;2;0.025884818067277576;0;Trunk;[477, 517, 518, 602, 603, 644, 562, 645, 686, 520, 521, 522, 561, 563, 568, 604, 687, 728, 482, 519, 523, 564, 605, 403, 526, 567, 608, 609, 937, 646, 729, 524, 565, 606, 159, 404, 648, 649, 650, 938, 978, 979, 688, 484, 525, 566, 607, 199, 200, 201, 689, 980, 1020, 485, 647, 239, 240, 241];[354, 270, 389, 428, 510, 509, 550, 630, 672, -1]
1244;1162;2;0.06334570623399866;0;Trunk;[1204, 1245, 1282, 1285, 1286, 1409, 1246, 1240, 1241, 1283, 1318, 1324, 1410, 1453, 1325, 1277, 1278, 1319, 1335, 1411, 1326, 1279, 1297, 1336, 1239, 1298, 1338, 1339, 1199, 1299, 1340, 1381, 1200, 1300, 1341, 1260, 1301, 1342, 1261, 1302, 1343, 1262, 1303];[1162, 1161, 1117, 1033, 953, 875, 921, 717, 672, -1]
517;435;2;0.024721910334786924;0;Trunk;[518, 602, 603, 644, 562, 645, 686, 520, 521, 522, 561, 563, 568, 604, 687, 728, 482, 519, 523, 564, 605, 403, 526, 567, 608, 609, 937, 646, 729, 524, 565, 606, 159, 404, 648, 649, 650, 938, 978, 979, 688, 484, 525, 566, 607, 199, 200, 201, 689, 980, 1020, 485, 647, 239, 240, 241];[435, 354, 270, 389, 428, 510, 509, 550, 630, 672, -1]
1282;1244;2;0.025483073223315805;0;Trunk;[1240, 1241, 1283, 1318, 1324, 1325, 1277, 1278, 1319, 1326, 1279, 1239, 1199, 1200];[1244, 1162, 1161, 1117, 1033, 953, 875, 921, 717, 672, -1]
1409;1244;2;0.03160370946542711;0;Trunk;[1410, 1453, 1335, 1411, 1297, 1336, 1298, 1338, 1339, 1299, 1340, 1381, 1300, 1341, 1260, 1301, 1342, 1261, 1302, 1343, 1262, 1303];[1244, 1162, 1161, 1117, 1033, 953, 875, 921, 717, 672, -1]
518;517;2;0.02417311314084655;0;Trunk;[602, 603, 644, 562, 645, 686, 520, 521, 522, 561, 563, 568, 604, 687, 728, 482, 519, 523, 564, 605, 403, 526, 567, 608, 609, 937, 646, 729, 524, 565, 606, 159, 404, 648, 649, 650, 938, 978, 979, 688, 484, 525, 566, 607, 199, 200, 201, 689, 980, 1020, 485, 647, 239, 240, 241];[517, 435, 354, 270, 389, 428, 510, 509, 550, 630, 672, -1]
1318;1282;2;0.010916426499034824;0;Trunk;[1277, 1278, 1319, 1279, 1239, 1199, 1200];[1282, 1244, 1162, 1161, 1117, 1033, 953, 875, 921, 717, 672, -1]
1453;1409;2;0.028907425933295282;0;Trunk;[1335, 1411, 1297, 1336, 1298, 1338, 1339, 1299, 1340, 1381, 1300, 1341, 1260, 1301, 1342, 1261, 1302, 1343, 1262, 1303];[1409, 1244, 1162, 1161, 1117, 1033, 953, 875, 921, 717, 672, -1]
602;518;2;0.023597572168167488;0;Trunk;[603, 644, 562, 645, 686, 520, 521, 522, 561, 563, 568, 604, 687, 728, 482, 519, 523, 564, 605, 403, 526, 567, 608, 609, 937, 646, 729, 524, 565, 606, 159, 404, 648, 649, 650, 938, 978, 979, 688, 484, 525, 566, 607, 199, 200, 201, 689, 980, 1020, 485, 647, 239, 240, 241];[518, 517, 435, 354, 270, 389, 428, 510, 509, 550, 630, 672, -1]
1335;1453;2;0.02335366884404047;0;Trunk;[1297, 1336, 1298, 1338, 1339, 1299, 1340, 1381, 1300, 1341, 1260, 1301, 1342, 1261, 1302, 1343, 1262, 1303];[1453, 1409, 1244, 1162, 1161, 1117, 1033, 953, 875, 921, 717, 672, -1]
603;602;2;0.02074341556402797;0;Trunk;[562, 645, 520, 521, 522, 561, 563, 568, 604, 482, 519, 523, 564, 605, 403, 526, 567, 608, 609, 937, 646, 524, 565, 606, 159, 404, 648, 649, 650, 938, 978, 979, 688, 484, 525, 566, 607, 199, 200, 201, 689, 980, 1020, 485, 647, 239, 240, 241];[602, 518, 517, 435, 354, 270, 389, 428, 510, 509, 550, 630, 672, -1]
1297;1335;2;0.02122754862528949;0;Trunk;[1298, 1338, 1339, 1299, 1340, 1381, 1300, 1341, 1260, 1301, 1342, 1261, 1302, 1343, 1262, 1303];[1335, 1453, 1409, 1244, 1162, 1161, 1117, 1033, 953, 875, 921, 717, 672, -1]
562;603;2;0.01941816135252921;0;Trunk;[520, 521, 522, 561, 563, 568, 604, 482, 519, 523, 564, 605, 403, 526, 567, 608, 609, 937, 646, 524, 565, 606, 159, 404, 648, 649, 650, 938, 978, 979, 688, 484, 525, 566, 607, 199, 200, 201, 689, 980, 1020, 485, 647, 239, 240, 241];[603, 602, 518, 517, 435, 354, 270, 389, 428, 510, 509, 550, 630, 672, -1]
568;562;2;0.008480340628835658;0;Trunk;[403, 526, 567, 608, 609, 937, 159, 404, 648, 649, 650, 938, 978, 979, 199, 200, 201, 689, 980, 1020, 239, 240, 241];[562, 603, 602, 518, 517, 435, 354, 270, 389, 428, 510, 509, 550, 630, 672, -1]
403;568;2;0.0016451538121972035;0;Trunk;[159, 404, 199, 200, 201, 239, 240, 241];[568, 562, 603, 602, 518, 517, 435, 354, 270, 389, 428, 510, 509, 550, 630, 672, -1]
937;568;2;0.0005071204832634192;0;Trunk;[938, 978, 979, 980, 1020];[568, 562, 603, 602, 518, 517, 435, 354, 270, 389, 428, 510, 509, 550, 630, 672, -1]
159;403;2;0.0003389492917785813;0;Trunk;[199, 200, 201, 239, 240, 241];[403, 568, 562, 603, 602, 518, 517, 435, 354, 270, 389, 428, 510, 509, 550, 630, 672, -1]
